絪腹,跋琿竚,簿锣縩キよそへ,ㄏノだ跋┪絪﹚
RPOPMLMJNHLFFBF87CC,嘲琿,.00,常カ
RPQPMLMJNHLFFBF08CC,穝狶琿,25.64,常カ
RPRPMLMJNHLFFBF18CC,き琿,.00,常カㄤ
RPUPMLMJNHLFFBF48CC,嘲琿,.00,常カ
RPVNMLMJNHLFFHF98CC,チ獀琿,.00,常カ坝
RPTOMLMJNHLFFHF88CC,琿,.01,常カ
RPTOMLMJNHLFFHF88CC,琿,14.68,常カ
RPTOMLMJNHLFFHF88CC,琿,.01,常カ
RPVOMLNJNHLFFHF56CC,春褐琿,.00,常カ
RPUOMLNJNHLFFBF48CC,瑆琿,.00,常カ
RPVOMLNJNHLFFBF58CC,い港琿,.00,常カ
RPQPMLNJNHLFFBF18CC,瓣琿,20.96,常カ
RPUPMLNJNHLFFBF58CC,︽琿,8.41,常カ
RPVPMLNJNHLFFBF68CC,穝琿琿,26.00,獶常カ穨跋 ; 獶常カ絪﹚贺縱ノ
RPWPMLNJNHLFFBF78CC,砍て琿,43.99,常カ
RPOQMLNJNHLFFBF08CC,穝琿琿,25.88,獶常カ穨跋 ; 獶常カ絪﹚贺縱ノ
RPSOMLNJNHLFFAF18CC,ざ关琿,.00,常カ坝
RPTOMLNJNHLFFIF09CC,く琿,58.99,常カ
RPVOMLNJNHLFFAF68EC,籄琿穝瓾琿,27.36,常カ
RPWOMLNJNHLFFAF78EC,琿,50.01,常カ
RPXOMLNJNHLFFAF88EC,チ舦琿,21.25,常カ
RPOPMLNJNHLFFAF08EC,琿,54.23,常カ
RPUNMLNJNHLFFCF68EC,吏猠琿,8.06,常カ
RPUNMLNJNHLFFCF68EC,吏猠琿,.01,常カㄤ
RPQOMLNJNHLFFHF88EC,胺眃琿,58.31,常カ
RPSNMLOJNHLFFHF09EC,倍笲琿,13.08,常カㄤ
RPTOMLOJNHLFFHF66EC,贾琿,.00,常カ坝
RPWOMLOJNHLFFAF88EC,ゅて琿,.00,常カ
RPSPMLOJNHLFFBF58DC,瓣琿,21.97,常カ
RPPOMLOJNHLFFAF97CC,ゅて琿,29.54,常カ
RPQOMLOJNHLFFAF08CC,㎝琿,41.39,常カ
RPPNMLOJNHLFFDF18CC,醇砍琿,.00,常カ
RPQNMLOJNHLFFDF28CC,醇砍琿,.00,常カ
RPSNMLOJNHLFFDF48CC,吏猠琿,171.90,常カ坝
RPRNMLOJNHLFFBF18CC,瓣琿,5.55,常カ
RPVNMLOJNHLFFBF58CC,蛮获琿,33.02,常カ
RPVNMLOJNHLFFBF58CC,蛮获琿,.06,常カ
RPVOMLOJNHLFFBF68CC,瑆琿,14.08,常カ
RPOPMLOJNHLFFBF08CC,眘琿,44.46,常カ
RPPPMLOJNHLFFBF18CC,瑆琿,20.28,常カ
RPQPMLOJNHLFFBF28CC,Θ琿,37.49,常カ
RPXPMLOJNHLFFBF98CC,き琿胋傪琿,1550.00,常カㄤ
RPVRMLOJNHLFFBF98CC,紈琿,.00,常カ
RPWRMLOJNHLFFBF09CC,Θ莫琿,27.92,常カ
RPXRMLOJNHLFFBF56CC,瑆琿,1902.79,常カ
RPXNMLOJNHLFFEF09CC,そバ琿,43.59,常カㄤ
RPXNMLOJNHLFFGF66CC,Τ琿,.00,常カ
RPRNMLPJNHLFFGF78CC,い砍琿,.00,常カ
RPWOMLPJNHLFFGF76CC,い砍琿,.00,常カ
RPQNMLPJNHLFFCF28CC,チ舦琿,.00,常カ
RPPOMLPJNHLFFEF48CC,琶琿,.00,常カ
RPSNMLPJNHLFFHF98CC,倍笲琿,7.80,常カㄤ
RPVNMLPJNHLFFHF66CC,褐不琿,.00,常カ坝
RPPOMLPJNHLFFHF78CC,い琿,.00,常カ
RPXOMLPJNHLFFDF56CC,纒琿,13.66,常カㄤ
RPXOMLPJNHLFFDF56CC,纒琿,15.85,獶常カ℡玂▅跋 ; 獶常カ絪﹚贺縱ノ
RPXOMLPJNHLFFDF56CC,纒琿,3.29,常カㄤ
RPXOMLPJNHLFFDF56CC,纒琿,2.57,常カㄤ
RPPNMLPJNHLFFAF97CC,┋褐琿,32.40,常カ
RPQOMLPJNHLFFAF18CC,ゅて琿,.00,常カ
RPVOMLPJNHLFFDF56EC,玂琿,5.38,常カ
RPWOMLPJNHLFFDF66EC,玂琿,8.36,常カ
RPOPMLPJNHLFFDF58EC,玂琿,6.31,常カ
RPRNMLPJNHLFFIF98CC,厩琿琿,30.65,常カ
RPSNMLPJNHLFFIF09CC,チネ琿,3.80,常カ
RPTNMLPJNHLFFIF56CC,㎝キ琿,13.23,常カㄤ
RPROMLQJNHLFFIF56CC,チネ琿,2.53,常カ
RPWNMLQJNHLFFDF66EC,玂琿,6.64,常カ
RPXNMLQJNHLFFDF76EC,玂琿,3.91,常カ
RPTNMLQJNHLFFGF66EC,褐紈琿,.00,常カ坝
RPVOMLQJNHLFFAF78CC,籄琿材畆琿,.00,常カ
RPOOMLQJNHLFFBF18CC,瓣琿,22.60,常カ
RPSPMLQJNHLFFBF68CC,狶琿,17.94,常カ
RPTQMLQJNHLFFBF88CC,い琿,35.97,常カ坝
RPROMLQJNHLFFHF09CC,ッキ琿,10.89,常カ
RPROMLQJNHLFFHF09CC,ッキ琿,.01,常カㄤ
RPROMLQJNHLFFEF78CC,琿,.45,常カ
RPRPMLQJNHLFFEF88CC,そバ琿,43.59,常カ
RPSPMLQJNHLFFEF98CC,λ瞅琿,8.71,常カ
RPQOMLQJNHLFFCF48CC,缠穛琿,.00,常カ
RPQOMLQJNHLFFCF48CC,缠穛琿,.00,常カ
RPUNMLQJNHLFFGF56CC,ッ紈琿,.00,獶常カ ; 獶常カ絪﹚
RPPNMLRJNHLFFDF48CC,醇砍琿,.00,常カ坝
RPPNMLTJNHLFFDF68CC,醇砍琿,.00,常カ坝
RPQOMLTJNHLFFAF58CC,ゅて琿,.00,常カ
RPOPMLTJNHLFFBF58CC,篴碔琿,.00,常カ
RPQPMLTJNHLFFBF78CC,いタ琿,.00,常カ
RPTPMLTJNHLFFBF09CC,チ琿,23.58,常カ
RPPQMLTJNHLFFBF78CC,瓣琿,22.69,常カ
RPRQMLTJNHLFFBF98CC,腞狶琿,20.69,常カ坝
RPPNMLTJNHLFFCF58CC,確砍琿,.00,常カ
RPOOMLTJNHLFFCF58CC,蛮琿,33.47,常カ
RPPPMLTJNHLFFEF98CC,ぱ琿,.02,常カ
RPPPMLTJNHLFFEF98CC,ぱ琿,.00,常カ
RPPPMLTJNHLFFEF98CC,ぱ琿,2.33,常カ
RPPPMLTJNHLFFEF98CC,ぱ琿,.17,常カ
RPPPMLTJNHLFFEF98CC,ぱ琿,.01,常カ
RPRNMLTJNHLFFHF66CC,ゅて琿,.00,常カ
RPWNMLTJNHLFFHF17CC,ッキ琿,30.55,常カㄤ
RPWNMLTJNHLFFHF17CC,ッキ琿,24.46,常カ坝
RPSOMLTJNHLFFHF86CC,胺眃琿,.00,常カ
RPTOMLTJNHLFFHF96CC,胺眃琿,.00,常カ
RPVOMLTJNHLFFHF17CC,穝チ琿,.00,常カ
RPWOMLTJNHLFFHF27CC,ü琿,.00,常カ
RPXOMLTJNHLFFHF37CC,い琿,.00,常カ
RPPNMLTJNHLFFHF66EC,チ琿,.00,常カ
RPVPMLTJNHLFFEF07DC,穝砍琿,.00,獶常カ ; 獶常カ絪﹚
RPURMLTJNHLFFIF47CC,厩琿琿,255.73,常カ
RPOSMLTJNHLFFIF96CC,厩琿琿,13.95,常カ
RPUTMLTJNHLFFIF67CC,厩琿琿,237.72,常カ
RPSOMLKKNHLFFIF78CC,痴稲琿,.00,常カ坝
RPRNMLKKNHLFFHF68EC,獺竡琿,27.70,常カ
RPSNMLKKNHLFFHF58CC,爵㎝琿,209.03,常カ
RPPPMLKKNHLFFEF18CC,ぱ琿,4.92,常カ
RPUOMLKKNHLFFGF78CC,纒镭琿,.00,常カ
RPWOMLKKNHLFFGF98CC,い地琿,.00,常カ
RPSOMLKKNHLFFBF08CC,き琿,1004.31,獶常カ穨跋 ; 獶常カ絪﹚贺縱ノ
RPTSMLKKNHLFFBF58CC,褐膀琿,175.63,常カ
RPTSMLKKNHLFFBF58CC,褐膀琿,146.70,常カ
RPOPMLKKNHLFFAF67CC,纒琿,.00,常カ
RPUOMLLKNHLFFAF28CC,穝狾琿琿,.00,常カㄤ
RPWPMLLKNHLFFAF58CC,籄琿材畆琿,13.51,常カ坝
RPQNMLLKNHLFFDF08CC,方琿,.00,常カ
RPQNMLLKNHLFFDF08CC,方琿,.00,常カ
RPSNMLLKNHLFFDF28CC,醇砍琿,.00,常カ坝
RPUPMLLKNHLFFDF68CC,醇砍琿,.00,常カ
RPXNMLLKNHLFFCF68CC,確砍琿,.00,常カ
RPROMLLKNHLFFCF18CC,缠穛琿,.00,常カ
RPOPMLLKNHLFFEF18CC,ぱ琿,.02,常カ
RPOPMLLKNHLFFEF18CC,ぱ琿,.00,常カ
RPOPMLLKNHLFFEF18CC,ぱ琿,2.62,常カ
RPOPMLLKNHLFFEF18CC,ぱ琿,.19,常カ
RPOPMLLKNHLFFEF18CC,ぱ琿,.01,常カ
RPTNMLLKNHLFFHF78CC,ッ琿,.00,常カ
RPVPMLLKNHLFFBF78EC,砍琿,.00,常カ
RPOOMLLKNHLFFIF48CC,ネ琿,.00,常カ
RPRPMLLKNHLFFIF88CC,获不琿,.00,常カ
RPRPMLLKNHLFFIF88CC,获不琿,.00,常カ
RPVPMLLKNHLFFIF66CC,打琿打琿,1264.00,獶常カ笰穨跋 ; 獶常カ絪﹚贺縱ノ
RPVPMLLKNHLFFIF66CC,打琿打琿,147.00,獶常カ笰穨跋 ; 獶常カ絪﹚贺縱ノ
RPWPMLLKNHLFFIF76CC,く琿,122.79,常カ
RPVPMLLKNHLFFDF98EC,玂琿,3.90,常カ
RPVOMLMKNHLFFIF66CC,㎝キ琿,13.23,常カㄤ
RPXOMLMKNHLFFIF86CC,厩琿琿,20.80,常カ坝
RPWNMLMKNHLFFHF56CC,キ琿,21.46,常カ
RPWQMLMKNHLFFHF86CC,狾玭琿,28.22,常カ
RPTRMLMKNHLFFHF66CC,い㎝琿,.00,常カ
RPPSMLMKNHLFFHF98CC,い琿,.00,常カㄤ
RPSNMLMKNHLFFEF48CC,辨蔼加琿,113.18,常カ
RPQOMLMKNHLFFEF38CC,琶琿,4.85,常カ坝
RPPPMLMKNHLFFEF38CC,タ紈琿,11.03,常カ
RPQPMLMKNHLFFEF48CC,を琿,18.50,常カ
RPUNMLMKNHLFFGF88CC,く稲琿,.00,常カ坝
RPXNMLMKNHLFFAF58CC,┋褐琿,4.24,常カ坝
RPOOMLMKNHLFFAF77CC,穝狾琿琿,.00,常カㄤ
RPPOMLMKNHLFFBF97CC,腞狶琿,480.99,常カ
RPTNNLNKNHLFFBF48CC,琿琿,14.14,常カ坝
RPQOMLNKNHLFFAF08CC,穝狾琿琿,3.38,常カㄤ
RPSOMLNKNHLFFDF58CC,穝琿,12.00,常カ
RPXOMLNKNHLFFDF09CC,穝琿,19.63,常カ
RPOPMLNKNHLFFDF28CC,琿,11.39,常カ
RPPPMLNKNHLFFDF38CC,吏猠琿,331.99,常カ
RPPPMLNKNHLFFDF38CC,吏猠琿,626.08,常カ
RPPPMLNKNHLFFDF38CC,吏猠琿,529.58,常カ
RPQNMLNKNHLFFGF58CC,タ竡琿,.00,常カ坝
RPOOMLNKNHLFFCF08CC,腳眏琿,.00,常カ
RPTRMLNKNHLFFEF09CC,厩┎琿,.35,常カ
RPPOMLNKNHLFFHF68CC,獺竡琿,.00,常カ坝
RPVQMLNKNHLFFHF86CC,狾玭琿,.00,常カ
RPVQMLNKNHLFFHF86CC,狾玭琿,.00,常カㄤ
RPORMLNKNHLFFHF88CC,ニ傢琿,.00,常カ坝
RPORMLNKNHLFFHF88CC,ニ傢琿,.00,常カ坝
RPPRMLNKNHLFFHF98CC,胺眃琿,.00,常カ
RPQRMLNKNHLFFHF09CC,禩琿,.00,常カ
RPURMLNKNHLFFHF86CC,爵㎝琿,162.47,常カ
RPQPMLNKNHLFFDF58DC,纒琿,43.52,常カ
RPQPMLNKNHLFFDF58DC,纒琿,37.96,常カ
RPQPMLNKNHLFFDF58DC,纒琿,46.72,常カ
RPQPMLNKNHLFFDF58DC,纒琿,4.71,常カ
RPOOMLNKNHLFFIF78DC,厩琿琿,17.86,常カ
RPRNMLOKNHLFFHF88CC,確砍琿,.00,常カ
RPRNMLOKNHLFFHF88CC,確砍琿,.00,常カ
RPRNMLOKNHLFFHF88CC,確砍琿,.00,常カ
RPSNMLOKNHLFFHF98CC,琿,.00,常カ
RPTNMLOKNHLFFHF09CC,玭琿,.00,常カㄤ
RPUNMLOKNHLFFHF56CC,醇琿,.00,常カ
RPPNMLOKNHLFFEF38CC,そバ琿,34.71,常カ
RPQNMLOKNHLFFAF08CC,そ繻琿,.00,常カ
RPPNMLPKNHLFFDF38CC,醇砍琿,.00,常カ坝
RPPNMLPKNHLFFDF38CC,醇砍琿,.00,常カㄤ
RPQNMLPKNHLFFDF48CC,醇砍琿,.00,常カ坝
RPQNMLPKNHLFFDF48CC,醇砍琿,.00,常カ
RPPNMLPKNHLFFIF88CC,い堕琿,16.38,常カ
RPPNMLPKNHLFFIF88CC,い堕琿,.28,常カㄤ
RPPNMLPKNHLFFIF88CC,い堕琿,.19,常カㄤ
RPPNMLPKNHLFFIF88CC,い堕琿,10.35,常カㄤ
RPRNMLPKNHLFFIF09CC,厩琿琿,17.20,常カ
RPTOMLQKNHLFFDF98CC,ぱ琿,.00,常カ
RPROMLQKNHLFFBF58CC,瓣琿,17.14,常カ
RPVOMLQKNHLFFBF98CC,获琿,.00,常カ
RPTPMLQKNHLFFBF88CC,き琿,.00,獶常カ穨跋 ; 獶常カ絪﹚贺縱ノ
RPSNMLQKNHLFFEF88CC,穝砍琿,20.09,常カ
RPXOMLQKNHLFFEF86CC,そバ琿,20.59,常カ
RPTNMLQKNHLFFCF78CC,伦琿,.00,常カ
RPVNMLQKNHLFFCF98CC,確砍琿,.00,常カ
RPPNMLQKNHLFFHF88CC,ッ琿,.00,常カ
RPVNMLQKNHLFFHF86CC,狾玭琿,14.33,常カ
RPOOMLQKNHLFFHF88CC,い琿,38.91,常カ
RPWOMLQKNHLFFHF07CC,硈琿,17.48,常カ
RPXOMLQKNHLFFHF17CC,玂キ琿,.00,常カ
RPOPMLQKNHLFFHF98CC,狾玭琿,.00,常カ
RPPPMLQKNHLFFHF09CC,ッ琿,7.27,常カ坝
RPXNMLRKNHLFFCF66CC,腳じ琿,.00,獶常カ ; 獶常カ絪﹚
RPPOMLRKNHLFFCF58CC,蛮琿,36.30,常カㄤ
RPXOMLRKNHLFFEF96CC,琶琿,.00,常カ
RPQNMLRKNHLFFBF48CC,嘲琿,.00,常カ
RPRNMLRKNHLFFBF58CC,祅狶琿,.00,常カ
RPROMLRKNHLFFBF68CC,Θ琿,26.50,常カ
RPWOMLRKNHLFFBF56CC,篴琿,50.56,常カ
RPQSMLRKNHLFFBF98CC,篴碔琿,13.14,常カ
RPPNMLRKNHLFFDF58CC,醇砍琿,.00,常カ坝
RPWNMLRKNHLFFDF66CC,穝畃琿,21.80,常カ
RPWNMLRKNHLFFDF66CC,穝畃琿,1.60,常カ
RPWPMLRKNHLFFAF56CC,籄琿材畆琿,9.45,常カ坝
RPSNMLRKNHLFFCF98EC,穝琿,.00,常カ
RPSNMLRKNHLFFCF98EC,穝琿,.00,常カㄤ
RPQNMLRKNHLFFDF88EC,玂琿,5.38,常カ
RPRNMLRKNHLFFDF98EC,玂琿,3.97,常カ
RPSNMLRKNHLFFDF09EC,玂琿,7.55,常カ
RPUNMLRKNHLFFAF88DC,く琿,86.00,常カ
RPUNMLRKNHLFFAF88DC,く琿,1.00,常カㄤ
RPPNMLSKNHLFFDF68CC,醇砍琿,.00,常カ坝
RPVOMLSKNHLFFDF76CC,穝畃琿,.00,常カ
RPQNMLSKNHLFFBF58CC,い琿,.00,常カ
RPSPMLSKNHLFFEF66CC,いタ琿,3.62,常カ坝
RPXNMLSKNHLFFCF76CC,╭琿,.00,常カ
RPPOMLSKNHLFFCF68CC,確砍琿,.00,常カ
RPWOMLSKNHLFFHF27CC,眔㎝琿,.00,常カ
RPXPMLTKNHLFFCF07CC,腳眏琿,3.49,常カ
RPWNMLTKNHLFFGF17CC,锭琿,.00,常カ
RPVNMLTKNHLFFEF86CC,く稲琿,3.27,常カㄤ
RPOOMLTKNHLFFBF58CC,狶琿,.09,常カ坝
RPOOMLTKNHLFFBF58CC,狶琿,16.88,常カ坝
RPOOMLTKNHLFFDF78CC,いタ琿,.00,常カ
RPSOMLTKNHLFFAF98DC,籄琿材畆琿,62.38,常カ
RPQNMLTKNHLFFAF78EC,褐琿,24.39,常カ
RPRNMLTKNHLFFAF88EC,┋褐琿,18.35,常カ
RPSNMLTKNHLFFAF98EC,ゅて琿,1.84,常カ
RPTNMLTKNHLFFAF09EC,瓾醂琿,11.29,常カㄤ
RPUNMLTKNHLFFAF56EC,穝狾琿琿,2.80,常カㄤ
RPVNMLTKNHLFFAF66EC,そ繻琿,21.50,常カ
RPVNMLTKNHLFFAF66EC,そ繻琿,26.00,常カ
RPWNMLTKNHLFFAF76EC,く琿,64.00,常カ
RPROMLTKNHLFFIF17EC,厩琿琿,39.22,常カ
RPSNMLKLNHLFFIF78CC,厩琿琿,.00,常カ坝
RPWNMLKLNHLFFIF56CC,厩琿琿,34.50,常カ
RPPOMLKLNHLFFDF08CC,穝畃琿,93.00,常カ
RPSPMLKLNHLFFAF18CC,いタ琿,.00,常カ
RPXNMLKLNHLFFBF58CC,篴琿,20.44,常カ
RPPPMLKLNHLFFBF97CC,捌常み琿琿,9.58,常カ
RPQPMLKLNHLFFBF08CC,篴碔琿,23.52,常カ
RPQPMLKLNHLFFBF08CC,篴碔琿,23.52,常カ
RPRPMLKLNHLFFBF18CC,㎝キ琿,12.60,常カ
RPTPMLKLNHLFFBF38CC,篴碔琿,9.00,常カ
RPQNMLKLNHLFFCF97CC,伦琿,.00,常カ
RPXNMLKLNHLFFCF68CC,確砍琿,83.09,常カ
RPPOMLKLNHLFFCF97CC,伦琿,21.38,常カ
RPPNMLLLNHLFFDF08CC,醇砍琿,.00,常カ坝
RPQNMLLLNHLFFDF18CC,Θ琿,11.98,常カ
RPQNMLLLNHLFFDF18CC,Θ琿,75.30,常カ
RPQNMLLLNHLFFDF18CC,Θ琿,52.59,常カ
RPQNMLLLNHLFFDF18CC,Θ琿,10.39,常カ
RPPNMLMLNHLFFBF97CC,腞狶琿,35.66,常カ
RPQNMLMLNHLFFEF38CC,琿,1.99,常カ坝
RPQNMLMLNHLFFEF38CC,琿,.37,常カ
RPRNMLMLNHLFFEF48CC,ぱ琿,4.68,常カ
RPSNMLMLNHLFFEF58CC,ぱ琿,4.68,常カ
RPTNMLMLNHLFFEF68CC,穝蒥琿,23.61,常カ
RPPNMLMLNHLFFIF68CC,厩琿琿,21.16,常カ
RPQNMLMLNHLFFIF78CC,厩琿琿,5.88,常カ
RPRNMLMLNHLFFIF88CC,㎝キ琿,31.14,常カ坝
RPRNMLMLNHLFFIF88CC,㎝キ琿,.17,常カ坝
RPUOMLNLNHLFFIF76CC,厩琿琿,22.70,常カ
RPPPMLNLNHLFFEF58CC,纒μ琿,.00,常カ
RPTNMLNLNHLFFGF98CC,く稲琿,.00,常カ坝
RPXNMLNLNHLFFGF76CC,く稲琿,.00,常カ坝
RPWNMLNLNHLFFHF76CC,胺眃琿,68.07,常カ
RPPOMLNLNHLFFBF18CC,き琿,245.70,獶常カ穨跋 ; 獶常カ絪﹚贺縱ノ
RPVOMLNLNHLFFBF78CC,狶琿,25.81,常カ
RPWOMLNLNHLFFBF88CC,い琿,208.85,常カ
RPRNMLNLNHLFFDF48CC,醇砍琿,.00,常カ坝
RPRNMLNLNHLFFDF48CC,醇砍琿,.00,常カ
RPUNMLNLNHLFFDF78CC,褐紈琿,30.00,常カ
RPUNMLNLNHLFFDF78CC,褐紈琿,3.05,常カ
RPUNMLOLNHLFFBF68CC,瓣琿,17.29,常カ
RPVNMLOLNHLFFBF78CC,い琿,33.12,常カ坝
RPSOMLOLNHLFFCF68CC,い地琿,.00,常カ
RPTOMLPLNHLFFHF76CC,方琿,.00,常カ
RPTRMLPLNHLFFHF07CC,い砍琿,.00,常カ坝
RPOSMLPLNHLFFBF68CC,篴碔琿,31.38,常カ
RPPNMLPLNHLFFAF18CC,㎝琿,.00,常カ
RPPPMLPLNHLFFAF38CC,獵冻琿,.00,常カ坝
RPVOMLQLNHLFFAF98CC,そ繻琿,.00,常カ
RPRNMLQLNHLFFDF78CC,醇砍琿,.00,常カ
RPQOMLQLNHLFFDF78CC,ぱ琿,11.95,常カ
RPQOMLQLNHLFFDF78CC,穝琿,.37,常カ
RPROMLQLNHLFFDF88CC,ぱ琿,11.80,常カ
RPROMLQLNHLFFDF88CC,穝琿,.37,常カ
RPSOMLQLNHLFFDF98CC,ぱ琿,23.75,常カ
RPSOMLQLNHLFFDF98CC,穝琿,.74,常カ
RPVQMLQLNHLFFBF66CC,腞狶琿,17.58,常カ坝
RPUUMLQLNHLFFHF57CC,狶此琿,.00,常カ
RPSPMLQLNHLFFGF76CC,垫糳琿,.00,常カ
RPOOMLQLNHLFFDF68DC,吏猠琿,33.43,常カ
RPOOMLQLNHLFFDF68DC,吏猠琿,.95,常カ
RPUNMLRLNHLFFCF66EC,腳砍琿,21.00,常カ
RPRNMLRLNHLFFDF09EC,褐紈琿,29.00,常カ
RPSNMLRLNHLFFIF86CC,厩琿琿,10.48,常カ坝
RPTNMLRLNHLFFIF96CC,㎝キ琿,3.36,常カ
RPPOMLRLNHLFFIF66CC,厩琿琿,45.17,常カ
RPPPMLRLNHLFFIF76CC,褐琿,75.16,常カ
RPUNMLRLNHLFFGF86CC,篴琿,.00,常カ
RPSOMLRLNHLFFGF76CC,き地琿,.00,常カ
RPPOMLRLNHLFFHF56CC,贾琿,.00,常カ
RPPOMLRLNHLFFHF56CC,贾琿,.00,常カ
RPOPMLRLNHLFFHF56CC,玂キ琿,32.44,常カ
RPOPMLRLNHLFFHF56CC,玂キ琿,12.59,常カ
RPQNMLRLNHLFFDF78CC,醇砍琿,.00,常カ
RPQQMLRLNHLFFAF78CC,獺竡琿,.00,常カ
RPPNMLSLNHLFFDF78CC,醇砍琿,.00,常カ坝
RPSNMLSLNHLFFBF88CC,狶琿,25.81,常カ
RPQNMLSLNHLFFEF98CC,竡琿,26.88,常カ
RPRNMLSLNHLFFEF09CC,穝砍琿,27.62,常カ
RPRNMLSLNHLFFEF09CC,穝砍琿,37.61,常カ
RPSNMLSLNHLFFEF56CC,穝蒥琿,11.64,常カ
RPTNMLSLNHLFFEF66CC,睭琿,39.62,常カ
RPPNMLSLNHLFFEF98DC,いタ琿,.00,獶常カ ; 獶常カ絪﹚
RPPNMLSLNHLFFEF98DC,いタ琿,.00,獶常カ ; 獶常カ絪﹚
RPPNMLSLNHLFFEF98DC,いタ琿,.00,獶常カ ; 獶常カ絪﹚
RPQOMLKMNHLFFDF48EC,玂琿,5.21,常カ
RPUOMLKMNHLFFEF78CC,穝蒥琿,21.49,常カ
RPQPMLKMNHLFFEF48CC,厩┎琿,15.33,常カ
RPQPMLKMNHLFFEF48CC,厩┎琿,.06,常カ
RPOOMLKMNHLFFGF38CC,琿,.00,常カ
RPPOMLKMNHLFFGF48CC,チネ琿,.00,常カ
RPQNMLKMNHLFFHF58CC,眔狶琿,.00,常カ
RPSOMLKMNHLFFHF88CC,方琿,.00,常カ
RPTOMLKMNHLFFHF98CC,禩琿,.00,常カ
RPPPMLKMNHLFFHF68CC,琿,.00,常カ
RPPPMLKMNHLFFHF68CC,琿,.00,常カ
RPPPMLKMNHLFFHF68CC,琿,.00,常カ
RPPPMLKMNHLFFHF68CC,琿,.00,常カ
RPQPMLKMNHLFFHF78CC,爵㎝琿,.00,常カ坝
RPRPMLKMNHLFFHF88CC,玭墩琿,.00,常カ
RPSPMLKMNHLFFHF98CC,い琿,.00,常カ
RPTPMLKMNHLFFHF09CC,蛾硄琿,.00,常カ
RPWPMLKMNHLFFHF76CC,ü琿,.00,常カ
RPOQMLKMNHLFFHF68CC,チ舦琿,.00,常カ
RPQQMLKMNHLFFHF88CC,琿,.00,常カ
RPSQMLKMNHLFFHF09CC,玭墩琿,.00,常カ
RPXOMLKMNHLFFBF78CC,瓣琿,.00,常カ
RPSPMLKMNHLFFBF38CC,瓣琿,69.24,常カ
RPPNMLKMNHLFFDF08CC,醇砍琿,.00,常カ坝
RPSOMLKMNHLFFAF18CC,┑㎝琿,.00,常カㄤ
RPWNMLLMNHLFFAF58CC,勾い琿,.00,常カ
RPTNMLLMNHLFFHF98CC,蛾硄琿,.00,常カ
RPRNMLLMNHLFFCF28CC,いタ琿,.00,常カㄤ
RPPOMLLMNHLFFCF18CC,腳爵琿,.00,常カ
RPXOMLLMNHLFFDF66EC,琿,17.64,常カ
RPTNMLLMNHLFFIF09CC,厩琿琿,40.97,常カ坝
RPVPMLLJOHLFFIF66CC,厩琿琿,17.72,常カ
RPUPMLLJOHLFFEF78CC,琶琿,17.32,常カ
RPSQMLLJOHLFFEF68CC,穝砍琿,.00,常カ
RPRRMLLJOHLFFEF68CC,竡琿,22.51,常カ
RPURMLLJOHLFFEF98CC,を琿,16.52,常カ
RPVNMLLJOHLFFHF98CC,ッ琿,.00,常カ
RPVNMLLJOHLFFHF98CC,ッ琿,.00,常カ
RPXNMLLJOHLFFHF56CC,い琿,235.20,常カ
RPVOMLLJOHLFFHF09CC,狾玭琿,134.20,常カ
RPSPMLLJOHLFFAF18CC,籄琿材畆琿,.00,常カ坝
RPSPMLLJOHLFFBF28CC,紈琿,.00,常カ
RPORMLLJOHLFFBF08CC,︽琿,40.96,常カ坝
RPWRMLLJOHLFFBF88CC,︽琿,60.69,常カ
RPTOMLMJOHLFFBF38CC,狶琿,31.57,常カ
RPSQMLMJOHLFFHF09CC,く稲琿,.00,常カ
RPXRMLMJOHLFFHF07CC,倍笲琿,.00,常カㄤ
RPOSMLMJOHLFFHF88CC,ッ琿,.00,常カ坝
RPPSMLMJOHLFFHF98CC,玂キ琿,.00,常カ坝
RPRSMLMJOHLFFHF56CC,倍笲琿,18.11,常カㄤ
RPSNMLMJOHLFFEF48CC,ぱ琿,29.69,常カ
RPQNMLMJOHLFFIF68CC,猌狶琿,20.93,常カ
RPQOMLMJOHLFFIF78CC,ゅて琿,146.88,常カ坝
RPXOMLMJOHLFFGF86EC,琿,.00,常カ
RPUOMLNJOHLFFGF66EC,タ竡琿,.00,常カ
RPUOMLNJOHLFFHF76EC,チ贾琿,.00,常カ
RPVOMLNJOHLFFAF68DC,畑琿,13.20,常カ
RPUNMLNJOHLFFEF78CC,そバ琿,26.45,常カ
RPUPMLNJOHLFFEF98CC,そバ琿,14.31,常カ
RPTOMLNJOHLFFCF58CC,いタ琿,6.14,常カ
RPOPMLNJOHLFFGF58CC,タチ琿,.00,常カ
RPVNMLNJOHLFFHF56CC,の琿,24.45,常カ
RPVOMLNJOHLFFHF66CC,胺眃琿,.00,常カ
RPVOMLNJOHLFFHF66CC,胺眃琿,.00,常カ
RPWTMLNJOHLFFHF27CC,狥玭琿,.00,常カ
RPTOMLNJOHLFFBF48CC,繷砍琿,253.94,常カ
RPVNMLNJOHLFFDF78CC,醇砍琿,.00,常カ坝
RPOOMLNJOHLFFDF18CC,玴紈琿,.00,常カ
RPROMLOJOHLFFAF28CC,ゅて琿,33.75,常カ
RPSOMLOJOHLFFAF38CC,そ繻琿,29.50,常カ
RPQPMLOJOHLFFBF38CC,い琿,40.35,常カ
RPSPMLOJOHLFFBF58CC,ミ琿,12.57,常カ坝
RPUPMLOJOHLFFBF78CC,篴碔琿,455.87,常カㄤ
RPTQMLOJOHLFFBF78CC,い琿,.00,常カ
RPQTMLOJOHLFFBF78CC,い琿,8.38,常カ坝
RPWTMLOJOHLFFBF76CC,う获琿,13.74,常カ
RPQUMLOJOHLFFBF88CC,い琿,7.28,常カ
RPUUMLOJOHLFFBF66CC,確砍琿,17.57,常カ
RPWUMLOJOHLFFBF86CC,い港琿,29.24,常カ
RPXUMLOJOHLFFBF96CC,ミ琿,13.88,常カ坝
RPQVMLOJOHLFFBF98CC,篴碔琿,10.75,常カ
RPRVMLOJOHLFFBF09CC,ミ紈琿,19.21,常カ
RPSVMLOJOHLFFBF56CC,篴碔琿,10.87,常カ
RPUVMLOJOHLFFBF76CC,篴碔琿,14.73,常カ
RPVVMLOJOHLFFBF86CC,方琿,14.16,常カ
RPWVMLOJOHLFFBF96CC,捌常み琿琿,33.37,常カ
RPXVMLOJOHLFFBF07CC,チ琿,24.40,常カ
RPWNMLOJOHLFFHF76CC,地い琿,39.50,常カ
RPWNMLOJOHLFFGF66CC,栋藉琿,24.10,常カ
RPSNMLOJOHLFFIF09CC,厩琿琿,18.18,常カ坝
RPPNMLPJOHLFFDF38CC,醇砍琿,.00,常カ坝
RPPNMLPJOHLFFDF38CC,醇砍琿,.00,常カ
RPUOMLQJOHLFFAF78CC,砍琿,.00,常カ
RPPOMLQJOHLFFGF88CC,タチ琿,.00,常カ
RPSNMLQJOHLFFEF88CC,そバ琿,19.68,常カ
RPTOMLQJOHLFFEF09CC,そバ琿,.00,常カ
RPWOMLQJOHLFFEF76CC,λ瞅琿,4.89,常カㄤ
RPWOMLQJOHLFFEF76CC,λ瞅琿,31.47,常カㄤ
RPTOMLQJOHLFFHF76CC,ッキ琿,.00,常カ坝
RPTOMLQJOHLFFHF76CC,ッキ琿,.00,常カㄤ
RPVNMLQJOHLFFGF86DC,い砍琿,.00,常カ
RPPOMLRJOHLFFIF56CC,猌狶琿,59.62,常カ
RPPOMLRJOHLFFIF56CC,猌狶琿,76.40,常カ
RPPOMLRJOHLFFIF56CC,猌狶琿,1475.22,常カ
RPPOMLRJOHLFFIF56CC,猌狶琿,163.64,常カㄤ
RPRNMLRJOHLFFHF56CC,狾玭琿,26.33,常カ
RPUPMLRJOHLFFHF07CC,褐㎝琿,.00,常カ坝
RPXPMLRJOHLFFHF37CC,地い琿,24.47,常カ
RPOQMLRJOHLFFHF56CC,玂ネ琿,.00,常カ
RPTPMLRJOHLFFEF66CC,そバ琿,.00,常カ
RPXNMLRJOHLFFGF07CC,く竡琿,.00,常カ
RPXNMLRJOHLFFCF66CC,確砍琿,65.39,常カ
RPQOMLRJOHLFFCF68CC,吏猠琿,.00,常カ
RPVOMLRJOHLFFCF56CC,腳砍琿,33.18,常カ
RPXOMLRJOHLFFCF76CC,びキ琿,.00,常カㄤ
RPVNMLRJOHLFFBF98CC,︽琿,25.94,常カ坝
RPOPMLRJOHLFFBF48CC,ㄎ狶琿,66.77,常カ
RPRTMLRJOHLFFBF56CC,き琿,.00,獶常カ穨跋 ; 獶常カ絪﹚贺縱ノ
RPWUMLRJOHLFFBF17CC,地琿,22.85,常カ
RPTOMLSJOHLFFAF88CC,厩Θ琿,.00,常カ
RPUOMLSJOHLFFAF98CC,籄琿材畆琿,.00,常カ坝
RPWNMLSJOHLFFEF86CC,タ紈琿,22.80,常カ
RPUQMLSJOHLFFEF96CC,穝砍琿,41.59,常カ
RPRNMLSJOHLFFHF66CC,胺眃琿,.00,常カ
RPSNMLSJOHLFFHF76CC,瓣琿,.00,常カ坝
RPSNMLSJOHLFFHF76CC,瓣琿,.00,常カ
RPWNMLSJOHLFFHF17CC,い琿,.00,常カ
RPUOMLSJOHLFFHF07CC,穝㎝琿,.00,常カ
RPWOMLSJOHLFFHF27CC,春褐琿,.00,常カ
RPXOMLSJOHLFFHF37CC,╭琿,.00,常カ
RPOPMLSJOHLFFIF66CC,厩琿琿,20.60,常カ
RPPNMLTJOHLFFDF78CC,醇砍琿,.00,常カ
RPQNMLKKOHLFFAF77CC,籄琿材畆琿,.91,常カ
RPQNMLKKOHLFFAF77CC,籄琿材畆琿,.29,常カ
RPQNMLKKOHLFFAF77CC,籄琿材畆琿,11.56,常カ
RPRNMLKKOHLFFAF87CC,┋褐琿,.00,常カ
RPQNMLKKOHLFFBF87CC,篴碔琿,20.98,常カ
RPRNMLKKOHLFFBF97CC,琿,20.95,常カ
RPPNMLKKOHLFFHF38CC,眔狶琿,7.72,常カ
RPRNMLKKOHLFFHF58CC,地い琿,26.89,常カ
RPUNMLKKOHLFFHF88CC,そ堕琿,.00,常カ
RPVNMLKKOHLFFHF98CC,琿,12.76,常カ
RPSNMLMKOHLFFEF58CC,λ瞅琿,19.21,常カ
RPSNMLMKOHLFFEF58CC,λ瞅琿,.24,常カ
RPSNMLMKOHLFFEF58CC,λ瞅琿,.00,常カㄤ
RPSNMLMKOHLFFEF58CC,λ瞅琿,.08,常カ
RPSNMLMKOHLFFEF58CC,λ瞅琿,.26,常カ
RPTNMLMKOHLFFEF68CC,穝蒥琿,22.19,常カ
RPUNMLMKOHLFFEF78CC,ぱ琿,4.68,常カ
RPVNMLMKOHLFFEF88CC,そバ琿,26.73,常カ
RPWNMLMKOHLFFEF98CC,を琿,26.31,常カ
RPXNMLMKOHLFFEF09CC,穝蒥琿,26.16,常カ
RPUNMLMKOHLFFIF56CC,厩琿琿,12.83,常カ
RPVNMLMKOHLFFIF66CC,厩琿琿,20.31,常カ坝
RPRPMLNKOHLFFIF56CC,厩琿琿,8.29,常カ坝
RPQQMLNKOHLFFIF56CC,痴稲琿,.00,常カ坝
RPTRMLNKOHLFFIF96CC,穝砍琿,.00,常カ
RPTNMLNKOHLFFEF88DC,い砍琿,32.66,常カ
RPVNMLNKOHLFFDF09EC,醇砍琿,7.14,常カ
RPXNMLNKOHLFFEF56CC,タ紈琿,13.75,常カ
RPUOMLNKOHLFFCF78CC,いァ琿,.00,常カ
RPPNMLNKOHLFFGF58CC,碔禥琿,.00,常カ
RPRNMLNKOHLFFGF78CC,锭琿,.00,常カ
RPSNMLNKOHLFFBF38CC,瓣琿,10.74,常カ
RPXNMLNKOHLFFBF88CC,藉琿,21.13,常カ
RPOOMLNKOHLFFBF08CC,い琿,11.37,常カ坝
RPUSMLNKOHLFFBF09CC,篴碔琿,.00,常カ
RPOTMLNKOHLFFBF58CC,藉琿,.00,常カ
RPUTMLNKOHLFFBF56CC,瓣琿,15.45,常カ
RPRUMLNKOHLFFBF98CC,篴碔琿,.00,常カ
RPSUMLNKOHLFFBF09CC,︽琿,20.69,常カ
RPQVMLNKOHLFFBF98CC,狶琿,42.37,常カ
RPOPMLNKOHLFFAF08CC,籄琿材畆琿,21.50,常カ
RPPPMLOKOHLFFAF28CC,く琿,29.75,獶常カ ; 獶常カ絪﹚
RPQPMLOKOHLFFAF38CC,籄琿匪繷琿,.00,獶常カ ; 獶常カ絪﹚
RPQNMLOKOHLFFDF48CC,醇砍琿,.00,常カ坝
RPRPMLOKOHLFFDF78CC,穝畃琿,825.00,常カ
RPSNMLOKOHLFFBF48CC,チ琿,133.00,常カ
RPXNMLOKOHLFFBF98CC,い琿,.00,常カ
RPOOMLOKOHLFFBF18CC,方琿,.00,常カㄤ
RPOOMLOKOHLFFBF18CC,方琿,.00,常カㄤ
RPSOMLOKOHLFFBF58CC,い琿,.00,常カ坝
RPUOMLOKOHLFFCF88CC,腳じ琿,588.57,常カ
RPUOMLOKOHLFFEF09CC,穝砍琿,2.61,常カ
RPTOMLOKOHLFFDF09EC,玂琿,8.51,常カ
RPUOMLOKOHLFFDF56EC,玂琿,5.35,常カ
RPOPMLOKOHLFFDF68EC,玂琿,8.47,常カ
RPQNMLOKOHLFFCF58EC,確砍琿,.00,常カ
RPSNMLOKOHLFFCF78EC,腳爵琿,.00,常カ
RPSPMLOKOHLFFIF76CC,厩琿琿,10.22,常カ坝
RPUPMLOKOHLFFIF96CC,厩琿琿,16.26,常カ
RPVPMLOKOHLFFIF07CC,厩琿琿,5.34,常カ
RPXPMLOKOHLFFIF27CC,厩琿琿,21.17,常カ坝
RPSRMLPKOHLFFIF07CC,ㄎ堕琿,67.20,常カ
RPXRMLPKOHLFFIF57CC,厩琿琿,14.95,常カ坝
RPQNMLPKOHLFFCF58DC,︽現琿,66.01,常カ
RPSOMLPKOHLFFAF78EC,┋褐琿,9.26,常カ
RPVOMLPKOHLFFAF09EC,┎い琿,101.00,常カ
RPRNMLPKOHLFFHF56DC,地琿,9.00,常カ
RPSOMLPKOHLFFHF86EC,眔狶琿,26.94,常カ
RPXNMLPKOHLFFCF56CC,锭琿,.00,常カ笰
RPXNMLPKOHLFFCF56CC,锭琿,.00,常カ笰
RPVOMLPKOHLFFGF86CC,穝琿滁琿,.00,常カ坝
RPUNMLPKOHLFFHF76CC,地い琿,26.89,常カ
RPWNMLPKOHLFFHF96CC,地い琿,25.44,常カ
RPXNMLPKOHLFFHF07CC,ッキ琿,.00,常カ坝
RPXNMLPKOHLFFHF07CC,ッキ琿,.00,常カ坝
RPOOMLPKOHLFFHF88CC,贾地琿,.00,常カ坝
RPWPMLPKOHLFFHF17CC,玭琿,.00,常カㄤ
RPXQMLPKOHLFFHF37CC,ッキ琿,10.88,常カ
RPXQMLPKOHLFFHF37CC,ッキ琿,.01,常カㄤ
RPRPMLPKOHLFFBF68CC,瑆琿,21.06,常カ
RPTQMLPKOHLFFBF98CC,腞狶琿,26.49,常カ
RPXNMLPKOHLFFDF66CC,玴紈琿,4742.53,常カ
RPRRMLPKOHLFFDF09CC,琿,18.90,常カ坝
RPROMLQKOHLFFDF88CC,琿,2991.48,常カ
RPTOMLQKOHLFFDF09CC,穝琿,.00,常カ
RPUOMLQKOHLFFDF56CC,褐紈琿,.00,常カ
RPTOMLQKOHLFFBF88CC,篴琿,.00,常カ
RPTPMLQKOHLFFEF66CC,そバ琿,32.36,常カ
RPWNMLQKOHLFFIF17CC,厩琿琿,.00,常カ
RPPPMLRKOHLFFEF09DC,琶琿,.00,獶常カ ; 獶常カ絪﹚
RPPOMLRKOHLFFDF98EC,方琿,3904.89,常カ
RPXUMLRKOHLFFEF67CC,そバ琿,29.99,常カ
RPQNMLRKOHLFFCF68CC,いァ琿,18.93,常カ
RPRNMLRKOHLFFHF66CC,蛮㎝琿,49.16,常カ
RPTNMLRKOHLFFHF86CC,穝琿,3.03,常カ坝
RPVNMLRKOHLFFHF07CC,狥玭琿,34.23,常カ
RPPOMLRKOHLFFHF56CC,贾琿,2.74,常カ
RPPOMLRKOHLFFHF56CC,贾琿,11.10,常カ坝
RPXPMLRKOHLFFHF47CC,褐不琿,.07,常カ坝
RPWNMLRKOHLFFBF56CC,翬褐琿,271.91,常カ
RPWNMLRKOHLFFBF56CC,翬褐琿,271.91,常カ
RPPSMLRKOHLFFBF98CC,琿,149.59,常カ
RPTNMLRKOHLFFDF09CC,醇砍琿,.00,常カ坝
RPTNMLRKOHLFFDF09CC,醇砍琿,.00,常カ
RPQOMLRKOHLFFDF88CC,醇砍琿,.00,常カ坝
RPPNMLSKOHLFFDF78CC,醇砍琿,.00,常カ坝
RPTPMLKLOHLFFDF68CC,穝琿,28.35,常カ
RPWPMLKLOHLFFDF98CC,穝琿,119.00,常カ
RPTPMLKLOHLFFAF38CC,糳琿,24.21,常カ
RPRNMLKLOHLFFBF08CC,ㄎ狶琿,19.71,常カ
RPRNMLKLOHLFFBF08CC,︽現琿,57.29,常カ
RPROMLKLOHLFFCF28CC,︽現琿,.00,常カ
RPXOMLKLOHLFFEF09CC,涵Ю琿,51.83,常カ坝
RPUPMLKLOHLFFCF78DC,︽現琿,25.76,常カ
RPPNMLKLOHLFFCF18EC,確砍琿,2550.62,常カ
RPOPMLLLOHLFFEF38CC,皑昂琿,1397.16,常カ
RPTPMLLLOHLFFEF88CC,ぱ琿,.02,常カ
RPTPMLLLOHLFFEF88CC,ぱ琿,.00,常カ
RPTPMLLLOHLFFEF88CC,ぱ琿,2.62,常カ
RPTPMLLLOHLFFEF88CC,ぱ琿,.19,常カ
RPTPMLLLOHLFFEF88CC,ぱ琿,.01,常カ
RPOQMLLLOHLFFEF48CC,睭琿,39.62,常カ
RPSQMLLLOHLFFEF88CC,そバ琿,15.00,常カ
RPUQMLLLOHLFFEF09CC,穝砍琿,25.32,常カ
RPVQMLLLOHLFFEF56CC,辨蔼加琿,11.10,常カ
RPRNMLLLOHLFFCF28CC,チ琿,30.76,常カ
RPQQMLLLOHLFFGF88CC,Τ琿,.00,常カ
RPSQMLLLOHLFFGF09CC,筁バ琿,.00,獶常カ ; 獶常カ絪﹚
RPSQMLLLOHLFFGF09CC,筁バ琿,.00,獶常カ ; 獶常カ絪﹚
RPSQMLLLOHLFFGF09CC,筁バ琿,.00,獶常カ ; 獶常カ絪﹚
RPXOMLLLOHLFFBF88CC,腞狶琿,11.04,常カ坝
RPOPMLLLOHLFFBF08CC,瓣琿,7.06,常カ
RPPPMLLLOHLFFBF18CC,き琿,.00,獶常カ穨跋 ; 獶常カ絪﹚贺縱ノ
RPOONLMLOHLFFBF18CC,篴碔琿,22.23,常カ
RPPPMLMLOHLFFAF18CC,瓾醂琿,33.42,常カ
RPRRMLMLOHLFFGF56CC,砍琿,.00,常カ坝
RPTSMLMLOHLFFGF86CC,い砍琿,.00,常カ
RPRRMLMLOHLFFCF78CC,穝㎝琿,1.30,常カ
RPRRMLMLOHLFFCF78CC,穝㎝琿,21.19,常カ
RPWRMLMLOHLFFCF66CC,缠穛琿,64.36,常カ
RPRNMLMLOHLFFEF58CC,穝砍琿,7.02,常カ
RPUNMLMLOHLFFEF88CC,を琿,18.50,常カ
RPUPMLMLOHLFFEF09CC,ぱ琿,.02,常カ
RPUPMLMLOHLFFEF09CC,ぱ琿,.00,常カ
RPUPMLMLOHLFFEF09CC,ぱ琿,2.33,常カ
RPUPMLMLOHLFFEF09CC,ぱ琿,.17,常カ
RPUPMLMLOHLFFEF09CC,ぱ琿,.01,常カ
RPOPMLMLOHLFFHF78CC,贾地琿,.00,常カ坝
RPPPMLMLOHLFFHF88CC,胺眃琿,.00,常カ
RPQUMLMLOHLFFBF98DC,ミ紈琿,11.79,常カ坝
RPQUMLMLOHLFFBF98DC,ミ紈琿,1.30,常カ坝
RPTRMLMLOHLFFIF96CC,厩琿琿,19.19,常カ
RPURMLMLOHLFFIF07CC,厩琿琿,8.01,常カ
RPTNMLNLOHLFFHF56CC,胺眃琿,.00,常カ
RPTNMLNLOHLFFHF56CC,胺眃琿,.00,常カ
RPWNMLNLOHLFFHF86CC,い琿,9.79,常カ
RPWNMLNLOHLFFHF86CC,い琿,8.54,常カ坝
RPOOMLNLOHLFFHF78CC,爵㎝琿,121.43,常カ
RPQPMLNLOHLFFHF09CC,穝㎝琿,.00,常カ
RPQPMLNLOHLFFHF09CC,穝㎝琿,.00,常カ
RPSPMLNLOHLFFEF98CC,そバ琿,17.21,常カ
RPORMLNLOHLFFEF78CC,穝砍琿,34.72,常カ
RPQRMLNLOHLFFEF98CC,穝砍琿,22.92,常カ
RPUPMLNLOHLFFGF76CC,砍琿,.00,常カ坝
RPUPMLNLOHLFFGF76CC,砍琿,.00,常カ
RPVNMLNLOHLFFAF68CC,籄琿匪繷琿,3.95,常カ
RPPOMLNLOHLFFAF18CC,┎い琿,4.30,常カ坝
RPXOMLNLOHLFFAF98CC,チ壁琿,.00,常カ
RPROMLNLOHLFFDF68CC,琿,407.06,常カ
RPUOMLNLOHLFFDF98CC,穝琿,26.17,常カ
RPWOMLNLOHLFFDF56CC,ぱ琿,10.33,常カ
RPTQMLOLOHLFFDF56CC,醇砍琿,.00,常カ
RPTQMLOLOHLFFDF56CC,醇砍琿,.00,常カㄤ
RPWQMLOLOHLFFDF86CC,醇砍琿,.00,常カ
RPWQMLOLOHLFFDF86CC,醇砍琿,.00,常カㄤ
RPPNMLOLOHLFFAF18CC,ゅて琿,2.60,常カ
RPTOMLOLOHLFFAF68CC,畑琿,36.32,常カ
RPOQMLOLOHLFFAF38CC,狾皘琿,.00,常カ
RPQQMLOLOHLFFAF58CC,厩Θ琿,.00,常カ
RPQQMLOLOHLFFAF58CC,厩Θ琿,.00,常カ
RPRPMLOLOHLFFBF68CC,︽琿,.00,常カ坝
RPOQMLOLOHLFFBF48CC,捌常み琿琿,.00,常カ坝
RPXQMLOLOHLFFBF76CC,穝狶琿,733.73,常カ
RPSRMLOLOHLFFBF98CC,狶琿,.09,常カ坝
RPSRMLOLOHLFFBF98CC,狶琿,14.99,常カ坝
RPUOMLOLOHLFFIF96CC,痴稲琿,.00,常カ坝
RPPNMLPLOHLFFBF38CC,う获琿,13.56,常カ
RPRNMLPLOHLFFBF58CC,ミ琿,9.19,常カ坝
RPSNMLPLOHLFFBF68CC,確砍琿,26.81,常カ
RPTNMLPLOHLFFBF78CC,篴碔琿,21.40,常カ
RPVNMLPLOHLFFBF98CC,篴碔琿,14.74,常カ
RPOOMLPLOHLFFBF38CC,砍琿,27.86,常カ
RPROMLPLOHLFFBF68CC,篴碔琿,18.40,常カ
RPPNMLPLOHLFFGF88CC,穝琿滁琿,36.60,常カ
RPPNMLQLOHLFFIF56CC,ざ关琿,21.36,常カ
RPQNMLQLOHLFFIF66CC,厩琿琿,40.09,常カ
RPQNMLRLOHLFFIF76CC,㎝キ琿,4.43,常カ
RPQNMLRLOHLFFCF98EC,確砍琿,.00,常カ
RPXOMLRLOHLFFCF96CC,缠穛琿,.00,常カ
RPQRMLRLOHLFFEF76CC,そバ琿,.00,常カ
RPTNMLRLOHLFFHF96CC,狾玭琿,28.52,常カ
RPUNMLRLOHLFFHF07CC,倍笲琿,13.08,常カㄤ
RPVNMLRLOHLFFHF17CC,胺眃琿,9.26,常カ
RPWNMLRLOHLFFHF27CC,胺眃琿,8.15,常カ
RPOOMLRLOHLFFBF58CC,蛮获琿,.00,常カ
RPSOMLRLOHLFFBF98CC,ミ紈琿,40.80,常カ
RPRQMLRLOHLFFBF09CC,い琿,.00,常カ
RPSRMLRLOHLFFBF66CC,い琿,5.89,常カ坝
RPTRMLRLOHLFFBF76CC,い琿,18.05,常カ
RPWQMLSLOHLFFBF07CC,琿,44.54,常カ
RPWQMLSLOHLFFBF07CC,琿,17.04,常カ
RPWQMLSLOHLFFBF07CC,琿,41.33,常カ
RPWQMLSLOHLFFBF07CC,琿,14.82,常カ
RPVRMLSLOHLFFBF07CC,い琿琿,116.01,常カ
RPXPMLSLOHLFFAF96CC,く琿,.00,常カ
RPRNMLSLOHLFFHF86CC,地い琿,.00,常カ
RPWNMLSLOHLFFHF37CC,胺眃琿,6520.91,常カ
RPSPMLSLOHLFFGF07CC,碔禥琿,.00,常カ
RPRNMLSLOHLFFBF09EC,琿琿,169.00,常カ
RPTPMLTLOHLFFGF27CC,い砍琿,.00,獶常カ ; 獶常カ絪﹚
RPTPMLTLOHLFFCF86CC,腳眏琿,.00,常カ
RPPQMLTLOHLFFEF76CC,そバ琿,24.30,常カㄤ
RPUNMLTLOHLFFHF27CC,獺㎝琿,.00,常カ
RPXOMLTLOHLFFAF96CC,籄琿材畆琿,29.88,常カ
RPQPMLTLOHLFFAF98CC,籄琿材畆琿,.00,常カ
RPQNMLTLOHLFFDF09CC,褐紈琿,3.05,常カ
RPQNMLTLOHLFFDF09CC,褐紈琿,30.00,常カ
RPWNMLTLOHLFFDF07CC,ぱ琿,23.30,常カ
RPWNMLTLOHLFFDF07CC,穝琿,.73,常カ
RPXNMLTLOHLFFDF17CC,ぱ琿,23.01,常カ
RPXNMLTLOHLFFDF17CC,穝琿,.72,常カ
RPOOMLTLOHLFFDF98CC,ぱ琿,23.75,常カ
RPOOMLTLOHLFFDF98CC,穝琿,.74,常カ
RPPOMLTLOHLFFBF88CC,狶琿,24.87,常カ坝
RPUPMLTLOHLFFBF86CC,︽琿,.00,常カ
RPTRMLTLOHLFFBF96CC,琿,21.02,常カ
RPQUMLTLOHLFFBF96CC,瓣琿,12.60,常カ
RPSOMLKMOHLFFHF98CC,蝴琿,.00,常カ
RPPNMLLJPHLFFBF87CC,篴碔琿,65.34,常カ
RPSOMLLJPHLFFBF28CC,瑆琿,35.46,常カ
RPSRMLLJPHLFFBF58CC,狶琿,31.04,常カ
RPPOMLLJPHLFFAF87CC,籄琿材畆琿,37.50,常カ
RPXNMLLJPHLFFIF76CC,厩琿琿,8.01,常カ
RPOOMLLJPHLFFIF58CC,厩琿琿,5.88,常カ
RPPOMLLJPHLFFIF68CC,厩琿琿,18.60,常カ
RPPNMLMJPHLFFDF18CC,醇砍琿,.00,常カㄤ
RPTNMLNJPHLFFDF68CC,醇砍琿,.00,常カ
RPPNMLNJPHLFFEF38CC,λ瞅琿,4.58,常カ
RPQNMLNJPHLFFEF48CC,タ紈琿,26.32,常カ
RPRNMLNJPHLFFDF58DC,ぱ琿,16.28,常カ
RPRNMLNJPHLFFDF58DC,ぱ琿,.07,常カ
RPRNMLNJPHLFFDF58DC,ぱ琿,.00,常カ
RPSNMLNJPHLFFDF68DC,ぱ琿,21.02,常カ
RPWNMLOJPHLFFIF96CC,確砍琿,21.82,常カ坝
RPQOMLOJPHLFFHF98CC,倍笲琿,.00,常カㄤ
RPPOMLOJPHLFFDF48CC,いタ琿,2160.00,常カ
RPSOMLOJPHLFFDF78CC,醇砍琿,.00,常カㄤ
RPOOMLOJPHLFFAF08CC,狾皘琿,.00,常カ
RPRVMLOJPHLFFBF56CC,き琿,2897.44,獶常カ穨跋 ; 獶常カ絪﹚贺縱ノ
RPXNNLOJPHLFFBF09CC,捌常み琿琿,26.54,常カ坝
RPUOMLPJPHLFFBF88CC,︽琿,17.67,常カ
RPXPMLPJPHLFFAF56CC,ゅて琿,.00,常カ
RPVOMLPJPHLFFDF56CC,穝琿,17.45,常カ
RPWOMLPJPHLFFDF66CC,琿,56.48,常カ
RPPOMLPJPHLFFEF68CC,竡琿,28.27,常カ
RPQPMLPJPHLFFIF66CC,瓣琿,49.53,常カ
RPUPMLPJPHLFFAF09EC,地琿,.00,常カ
RPVPMLPJPHLFFAF56EC,睲琿,89.63,常カ
RPXOMLPJPHLFFHF27DC,禩琿,27.22,常カ
RPQRMLQJPHLFFEF76EC,穝蒥琿,1796.75,常カ
RPRRMLQJPHLFFEF86EC,穝蒥琿,1518.61,常カ
RPQOMLQJPHLFFDF98EC,褐紈琿,1894.41,常カ
RPROMLQJPHLFFDF09EC,褐紈琿,195.06,常カ
RPVOMLQJPHLFFDF86EC,穝畃琿,23.23,常カ
RPOPMLQJPHLFFDF88EC,醇砍琿,6.88,常カ
RPPPMLQJPHLFFDF98EC,醇砍琿,8.16,常カ
RPQPMLQJPHLFFDF09EC,醇砍琿,6.01,常カ
RPXWMLQJPHLFFEF77CC,睭琿,13.96,常カ
RPWNMLQJPHLFFHF07CC,贾琿,.00,常カ
RPWNMLQJPHLFFHF07CC,贾琿,.00,常カ
RPWOMLQJPHLFFBF56CC,︽琿,29.69,常カ
RPURMLQJPHLFFBF66CC,ミ紈琿,.00,常カ
RPURMLQJPHLFFBF66CC,琿,.00,常カ
RPPTMLQJPHLFFBF98CC,篴碔琿,.00,常カ
RPVTMLRJPHLFFBF07CC,ミē琿,5.18,常カ
RPXTMLRJPHLFFBF27CC,捌常み琿琿,13.20,常カ
RPQUMLRJPHLFFBF66CC,捌常み琿琿,24.11,常カ坝
RPRUMLRJPHLFFBF76CC,獺地琿琿,20.91,常カ
RPUUMLRJPHLFFBF07CC,い琿,3266.70,常カ
RPPNMLRJPHLFFDF68CC,翠琿翠琿,.00,獶常カ℡玂▅跋 ; 獶常カ絪﹚贺縱ノ
RPQPMLRJPHLFFDF98CC,褐砍琿,.00,常カ
RPQNMLRJPHLFFAF48CC,糳琿,26.05,常カ
RPRNMLRJPHLFFAF58CC,琿,38.08,常カ
RPVNMLRJPHLFFHF07CC,蛮㎝琿,6.97,常カ坝
RPVNMLRJPHLFFHF07CC,蛮㎝琿,2.29,常カ
RPROMLRJPHLFFHF76CC,蛮㎝琿,9.02,常カ坝
RPTPMLRJPHLFFHF07CC,玂胺琿,.00,常カ坝
RPVNMLRJPHLFFEF76CC,そバ琿,17.21,常カ
RPWNMLRJPHLFFEF86CC,闽寸琿,.00,常カ
RPROMLRJPHLFFEF09CC,そバ琿,38.19,常カㄤ
RPXPMLRJPHLFFEF17CC,琶琿,8.04,常カ
RPQQMLRJPHLFFCF98CC,穝琿,.00,常カ
RPVOMLRJPHLFFGF07CC,い砍琿,4.61,常カㄤ
RPRPMLRJPHLFFAF98EC,风砍琿,20.41,常カ
RPXOMLRJPHLFFIF47CC,穝砍琿,183.51,常カ
RPXOMLRJPHLFFIF47CC,穝砍琿,514.02,常カ
RPXOMLRJPHLFFIF47CC,穝砍琿,104.57,常カ
RPPNMLTJPHLFFDF88CC,醇砍琿,.00,常カ坝
RPPNMLKKPHLFFDF08CC,醇砍琿,.00,常カ
RPRNMLKKPHLFFBF08CC,︽琿,25.56,常カ
RPPOMLLKPHLFFBF08CC,穝琿琿,.00,獶常カ穨跋 ; 獶常カ絪﹚贺縱ノ
RPRPMLLKPHLFFBF38CC,篴碔琿,29.67,常カ
RPRQMLLKPHLFFBF48CC,篴碔琿,10.44,常カ
RPSQMLLKPHLFFBF58CC,ミ琿,24.73,常カ坝
RPQRMLLKPHLFFBF48CC,捌常み琿琿,16.69,常カ
RPRRMLLKPHLFFBF58CC,捌常み琿琿,10.79,常カ坝
RPSRMLLKPHLFFBF68CC,い琿,33.13,常カ
RPURMLLKPHLFFBF88CC,︽現琿,57.29,常カ
RPURMLLKPHLFFBF88CC,ㄎ狶琿,19.71,常カ
RPWRMLLKPHLFFBF09CC,藉琿,18.01,常カ
RPXRMLLKPHLFFBF56CC,い琿,40.35,常カ
RPUNMLLKPHLFFDF68CC,玴紈琿,.00,常カ
RPWOMLLKPHLFFAF68CC,┑㎝琿,20.03,常カ
RPWNMLLKPHLFFHF66CC,爵㎝琿,544.16,常カ
RPQPMLLKPHLFFBF48EC,い琿,34.07,常カ
RPUNMLLKPHLFFBF58DC,翠琿,.15,常カ
RPUNMLLKPHLFFBF58DC,翠琿,15.26,常カ
RPVOMLMKPHLFFAF88EC,籄琿材畆琿,46.18,常カ
RPUOMLMKPHLFFIF76CC,厩琿琿,14.60,常カ坝
RPXOMLMKPHLFFIF07CC,く稲琿,10.20,常カ
RPOPMLMKPHLFFIF88CC,厩琿琿,14.56,常カ坝
RPRPMLMKPHLFFIF56CC,琿,117.00,常カ
RPPPMLMKPHLFFHF88CC,チ琿,.00,常カ
RPRPMLMKPHLFFHF09CC,確砍琿,.00,常カ
RPUPMLMKPHLFFHF76CC,く琿,.00,常カ
RPXNMLMKPHLFFGF76CC,い砍琿,.00,常カ
RPXNMLMKPHLFFGF76CC,い砍琿,.00,常カ
RPXNMLMKPHLFFEF56CC,そバ琿,10.96,常カ
RPQOMLMKPHLFFEF58CC,綡そ琿,41.50,常カ
RPXOMLMKPHLFFEF66CC,榜繷琿,565.56,常カ
RPQPMLMKPHLFFEF68CC,ぱ琿,4.92,常カ
RPRPMLMKPHLFFEF78CC,ぱ琿,36.00,常カ
RPSPMLMKPHLFFEF88CC,穝蒥琿,21.56,常カ
RPUPMLMKPHLFFEF09CC,穝蒥琿,24.95,常カ
RPWPMLMKPHLFFEF66CC,そバ琿,23.16,常カ
RPXPMLMKPHLFFEF76CC,皑昂琿,5.78,常カ
RPOQMLMKPHLFFEF58CC,そバ琿,28.95,常カ
RPPQMLMKPHLFFEF68CC,砍琿,4.81,常カ
RPPQMLMKPHLFFEF68CC,砍琿,.16,常カㄤ
RPRQMLMKPHLFFAF48CC,地琿,22.50,常カ
RPUOMLMKPHLFFDF88CC,ぱ琿,.00,常カ
RPUOMLMKPHLFFDF88CC,穝琿,.00,常カ
RPOPMLMKPHLFFDF38CC,纒琿,.39,常カㄤ
RPOPMLMKPHLFFDF38CC,纒琿,.45,獶常カ℡玂▅跋 ; 獶常カ絪﹚贺縱ノ
RPOPMLMKPHLFFDF38CC,纒琿,.01,常カㄤ
RPOPMLMKPHLFFDF38CC,纒琿,.01,常カㄤ
RPSQMLMKPHLFFBF68CC,︽琿,40.54,常カ坝
RPTQMLMKPHLFFBF78CC,腞狶琿,31.88,常カ坝
RPROMLNKPHLFFBF48CC,ミē琿,24.83,常カ
RPSNMLNKPHLFFDF68CC,醇砍琿,.00,常カ
RPVNMLNKPHLFFAF68CC,く琿,.00,常カ坝
RPVNMLNKPHLFFAF68CC,く琿,.00,常カ坝
RPQOMLNKPHLFFGF88CC,い砍琿,.00,常カ
RPXOMLNKPHLFFGF96CC,砍紈琿,.00,常カ
RPXNMLNKPHLFFIF07CC,厩琿琿,106.14,常カ
RPSPMLNKPHLFFEF09DC,穝蒥琿,.00,獶常カ ; 獶常カ絪﹚
RPTNMLNKPHLFFDF88DC,褐紈琿,1894.41,常カ
RPTOMLNKPHLFFHF86EC,チ贾琿,.09,常カㄤ
RPTOMLNKPHLFFHF86EC,チ贾琿,9.91,常カ
RPQOMLOKPHLFFIF76EC,㎝キ琿,2.01,常カ
RPQOMLOKPHLFFIF76EC,㎝キ琿,29.09,常カ
RPQOMLOKPHLFFIF76EC,㎝キ琿,20.46,常カ
RPVNMLOKPHLFFAF88DC,そ繻琿,7.79,常カ
RPTOMLOKPHLFFIF86CC,堕琿,371.69,獶常カ笰穨跋 ; 獶常カ絪﹚贺縱ノ
RPTOMLOKPHLFFIF86CC,堕琿,74.22,獶常カ笰穨跋 ; 獶常カ絪﹚瓣玂ノ
RPQOMLOKPHLFFGF98CC,穝琿滁琿,.00,常カ
RPSNMLOKPHLFFHF56CC,蝴琿,9.56,常カ
RPOOMLOKPHLFFHF88CC,方琿,.00,常カ坝
RPROMLOKPHLFFHF56CC,醇琿,.00,常カ
RPSOMLOKPHLFFHF66CC,玂胺琿,.00,常カ
RPTOMLOKPHLFFHF76CC,玭琿,.00,常カㄤ
RPVOMLOKPHLFFHF96CC,い砍琿,.00,常カ
RPVOMLOKPHLFFHF96CC,い砍琿,.00,常カ
RPVOMLOKPHLFFHF96CC,い砍琿,.00,常カ
RPQPMLOKPHLFFHF56CC,そ堕琿,20.20,常カ
RPSPMLOKPHLFFHF76CC,ッキ琿,.00,常カ
RPTPMLOKPHLFFHF86CC,穝㎝琿,.00,常カ
RPVPMLOKPHLFFHF07CC,チ琿,.00,常カ
RPWPMLOKPHLFFHF17CC,倍笲琿,.00,常カㄤ
RPXPMLOKPHLFFHF27CC,春地琿,18.49,常カ
RPOQMLOKPHLFFHF09CC,蛾硄琿,10.19,常カ
RPSNMLOKPHLFFAF48CC,瓣琿,.00,常カ
RPSNMLOKPHLFFAF48CC,瓣琿,.00,常カ
RPTNMLOKPHLFFAF58CC,琿,3.55,常カ
RPPOMLOKPHLFFAF28CC,穝砍琿,.00,常カ
RPROMLOKPHLFFAF48CC,┎い琿,.00,常カ坝
RPSNMLOKPHLFFDF78CC,纒琿,65.60,常カ
RPSNMLOKPHLFFDF78CC,纒琿,129.52,常カ
RPOOMLOKPHLFFDF48CC,醇砍琿,.00,常カ坝
RPOOMLOKPHLFFDF48CC,醇砍琿,.00,常カ
RPWNMLOKPHLFFBF98CC,い琿,.00,常カ
RPSOMLOKPHLFFBF68CC,き琿,2401.97,獶常カ穨跋 ; 獶常カ絪﹚贺縱ノ
RPUOMLOKPHLFFBF88CC,い琿,.00,獶常カ ; 獶常カ絪﹚
RPOOMLPKPHLFFBF38CC,狶琿,10.09,常カ
RPQOMLPKPHLFFBF58CC,捌常み琿琿,24.11,常カ坝
RPQNMLPKPHLFFDF68CC,醇砍琿,.00,常カ坝
RPROMLPKPHLFFAF58CC,吏琿,.00,常カ
RPVOMLPKPHLFFAF98CC,褐琿,102.00,常カ坝
RPOPMLPKPHLFFAF38CC,穝狾琿琿,4.51,常カㄤ
RPUNMLPKPHLFFIF96CC,チ壁琿,49.75,常カ
RPUNMLPKPHLFFIF96CC,チ壁琿,11.60,常カ
RPTPMLPKPHLFFIF07CC,琿,.00,常カ
RPSPMLPKPHLFFEF76EC,を琿,.00,獶常カ ; 獶常カ絪﹚
RPTPMLPKPHLFFEF86EC,μ琿,19.96,常カ
RPPNMLQKPHLFFBF48CC,い琿,17.54,常カ坝
RPPPMLSKPHLFFBF88CC,い琿,.00,常カ
RPRPMLSKPHLFFBF09CC,瓣琿,32.33,常カ
RPVNMLSKPHLFFDF86CC,穝畃琿,.00,常カ
RPVNMLSKPHLFFDF86CC,穝畃琿,.00,常カ
RPWOMLSKPHLFFDF07CC,ぱ琿,165.29,常カ
RPPPMLSKPHLFFDF09CC,琿,69.70,常カ
RPXNMLSKPHLFFHF47CC,胺眃琿,59.42,常カ
RPOPMLSKPHLFFHF76CC,春キ琿,.00,常カ坝
RPSOMLSKPHLFFGF96CC,褐紈琿,.00,常カ
RPRSMLSKPHLFFEF07CC,そバ琿,.00,常カ
RPOPMLSKPHLFFHF96EC,チ碔琿,.00,常カ
RPOPMLSKPHLFFHF96EC,チ碔琿,.00,常カ
RPOPMLSKPHLFFHF96EC,チ碔琿,.00,常カ
RPQPMLSKPHLFFEF76DC,い砍琿,10.54,常カ
RPVPMLSKPHLFFEF27DC,琶琿,2.75,常カ坝
RPPNMLSKPHLFFFF56DC,傮辰琿傮辰琿,113.00,獶常カ℡玂▅跋 ; 獶常カ絪﹚贺縱ノ
RPQNMLSKPHLFFDF56EC,玂琿,3.90,常カ
RPWNMLSKPHLFFDF17EC,玂琿,7.56,常カ
RPPOMLSKPHLFFDF56EC,玂琿,8.53,常カ
RPROMLSKPHLFFDF76EC,玂琿,8.60,常カ
RPXOMLTKPHLFFAF17EC,ざ关琿,.00,常カ坝
RPUOMLTKPHLFFIF47CC,瓾琿瓾琿,27.25,獶常カ笰穨跋 ; 獶常カ絪﹚ヒ贺縱ノ
RPOPMLTKPHLFFEF56CC,綡そ琿,8.16,常カ
RPPPMLTKPHLFFEF66CC,綡そ琿,32.64,常カ
RPQPMLTKPHLFFEF76CC,綡そ琿,8.16,常カ
RPPPMLTKPHLFFHF96CC,玂胺琿,13.26,常カ
RPPPMLTKPHLFFHF96CC,玂胺琿,2.39,常カ坝
RPQPMLTKPHLFFHF07CC,チ碔琿,24.26,常カ
RPRPMLTKPHLFFHF17CC,玂胺琿,.00,常カ
RPRPMLTKPHLFFHF17CC,玂胺琿,.00,常カ
RPUPMLTKPHLFFHF47CC,く琿,.00,常カ
RPVPMLTKPHLFFHF57CC,玂胺琿,13.79,常カ
RPVPMLTKPHLFFHF57CC,玂胺琿,2.39,常カ坝
RPROMLTKPHLFFDF66CC,ぱ琿,23.30,常カ
RPROMLTKPHLFFDF66CC,穝琿,.73,常カ
RPSOMLTKPHLFFDF76CC,ぱ琿,33.40,常カ
RPSOMLTKPHLFFDF76CC,穝琿,1.04,常カ
RPUOMLTKPHLFFDF96CC,ぱ琿,23.75,常カ
RPUOMLTKPHLFFDF96CC,穝琿,.74,常カ
RPVOMLTKPHLFFDF07CC,ぱ琿,31.47,常カ
RPVOMLTKPHLFFDF07CC,穝琿,.98,常カ
RPWOMLTKPHLFFDF17CC,ぱ琿,23.60,常カ
RPWOMLTKPHLFFDF17CC,穝琿,.74,常カ
RPXOMLTKPHLFFDF27CC,ぱ琿,33.69,常カ
RPXOMLTKPHLFFDF27CC,穝琿,1.05,常カ
RPRNMLTKPHLFFAF88CC,穝懂琿,17.85,常カ
RPVNMLKLPHLFFAF48CC,く稲琿,.00,常カ
RPPNMLKLPHLFFDF18CC,醇砍琿,.00,常カ
RPROMLKLPHLFFHF88CC,穝チ琿,.00,常カ
RPXOMLKLPHLFFIF96CC,チネ琿,10.17,常カ
RPXOMLKLPHLFFIF96CC,チネ琿,7.18,常カ
RPXOMLKLPHLFFIF96CC,チネ琿,7.69,常カ
RPPNMLKLPHLFFFF38CC,くń琿,.00,常カ
RPPNMLKLPHLFFFF38CC,くń琿,.00,常カ
RPPNMLKLPHLFFFF38CC,くń琿,.00,常カ
RPQNMLKLPHLFFCF38EC,琿,68.13,常カㄤ
RPWNMLLLPHLFFDF56EC,醇砍琿,6.88,常カ
RPROMLLLPHLFFIF66EC,厩琿琿,17.20,常カ
RPSNMLLLPHLFFHF98CC,倍笲琿,.00,常カㄤ
RPVNMLLLPHLFFHF66CC,穝㎝琿,22.06,常カ
RPXOMLLLPHLFFHF96CC,贾琿,.00,常カ
RPWRMLLLPHLFFEF86CC,‵盵琿,.00,常カ坝
RPWRMLLLPHLFFEF86CC,‵盵琿,.00,常カ坝
RPQNMLLLPHLFFGF68CC,砍琿,.00,常カ
RPQNMLLLPHLFFGF68CC,砍琿,.00,常カ坝
RPQQMLLLPHLFFBF48CC,┋褐琿,25.78,常カ
RPQNMLMLPHLFFBF28CC,︽琿,14.59,常カ
RPSNMLMLPHLFFBF48CC,︽現琿,87.76,常カ坝
RPVOMLMLPHLFFBF88CC,窹琿窹琿,2088.00,獶常カ笰穨跋 ; 獶常カ絪﹚笰ノ
RPSSMLMLPHLFFAF88CC,縲︽琿,12.26,常カ
RPWSMLMLPHLFFAF66CC,縲︽琿,12.60,常カ
RPPPMLMLPHLFFEF68CC,榜繷琿,944.16,常カ
RPUPMLMLPHLFFEF56CC,そバ琿,22.70,常カ
RPUNMLMLPHLFFHF66CC,ッ褐琿,.00,常カ
RPQOMLMLPHLFFHF98CC,い琿,.00,常カ
RPTOMLMLPHLFFAF68DC,笲琿,25.70,常カ
RPOPMLMLPHLFFIF98CC,厩琿琿,.00,常カ坝
RPQNMLNLPHLFFIF09CC,厩琿琿,16.37,常カ
RPRNMLNLPHLFFIF56CC,厩琿琿,12.09,常カ坝
RPSNMLNLPHLFFIF66CC,匪琿,10.18,常カ
RPPNMLOLPHLFFDF58CC,方琿,.00,常カ
RPPNMLOLPHLFFBF38CC,ミ琿,8.32,常カ坝
RPSNMLOLPHLFFBF68CC,い港琿,40.16,常カ
RPSNMLOLPHLFFBF68CC,い港琿,20.08,常カ
RPTNMLOLPHLFFBF78CC,伦琿,23.91,常カ
RPUNMLOLPHLFFBF88CC,瑆琿,13.20,常カ
RPVNMLOLPHLFFBF98CC,获琿,26.04,常カ
RPTNMLPLPHLFFBF88CC,篴碔琿,7.76,常カ
RPXPMLPLPHLFFBF86CC,紈琿,1348.41,常カㄤ
RPXPMLPLPHLFFBF86CC,紈琿,134.48,常カㄤ
RPXQMLPLPHLFFBF96CC,い琿,21.30,常カ
RPORMLPLPHLFFBF78CC,篴碔琿,31.38,常カ
RPPRMLPLPHLFFBF88CC,捌常み琿琿,33.76,常カ
RPPNMLPLPHLFFDF68CC,醇砍琿,.00,常カ坝
RPPNMLPLPHLFFDF68CC,醇砍琿,.00,常カ
RPQNMLPLPHLFFDF78CC,醇砍琿,.00,常カㄤ
RPRNMLPLPHLFFDF88CC,醇砍琿,.00,常カ
RPSNMLPLPHLFFDF98CC,醇砍琿,.00,常カ
RPSNMLPLPHLFFDF98CC,醇砍琿,.00,常カㄤ
RPWNMLPLPHLFFDF76CC,纒琿,.00,常カ
RPPOMLPLPHLFFHF56CC,胺眃琿,.00,常カ
RPXOMLPLPHLFFCF86CC,紈琿,.00,常カ
RPUPMLPLPHLFFCF66CC,地琿,239.63,常カ
RPSOMLPLPHLFFCF56EC,琿ó隔琿,31.76,獶常カ℡玂▅跋 ; 獶常カ絪﹚贺縱ノ
RPVOMLQLPHLFFCF96EC,腳眏琿,281.82,常カ
RPVOMLQLPHLFFCF96EC,腳眏琿,.12,常カ
RPVOMLQLPHLFFCF96EC,腳眏琿,.17,常カㄤ
RPVOMLQLPHLFFCF96EC,腳眏琿,.23,常カ
RPWOMLQLPHLFFCF07EC,チ舦琿,42.92,常カ
RPWPMLQLPHLFFAF96EC,㎝キ琿,7.21,常カ
RPXOMLQLPHLFFIF57CC,睰琿睰琿,426.00,獶常カ℡玂▅跋 ; 獶常カ絪﹚笰ノ
RPQOMLQLPHLFFGF66CC,タ竡琿,.00,常カ
RPTNMLQLPHLFFEF66CC,そバ琿,25.77,常カ
RPQNMLQLPHLFFHF66CC,地褐琿,50.45,常カ
RPPNMLQLPHLFFAF48CC,琿,41.83,常カ
RPTQMLQLPHLFFAF56CC,く琿,.00,常カ
RPOOMLQLPHLFFBF58CC,狶琿,11.21,常カ
RPXPMLQLPHLFFBF96CC,い琿,.00,常カ坝
RPRQMLQLPHLFFBF09CC,瑆琿,.00,常カ
RPQSMLRLPHLFFBF66CC,狶琿,8.35,常カ坝
RPTOMLRLPHLFFHF17CC,玭琿,.00,常カ
RPUNMLRLPHLFFEF86CC,穝蒥琿,8.31,常カ
RPPOMLRLPHLFFEF09CC,穝砍琿,23.88,常カㄤ
RPSNMLRLPHLFFCF09CC,紈琿,16.71,常カ
RPSNMLRLPHLFFCF09CC,紈琿,8.11,常カ
RPSNMLRLPHLFFCF09CC,紈琿,20.29,常カ
RPUNMLRLPHLFFCF66CC,磃瓣琿,12.49,常カ
RPPOMLRLPHLFFAF88EC,い琿,13.38,常カ
RPQOMLSLPHLFFBF09DC,狶琿,11.99,常カ坝
RPQNMLSLPHLFFHF07EC,琿,7.75,常カ
RPRNMLSLPHLFFHF17EC,玂ネ琿,9.17,常カ
RPSNMLSLPHLFFHF27EC,玂ネ琿,22.06,常カ
RPUOMLSLPHLFFBF76CC,瓣琿,17.79,常カ
RPWOMLSLPHLFFBF96CC,翬褐琿,57.00,常カ
RPPPMLSLPHLFFBF98CC,翬褐琿,57.55,常カ
RPQPMLSLPHLFFBF09CC,翬褐琿,77.46,常カ
RPSNMLSLPHLFFDF66CC,醇砍琿,.00,常カ坝
RPSNMLSLPHLFFDF66CC,醇砍琿,.00,常カ坝
RPSNMLSLPHLFFDF66CC,醇砍琿,.00,常カ坝
RPXNMLSLPHLFFDF17CC,ぱ琿,33.40,常カ
RPXNMLSLPHLFFDF17CC,穝琿,1.04,常カ
RPQNMLTLPHLFFDF56CC,琿,.00,常カ
RPQNMLTLPHLFFDF56CC,琿,.00,常カ
RPSNMLTLPHLFFDF76CC,穝琿,.00,常カ
RPTNMLTLPHLFFDF86CC,玂琿,.00,常カ
RPSOMLTLPHLFFBF66CC,瓣琿,.00,常カ
RPXPMLTLPHLFFEF57CC,穝蒥琿,15.84,常カ
RPQQMLTLPHLFFBF86EC,確砍琿,30.66,常カ
RPWNMLTLPHLFFEF37DC,穝砍琿,.00,獶常カ ; 獶常カ絪﹚
RPQNMLKMPHLFFEF58DC,いタ琿,3.34,常カ坝
RPPNMLKMPHLFFEF38CC,厩┎琿,25.13,常カ
RPPNMLKMPHLFFHF68CC,禩琿,7.03,常カ
RPPNMLKMPHLFFBF08CC,︽琿,26.31,常カ坝
RPSNMLKMPHLFFBF38CC,瓣琿,28.28,常カ
RPQNMLKMPHLFFDF38CC,醇砍琿,.00,常カ坝
RPPNMLKMPHLFFAF97CC,㎝キ琿,32.50,常カ
RPPNMLLMPHLFFCF28CC,腳爵琿,.00,常カ
RPQNMLLMPHLFFCF38CC,腳じ琿,65.39,常カ
RPRNMLLMPHLFFCF48CC,腳爵琿,.00,常カ
RPSNMLLMPHLFFCF58CC,腳爵琿,40.00,常カ
