編號,車位類別,車位價格,車位面積平方公尺
RPQPMLPJNHLFFBF28CB,坡道平面,2200000,34.71
RPQPMLPJNHLFFBF28CB,坡道平面,2100000,33.06
RPRPMLPJNHLFFBF38CB,坡道平面,2100000,34.71
RPSPMLPJNHLFFBF48CB,坡道平面,2200000,34.71
RPTPMLPJNHLFFBF58CB,坡道平面,2000000,33.06
RPPOMLQJNHLFFCF28CB,坡道平面,2550000,21.05
RPSNMLTJNHLFFCF78CB,坡道平面,2950000,25.45
RPWOMLTJNHLFFDF76CB,坡道平面,0,23.03
RPXOMLTJNHLFFDF86CB,坡道平面,0,23.03
RPRPMLTJNHLFFDF98CB,坡道平面,0,23.03
RPTPMLTJNHLFFDF56CB,坡道平面,0,19.80
RPUPMLTJNHLFFDF66CB,坡道平面,0,23.03
RPWPMLTJNHLFFDF86CB,坡道平面,0,23.03
RPROMLKKNHLFFCF97CB,坡道平面,2450000,21.43
RPVNMLLKNHLFFDF48CB,坡道平面,0,23.03
RPWNMLLKNHLFFDF58CB,坡道平面,0,23.03
RPPPMLLKNHLFFDF08CB,坡道平面,0,23.03
RPRNMLNKNHLFFBF08CB,坡道平面,1600000,23.50
RPSNMLNKNHLFFBF18CB,坡道機械,950000,14.75
RPTNMLNKNHLFFBF28CB,塔式車位,900000,13.79
RPUNMLNKNHLFFBF38CB,坡道機械,1050000,14.75
RPVNMLNKNHLFFBF48CB,坡道平面,1800000,23.50
RPXNMLNKNHLFFBF68CB,坡道平面,1700000,23.50
RPUQMLQJOHLFFBF98CB,坡道平面,1600000,31.24
RPXRMLQJOHLFFBF76CB,坡道平面,1800000,31.24
RPQTMLQJOHLFFBF88CB,坡道平面,1900000,33.50
RPSTMLQJOHLFFBF09CB,坡道平面,1550000,33.50
RPWTMLQJOHLFFBF86CB,坡道平面,1550000,33.50
RPOUMLQJOHLFFBF78CB,坡道平面,1650000,33.50
RPRUMLQJOHLFFBF09CB,坡道平面,1300000,33.50
RPTVMLQJOHLFFBF76CB,坡道平面,1800000,33.50
RPVVMLQJOHLFFBF96CB,坡道平面,1800000,33.50
RPWVMLQJOHLFFBF07CB,坡道平面,1800000,33.50
RPXVMLQJOHLFFBF17CB,坡道平面,1800000,33.50
RPOWMLQJOHLFFBF98CB,坡道平面,1800000,33.50
RPQWMLQJOHLFFBF56CB,坡道平面,1800000,33.50
RPRWMLQJOHLFFBF66CB,坡道平面,1800000,33.50
RPSWMLQJOHLFFBF76CB,坡道平面,1800000,33.50
RPSWMLQJOHLFFBF76CB,坡道平面,1900000,33.50
RPTWMLQJOHLFFBF86CB,坡道平面,1700000,33.50
RPUWMLQJOHLFFBF96CB,坡道平面,1700000,33.50
RPVWMLQJOHLFFBF07CB,坡道平面,1700000,33.50
RPWWMLQJOHLFFBF17CB,坡道平面,1400000,33.50
RPXWMLQJOHLFFBF27CB,坡道平面,1550000,33.50
RPONNLQJOHLFFBF18CB,坡道平面,1800000,33.50
RPPNNLQJOHLFFBF28CB,坡道平面,1700000,33.50
RPQNNLQJOHLFFBF38CB,坡道平面,1550000,33.50
RPRNNLQJOHLFFBF48CB,坡道平面,1800000,33.50
RPSNNLQJOHLFFBF58CB,坡道平面,1650000,33.50
RPTNNLQJOHLFFBF68CB,坡道平面,1200000,33.50
RPUNNLQJOHLFFBF78CB,坡道平面,1300000,33.50
RPWNNLQJOHLFFBF98CB,坡道平面,1700000,33.50
RPXNMLRJOHLFFBF09CB,坡道平面,1800000,31.24
RPXNMLRJOHLFFBF09CB,坡道平面,1500000,31.24
RPOOMLRJOHLFFBF28CB,坡道平面,1600000,31.24
RPOOMLRJOHLFFBF28CB,坡道平面,1600000,31.24
RPPOMLRJOHLFFBF38CB,坡道平面,1700000,31.24
RPPOMLRJOHLFFBF38CB,坡道平面,1700000,31.24
RPQOMLRJOHLFFBF48CB,坡道平面,1700000,31.24
RPQOMLRJOHLFFBF48CB,坡道平面,1700000,31.24
RPROMLRJOHLFFBF58CB,坡道平面,1700000,31.24
RPTOMLRJOHLFFBF78CB,坡道平面,1700000,31.24
RPUOMLRJOHLFFBF88CB,坡道平面,1700000,31.24
RPVOMLRJOHLFFBF98CB,坡道平面,1700000,31.24
RPWOMLRJOHLFFBF09CB,坡道平面,1700000,31.24
RPUPMLRJOHLFFBF98CB,坡道平面,1700000,31.24
RPVPMLRJOHLFFBF09CB,坡道平面,1400000,31.24
RPVPMLRJOHLFFBF09CB,坡道平面,1700000,31.24
RPWPMLRJOHLFFBF56CB,坡道平面,1600000,31.24
RPXPMLRJOHLFFBF66CB,坡道平面,1700000,31.24
RPOQMLRJOHLFFBF48CB,坡道平面,1700000,31.24
RPQQMLRJOHLFFBF68CB,坡道平面,1700000,31.24
RPRQMLRJOHLFFBF78CB,坡道平面,1700000,31.24
RPSQMLRJOHLFFBF88CB,坡道平面,1700000,31.24
RPTQMLRJOHLFFBF98CB,坡道平面,1500000,29.19
RPUQMLRJOHLFFBF09CB,坡道平面,1700000,31.24
RPVQMLRJOHLFFBF56CB,坡道平面,1700000,31.24
RPPRMLRJOHLFFBF68CB,坡道平面,1500000,29.19
RPWRMLRJOHLFFBF76CB,坡道平面,1600000,31.24
RPXRMLRJOHLFFBF86CB,坡道平面,1700000,31.24
RPPSMLRJOHLFFBF78CB,坡道平面,1600000,31.24
RPRSMLRJOHLFFBF98CB,坡道平面,1700000,31.24
RPSSMLRJOHLFFBF09CB,坡道平面,1700000,31.24
RPVTMLRJOHLFFBF86CB,坡道平面,1800000,29.19
RPVTMLRJOHLFFBF86CB,坡道平面,1500000,29.19
RPWTMLRJOHLFFBF96CB,坡道平面,1550000,31.24
RPWTMLRJOHLFFBF96CB,坡道平面,1550000,31.24
RPWTMLRJOHLFFBF96CB,坡道平面,1560000,31.24
RPXTMLRJOHLFFBF07CB,坡道平面,1700000,31.24
RPPUMLRJOHLFFBF98CB,坡道平面,1600000,31.24
RPPUMLRJOHLFFBF98CB,坡道平面,1600000,31.24
RPQUMLRJOHLFFBF09CB,坡道平面,1800000,31.24
RPRUMLRJOHLFFBF56CB,坡道平面,1700000,31.24
RPRUMLRJOHLFFBF56CB,坡道平面,1700000,31.24
RPSUMLRJOHLFFBF66CB,坡道平面,1700000,31.24
RPUUMLRJOHLFFBF86CB,坡道平面,1800000,31.24
RPUUMLRJOHLFFBF86CB,坡道平面,1700000,31.24
RPVUMLRJOHLFFBF96CB,坡道平面,1800000,31.24
RPVUMLRJOHLFFBF96CB,坡道平面,1800000,31.24
RPXUMLRJOHLFFBF17CB,坡道平面,1700000,31.24
RPXUMLRJOHLFFBF17CB,坡道平面,1700000,31.24
RPPVMLRJOHLFFBF09CB,坡道平面,1800000,31.24
RPPVMLRJOHLFFBF09CB,坡道平面,1800000,31.24
RPQVMLRJOHLFFBF56CB,坡道平面,1800000,31.24
RPRVMLRJOHLFFBF66CB,坡道平面,1600000,31.24
RPSVMLRJOHLFFBF76CB,坡道平面,1700000,31.24
RPTVMLRJOHLFFBF86CB,坡道平面,1600000,29.19
RPVVMLRJOHLFFBF07CB,坡道平面,1500000,29.19
RPWVMLRJOHLFFBF17CB,坡道平面,1600000,31.24
RPXVMLRJOHLFFBF27CB,坡道平面,1700000,31.24
RPOWMLRJOHLFFBF09CB,坡道平面,1700000,31.24
RPPWMLRJOHLFFBF56CB,坡道平面,1800000,31.24
RPQWMLRJOHLFFBF66CB,坡道平面,1600000,31.24
RPRWMLRJOHLFFBF76CB,坡道平面,1600000,31.24
RPTWMLRJOHLFFBF96CB,坡道平面,1800000,31.24
RPUWMLRJOHLFFBF07CB,坡道平面,1800000,31.24
RPVWMLRJOHLFFBF17CB,坡道平面,1800000,31.24
RPWWMLRJOHLFFBF27CB,坡道平面,1700000,29.19
RPXWMLRJOHLFFBF37CB,坡道平面,1900000,31.24
RPONNLRJOHLFFBF28CB,坡道平面,1700000,31.24
RPPNNLRJOHLFFBF38CB,坡道平面,1500000,29.19
RPQNNLRJOHLFFBF48CB,坡道平面,1500000,29.19
RPRNNLRJOHLFFBF58CB,坡道平面,1600000,31.24
RPTNNLRJOHLFFBF78CB,坡道平面,1600000,31.24
RPUNNLRJOHLFFBF88CB,坡道平面,1700000,29.19
RPWNNLRJOHLFFBF09CB,坡道平面,1700000,31.24
RPXNNLRJOHLFFBF56CB,坡道平面,1600000,31.24
RPOONLRJOHLFFBF38CB,坡道平面,1600000,31.24
RPPONLRJOHLFFBF48CB,坡道平面,1600000,31.24
RPQONLRJOHLFFBF58CB,坡道平面,1300000,29.19
RPRONLRJOHLFFBF68CB,坡道平面,1800000,31.24
RPSONLRJOHLFFBF78CB,坡道平面,1600000,31.24
RPTONLRJOHLFFBF88CB,坡道平面,1700000,31.24
RPUONLRJOHLFFBF98CB,坡道平面,1600000,31.24
RPVONLRJOHLFFBF09CB,坡道平面,1500000,29.19
RPWONLRJOHLFFBF56CB,坡道平面,1700000,31.24
RPXQMLSJOHLFFEF17CB,坡道平面,1600000,32.90
RPORMLSJOHLFFEF98CB,坡道平面,1600000,32.90
RPQRMLSJOHLFFEF56CB,坡道平面,1800000,34.96
RPROMLNKOHLFFBF28CB,坡道平面,1800000,33.50
RPSOMLNKOHLFFBF38CB,坡道平面,1800000,33.50
RPTOMLNKOHLFFBF48CB,坡道平面,1800000,33.50
RPUOMLNKOHLFFBF58CB,坡道平面,1800000,33.50
RPVOMLNKOHLFFBF68CB,坡道平面,1550000,33.50
RPWOMLNKOHLFFBF78CB,坡道平面,1800000,33.50
RPXOMLNKOHLFFBF88CB,坡道平面,1500000,33.50
RPOPMLNKOHLFFBF08CB,坡道平面,1200000,33.50
RPPPMLNKOHLFFBF18CB,坡道平面,1400000,33.50
RPQPMLNKOHLFFBF28CB,坡道平面,1600000,33.50
RPRPMLNKOHLFFBF38CB,坡道平面,1800000,33.50
RPSPMLNKOHLFFBF48CB,坡道平面,1700000,33.50
RPTPMLNKOHLFFBF58CB,坡道平面,1400000,33.50
RPUPMLNKOHLFFBF68CB,坡道平面,1400000,33.50
RPVPMLNKOHLFFBF78CB,坡道平面,1650000,33.50
RPWPMLNKOHLFFBF88CB,坡道平面,1700000,33.50
RPXPMLNKOHLFFBF98CB,坡道平面,1800000,33.50
RPOQMLNKOHLFFBF18CB,坡道平面,1550000,33.50
RPOQMLNKOHLFFBF18CB,坡道平面,1450000,33.50
RPPQMLNKOHLFFBF28CB,坡道平面,1450000,33.50
RPQQMLNKOHLFFBF38CB,坡道平面,1700000,33.50
RPRQMLNKOHLFFBF48CB,坡道平面,1500000,33.50
RPSQMLNKOHLFFBF58CB,坡道平面,1450000,33.50
RPUQMLNKOHLFFBF78CB,坡道平面,1800000,33.50
RPVQMLNKOHLFFBF88CB,坡道平面,1300000,33.50
RPXQMLNKOHLFFBF09CB,坡道平面,1300000,33.50
RPORMLNKOHLFFBF28CB,坡道平面,1550000,33.50
RPPRMLNKOHLFFBF38CB,坡道平面,1750000,33.50
RPRRMLNKOHLFFBF58CB,坡道平面,1450000,33.50
RPSRMLNKOHLFFBF68CB,坡道平面,1450000,33.50
RPTRMLNKOHLFFBF78CB,坡道平面,1450000,33.50
RPVRMLNKOHLFFBF98CB,坡道平面,1400000,33.50
RPWRMLNKOHLFFBF09CB,坡道平面,1600000,33.50
RPXRMLNKOHLFFBF56CB,坡道平面,1500000,33.50
RPOSMLNKOHLFFBF38CB,坡道平面,1450000,33.50
RPPSMLNKOHLFFBF48CB,坡道平面,1300000,33.50
RPRSMLNKOHLFFBF68CB,坡道平面,1350000,33.50
RPTSMLNKOHLFFBF88CB,坡道平面,1300000,33.50
RPVSMLNKOHLFFBF09CB,坡道平面,1900000,33.50
RPWSMLNKOHLFFBF56CB,坡道平面,1300000,33.50
RPXSMLNKOHLFFBF66CB,坡道平面,1400000,33.50
RPXSMLNKOHLFFBF66CB,坡道平面,1400000,33.50
RPPTMLNKOHLFFBF58CB,坡道平面,1400000,33.50
RPQTMLNKOHLFFBF68CB,坡道平面,1400000,33.50
RPXNMLPKOHLFFIF07CB,坡道平面,0,37.53
RPOOMLPKOHLFFIF88CB,坡道平面,0,37.53
RPPOMLPKOHLFFIF98CB,坡道平面,0,35.49
RPROMLPKOHLFFIF56CB,坡道平面,0,37.53
RPROMLPKOHLFFIF56CB,坡道平面,0,37.53
RPSOMLPKOHLFFIF66CB,坡道平面,0,37.53
RPTOMLPKOHLFFIF76CB,坡道平面,0,35.49
RPUOMLPKOHLFFIF86CB,坡道平面,0,37.53
RPVOMLPKOHLFFIF96CB,坡道平面,0,37.53
RPPPMLPKOHLFFIF09CB,坡道平面,0,37.53
RPQPMLPKOHLFFIF56CB,坡道平面,0,35.49
RPRPMLPKOHLFFIF66CB,坡道平面,0,37.53
RPSPMLPKOHLFFIF76CB,坡道平面,0,37.53
RPTPMLPKOHLFFIF86CB,坡道平面,0,37.53
RPUPMLPKOHLFFIF96CB,坡道平面,0,37.53
RPPQMLPKOHLFFIF56CB,坡道平面,0,37.53
RPPQMLPKOHLFFIF56CB,坡道平面,0,37.53
RPQQMLPKOHLFFIF66CB,坡道平面,0,37.53
RPQQMLPKOHLFFIF66CB,坡道平面,0,35.49
RPRQMLPKOHLFFIF76CB,坡道平面,0,37.53
RPSQMLPKOHLFFIF86CB,坡道平面,0,37.53
RPTQMLPKOHLFFIF96CB,坡道平面,0,37.53
RPWQMLPKOHLFFIF27CB,坡道平面,0,37.53
RPORMLPKOHLFFIF56CB,坡道平面,0,37.53
RPRRMLPKOHLFFIF86CB,坡道平面,0,37.53
RPRRMLPKOHLFFIF86CB,坡道平面,0,37.53
RPTRMLPKOHLFFIF07CB,坡道平面,0,37.53
RPURMLPKOHLFFIF17CB,坡道平面,0,35.49
RPWRMLPKOHLFFIF37CB,坡道平面,0,37.53
RPOSMLPKOHLFFIF66CB,坡道平面,0,37.53
RPPSMLPKOHLFFIF76CB,坡道平面,0,35.49
RPQSMLPKOHLFFIF86CB,坡道平面,0,37.53
RPRSMLPKOHLFFIF96CB,坡道平面,0,37.53
RPSSMLPKOHLFFIF07CB,坡道平面,0,37.53
RPTSMLPKOHLFFIF17CB,坡道平面,0,35.49
RPUSMLPKOHLFFIF27CB,坡道平面,0,37.53
RPOTMLPKOHLFFIF76CB,坡道平面,0,37.53
RPOTMLPKOHLFFIF76CB,坡道平面,0,37.53
RPPTMLPKOHLFFIF86CB,坡道平面,0,37.53
RPPTMLPKOHLFFIF86CB,坡道平面,0,37.53
RPQTMLPKOHLFFIF96CB,坡道平面,0,37.53
RPRTMLPKOHLFFIF07CB,坡道平面,0,35.49
RPSTMLPKOHLFFIF17CB,坡道平面,0,37.53
RPTTMLPKOHLFFIF27CB,坡道平面,0,35.49
RPTTMLPKOHLFFIF27CB,坡道平面,0,35.49
RPVTMLPKOHLFFIF47CB,坡道平面,0,35.49
RPWTMLPKOHLFFIF57CB,坡道平面,0,37.53
RPWTMLPKOHLFFIF57CB,坡道平面,0,35.49
RPOUMLPKOHLFFIF86CB,坡道平面,0,35.49
RPQUMLPKOHLFFIF07CB,坡道平面,0,37.53
RPRUMLPKOHLFFIF17CB,坡道平面,0,37.53
RPTUMLPKOHLFFIF37CB,坡道平面,0,37.53
RPUUMLPKOHLFFIF47CB,坡道平面,0,37.53
RPVUMLPKOHLFFIF57CB,坡道平面,0,37.53
RPWUMLPKOHLFFIF67CB,坡道平面,0,37.53
RPXUMLPKOHLFFIF77CB,坡道平面,0,37.53
RPXUMLPKOHLFFIF77CB,坡道平面,0,37.53
RPOVMLPKOHLFFIF96CB,坡道平面,0,37.53
RPTTMLKLOHLFFBF88DB,坡道平面,1600000,17.50
RPTTMLKLOHLFFBF88DB,坡道平面,1600000,17.50
RPUTMLKLOHLFFBF98DB,坡道平面,1550000,17.50
RPVTMLKLOHLFFBF09DB,坡道平面,1600000,19.17
RPWTMLKLOHLFFBF56DB,坡道平面,1600000,19.17
RPXTMLKLOHLFFBF66DB,坡道平面,1650000,19.17
RPOUMLKLOHLFFBF48DB,坡道平面,1600000,17.50
RPOUMLKLOHLFFBF48DB,坡道平面,1650000,19.17
RPPUMLKLOHLFFBF58DB,坡道平面,1550000,19.17
RPPUMLKLOHLFFBF58DB,坡道平面,1550000,19.17
RPQUMLKLOHLFFBF68DB,坡道平面,1600000,17.50
RPQUMLKLOHLFFBF68DB,坡道平面,1600000,17.50
RPRUMLKLOHLFFBF78DB,坡道平面,1650000,19.17
RPRUMLKLOHLFFBF78DB,坡道平面,1650000,19.17
RPSUMLKLOHLFFBF88DB,坡道平面,1500000,17.50
RPSUMLKLOHLFFBF88DB,坡道平面,1500000,17.50
RPTUMLKLOHLFFBF98DB,坡道平面,1600000,19.17
RPTUMLKLOHLFFBF98DB,坡道平面,1550000,17.50
RPRNMLLLOHLFFBF18DB,坡道平面,1550000,19.17
RPRNMLLLOHLFFBF18DB,坡道平面,1550000,19.17
RPTNMLLLOHLFFBF38DB,坡道平面,1600000,19.17
RPPRMLLLOHLFFBF38DB,坡道平面,1550000,19.17
RPRRMLLLOHLFFBF58DB,坡道平面,1550000,19.17
RPSRMLLLOHLFFBF68DB,坡道平面,1600000,17.50
RPSRMLLLOHLFFBF68DB,坡道平面,1600000,17.50
RPRNMLLLOHLFFAF18EB,坡道平面,1750000,29.50
RPTNMLLLOHLFFAF38EB,坡道平面,1950000,29.50
RPWNMLMLOHLFFBF78DB,坡道平面,1550000,17.50
RPWNMLMLOHLFFBF78DB,坡道平面,1550000,17.50
RPXNMLMLOHLFFBF88DB,坡道平面,1550000,17.50
RPPOMLMLOHLFFBF18DB,坡道平面,1550000,19.17
RPROMLMLOHLFFBF38DB,坡道平面,1600000,17.50
RPROMLMLOHLFFBF38DB,坡道平面,1600000,17.50
RPSOMLMLOHLFFBF48DB,坡道平面,1550000,17.50
RPSOMLMLOHLFFBF48DB,坡道平面,1550000,17.50
RPWOMLMLOHLFFBF88DB,坡道平面,1550000,19.17
RPOPMLMLOHLFFBF18DB,坡道平面,1550000,19.17
RPTPMLMLOHLFFBF68DB,坡道平面,1550000,19.17
RPTPMLMLOHLFFBF68DB,坡道平面,1550000,19.17
RPWPMLMLOHLFFBF98DB,坡道平面,1550000,19.17
RPPQMLMLOHLFFBF38DB,坡道平面,1500000,17.50
RPQQMLMLOHLFFBF48DB,坡道平面,1600000,19.17
RPQQMLMLOHLFFBF48DB,坡道平面,1500000,17.50
RPRQMLMLOHLFFBF58DB,坡道平面,1500000,17.50
RPTQMLMLOHLFFBF78DB,坡道平面,1550000,17.50
RPVQMLMLOHLFFBF98DB,坡道平面,1500000,19.17
RPWQMLMLOHLFFBF09DB,坡道平面,1400000,17.50
RPWQMLMLOHLFFBF09DB,坡道平面,1400000,17.50
RPXQMLMLOHLFFBF56DB,坡道平面,1600000,19.17
RPORMLMLOHLFFBF38DB,坡道平面,1600000,19.17
RPPRMLMLOHLFFBF48DB,坡道平面,1500000,17.50
RPQRMLMLOHLFFBF58DB,坡道平面,1400000,17.50
RPRRMLMLOHLFFBF68DB,坡道平面,1200000,17.50
RPSRMLMLOHLFFBF78DB,坡道平面,1200000,17.50
RPTRMLMLOHLFFBF88DB,坡道平面,1200000,19.17
RPURMLMLOHLFFBF98DB,坡道平面,1200000,19.17
RPVRMLMLOHLFFBF09DB,坡道平面,1550000,19.17
RPVRMLMLOHLFFBF09DB,坡道平面,1550000,19.17
RPWRMLMLOHLFFBF56DB,坡道平面,1550000,17.50
RPWRMLMLOHLFFBF56DB,坡道平面,1550000,17.50
RPXRMLMLOHLFFBF66DB,坡道平面,1500000,17.50
RPXRMLMLOHLFFBF66DB,坡道平面,1550000,19.17
RPOSMLMLOHLFFBF48DB,坡道平面,1500000,17.50
RPOSMLMLOHLFFBF48DB,坡道平面,1500000,17.50
RPPSMLMLOHLFFBF58DB,坡道平面,1650000,19.17
RPPSMLMLOHLFFBF58DB,坡道平面,1600000,17.50
RPQSMLMLOHLFFBF68DB,坡道平面,1500000,17.50
RPQSMLMLOHLFFBF68DB,坡道平面,1500000,17.50
RPRSMLMLOHLFFBF78DB,坡道平面,1700000,19.17
RPRSMLMLOHLFFBF78DB,坡道平面,1650000,17.50
RPSSMLMLOHLFFBF88DB,坡道平面,1500000,17.50
RPSSMLMLOHLFFBF88DB,坡道平面,1500000,17.50
RPTSMLMLOHLFFBF98DB,坡道平面,1550000,17.50
RPTSMLMLOHLFFBF98DB,坡道平面,1550000,17.50
RPUSMLMLOHLFFBF09DB,坡道平面,1550000,19.17
RPUSMLMLOHLFFBF09DB,坡道平面,1550000,19.17
RPWSMLMLOHLFFBF66DB,坡道平面,1800000,20.52
RPWSMLMLOHLFFBF66DB,坡道平面,1600000,17.50
RPRTMLMLOHLFFBF88DB,坡道平面,1700000,19.17
RPRTMLMLOHLFFBF88DB,坡道平面,1700000,19.17
RPSTMLMLOHLFFBF98DB,坡道平面,1700000,19.17
RPSTMLMLOHLFFBF98DB,坡道平面,1650000,17.50
RPTTMLMLOHLFFBF09DB,坡道平面,1550000,17.50
RPTTMLMLOHLFFBF09DB,坡道平面,1550000,17.50
RPUTMLMLOHLFFBF56DB,坡道平面,1600000,19.17
RPUTMLMLOHLFFBF56DB,坡道平面,1600000,19.17
RPVTMLMLOHLFFBF66DB,坡道平面,1600000,17.50
RPVTMLMLOHLFFBF66DB,坡道平面,1600000,17.50
RPWTMLMLOHLFFBF76DB,坡道平面,1650000,17.50
RPWTMLMLOHLFFBF76DB,坡道平面,1700000,19.17
RPWTMLMLOHLFFBF76DB,坡道平面,1700000,19.17
RPOUMLMLOHLFFBF68DB,坡道平面,1500000,17.50
RPOUMLMLOHLFFBF68DB,坡道平面,1550000,19.17
RPPUMLMLOHLFFBF78DB,坡道平面,1700000,19.17
RPPUMLMLOHLFFBF78DB,坡道平面,1650000,17.50
RPRUMLMLOHLFFBF98DB,坡道平面,1500000,17.50
RPRUMLMLOHLFFBF98DB,坡道平面,1500000,17.50
RPSUMLMLOHLFFBF09DB,坡道平面,1700000,19.17
RPSUMLMLOHLFFBF09DB,坡道平面,1650000,17.50
RPTUMLMLOHLFFBF56DB,坡道平面,1650000,19.17
RPTUMLMLOHLFFBF56DB,坡道平面,1600000,17.50
RPVUMLMLOHLFFBF76DB,坡道平面,1650000,19.17
RPVUMLMLOHLFFBF76DB,坡道平面,1600000,17.50
RPXUMLMLOHLFFBF96DB,坡道平面,1550000,17.50
RPXUMLMLOHLFFBF96DB,坡道平面,1600000,19.17
RPOVMLMLOHLFFBF78DB,坡道平面,1650000,19.17
RPOVMLMLOHLFFBF78DB,坡道平面,1650000,19.17
RPPVMLMLOHLFFBF88DB,坡道平面,1600000,19.17
RPPVMLMLOHLFFBF88DB,坡道平面,1600000,19.17
RPQVMLMLOHLFFBF98DB,坡道平面,1600000,17.50
RPQVMLMLOHLFFBF98DB,坡道平面,1600000,17.50
RPRVMLMLOHLFFBF09DB,坡道平面,1550000,17.50
RPRVMLMLOHLFFBF09DB,坡道平面,1600000,19.17
RPSVMLMLOHLFFBF56DB,坡道平面,1700000,19.17
RPSVMLMLOHLFFBF56DB,坡道平面,1700000,19.17
RPTVMLMLOHLFFBF66DB,坡道平面,1550000,19.17
RPTVMLMLOHLFFBF66DB,坡道平面,1500000,17.50
RPUVMLMLOHLFFBF76DB,坡道平面,1650000,17.50
RPUVMLMLOHLFFBF76DB,坡道平面,1650000,17.50
RPWVMLMLOHLFFBF96DB,坡道平面,1550000,19.17
RPWVMLMLOHLFFBF96DB,坡道平面,1550000,19.17
RPXVMLMLOHLFFBF07DB,坡道平面,1650000,19.17
RPXVMLMLOHLFFBF07DB,坡道平面,1650000,19.17
RPOWMLMLOHLFFBF88DB,坡道平面,1650000,19.17
RPOWMLMLOHLFFBF88DB,坡道平面,1650000,19.17
RPPWMLMLOHLFFBF98DB,坡道平面,1650000,19.17
RPPWMLMLOHLFFBF98DB,坡道平面,1650000,19.17
RPRWMLMLOHLFFBF56DB,坡道平面,1600000,19.17
RPRWMLMLOHLFFBF56DB,坡道平面,1600000,19.17
RPSWMLMLOHLFFBF66DB,坡道平面,1700000,19.17
RPSWMLMLOHLFFBF66DB,坡道平面,1650000,17.50
RPTWMLMLOHLFFBF76DB,坡道平面,1600000,19.17
RPTWMLMLOHLFFBF76DB,坡道平面,1600000,19.17
RPUWMLMLOHLFFBF86DB,坡道平面,1550000,17.50
RPVWMLMLOHLFFBF96DB,坡道平面,1550000,19.17
RPWWMLMLOHLFFBF07DB,坡道平面,1650000,19.17
RPXWMLMLOHLFFBF17DB,坡道平面,1650000,19.17
RPONNLMLOHLFFBF08DB,坡道平面,1650000,19.17
RPPNNLMLOHLFFBF18DB,坡道平面,1650000,19.17
RPQNNLMLOHLFFBF28DB,坡道平面,1550000,17.50
RPQNNLMLOHLFFBF28DB,坡道平面,1600000,19.17
RPSNNLMLOHLFFBF48DB,坡道平面,1600000,17.50
RPTNNLMLOHLFFBF58DB,坡道平面,1500000,17.50
RPTNNLMLOHLFFBF58DB,坡道平面,1500000,17.50
RPVNNLMLOHLFFBF78DB,坡道平面,1550000,17.50
RPVNNLMLOHLFFBF78DB,坡道平面,1550000,17.50
RPWNNLMLOHLFFBF88DB,坡道平面,1550000,19.17
RPXNNLMLOHLFFBF98DB,坡道平面,1500000,17.50
RPPONLMLOHLFFBF28DB,坡道平面,1500000,17.50
RPQONLMLOHLFFBF38DB,坡道平面,1600000,19.17
RPRONLMLOHLFFBF48DB,坡道平面,1550000,19.17
RPSONLMLOHLFFBF58DB,坡道平面,1650000,19.17
RPTONLMLOHLFFBF68DB,坡道平面,1550000,19.17
RPUONLMLOHLFFBF78DB,坡道平面,1700000,20.52
RPVONLMLOHLFFBF88DB,坡道平面,1600000,17.50
RPVONLMLOHLFFBF88DB,坡道平面,1600000,17.50
RPWONLMLOHLFFBF98DB,坡道平面,1550000,19.17
RPXONLMLOHLFFBF09DB,坡道平面,1600000,19.17
RPXONLMLOHLFFBF09DB,坡道平面,1600000,19.17
RPOPNLMLOHLFFBF28DB,坡道平面,1550000,19.17
RPOPNLMLOHLFFBF28DB,坡道平面,1550000,19.17
RPPPNLMLOHLFFBF38DB,坡道平面,1600000,17.50
RPPPNLMLOHLFFBF38DB,坡道平面,1600000,17.50
RPQPNLMLOHLFFBF48DB,坡道平面,1550000,19.17
RPQPNLMLOHLFFBF48DB,坡道平面,1550000,19.17
RPRPNLMLOHLFFBF58DB,坡道平面,1600000,17.50
RPRPNLMLOHLFFBF58DB,坡道平面,1600000,17.50
RPSPNLMLOHLFFBF68DB,坡道平面,1500000,17.50
RPTPNLMLOHLFFBF78DB,坡道平面,1650000,17.50
RPTPNLMLOHLFFBF78DB,坡道平面,1650000,17.50
RPUPNLMLOHLFFBF88DB,坡道平面,1650000,17.50
RPUPNLMLOHLFFBF88DB,坡道平面,1600000,17.50
RPRQMLMLOHLFFIF56CB,坡道平面,0,37.53
RPSQMLMLOHLFFIF66CB,坡道平面,0,35.49
RPTQMLMLOHLFFIF76CB,坡道平面,0,37.53
RPUQMLMLOHLFFIF86CB,坡道平面,0,37.53
RPVQMLMLOHLFFIF96CB,坡道平面,0,37.53
RPXOMLMLOHLFFBF88CB,坡道平面,1600000,31.24
RPPPMLMLOHLFFBF18CB,坡道平面,1600000,31.24
RPQPMLMLOHLFFBF28CB,坡道平面,1600000,31.24
RPRPMLMLOHLFFBF38CB,坡道平面,1700000,31.24
RPSPMLMLOHLFFBF48CB,坡道平面,1600000,31.24
RPUPMLMLOHLFFBF68CB,坡道平面,1500000,29.19
RPVPMLMLOHLFFBF78CB,坡道平面,1700000,31.24
RPPNMLNLOHLFFBF18DB,坡道平面,1500000,17.50
RPQNMLNLOHLFFBF28DB,坡道平面,1500000,17.50
RPRNMLNLOHLFFBF38DB,坡道平面,1550000,17.50
RPSNMLNLOHLFFBF48DB,坡道平面,1550000,17.50
RPVNMLNLOHLFFBF78DB,坡道平面,1550000,17.50
RPWNMLNLOHLFFBF88DB,坡道平面,1600000,19.17
RPWNMLNLOHLFFBF88DB,坡道平面,1550000,19.17
RPXNMLNLOHLFFBF98DB,坡道平面,1550000,19.17
RPXNMLNLOHLFFBF98DB,坡道平面,1550000,19.17
RPPOMLNLOHLFFBF28DB,坡道平面,1500000,17.50
RPWNMLSLOHLFFBF66CB,坡道平面,0,34.42
RPXNMLSLOHLFFBF76CB,坡道平面,0,34.42
RPOOMLSLOHLFFBF58CB,坡道平面,0,34.42
RPPOMLSLOHLFFBF68CB,坡道平面,0,34.42
RPQOMLSLOHLFFBF78CB,坡道平面,0,34.42
RPROMLSLOHLFFBF88CB,坡道平面,0,34.42
RPSOMLSLOHLFFBF98CB,坡道平面,0,34.42
RPTOMLSLOHLFFBF09CB,坡道平面,0,34.42
RPUOMLSLOHLFFBF56CB,坡道平面,0,34.42
RPVOMLSLOHLFFBF66CB,坡道平面,0,34.42
RPWOMLSLOHLFFBF76CB,坡道平面,0,34.42
RPXOMLSLOHLFFBF86CB,坡道平面,0,34.42
RPOPMLSLOHLFFBF68CB,坡道平面,0,34.42
RPPPMLSLOHLFFBF78CB,坡道平面,0,34.42
RPQPMLSLOHLFFBF88CB,坡道平面,0,34.42
RPTPMLSLOHLFFBF56CB,坡道平面,0,34.42
RPUPMLSLOHLFFBF66CB,坡道平面,0,34.42
RPVPMLSLOHLFFBF76CB,坡道平面,0,34.42
RPWPMLSLOHLFFBF86CB,坡道平面,0,34.42
RPXPMLSLOHLFFBF96CB,坡道平面,0,34.42
RPOQMLSLOHLFFBF78CB,坡道平面,0,34.42
RPPQMLSLOHLFFBF88CB,坡道平面,0,34.42
RPQQMLSLOHLFFBF98CB,坡道平面,0,34.42
RPRQMLSLOHLFFBF09CB,坡道平面,0,34.42
RPSQMLSLOHLFFBF56CB,坡道平面,0,34.42
RPTQMLSLOHLFFBF66CB,坡道平面,0,34.42
RPUQMLSLOHLFFBF76CB,坡道平面,0,34.42
RPVQMLSLOHLFFBF86CB,坡道平面,0,34.42
RPXQMLSLOHLFFBF07CB,坡道平面,0,34.42
RPORMLSLOHLFFBF88CB,坡道平面,0,34.42
RPUSMLSLOHLFFBF96CB,坡道平面,0,34.42
RPVSMLSLOHLFFBF07CB,坡道平面,0,34.42
RPWSMLSLOHLFFBF17CB,坡道平面,0,34.42
RPURMLTLOHLFFBF96CB,坡道平面,0,31.50
RPVRMLTLOHLFFBF07CB,坡道平面,0,31.50
RPWRMLTLOHLFFBF17CB,坡道機械,0,31.50
RPQSMLTLOHLFFBF66CB,坡道機械,0,31.50
RPSSMLTLOHLFFBF86CB,坡道平面,0,31.50
RPTSMLTLOHLFFBF96CB,坡道機械,0,31.50
RPUSMLTLOHLFFBF07CB,坡道機械,0,31.50
RPVSMLTLOHLFFBF17CB,坡道平面,0,31.50
RPPTMLTLOHLFFBF66CB,坡道平面,0,31.50
RPQTMLTLOHLFFBF76CB,坡道機械,0,31.50
RPSTMLTLOHLFFBF96CB,坡道機械,0,31.50
RPTTMLTLOHLFFBF07CB,坡道平面,0,31.50
RPUTMLTLOHLFFBF17CB,坡道平面,0,31.50
RPWTMLTLOHLFFBF37CB,坡道機械,0,31.50
RPOUMLTLOHLFFBF66CB,坡道機械,0,31.50
RPSUMLTLOHLFFBF07CB,坡道機械,0,31.50
RPTUMLTLOHLFFBF17CB,坡道機械,0,31.50
RPUUMLTLOHLFFBF27CB,坡道機械,0,31.50
RPVUMLTLOHLFFBF37CB,坡道平面,0,31.50
RPOVMLTLOHLFFBF76CB,坡道平面,0,31.50
RPSVMLTLOHLFFBF17CB,坡道機械,0,31.50
RPTVMLTLOHLFFBF27CB,坡道平面,0,31.50
RPUVMLTLOHLFFBF37CB,坡道平面,0,31.50
RPTWMLTLOHLFFBF37CB,坡道平面,0,31.50
RPXNMLKMOHLFFBF68CB,坡道平面,1900000,35.05
RPOOMLKMOHLFFBF87CB,坡道平面,1750000,35.05
RPQOMLKMOHLFFBF08CB,坡道平面,1800000,33.01
RPROMLKMOHLFFBF18CB,坡道平面,1850000,35.05
RPSOMLKMOHLFFBF28CB,坡道平面,1850000,35.05
RPTOMLKMOHLFFBF38CB,坡道平面,1750000,35.05
RPUOMLKMOHLFFBF48CB,坡道平面,1850000,35.05
RPVOMLKMOHLFFBF58CB,坡道平面,1850000,35.05
RPWOMLKMOHLFFBF68CB,坡道平面,1850000,35.05
RPWOMLKMOHLFFBF68CB,坡道平面,1850000,35.05
RPWOMLKMOHLFFBF68CB,坡道平面,1850000,35.05
RPXOMLKMOHLFFBF78CB,坡道平面,1850000,35.05
RPXOMLKMOHLFFBF78CB,坡道平面,1800000,33.01
RPPPMLKMOHLFFBF08CB,坡道平面,1800000,33.01
RPVOMLLJPHLFFBF48CB,坡道平面,1850000,35.05
RPVOMLLJPHLFFBF48CB,坡道平面,1850000,35.05
RPWOMLLJPHLFFBF58CB,坡道平面,1850000,35.05
RPWOMLLJPHLFFBF58CB,坡道平面,0,
RPXOMLLJPHLFFBF68CB,坡道平面,1800000,33.01
RPOPMLLJPHLFFBF87CB,坡道平面,1700000,35.05
RPPPMLLJPHLFFBF97CB,坡道平面,1700000,33.01
RPQPMLLJPHLFFBF08CB,坡道平面,1850000,35.05
RPRPMLLJPHLFFBF18CB,坡道平面,1850000,35.05
RPSPMLLJPHLFFBF28CB,坡道平面,1700000,33.01
RPTPMLLJPHLFFBF38CB,坡道平面,1700000,33.01
RPUPMLLJPHLFFBF48CB,坡道平面,1700000,33.01
RPVPMLLJPHLFFBF58CB,坡道平面,1750000,35.05
RPWPMLLJPHLFFBF68CB,坡道平面,1750000,35.05
RPXPMLLJPHLFFBF78CB,坡道平面,1850000,35.05
RPOQMLLJPHLFFBF97CB,坡道平面,1750000,35.05
RPPQMLLJPHLFFBF08CB,坡道平面,1750000,35.05
RPQQMLLJPHLFFBF18CB,坡道平面,1850000,35.05
RPQQMLLJPHLFFBF18CB,坡道平面,1850000,35.05
RPSQMLLJPHLFFBF38CB,坡道平面,1900000,35.05
RPSQMLLJPHLFFBF38CB,坡道平面,1900000,35.05
RPTQMLLJPHLFFBF48CB,坡道平面,1700000,33.01
RPUQMLLJPHLFFBF58CB,坡道平面,1700000,33.01
RPVQMLLJPHLFFBF68CB,坡道平面,1800000,33.01
RPWQMLLJPHLFFBF78CB,坡道平面,1800000,33.01
RPXQMLLJPHLFFBF88CB,坡道平面,1750000,35.05
RPORMLLJPHLFFBF08CB,坡道平面,1750000,35.05
RPPRMLLJPHLFFBF18CB,坡道平面,1750000,35.05
RPQRMLLJPHLFFBF28CB,坡道平面,1850000,35.05
RPQRMLLJPHLFFBF28CB,坡道平面,1850000,35.05
RPRRMLLJPHLFFBF38CB,坡道平面,1900000,35.05
RPTRMLLJPHLFFBF58CB,坡道平面,1850000,35.05
RPTRMLLJPHLFFBF58CB,坡道平面,1850000,35.05
RPURMLLJPHLFFBF68CB,坡道平面,1900000,35.05
RPVRMLLJPHLFFBF78CB,坡道平面,1800000,33.01
RPWRMLLJPHLFFBF88CB,坡道平面,1850000,35.05
RPPSMLLJPHLFFBF28CB,坡道平面,1750000,35.05
RPQSMLLJPHLFFBF38CB,坡道平面,1750000,35.05
RPRSMLLJPHLFFBF48CB,坡道平面,1700000,33.01
RPSSMLLJPHLFFBF58CB,坡道平面,1750000,35.05
RPUSMLLJPHLFFBF78CB,坡道平面,1900000,35.05
RPVSMLLJPHLFFBF88CB,坡道平面,1750000,35.05
RPWSMLLJPHLFFBF98CB,坡道平面,1750000,35.05
RPXSMLLJPHLFFBF09CB,坡道平面,1700000,33.01
RPOTMLLJPHLFFBF28CB,坡道平面,1850000,35.05
RPPTMLLJPHLFFBF38CB,坡道平面,1850000,35.05
RPPTMLLJPHLFFBF38CB,坡道平面,1850000,35.05
RPQTMLLJPHLFFBF48CB,坡道平面,1900000,35.05
RPRTMLLJPHLFFBF58CB,坡道平面,1700000,33.01
RPSTMLLJPHLFFBF68CB,坡道平面,1750000,35.05
RPTTMLLJPHLFFBF78CB,坡道平面,1850000,35.05
RPTTMLLJPHLFFBF78CB,坡道平面,1850000,35.05
RPUTMLLJPHLFFBF88CB,坡道平面,1750000,35.05
RPVTMLLJPHLFFBF98CB,坡道平面,1900000,35.05
RPWTMLLJPHLFFBF09CB,坡道平面,1750000,35.05
RPXTMLLJPHLFFBF56CB,坡道平面,1850000,35.05
RPOUMLLJPHLFFBF38CB,坡道平面,1900000,35.05
RPPUMLLJPHLFFBF48CB,坡道平面,1750000,35.05
RPQUMLLJPHLFFBF58CB,坡道平面,1850000,35.05
RPQUMLLJPHLFFBF58CB,坡道平面,1850000,35.05
RPQUMLLJPHLFFBF58CB,坡道平面,1800000,33.01
RPRUMLLJPHLFFBF68CB,坡道平面,1700000,33.01
RPSUMLLJPHLFFBF78CB,坡道平面,1700000,33.01
RPTUMLLJPHLFFBF88CB,坡道平面,1750000,35.05
RPUUMLLJPHLFFBF98CB,坡道平面,1750000,35.05
RPVUMLLJPHLFFBF09CB,坡道平面,1700000,35.05
RPQPMLOJPHLFFBF38CB,坡道平面,0,34.42
RPSPMLOJPHLFFBF58CB,坡道平面,0,34.42
RPTPMLOJPHLFFBF68CB,坡道平面,0,34.42
RPUPMLOJPHLFFBF78CB,坡道平面,0,34.42
RPVPMLOJPHLFFBF88CB,坡道平面,0,34.42
RPWPMLOJPHLFFBF98CB,坡道平面,0,34.42
RPXPMLOJPHLFFBF09CB,坡道平面,0,34.42
RPOQMLOJPHLFFBF28CB,坡道平面,0,34.42
RPPQMLOJPHLFFBF38CB,坡道平面,0,34.42
RPQQMLOJPHLFFBF48CB,坡道平面,0,34.42
RPRQMLOJPHLFFBF58CB,坡道平面,0,34.42
RPSQMLOJPHLFFBF68CB,坡道平面,0,34.42
RPTQMLOJPHLFFBF78CB,坡道平面,0,34.42
RPUQMLOJPHLFFBF88CB,坡道平面,0,34.42
RPVQMLOJPHLFFBF98CB,坡道平面,0,34.42
RPWQMLOJPHLFFBF09CB,坡道平面,0,34.42
RPXQMLOJPHLFFBF56CB,坡道平面,0,34.42
RPORMLOJPHLFFBF38CB,坡道平面,0,34.42
RPPRMLOJPHLFFBF48CB,坡道平面,0,34.42
RPQRMLOJPHLFFBF58CB,坡道平面,0,34.42
RPRRMLOJPHLFFBF68CB,坡道平面,0,34.42
RPSRMLOJPHLFFBF78CB,坡道平面,0,34.42
RPTRMLOJPHLFFBF88CB,坡道平面,0,34.42
RPURMLOJPHLFFBF98CB,坡道平面,0,34.42
RPVRMLOJPHLFFBF09CB,坡道平面,0,34.42
RPWRMLOJPHLFFBF56CB,坡道平面,0,34.42
RPXRMLOJPHLFFBF66CB,坡道平面,0,34.42
RPOSMLOJPHLFFBF48CB,坡道平面,0,34.42
RPPSMLOJPHLFFBF58CB,坡道平面,0,34.42
RPQSMLOJPHLFFBF68CB,坡道平面,0,34.42
RPRSMLOJPHLFFBF78CB,坡道平面,0,34.42
RPSSMLOJPHLFFBF88CB,坡道平面,0,34.42
RPTSMLOJPHLFFBF98CB,坡道平面,0,34.42
RPUSMLOJPHLFFBF09CB,坡道平面,0,34.42
RPVSMLOJPHLFFBF56CB,坡道平面,0,34.42
RPWSMLOJPHLFFBF66CB,坡道平面,0,34.42
RPXSMLOJPHLFFBF76CB,坡道平面,0,34.42
RPOTMLOJPHLFFBF58CB,坡道平面,0,34.42
RPPTMLOJPHLFFBF68CB,坡道平面,0,34.42
RPQTMLOJPHLFFBF78CB,坡道平面,0,34.42
RPRTMLOJPHLFFBF88CB,坡道平面,0,34.42
RPSTMLOJPHLFFBF98CB,坡道平面,0,34.42
RPTTMLOJPHLFFBF09CB,坡道平面,0,34.42
RPUTMLOJPHLFFBF56CB,坡道平面,0,34.42
RPVTMLOJPHLFFBF66CB,坡道平面,0,34.42
RPWTMLOJPHLFFBF76CB,坡道平面,0,34.42
RPXTMLOJPHLFFBF86CB,坡道平面,0,34.42
RPOUMLOJPHLFFBF68CB,坡道平面,0,34.42
RPPUMLOJPHLFFBF78CB,坡道平面,0,34.42
RPQUMLOJPHLFFBF88CB,坡道平面,0,34.42
RPRUMLOJPHLFFBF98CB,坡道平面,0,34.42
RPSUMLOJPHLFFBF09CB,坡道平面,0,34.42
RPTUMLOJPHLFFBF56CB,坡道平面,0,34.42
RPUUMLOJPHLFFBF66CB,坡道平面,0,34.42
RPWUMLOJPHLFFBF86CB,坡道平面,0,34.42
RPOVMLOJPHLFFBF78CB,坡道平面,0,34.42
RPPVMLOJPHLFFBF88CB,坡道平面,0,34.42
RPQVMLOJPHLFFBF98CB,坡道平面,0,34.42
RPSVMLOJPHLFFBF56CB,坡道平面,0,34.42
RPTVMLOJPHLFFBF66CB,坡道平面,0,34.42
RPUVMLOJPHLFFBF76CB,坡道平面,0,34.42
RPVVMLOJPHLFFBF86CB,坡道平面,0,34.42
RPWVMLOJPHLFFBF96CB,坡道平面,0,34.42
RPXVMLOJPHLFFBF07CB,坡道平面,0,34.42
RPOWMLOJPHLFFBF88CB,坡道平面,0,34.42
RPPWMLOJPHLFFBF98CB,坡道平面,0,34.42
RPQWMLOJPHLFFBF09CB,坡道平面,0,34.42
RPRWMLOJPHLFFBF56CB,坡道平面,0,34.42
RPSWMLOJPHLFFBF66CB,坡道平面,0,34.42
RPTWMLOJPHLFFBF76CB,坡道平面,0,34.42
RPUWMLOJPHLFFBF86CB,坡道平面,0,34.42
RPVWMLOJPHLFFBF96CB,坡道平面,0,34.42
RPONNLOJPHLFFBF08CB,坡道平面,0,34.42
RPPNNLOJPHLFFBF18CB,坡道平面,0,34.42
RPQNNLOJPHLFFBF28CB,坡道平面,0,34.42
RPRNNLOJPHLFFBF38CB,坡道平面,0,34.42
RPTNNLOJPHLFFBF58CB,坡道平面,0,34.42
RPUOMLOJPHLFFIF96EB,坡道機械,800000,13.03
RPXOMLOJPHLFFIF27EB,坡道機械,700000,13.03
RPPPMLOJPHLFFIF56EB,坡道機械,800000,13.03
RPUPMLOJPHLFFIF07EB,坡道機械,800000,13.03
RPVPMLOJPHLFFIF17EB,坡道機械,750000,13.03
RPWPMLOJPHLFFIF27EB,坡道機械,900000,13.03
RPOQMLOJPHLFFIF56EB,坡道機械,700000,13.03
RPPQMLOJPHLFFIF66EB,坡道機械,700000,13.03
RPQQMLOJPHLFFIF76EB,坡道機械,800000,13.03
RPRQMLOJPHLFFIF86EB,坡道機械,900000,13.03
RPSQMLOJPHLFFIF96EB,坡道機械,800000,13.03
RPTQMLOJPHLFFIF07EB,坡道機械,900000,13.03
RPVQMLOJPHLFFIF27EB,坡道機械,800000,13.03
RPWQMLOJPHLFFIF37EB,坡道機械,900000,13.03
RPPRMLOJPHLFFIF76EB,坡道機械,900000,13.03
RPURMLOJPHLFFIF27EB,坡道機械,700000,13.03
RPURMLOJPHLFFIF27EB,坡道機械,700000,13.03
RPXRMLOJPHLFFIF57EB,坡道機械,1100000,13.03
RPTSMLOJPHLFFIF27EB,坡道機械,800000,13.03
RPVSMLOJPHLFFIF47EB,坡道機械,800000,13.03
RPOTMLOJPHLFFIF86EB,坡道機械,900000,13.03
RPQTMLOJPHLFFIF07EB,坡道機械,900000,13.03
RPOOMLPJPHLFFIF09EB,坡道機械,800000,13.03
RPROMLPJPHLFFIF76EB,坡道機械,700000,13.03
RPUNMLQJPHLFFIF07EB,坡道機械,800000,13.03
RPVNMLQJPHLFFIF17EB,坡道機械,900000,13.03
RPVNMLQJPHLFFIF17EB,坡道機械,900000,13.03
RPWNMLQJPHLFFIF27EB,坡道機械,1100000,13.03
RPXNMLQJPHLFFIF37EB,坡道機械,900000,13.03
RPQOMLQJPHLFFIF76EB,坡道機械,800000,13.03
RPXSMLQJPHLFFEF27CB,坡道平面,1250000,32.26
RPOTMLQJPHLFFEF09CB,坡道平面,1200000,32.26
RPPTMLQJPHLFFEF56CB,坡道平面,1150000,32.26
RPQTMLQJPHLFFEF66CB,坡道平面,1250000,32.26
RPRTMLQJPHLFFEF76CB,坡道平面,1200000,32.26
RPSTMLQJPHLFFEF86CB,坡道平面,1200000,32.26
RPTTMLQJPHLFFEF96CB,坡道平面,1200000,32.26
RPUTMLQJPHLFFEF07CB,坡道平面,1200000,32.26
RPVTMLQJPHLFFEF17CB,坡道平面,1150000,32.26
RPWTMLQJPHLFFEF27CB,坡道平面,1150000,32.26
RPXTMLQJPHLFFEF37CB,坡道平面,1150000,32.26
RPOUMLQJPHLFFEF56CB,坡道平面,1200000,32.26
RPPUMLQJPHLFFEF66CB,坡道平面,1150000,32.26
RPQUMLQJPHLFFEF76CB,坡道平面,1250000,32.26
RPRUMLQJPHLFFEF86CB,坡道平面,1150000,32.26
RPSUMLQJPHLFFEF96CB,坡道平面,1250000,32.26
RPTUMLQJPHLFFEF07CB,坡道平面,1200000,32.26
RPUUMLQJPHLFFEF17CB,坡道平面,1150000,32.26
RPVUMLQJPHLFFEF27CB,坡道平面,1200000,32.26
RPWUMLQJPHLFFEF37CB,坡道平面,1250000,32.26
RPXUMLQJPHLFFEF47CB,坡道平面,1150000,32.26
RPOVMLQJPHLFFEF66CB,坡道平面,1150000,32.26
RPPVMLQJPHLFFEF76CB,坡道平面,1250000,32.26
RPQVMLQJPHLFFEF86CB,坡道平面,1150000,32.26
RPRVMLQJPHLFFEF96CB,坡道平面,1250000,32.26
RPSVMLQJPHLFFEF07CB,坡道平面,1200000,32.26
RPTVMLQJPHLFFEF17CB,坡道平面,1250000,32.26
RPUVMLQJPHLFFEF27CB,坡道平面,1150000,32.26
RPVVMLQJPHLFFEF37CB,坡道平面,1200000,32.26
RPWVMLQJPHLFFEF47CB,坡道平面,1200000,32.26
RPXVMLQJPHLFFEF57CB,坡道平面,1150000,32.26
RPOWMLQJPHLFFEF76CB,坡道平面,1200000,32.26
RPPWMLQJPHLFFEF86CB,坡道平面,1150000,32.26
RPQWMLQJPHLFFEF96CB,坡道平面,1200000,32.26
RPRWMLQJPHLFFEF07CB,坡道平面,1150000,32.26
RPSWMLQJPHLFFEF17CB,坡道平面,1150000,32.26
RPTWMLQJPHLFFEF27CB,坡道平面,1250000,32.26
RPRQMLRJPHLFFEF56CB,坡道平面,1150000,32.26
RPSQMLRJPHLFFEF66CB,坡道平面,0,32.26
RPTQMLRJPHLFFEF76CB,坡道平面,1150000,32.26
RPUQMLRJPHLFFEF86CB,坡道平面,1150000,32.26
RPVQMLRJPHLFFEF96CB,坡道平面,1200000,32.26
RPWQMLRJPHLFFEF07CB,坡道平面,1200000,32.26
RPXQMLRJPHLFFEF17CB,坡道平面,1150000,32.26
RPORMLRJPHLFFEF98CB,坡道平面,1150000,32.26
RPPRMLRJPHLFFEF09CB,坡道平面,1200000,32.26
RPQRMLRJPHLFFEF56CB,坡道平面,1200000,32.26
RPRRMLRJPHLFFEF66CB,坡道平面,1150000,32.26
RPSRMLRJPHLFFEF76CB,坡道平面,1200000,32.26
RPTRMLRJPHLFFEF86CB,坡道平面,1150000,32.26
RPURMLRJPHLFFEF96CB,坡道平面,1200000,32.26
RPVRMLRJPHLFFEF07CB,坡道平面,1150000,32.26
RPWRMLRJPHLFFEF17CB,坡道平面,1200000,32.26
RPXRMLRJPHLFFEF27CB,坡道平面,1150000,32.26
RPOSMLRJPHLFFEF09CB,坡道平面,1150000,32.26
RPPSMLRJPHLFFEF56CB,坡道平面,1150000,32.26
RPQSMLRJPHLFFEF66CB,坡道平面,1150000,32.26
RPRSMLRJPHLFFEF76CB,坡道平面,1200000,32.26
RPSSMLRJPHLFFEF86CB,坡道平面,1150000,32.26
RPTSMLRJPHLFFEF96CB,坡道平面,1150000,32.26
RPUSMLRJPHLFFEF07CB,坡道平面,1150000,32.26
RPVSMLRJPHLFFEF17CB,坡道平面,1250000,32.26
RPWSMLRJPHLFFEF27CB,坡道平面,1150000,32.26
RPXSMLRJPHLFFEF37CB,坡道平面,1150000,32.26
RPOTMLRJPHLFFEF56CB,坡道平面,1250000,32.26
RPPTMLRJPHLFFEF66CB,坡道平面,1150000,32.26
RPQTMLRJPHLFFEF76CB,坡道平面,1150000,32.26
RPRTMLRJPHLFFEF86CB,坡道平面,1250000,32.26
RPSTMLRJPHLFFEF96CB,坡道平面,1150000,32.26
RPTTMLRJPHLFFEF07CB,坡道平面,1200000,32.26
RPUTMLRJPHLFFEF17CB,坡道平面,1150000,32.26
RPVTMLRJPHLFFEF27CB,坡道平面,1250000,32.26
RPWTMLRJPHLFFEF37CB,坡道平面,1150000,32.26
RPXTMLRJPHLFFEF47CB,坡道平面,1200000,32.26
RPOUMLRJPHLFFEF66CB,坡道平面,1150000,32.26
RPPUMLRJPHLFFEF76CB,坡道平面,1150000,32.26
RPQUMLRJPHLFFEF86CB,坡道平面,1150000,32.26
RPSUMLRJPHLFFEF07CB,坡道平面,1250000,32.26
RPTUMLRJPHLFFEF17CB,坡道平面,1200000,32.26
RPUUMLRJPHLFFEF27CB,坡道平面,1150000,32.26
RPVUMLRJPHLFFEF37CB,坡道平面,1150000,32.26
RPWUMLRJPHLFFEF47CB,坡道平面,1200000,32.26
RPSNMLRJPHLFFAF78EB,坡道平面,2500000,24.81
RPSNMLRJPHLFFAF78EB,坡道平面,2400000,21.46
RPSNMLRJPHLFFAF78EB,坡道平面,2400000,21.46
RPTNMLRJPHLFFAF88EB,坡道平面,2500000,24.81
RPTNMLRJPHLFFAF88EB,坡道平面,2500000,24.81
RPUNMLRJPHLFFAF98EB,坡道平面,2600000,21.46
RPUNMLRJPHLFFAF98EB,坡道平面,2700000,24.81
RPUNMLRJPHLFFAF98EB,坡道平面,2700000,24.81
RPVNMLRJPHLFFAF09EB,坡道平面,2700000,24.81
RPVNMLRJPHLFFAF09EB,坡道平面,2700000,24.81
RPWNMLRJPHLFFAF56EB,坡道平面,2700000,24.81
RPWNMLRJPHLFFAF56EB,坡道平面,2700000,24.81
RPXNMLRJPHLFFAF66EB,坡道平面,2700000,24.81
RPXNMLRJPHLFFAF66EB,坡道平面,2700000,24.81
RPOOMLRJPHLFFAF48EB,坡道平面,2500000,24.81
RPOOMLRJPHLFFAF48EB,坡道平面,2400000,21.46
RPPOMLRJPHLFFAF58EB,坡道平面,2700000,24.81
RPPOMLRJPHLFFAF58EB,坡道平面,2600000,21.46
RPPOMLRJPHLFFAF58EB,坡道平面,2600000,21.46
RPQOMLRJPHLFFAF68EB,坡道平面,2600000,24.81
RPQOMLRJPHLFFAF68EB,坡道平面,2500000,21.46
RPROMLRJPHLFFAF78EB,坡道平面,2600000,21.46
RPROMLRJPHLFFAF78EB,坡道平面,2700000,24.81
RPSOMLPKPHLFFBF68CB,坡道機械,0,31.50
RPPRMLKLPHLFFEF68DB,坡道平面,1250000,29.46
RPQRMLKLPHLFFEF78DB,坡道平面,1250000,29.46
RPRRMLKLPHLFFEF88DB,坡道平面,1250000,29.46
RPSRMLKLPHLFFEF98DB,坡道平面,1250000,29.46
RPTRMLKLPHLFFEF09DB,坡道平面,1250000,29.46
RPURMLKLPHLFFEF56DB,坡道平面,1100000,27.46
RPVRMLKLPHLFFEF66DB,坡道平面,1250000,29.46
RPWRMLKLPHLFFEF76DB,坡道平面,1200000,29.46
RPXRMLKLPHLFFEF86DB,坡道平面,1250000,29.46
RPOSMLKLPHLFFEF68DB,坡道平面,1250000,29.46
RPSSMLKLPHLFFEF09DB,坡道平面,1250000,29.46
RPTSMLKLPHLFFEF56DB,坡道平面,1250000,29.46
RPUSMLKLPHLFFEF66DB,坡道平面,1200000,29.46
RPVSMLKLPHLFFEF76DB,坡道平面,1200000,29.46
RPWSMLKLPHLFFEF86DB,坡道平面,1250000,29.46
RPWSMLKLPHLFFEF86DB,坡道平面,1250000,29.46
RPXSMLKLPHLFFEF96DB,坡道平面,1200000,29.46
RPOTMLKLPHLFFEF78DB,坡道平面,1250000,29.46
RPQTMLKLPHLFFEF98DB,坡道平面,1250000,29.46
RPRTMLKLPHLFFEF09DB,坡道平面,1200000,29.46
RPSTMLKLPHLFFEF56DB,坡道平面,1200000,29.46
RPTTMLKLPHLFFEF66DB,坡道平面,1200000,29.46
RPUTMLKLPHLFFEF76DB,坡道平面,1250000,29.46
RPVTMLKLPHLFFEF86DB,坡道平面,1200000,29.46
RPVTMLKLPHLFFEF86DB,坡道平面,1200000,29.46
RPWTMLKLPHLFFEF96DB,坡道平面,1250000,29.46
RPXTMLKLPHLFFEF07DB,坡道平面,1200000,29.46
RPOUMLKLPHLFFEF88DB,坡道平面,1200000,29.46
RPPUMLKLPHLFFEF98DB,坡道平面,1250000,29.46
RPQUMLKLPHLFFEF09DB,坡道平面,1200000,29.46
RPRUMLKLPHLFFEF56DB,坡道平面,1200000,29.46
RPTUMLKLPHLFFEF76DB,坡道平面,1200000,27.46
RPUUMLKLPHLFFEF86DB,坡道平面,1200000,29.46
RPVUMLKLPHLFFEF96DB,坡道平面,1350000,29.46
RPVUMLKLPHLFFEF96DB,坡道平面,1350000,29.46
RPWUMLKLPHLFFEF07DB,坡道平面,1250000,29.46
RPXUMLKLPHLFFEF17DB,坡道平面,1200000,29.46
RPOVMLKLPHLFFEF98DB,坡道平面,1200000,29.46
RPPVMLKLPHLFFEF09DB,坡道平面,1250000,29.46
RPWNMLRLPHLFFBF66CB,坡道平面,1600000,30.25
RPXNMLRLPHLFFBF76CB,坡道平面,1700000,30.25
RPPOMLRLPHLFFBF68CB,坡道平面,1600000,30.25
RPROMLRLPHLFFBF88CB,坡道平面,1650000,30.25
RPSOMLRLPHLFFBF98CB,坡道平面,1800000,30.25
RPTOMLRLPHLFFBF09CB,坡道平面,1700000,30.25
RPUOMLRLPHLFFBF56CB,坡道平面,1700000,30.25
RPVOMLRLPHLFFBF66CB,坡道平面,1700000,30.25
RPWOMLRLPHLFFBF76CB,坡道平面,1700000,30.25
RPXOMLRLPHLFFBF86CB,坡道平面,1700000,30.25
RPOPMLRLPHLFFBF68CB,坡道平面,1700000,30.25
RPPPMLRLPHLFFBF78CB,坡道平面,1700000,30.25
RPQPMLRLPHLFFBF88CB,坡道平面,1700000,30.25
RPRPMLRLPHLFFBF98CB,坡道平面,1600000,30.25
RPSPMLRLPHLFFBF09CB,坡道平面,0,31.50
RPTPMLRLPHLFFBF56CB,坡道平面,0,31.50
RPXSMLSLPHLFFEF67CB,坡道平面,1400000,32.65
RPOTMLSLPHLFFEF86CB,坡道機械,950000,26.19
RPTNMLTLPHLFFBF56CB,坡道平面,1800000,30.25
