絪腹,跋琿竚,簿锣縩キよそへ,ㄏノだ跋┪絪﹚
RPSNMLQJNHLFFAI68CC,チ壁琿琿,19.39,常カ
RPXNMLMKNHLFFAI98DC,瓁谨琿,59.62,常カ
RPOOMLMKNHLFFAI18DC,辣琿,10.44,常カ
RPVNMLRKNHLFFAI56CC,琿琿,.00,常カ
RPQNMLSKNHLFFAI78CC,猿琿,130.00,常カㄤ
RPRNMLSKNHLFFAI88CC,フ琿,.00,常カㄤ
RPQNMLNLNHLFFAI38CC,ó┍琿,.00,常カㄤ
RPSNMLNLNHLFFAI68DC,じ琿せ琿,102.00,常カ坝
RPSNMLNLNHLFFAI68DC,じ琿せ琿,22.00,常カ坝
RPVNMLKMNHLFFAI78DC,びキ琿,14.48,常カ
RPWNMLKMNHLFFAI88DC,びキ琿,14.48,常カ
RPSNMLMJOHLFFAI48DC,フ琿,32.98,常カ
RPUNMLMJOHLFFAI68DC,フ琿,35.57,常カ
RPPOMLQJOHLFFAI58CC,祏λ琿,3.54,常カㄤ
RPPOMLQJOHLFFAI58CC,祏λ琿,35.23,常カㄤ
RPPOMLQJOHLFFAI58CC,祏λ琿,2.30,常カㄤ
RPPOMLQJOHLFFAI58CC,祏λ琿,68.00,常カㄤ
RPPOMLQJOHLFFAI58CC,祏λ琿,.38,常カㄤ
RPUOMLSJOHLFFAI86EC,祏λ琿,7.14,常カ
RPRNMLPKOHLFFAI68CC,穝碔琿琿,39.00,常カ
RPRNMLPKOHLFFAI68CC,穝碔琿琿,5.00,常カ
RPRNMLPKOHLFFAI68CC,穝碔琿琿,18.00,常カ
RPRNMLSKOHLFFAI98CC,ó┍琿,.00,常カㄤ
RPWNMLNLOHLFFAI56DC,びキ琿,18.50,常カ
RPXNMLNLOHLFFAI66DC,びキ琿,15.28,常カ
RPVNMLSLOHLFFAI86CC,チ壁琿琿,17.00,常カ
RPVNMLSLOHLFFAI86CC,チ壁琿琿,42.00,常カ
RPSNMLLJPHLFFAI48DC,ó┍琿ó┍琿,.00,獶常カ ; 獶常カ絪﹚
RPXNMLMJPHLFFAI98CC,榜繷琿,44.00,常カ
RPXNMLLKPHLFFAI09DC,びキ琿,18.49,常カ
RPOOMLLKPHLFFAI28DC,びキ琿,14.48,常カ
RPUOMLSKPHLFFAI96DC,びキ琿,15.28,常カ
RPVOMLSKPHLFFAI07DC,びキ琿,15.28,常カ
RPOPMLSKPHLFFAI98CC,ó┍琿,.00,常カㄤ
RPUNMLRLPHLFFAI86DC,びキ琿,14.48,常カ
RPVNMLRLPHLFFAI96DC,びキ琿,10.45,常カ
RPSNMLTLPHLFFAI86DC,捞琿琿,154.00,常カ
