絪腹,跋琿竚,簿锣縩キよそへ,ㄏノだ跋┪絪﹚
RPVNMLMJNHLFFHN17CC,狥篴琿,80.00,獶常カ疭﹚笰穨跋 ; 獶常カ絪﹚ヒ贺縱ノ
RPVNMLMJNHLFFHN17CC,狥篴琿,80.00,獶常カ疭﹚笰穨跋 ; 獶常カ絪﹚ヒ贺縱ノ
RPQNMLMKNHLFFBN78CC,く㎝琿,90.00,常カ
RPPNMLNKNHLFFHN76CC,打狥琿,147.00,常カ
RPRNMLNLNHLFFDN66CC,い琿,116.00,常カ
RPSNMLNLNHLFFDN76CC,い琿,116.00,常カ
RPTNMLOLNHLFFDN07DC,現琿,91.00,常カ
RPTNMLQLNHLFFDN27DC,現琿,66.00,常カ
RPPNMLQLNHLFFHN17CC,憋获琿,3254.90,獶常カ疭﹚笰穨跋 ; 獶常カ絪﹚笰ノ
RPUNMLRLNHLFFDN37CC,狶琿,132.00,常カ
RPUNMLRLNHLFFDN37CC,狶琿,127.00,常カ
RPUNMLRLNHLFFDN37CC,狶琿,124.00,常カ
RPWNMLRLNHLFFDN57CC,磃ㄓ琿,130.00,常カ坝
RPSNMLKMNHLFFDN56CC,甃琿,89.09,獶常カ秏跋 ; 獶常カ絪﹚贺縱ノ
RPQNMLKMNHLFFAN68CC,褐λ琿,.00,獶常カ秏跋 ; 獶常カ絪﹚贺縱ノ
RPQNMLKMNHLFFAN68CC,褐λ琿,.00,獶常カ秏跋 ; 獶常カ絪﹚贺縱ノ
RPQNMLKMNHLFFAN68CC,褐λ琿,.00,獶常カ秏跋 ; 獶常カ絪﹚贺縱ノ
RPOOMLKMNHLFFAN58CC,竃琿竃琿,325.00,常カ
RPPOMLKMNHLFFAN68CC,竃琿竃琿,325.00,常カ
RPQOMLKMNHLFFAN78CC,竃琿竃琿,325.00,常カ
RPWNMLLMNHLFFAN86DC,﹁琿,10.00,常カ
RPWNMLLMNHLFFAN86DC,﹁琿,77.00,常カ
RPRNMLMJOHLFFCN98CC,ッ琿,148.00,常カ坝
RPQNMLSJOHLFFBN76CC,砍琿,2499.08,獶常カ穨跋 ; 獶常カ絪﹚贺縱ノ
RPVNMLNKOHLFFDN07CC,い琿,257.00,常カ
RPVNMLNKOHLFFDN07CC,い琿,1.00,常カ
RPSNMLPKOHLFFAN76DC,Θ琿,61.00,常カ坝
RPSNMLPKOHLFFAN76DC,Θ琿,59.00,常カ坝
RPSNMLRKOHLFFDN17CC,狶琿,100.00,常カ
RPWNMLLLOHLFFDN07CC,穝ネ琿,71.08,常カ坝
RPXNMLKMOHLFFDN17CC,㎝キ琿,134.01,常カ坝
RPPNMLOJPHLFFBN09DC,翠琿,88.00,常カ笰
RPPNMLOJPHLFFBN09DC,翠琿,39.00,常カ笰
RPPNMLNKPHLFFCN09CC,ッ贾琿,85.88,常カ
RPUNMLPKPHLFFAN96CC,玭尝琿玭尝琿,88.00,常カ
RPUNMLTKPHLFFCN57CC,狶琿,4615.75,獶常カ穨跋 ; 獶常カ絪﹚贺縱ノ
RPWNMLTKPHLFFCN77CC,芉瓾琿,1381.97,獶常カ笰穨跋 ; 獶常カ絪﹚贺縱ノ
RPPNMLMLPHLFFCN09CC,ッ琿,83.00,常カ
