編號,屋齡,建物移轉面積平方公尺,主要用途,主要建材,建築完成日期,總層數,建物分層
RPRNMLOJNHLFFAP88CA,37,106.26,住家用,加強磚造,68年9月3日,二層,一層 二層
RPQOMLOJNHLFFAP88CA,11,141.72,住家用,鋼筋混凝土造,94年2月15日,三層,一層 二層 三層
RPUOMLTJNHLFFAP17CA,23,168.94,住家用,鋼筋混凝土造,82年3月17日,三層,一層 二層 三層
RPTNMLNLNHLFFAP56CA,23,198.61,住家用,鋼筋混凝土加強磚造,82年4月19日,四層,一層 二層 三層 四層
RPPNMLTLNHLFFAP76CA,21,210.30,住家用,鋼筋混凝土造,84年3月22日,四層,一層 二層 三層 四層
RPPNMLOJNHLFFCP88CA,20,146.40,住商用,鋼筋混凝土造,84年12月6日,四層,一層 二層 三層 四層 騎樓 電梯樓梯間
RPTNMLOJNHLFFCP66CA,23,147.11,住商用,鋼筋混凝土造,82年8月18日,三層,一層 二層 三層 電梯樓梯間
RPPNMLOJNHLFFDP98CA,10,286.12,住商用,鋼筋混凝土造,95年5月11日,四層,一層 二層 三層 四層 騎樓 見其他登記事項
RPRNMLRKNHLFFDP96CA,,158.00,住家用,鋼筋混凝土造,104年11月16日,三層,一層 二層 三層
RPRNMLNJNHLFFAP88DA,9,192.88,住家用,鋼筋混凝土造,96年3月1日,三層,一層 二層 三層 電梯樓梯間
RPPNMLNKNHLFFDP09DA,10,208.28,見其他登記事項,鋼筋混凝土造,94年11月4日,三層,一層 二層 三層 屋頂突出物 車庫
RPQNMLQKNHLFFDP76CA,39,80.59,住家用,加強磚造,66年5月10日,二層,一層 二層
RPTNMLRKNHLFFDP17CA,4,192.97,住家用,鋼筋混凝土造,100年12月5日,四層,一層 二層 三層 四層
RPRNMLOJNHLFFDP56CA,19,129.66,見其他登記事項,見其他登記事項,86年4月26日,一層,一層
RPXNMLLKNHLFFDP96CA,22,21.83,住家用,鋼筋混凝土造,83年6月14日,九層,三層
RPXNMLLKNHLFFDP96CA,22,8.27,共有部份,鋼筋混凝土造,83年6月14日,九層,
RPOOMLKMNHLFFDP88CA,34,123.66,住商用,加強磚造,71年7月29日,二層,一層 二層 騎樓
RPQNMLOJNHLFFCP98CA,1,218.96,見其他登記事項,鋼筋混凝土造,104年5月4日,三層,一層 二層 三層 見其他登記事項
RPPNMLPJNHLFFBP88CA,2,200.86,見其他登記事項,鋼筋混凝土造,103年6月9日,三層,一層 二層 三層 見其他登記事項
RPVNMLOJNHLFFAP66CA,17,19.15,停車空間,鋼筋混凝土造,88年9月26日,五層,
RPVNMLOJNHLFFAP66CA,17,99.94,住家用,鋼筋混凝土造,88年9月26日,五層,二層 三層
RPVNMLOJNHLFFAP66CA,17,19.45,共有部份,鋼筋混凝土造,88年9月26日,五層,
RPXNMLOJNHLFFAP86CA,43,117.80,住家用,加強磚造,62年6月5日,三層,一層 二層 三層
RPUNMLQJNHLFFAP76CA,34,92.99,住家用,加強磚造,70年12月18日,二層,一層 二層
RPUNMLTJNHLFFAP07CA,8,320.40,見其他登記事項,鋼筋混凝土造,97年5月8日,四層,一層 二層 三層 四層
RPPNMLQJNHLFFBP98CA,11,171.65,住家用,鋼筋混凝土造,94年5月15日,四層,一層 二層 三層 四層
RPRNMLOJNHLFFCP09CA,9,196.82,住家用,鋼筋混凝土造,95年10月31日,三層,一層 二層 三層 屋頂突出物
RPXNMLRKNHLFFCP47CA,43,48.00,住家用,磚造,61年11月15日,一層,一層
RPQNMLTJNHLFFDP96CA,10,150.42,住家用,鋼筋混凝土造,94年11月9日,三層,一層 二層 三層
RPPNMLPJNHLFFDP09CA,41,95.11,住家用,加強磚造,64年4月10日,二層,一層 二層
RPQNMLPJNHLFFDP56CA,38,86.42,住家用,加強磚造,67年8月11日,二層,一層 二層
RPTNMLKKNHLFFCP09DA,,164.68,見其他登記事項,鋼筋混凝土造,104年12月31日,三層,一層 二層 三層 見其他登記事項
RPWNMLKKNHLFFCP76DA,,206.22,住家用,鋼筋混凝土造,104年12月31日,三層,一層 二層 三層
RPXNMLKKNHLFFCP86DA,,206.22,住家用,鋼筋混凝土造,104年12月31日,三層,一層 二層 三層
RPSNMLPJNHLFFAP56DA,36,101.43,住家用,加強磚造,68年12月1日,二層,一層 二層
RPQNMLQJNHLFFAP09DA,18,221.22,住家用,鋼筋混凝土造,86年12月28日,四層,一層 二層 三層 四層
RPQNMLRKNHLFFDP96DA,14,281.56,住商用,鋼筋混凝土造,91年1月9日,四層,一層 二層 三層 四層 騎樓 水箱 見其他登記事項
RPQNMLRKNHLFFDP96DA,14,22.68,共有部份,鋼筋混凝土造,91年1月9日,四層,
RPPNMLKKNHLFFDP78DA,1,209.43,見其他登記事項,鋼筋混凝土造,104年10月2日,四層,一層 二層 三層 四層 見其他登記事項
RPXNMLTKNHLFFFP08DA,19,148.97,住家用,鋼筋混凝土造,86年3月10日,四層,一層 二層 三層 四層
RPQNMLOJNHLFFCP56EA,32,100.76,住商用,見其他登記事項,73年8月22日,二層,一層 二層 騎樓 電梯樓梯間
RPUNMLQJNHLFFEP27DA,18,184.16,住家用,鋼筋混凝土造,87年1月8日,三層,一層 二層 三層 電梯樓梯間
RPPNMLKKNHLFFCP68DA,1,172.98,住家用,鋼筋混凝土造,103年12月27日,三層,一層 二層 三層
RPPNMLLJOHLFFDP88DA,35,123.04,住家用,加強磚造,70年6月9日,二層,一層 二層 電梯樓梯間
RPVNMLKKNHLFFCP66DA,,218.96,住家用,鋼筋混凝土造,104年12月31日,三層,一層 二層 三層
RPQPMLTJNHLFFEP27CA,25,75.44,農舍,磚造,80年6月15日,一層,一層
RPSNMLSKNHLFFEP27CA,46,264.56,商業用,鋼筋混凝土造,59年6月22日,一層,一層 騎樓
RPRNMLNKNHLFFDP56CA,,83.51,住家用,鋼筋混凝土造,104年11月13日,三層,一層 二層 三層
RPRNMLNKNHLFFDP56CA,,83.51,住家用,鋼筋混凝土造,104年11月13日,三層,一層 二層 三層
RPSNMLRKNHLFFDP07CA,,181.44,住家用,鋼筋混凝土造,104年11月16日,三層,一層 二層 三層
RPPNMLKMNHLFFDP88CA,9,52.33,見其他登記事項,鋼筋混凝土造,96年2月5日,十一層,二層
RPPNMLKMNHLFFDP88CA,9,20.41,見其他登記事項,鋼筋混凝土造,96年2月5日,十三層,
RPRNMLKKNHLFFCP78CA,1,207.75,見其他登記事項,鋼筋混凝土造,104年9月16日,三層,一層 二層 三層 見其他登記事項
RPSNMLKKNHLFFCP88CA,1,207.83,見其他登記事項,鋼筋混凝土造,104年9月16日,三層,一層 二層 三層 見其他登記事項
RPUNMLKKNHLFFCP09CA,1,207.75,見其他登記事項,鋼筋混凝土造,104年9月16日,三層,一層 二層 三層 見其他登記事項
RPTNMLPJNHLFFAP56CA,8,224.29,住家用,鋼筋混凝土造,97年4月10日,四層,一層 二層 三層 四層
RPUNMLPJNHLFFAP66CA,1,174.71,住家用,鋼筋混凝土造,104年6月5日,四層,一層 二層 三層 四層
RPPNMLTJNHLFFAP56CA,2,307.67,見其他登記事項,鋼筋混凝土造,103年5月12日,四層,一層 二層 三層 四層 地下一層
RPVOMLTJNHLFFAP27CA,40,120.96,住商用,加強磚造,65年7月1日,二層,一層 二層 騎樓
RPQNMLLKNHLFFAP58CA,22,215.46,住商用,鋼筋混凝土造,83年6月30日,五層,一層 二層 三層 四層 五層 騎樓 電梯樓梯間
RPQOMLTJNHLFFBP86CA,10,174.96,見其他登記事項,鋼筋混凝土造,95年5月8日,三層,一層 二層 三層
RPRNMLMLNHLFFDP56CA,1,235.45,住家用,鋼筋混凝土造,104年9月17日,四層,一層 二層 三層 四層
RPSNMLKMNHLFFDP56CA,35,221.22,住商用,加強磚造,70年8月2日,二層,一層 二層 騎樓 電梯樓梯間
RPPNMLPKNHLFFDP56CA,1,194.96,見其他登記事項,鋼筋混凝土造,104年9月17日,三層,一層 二層 三層 見其他登記事項
RPUNMLLKNHLFFDP66CA,35,115.03,住家用,加強磚造,70年2月2日,二層,一層 二層 騎樓
RPQNMLLKNHLFFCP88DA,38,135.14,住商用,加強磚造,67年9月20日,二層,一層 二層 騎樓
RPQNMLLKNHLFFCP88DA,38,135.14,住商用,加強磚造,67年9月20日,二層,一層 二層 騎樓
RPTNMLLMNHLFFDP86DA,15,220.06,住家用,鋼筋混凝土造,90年6月5日,三層,一層 二層 三層
RPRNMLTJNHLFFAP96EA,22,85.58,住家用,鋼筋混凝土造,83年6月15日,七層,四層
RPRNMLTJNHLFFAP96EA,22,14.36,共有部份,鋼筋混凝土造,83年6月15日,十二層,
RPRNMLTJNHLFFAP96EA,22,10.13,共有部份,鋼筋混凝土造,83年6月15日,,
RPQNMLKKNHLFFCP88EA,18,272.57,住家用,鋼筋混凝土造,87年6月19日,四層,一層 二層 三層 四層
RPTNMLLKNHLFFAP98DA,1,394.36,見其他登記事項,鋼筋混凝土造,104年8月14日,四層,一層 二層 三層 四層
RPPNMLLKNHLFFBP68DA,22,168.21,住商用,鋼筋混凝土造,83年7月26日,三層,一層 二層 三層 騎樓 電梯樓梯間
RPQNMLMKNHLFFEP09CA,8,197.49,住家用,鋼筋混凝土造,96年11月6日,四層,一層 二層 三層 四層
RPWNMLMKNHLFFCP86CA,39,107.12,住家用,加強磚造,66年1月30日,二層,一層 二層
RPSNMLLKNHLFFAP78CA,21,311.67,農舍,加強磚造,83年11月10日,二層,一層 二層 電梯樓梯間
RPPNMLLKNHLFFAP48CA,36,127.79,住商用,加強磚造,68年12月20日,二層,一層 二層 騎樓 電梯樓梯間
RPVNMLMKNHLFFAP56CA,1,232.48,住家用,鋼筋混凝土造,104年2月11日,三層,一層 二層 三層
RPPNMLQKNHLFFCP56CA,1,207.83,見其他登記事項,鋼筋混凝土造,104年9月16日,三層,一層 二層 三層 見其他登記事項
RPXNMLNLNHLFFDP27CA,11,360.33,見其他登記事項,鋼筋混凝土造,94年8月10日,四層,一層 二層 三層 四層 見其他登記事項
RPPNMLKLNHLFFDP78CA,17,114.06,住家用,鋼筋混凝土造,88年7月30日,十四層,十一層
RPPNMLKLNHLFFDP78CA,17,22.59,共有部份,鋼筋混凝土造,88年7月30日,十四層,
RPPNMLKLNHLFFDP78CA,17,2.14,住家用,鋼筋混凝土造,88年7月30日,十四層,
RPPNMLKLNHLFFDP78CA,17,19.26,見其他登記事項,鋼筋混凝土造,88年7月30日,十四層,
RPRNMLLKNHLFFDP98CA,22,20.93,住家用,鋼筋混凝土造,83年6月14日,九層,三層
RPRNMLLKNHLFFDP98CA,22,7.53,共有部份,鋼筋混凝土造,83年6月14日,九層,
SPRNMLLKNHLFFDP09CA,22,21.83,住家用,鋼筋混凝土造,83年6月14日,九層,三層
SPRNMLLKNHLFFDP09CA,22,8.63,共有部份,鋼筋混凝土造,83年6月14日,九層,
RPUNMLRKNHLFFDP27CA,1,202.72,住家用,鋼筋混凝土造,104年5月18日,四層,一層 二層 三層 四層
RPRNMLRJOHLFFEP07CA,32,111.72,住商用,加強磚造,73年9月1日,二層,一層 二層 騎樓
RPUNMLLKNHLFFAP09DA,34,111.18,住家用,加強磚造,70年11月10日,二層,一層 二層 電梯樓梯間
RPRNMLNKNHLFFAP09EA,23,119.25,住家用,鋼筋混凝土造,81年12月1日,三層,一層 二層 三層 騎樓
RPQNMLNKNHLFFBP09EA,36,103.58,住家用,加強磚造,69年2月28日,二層,一層 二層 騎樓 電梯樓梯間
RPUNMLKLNHLFFDP76DA,38,101.29,住商用,加強磚造,66年10月23日,二層,一層 二層 騎樓
RPSNMLMKNHLFFAP98DA,1,63.90,見其他登記事項,鋼筋混凝土造,104年5月12日,五層,四層
RPSNMLMKNHLFFAP98DA,1,6.25,見其他登記事項,鋼筋混凝土造,104年5月12日,五層,
RPSNMLMKNHLFFAP98DA,1,10.65,見其他登記事項,鋼筋混凝土造,104年5月12日,五層,
RPTNMLMKNHLFFAP09DA,,183.17,見其他登記事項,鋼筋混凝土造,104年11月30日,三層,一層 二層 三層 見其他登記事項
RPRNMLOLNHLFFAP56DA,20,96.92,住家用,鋼筋混凝土造,85年8月18日,七層,五層
RPRNMLOLNHLFFAP56DA,20,26.24,共同部份,鋼筋混凝土造,85年8月18日,七層,
RPOOMLQKNHLFFFP86CA,33,539.44,住家用,加強磚造,72年9月15日,二層,一層 二層 電梯樓梯間
RPWNMLQJOHLFFAP17DA,32,124.66,住家用,加強磚造,73年9月11日,二層,一層 二層 騎樓
RPRNMLKKOHLFFAP78DA,1,183.22,見其他登記事項,鋼筋混凝土造,104年4月15日,三層,一層 二層 三層 屋頂突出物
RPQNMLOJOHLFFEP66CA,26,284.65,住商用,鋼筋混凝土造,78年11月26日,四層,一層 二層 三層 四層 騎樓 電梯樓梯間
RPWNMLMKNHLFFDP96CA,35,142.66,住商用,加強磚造,70年10月16日,二層,一層 二層 騎樓
RPOOMLMKNHLFFDP88CA,9,27.73,見其他登記事項,鋼筋混凝土造,96年2月5日,十三層,六層
RPOOMLMKNHLFFDP88CA,9,12.01,見其他登記事項,鋼筋混凝土造,96年2月5日,十三層,
RPOOMLMKNHLFFDP88CA,9,3.09,見其他登記事項,鋼筋混凝土造,96年2月5日,十三層,
RPXNMLSKNHLFFDP67CA,1,201.33,見其他登記事項,鋼筋混凝土造,104年7月29日,三層,一層 二層 三層 騎樓
RPQNMLNKNHLFFAP78CA,35,94.92,住家用,加強磚造,70年1月1日,二層,一層 二層
RPROMLMKNHLFFAP88CA,4,179.75,見其他登記事項,鋼筋混凝土造,101年4月6日,三層,一層 二層 三層 電梯樓梯間
RPPNMLTJOHLFFAP66CA,19,82.12,住家用,鋼筋混凝土造,86年5月15日,十六層,四層
RPPNMLTJOHLFFAP66CA,19,16.05,共同部份,鋼筋混凝土造,86年5月15日,十六層,
RPPNMLTJOHLFFAP66CA,19,21.73,共同部份,鋼筋混凝土造,86年5月15日,十六層,
RPUNMLNKNHLFFAP56CA,6,10.01,見其他登記事項,鋼筋混凝土造,99年2月23日,七層,五層
RPUNMLNKNHLFFAP56CA,6,3.87,見其他登記事項,鋼筋混凝土造,99年2月23日,七層,
RPUNMLNKNHLFFAP56CA,6,4.86,見其他登記事項,鋼筋混凝土造,99年2月23日,七層,
RPPNMLRKNHLFFBP56CA,22,193.44,住家用,鋼筋混凝土造,83年2月4日,三層,一層 二層 三層 電梯樓梯間
RPROMLMKNHLFFDP56CA,16,84.07,住家用,鋼筋混凝土造,88年11月30日,九層,七層
RPROMLMKNHLFFDP56CA,16,38.71,共有部份,鋼筋混凝土造,88年11月30日,九層,
RPROMLMKNHLFFDP56CA,16,9.60,共有部份,鋼筋混凝土造,88年11月30日,九層,
RPQNMLNKNHLFFCP09DA,,243.00,住家用,鋼筋混凝土造,104年12月31日,三層,一層 二層 三層 見其他登記事項
RPRNMLNKNHLFFCP56DA,,164.68,見其他登記事項,鋼筋混凝土造,104年12月31日,三層,一層 二層 三層 見其他登記事項
RPVNMLTKNHLFFFP77CA,2,1295.00,見其他登記事項,見其他登記事項,103年9月23日,一層,一層
RPROMLRKNHLFFAP86DA,37,179.58,住商用,鋼筋混凝土加強磚造,67年9月22日,三層,一層 二層 三層 騎樓 電梯樓梯間 地下層
RPSNMLSJOHLFFDP27DA,1,220.01,住家用,鋼筋混凝土造,104年3月6日,四層,一層 二層 三層 四層
RPVNMLRKNHLFFCP47EA,35,106.52,住家用,加強磚造,70年6月17日,二層,一層 二層
RPPNMLTKNHLFFAP76DA,1,222.00,住家用,鋼筋混凝土造,104年4月20日,四層,一層 二層 三層 四層
RPVNMLRKNHLFFAP17DA,1,418.26,見其他登記事項,鋼筋混凝土造,104年8月14日,四層,一層 二層 三層 四層
RPRNMLQLNHLFFDP96CA,4,194.15,見其他登記事項,鋼筋混凝土造,101年3月21日,三層,一層 二層 三層 見其他登記事項
RPTNMLSKNHLFFDP27CA,17,63.58,住家用,鋼筋混凝土造,88年7月30日,十四層,十二層
RPTNMLSKNHLFFDP27CA,17,13.37,共有部份,鋼筋混凝土造,88年7月30日,十四層,
RPTNMLSKNHLFFDP27CA,17,1.26,住家用,鋼筋混凝土造,88年7月30日,十四層,
RPTNMLSKNHLFFDP27CA,17,7.22,見其他登記事項,鋼筋混凝土造,88年7月30日,十四層,
RPQNMLOLNHLFFCP56CA,1,196.43,見其他登記事項,鋼筋混凝土造,104年8月31日,三層,一層 二層 三層 見其他登記事項
RPQNMLTJOHLFFAP76CA,43,122.64,住家用,加強磚造,62年3月2日,二層,一層 二層 騎樓
RPSNMLTJOHLFFAP96CA,19,103.63,住家用,鋼筋混凝土造,86年5月15日,十六層,七層
RPSNMLTJOHLFFAP96CA,19,22.86,共同部份,鋼筋混凝土造,86年5月15日,十六層,
RPSNMLTJOHLFFAP96CA,19,33.89,共同部份,鋼筋混凝土造,86年5月15日,十六層,
RPQOMLRLOHLFFAP86CA,1,236.20,見其他登記事項,鋼筋混凝土造,104年2月24日,三層,一層 二層 三層 屋頂突出物
RPSNMLQJOHLFFAP66CA,1,192.91,見其他登記事項,鋼筋混凝土造,104年12月30日,三層,一層 二層 三層 屋頂突出物
RPWNMLLMNHLFFAP76CA,18,28.09,住家用,鋼筋混凝土造,87年10月30日,十層,八層
RPWNMLLMNHLFFAP76CA,18,13.11,共同部份,鋼筋混凝土造,87年10月30日,十層,
RPWNMLLMNHLFFAP76CA,18,8.28,共同部份,鋼筋混凝土造,87年10月30日,十層,
RPRNMLRKNHLFFAP66CA,,192.91,見其他登記事項,鋼筋混凝土造,104年12月30日,三層,一層 二層 三層 屋頂突出物
RPSOMLRKNHLFFAP86CA,23,187.83,住家用,鋼筋混凝土造,82年5月19日,四層,一層 二層 三層 四層 電梯樓梯間
RPUNMLQKNHLFFAP86CA,1,263.54,見其他登記事項,鋼筋混凝土造,103年10月7日,三層,一層 二層 三層 屋頂突出物
RPTNMLTKNHLFFAP07CA,3,417.71,見其他登記事項,鋼筋混凝土造,102年10月18日,五層,一層 二層 三層 四層 五層
RPQNMLRKNHLFFCP76CA,1,239.80,見其他登記事項,鋼筋混凝土造,104年2月6日,四層,見其他登記事項
RPRNMLRKNHLFFCP86CA,1,239.80,見其他登記事項,鋼筋混凝土造,104年2月6日,四層,見其他登記事項
RPWNMLRKNHLFFCP37CA,1,218.96,見其他登記事項,鋼筋混凝土造,104年5月4日,三層,一層 二層 三層 見其他登記事項
RPQNMLRKNHLFFBP66CA,21,181.67,住家用,鋼筋混凝土造,84年5月19日,三層,一層 二層 三層 電梯樓梯間
RPQNMLTKNHLFFDP07CA,1,197.58,見其他登記事項,鋼筋混凝土造,104年10月2日,四層,一層 二層 三層 四層 見其他登記事項
RPUNMLQJOHLFFDP17CA,,208.16,住家用,鋼筋混凝土造,104年11月17日,三層,一層 二層 三層
RPSNMLSKNHLFFAP07EA,21,12.18,共同部份,鋼筋混凝土造,84年5月1日,七層,
RPSNMLSKNHLFFAP07EA,21,42.22,住家用,鋼筋混凝土造,84年5月1日,七層,五層
RPSNMLOLNHLFFEP07DA,17,113.52,見其他登記事項,鋼筋混凝土造,88年6月3日,十層,九層
RPSNMLOLNHLFFEP07DA,17,.29,見其他登記事項,鋼筋混凝土造,88年6月3日,一層,
RPSNMLOLNHLFFEP07DA,17,57.07,見其他登記事項,鋼筋混凝土造,88年6月3日,10,
RPSNMLOLNHLFFEP07DA,17,18.41,見其他登記事項,,88年6月3日,十層,
RPQNMLTKNHLFFAP86DA,38,92.26,住家用,加強磚造,67年3月9日,二層,一層 二層
RPPNMLNLNHLFFFP66CA,17,77.05,住家用,鋼筋混凝土造,88年1月13日,八層,五層
RPPNMLNLNHLFFFP66CA,17,18.65,見其他登記事項,鋼筋混凝土造,88年1月13日,八層,
RPPNMLNLNHLFFFP66CA,17,8.71,見其他登記事項,鋼筋混凝土造,88年1月13日,八層,
RPUNMLSKNHLFFEP47CA,22,98.14,住家用,鋼筋混凝土造,83年3月23日,七層,七層
RPUNMLSKNHLFFEP47CA,22,18.01,共有部份,鋼筋混凝土造,83年3月23日,十層,
RPPNMLSKNHLFFEP96CA,24,225.29,住家用,鋼筋混凝土造,81年10月18日,四層,一層 二層 三層 四層
RPPNMLKLNHLFFEP88CA,2,286.11,住商用,鋼筋混凝土造,103年6月13日,五層,二層 三層 四層 五層 見其他登記事項
RPRNMLKLNHLFFEP09CA,2,277.83,住商用,鋼筋混凝土造,103年6月13日,五層,二層 三層 四層 五層 見其他登記事項
RPPOMLPLNHLFFDP76CA,34,200.02,農舍,加強磚造,71年5月15日,二層,一層 二層 騎樓
RPPNMLSKNHLFFCP76CA,19,237.27,住家用,鋼筋混凝土造,86年7月26日,五層,一層 二層 三層 四層 五層
RPUNMLTKNHLFFAP17CA,36,65.80,住家用,加強磚造,69年6月1日,一層,一層 騎樓
RPPNMLSKNHLFFAP56CA,22,199.18,見其他登記事項,鋼筋混凝土造,83年1月20日,四層,一層 二層 三層 四層 電梯樓梯間
RPROMLLMNHLFFAP98CA,7,97.08,見其他登記事項,鋼筋混凝土造,97年11月1日,十層,四層
RPROMLLMNHLFFAP98CA,7,34.19,共同部份,鋼筋混凝土造,97年11月1日,十層,
RPROMLLMNHLFFAP98CA,7,21.62,共同部份,鋼筋混凝土造,97年11月1日,十層,
RPROMLLMNHLFFAP98CA,7,8.46,共同部份,鋼筋混凝土造,97年11月1日,十層,
RPSNMLLMNHLFFAP98CA,22,202.03,住家用,鋼筋混凝土造,82年12月1日,三層,一層 二層 三層 電梯樓梯間
RPWNMLTKNHLFFAP37CA,22,149.58,住家用,鋼筋混凝土造,83年2月5日,三層,一層 二層 三層 電梯樓梯間
RPWNMLTKNHLFFAP37CA,22,2.47,住家用,鋼筋混凝土造,83年3月18日,四層,一層 二層 三層 四層 見其他登記事項
RPSOMLKLNHLFFAP88CA,29,221.31,住商用,鋼筋混凝土造,76年7月31日,三層,一層 二層 三層 騎樓 電梯樓梯間
RPVNMLOLNHLFFAP86CA,,256.93,住家用,鋼筋混凝土造,104年11月30日,四層,一層 二層 三層 四層
RPWNMLOLNHLFFAP96CA,,256.93,住家用,鋼筋混凝土造,104年11月30日,四層,一層 二層 三層 四層
RPXNMLOLNHLFFAP07CA,,256.93,住家用,鋼筋混凝土造,104年11月30日,四層,一層 二層 三層 四層
RPOOMLOLNHLFFAP88CA,,238.91,住家用,鋼筋混凝土造,104年11月30日,四層,一層 二層 三層 四層
RPSNMLLJOHLFFDP09CA,14,222.60,住家用,鋼筋混凝土造,91年7月31日,四層,一層 二層 三層 四層 電梯樓梯間
RPSNMLMJOHLFFDP56CA,,223.77,住家用,鋼筋混凝土造,105年1月29日,四層,一層 二層 三層 四層
RPQNMLRJOHLFFDP86CA,1,220.44,見其他登記事項,鋼筋混凝土造,104年4月24日,三層,一層 二層 三層 見其他登記事項
RPVNMLNKOHLFFEP17CA,21,181.37,住家用,鋼筋混凝土造,84年9月19日,四層,一層 二層 三層 四層
RPWOMLTKNHLFFAP57DA,37,68.76,住家用,加強磚造,68年5月20日,二層,一層
RPTNMLKLNHLFFAP98DA,12,18.27,住家用,鋼筋混凝土造,93年3月26日,五層,二層
RPTNMLKLNHLFFAP98DA,12,24.90,共同部份,鋼筋混凝土造,93年3月26日,五層,
RPTNMLKLNHLFFAP98DA,12,18.27,住家用,鋼筋混凝土造,93年3月26日,五層,二層
RPUNMLTKNHLFFCP57EA,25,205.96,住商用,鋼筋混凝土造,80年10月20日,三層,一層 二層 三層 騎樓 電梯樓梯間
RPPNMLOLNHLFFBP09DA,26,221.63,住商用,鋼筋混凝土造,79年5月21日,三層,一層 二層 三層 電梯樓梯間 地下層
RPPNMLOLNHLFFBP09DA,26,15.51,共用部份,鋼筋混凝土造,79年5月21日,五層,
RPUNMLKLNHLFFAP09DA,12,18.58,住家用,鋼筋混凝土造,93年3月26日,五層,二層
RPUNMLKLNHLFFAP09DA,12,12.45,共同部份,鋼筋混凝土造,93年3月26日,五層,
RPVNMLKLNHLFFAP56DA,12,18.27,住家用,鋼筋混凝土造,93年3月26日,五層,二層
RPVNMLKLNHLFFAP56DA,12,12.45,共同部份,鋼筋混凝土造,93年3月26日,五層,
RPQOMLNLNHLFFAP09DA,21,187.00,住家用,鋼筋混凝土造,84年9月10日,三層,一層 二層 三層 電梯樓梯間
RPWNMLOKOHLFFDP27CA,38,96.40,住商用,加強磚造,67年7月31日,二層,一層 二層
RPWNMLOKOHLFFDP27CA,38,100.01,住商用,加強磚造,67年7月15日,二層,一層 二層
RPTNMLKLNHLFFDP56CA,38,110.17,住商用,加強磚造,67年7月4日,二層,一層 二層 騎樓
SPTNMLKLNHLFFDP66CA,38,107.82,住家用,加強磚造,67年10月4日,二層,一層 二層 騎樓
RPWNMLQLNHLFFAP17CA,22,97.48,住家用,鋼筋混凝土造,83年3月25日,七層,六層
RPWNMLQLNHLFFAP17CA,22,14.09,共有部份,鋼筋混凝土造,83年3月25日,七層,
RPWNMLQLNHLFFAP17CA,22,13.70,共有部份,鋼筋混凝土造,83年3月25日,七層,
RPXNMLTJOHLFFAP47CA,23,96.61,住家用,鋼筋混凝土造,82年10月8日,七層,七層
RPXNMLTJOHLFFAP47CA,23,27.12,共同部份,鋼筋混凝土造,82年10月8日,七層,
RPXNMLTJOHLFFAP47CA,23,9.68,共同部份,鋼筋混凝土造,82年10月8日,七層,
RPXNMLTJOHLFFAP47CA,23,34.65,住家用,鋼筋混凝土造,82年10月8日,七層,七層
RPUNMLMJOHLFFAP09CA,8,202.10,住商用,鋼筋混凝土造,97年1月22日,四層,一層 二層 三層 四層 騎樓
RPOOMLLJOHLFFAP48CA,20,96.92,住家用,鋼筋混凝土造,85年8月18日,七層,六層
RPOOMLLJOHLFFAP48CA,20,36.14,共同部份,鋼筋混凝土造,85年8月18日,七層,
RPUNMLPKOHLFFAP86CA,18,222.46,住家用,鋼筋混凝土造,87年8月3日,四層,一層 二層 三層 四層 地下層
RPVNMLMJOHLFFAP56CA,22,90.96,住家用,鋼筋混凝土造,83年7月28日,六層,六層
RPVNMLMJOHLFFAP56CA,22,34.86,共同部份,鋼筋混凝土造,83年7月28日,六層,
RPXNMLKMNHLFFAP76CA,17,110.52,住家用,鋼筋混凝土造,88年9月26日,五層,四層 五層 屋頂突出物
RPXNMLKMNHLFFAP76CA,17,21.57,共有部份,鋼筋混凝土造,88年9月26日,五層,
RPXNMLKMNHLFFAP76CA,17,19.15,停車空間,鋼筋混凝土造,88年9月26日,五層,
RPRNMLOLNHLFFCP66CA,1,194.53,見其他登記事項,鋼筋混凝土造,104年8月31日,三層,一層 二層 三層 見其他登記事項
RPTNMLOLNHLFFCP86CA,1,191.11,見其他登記事項,鋼筋混凝土造,104年2月24日,四層,騎樓 見其他登記事項
RPXNMLOLNHLFFDP37CA,1,281.53,住家用,鋼筋混凝土造,104年7月16日,四層,一層 二層 三層 四層
RPTNMLKMNHLFFDP66CA,1,177.69,住家用,鋼筋混凝土造,104年7月29日,三層,一層 二層 三層
RPRNMLMJOHLFFDP09CA,,223.77,住家用,鋼筋混凝土造,104年10月27日,四層,一層 二層 三層 四層
RPRNMLKMNHLFFAP88DA,,178.29,住家用,鋼筋混凝土造,104年11月5日,三層,一層 二層 三層
RPOOMLOLNHLFFDP66DA,1,197.58,見其他登記事項,鋼筋混凝土造,104年10月2日,四層,一層 二層 三層 四層 見其他登記事項
RPSNMLRLNHLFFAP07EA,5,171.87,住家用,鋼筋混凝土造,100年6月6日,三層,一層 二層 三層 騎樓
RPXNMLQKOHLFFDP67DA,25,157.05,住家用,鋼筋混凝土造,80年7月20日,二層,一層 二層 電梯樓梯間
RPOOMLQLNHLFFAP56DA,34,108.20,住家用,加強磚造,71年1月14日,二層,一層 二層 騎樓
SPOOMLQLNHLFFAP66DA,34,109.93,住家用,加強磚造,71年5月5日,二層,一層 二層 騎樓
RPRNMLRLNHLFFFP27CA,17,54.57,住家用,鋼筋混凝土造,88年1月13日,八層,七層
RPRNMLRLNHLFFFP27CA,17,5.33,見其他登記事項,鋼筋混凝土造,88年1月13日,八層,
RPRNMLRLNHLFFFP27CA,17,6.40,見其他登記事項,鋼筋混凝土造,88年1月13日,八層,
RPVNMLOKOHLFFDP17CA,48,321.59,住商用,加強磚造,56年9月21日,四層,一層 二層 三層 四層 騎樓
RPTNMLMJOHLFFDP66CA,,224.20,住家用,鋼筋混凝土造,105年1月29日,四層,一層 二層 三層 四層
RPUNMLMJOHLFFDP76CA,,194.77,見其他登記事項,鋼筋混凝土造,105年1月29日,四層,一層 二層 三層 四層
RPVNMLMJOHLFFDP86CA,,194.35,見其他登記事項,鋼筋混凝土造,105年1月29日,四層,一層 二層 三層 四層
RPWNMLMJOHLFFDP96CA,,194.35,見其他登記事項,鋼筋混凝土造,105年1月29日,四層,一層 二層 三層 四層
RPPOMLOLNHLFFDP66CA,1,196.92,見其他登記事項,鋼筋混凝土造,104年9月17日,三層,一層 二層 三層 見其他登記事項
RPQNMLOLNHLFFDP66CA,19,212.86,住商用,鋼筋混凝土造,85年11月21日,三層,一層 二層 三層
RPRNMLLJOHLFFBP78CA,21,404.88,住商用,鋼筋混凝土造,84年2月22日,四層,一層 二層 三層 四層 騎樓 電梯樓梯間
RPRNMLMJOHLFFBP88CA,24,23.19,見其他登記事項,鋼筋混凝土造,81年6月10日,八層,地下層
RPRNMLMJOHLFFBP88CA,24,17.96,共用部份,鋼筋混凝土造,81年6月10日,八層,
RPRNMLMJOHLFFBP88CA,24,105.37,住家用,鋼筋混凝土造,81年6月10日,八層,二層
RPPNMLPKOHLFFBP09CA,22,108.51,住家用,鋼筋混凝土造,83年1月22日,九層,四層
RPPNMLPKOHLFFBP09CA,22,21.94,見其他登記事項,鋼筋混凝土造,83年1月22日,九層,
RPPNMLPKOHLFFBP09CA,22,1.69,共用部份,鋼筋混凝土造,83年1月21日,,
RPPNMLPKOHLFFBP09CA,22,2.21,共用部份,鋼筋混凝土造,83年1月21日,,
RPPNMLPKOHLFFBP09CA,22,14.56,共用部份,鋼筋混凝土造,83年1月21日,,
RPPNMLPKOHLFFBP09CA,22,1.46,共用部份,鋼筋混凝土造,83年1月21日,,
RPPNMLPKOHLFFBP09CA,22,4.79,共用部份,鋼筋混凝土造,83年1月21日,,
RPUNMLOLNHLFFAP76CA,22,189.46,住商用,鋼筋混凝土造,83年6月1日,三層,一層 二層 三層 電梯樓梯間
RPPOMLLMNHLFFAP78CA,22,60.24,住家用,鋼筋混凝土造,83年6月15日,十層,二層
RPPOMLLMNHLFFAP78CA,22,12.95,共同部份,鋼筋混凝土造,83年6月15日,十一層,
RPPOMLLMNHLFFAP78CA,22,7.19,共同部份,鋼筋混凝土造,83年6月15日,,
RPUNMLNKOHLFFAP66CA,10,240.77,住家用,鋼筋混凝土造,95年8月1日,四層,一層 二層 三層 四層
RPTNMLPLNHLFFAP76CA,9,207.89,住家用,鋼筋混凝土造,96年8月16日,三層,一層 二層 三層 電梯樓梯間
RPWNMLQKOHLFFAP17CA,2,145.72,見其他登記事項,見其他登記事項,102年10月21日,一層,一層 騎樓 電梯樓梯間
RPSOMLOKOHLFFAP66CA,8,199.90,住商用,鋼筋混凝土造,97年1月22日,四層,一層 二層 三層 四層 騎樓
RPTOMLOKOHLFFAP76CA,8,199.90,住商用,鋼筋混凝土造,97年1月22日,四層,一層 二層 三層 四層 騎樓
RPRNMLOKOHLFFBP56CA,,429.13,見其他登記事項,鋼筋混凝土造,104年11月25日,四層,一層 二層 三層 四層 見其他登記事項
RPQNMLQLNHLFFDP86CA,35,109.62,住商用,加強磚造,69年12月2日,二層,一層 二層 騎樓
RPXNMLMJOHLFFDP07CA,,194.35,見其他登記事項,鋼筋混凝土造,105年1月29日,四層,一層 二層 三層 四層
RPOOMLMJOHLFFDP88CA,,194.79,見其他登記事項,鋼筋混凝土造,105年1月29日,四層,一層 二層 三層 四層
RPPOMLMJOHLFFDP98CA,,194.79,見其他登記事項,鋼筋混凝土造,105年1月29日,四層,一層 二層 三層 四層
RPQOMLMJOHLFFDP09CA,,194.35,見其他登記事項,鋼筋混凝土造,105年1月29日,四層,一層 二層 三層 四層
RPROMLMJOHLFFDP56CA,,194.39,見其他登記事項,鋼筋混凝土造,105年1月29日,四層,一層 二層 三層 四層
RPSOMLMJOHLFFDP66CA,,194.72,住家用,鋼筋混凝土造,105年1月29日,四層,一層 二層 三層 四層
RPTOMLMJOHLFFDP76CA,,194.35,見其他登記事項,鋼筋混凝土造,105年1月29日,四層,一層 二層 三層 四層
RPUOMLMJOHLFFDP86CA,,194.79,見其他登記事項,鋼筋混凝土造,105年1月29日,四層,一層 二層 三層 四層
RPVOMLMJOHLFFDP96CA,,194.79,見其他登記事項,鋼筋混凝土造,105年1月29日,四層,一層 二層 三層 四層
RPWOMLMJOHLFFDP07CA,,194.35,見其他登記事項,鋼筋混凝土造,105年1月29日,四層,一層 二層 三層 四層
RPPOMLQLNHLFFAP66DA,37,68.76,住家用,加強磚造,68年6月20日,二層,二層
RPUNMLQLNHLFFCP27DA,9,180.05,住家用,鋼筋混凝土造,95年10月31日,三層,一層 二層 三層 屋頂突出物
RPUNMLQLNHLFFDP37DA,23,239.11,住家用,鋼筋混凝土造,82年6月23日,三層,一層 二層 三層 電梯樓梯間
RPRNMLOLNHLFFBP76EA,35,135.11,住家用,加強磚造,69年11月25日,二層,一層 二層 電梯樓梯間
RPQNMLKMNHLFFEP56DA,37,64.50,住家用,鋼筋混凝土加強磚造,68年6月9日,二層,一層 二層
RPXNMLKLOHLFFAP86DA,16,237.38,農舍,見其他登記事項,89年2月10日,一層,一層
RPPNMLRLNHLFFEP96CA,18,178.13,住家用,鋼筋混凝土造,86年12月5日,三層,一層 二層 三層 電梯樓梯間
SPPNMLRLNHLFFEP07CA,18,178.13,住家用,鋼筋混凝土造,86年12月5日,3,一層 二層 三層 電梯樓梯間
RPPNMLQLNHLFFDP76CA,35,220.01,住家用,見其他登記事項,69年12月15日,四層,一層 二層 三層 四層
RPPNMLRLNHLFFCP76CA,15,474.90,住商用,見其他登記事項,90年5月24日,二層,一層 二層 騎樓 見其他登記事項
RPPNMLRLNHLFFCP76CA,26,187.98,住家用,加強磚造,78年12月20日,二層,一層 二層 電梯樓梯間
RPPNMLKLOHLFFBP68CA,2,225.01,見其他登記事項,鋼筋混凝土造,102年12月25日,三層,一層 二層 三層 見其他登記事項
RPVNMLOKOHLFFAP86CA,21,192.53,住家用,鋼筋混凝土造,83年12月20日,三層,一層 二層 三層 電梯樓梯間
RPPOMLKMOHLFFAP78CA,3,185.70,見其他登記事項,鋼筋混凝土造,102年4月18日,三層,一層 二層 三層 電梯樓梯間
RPPNMLMJOHLFFAP58CA,,256.93,住家用,鋼筋混凝土造,104年11月30日,四層,一層 二層 三層 四層
RPPNMLRLNHLFFAP56CA,1,188.82,見其他登記事項,鋼筋混凝土造,104年1月20日,三層,一層 二層 三層 屋頂突出物
RPVNMLKMNHLFFAP56CA,19,97.94,住家用,鋼筋混凝土造,86年2月11日,十三層,九層
RPVNMLKMNHLFFAP56CA,19,29.90,共有部份,鋼筋混凝土造,86年2月11日,十四層,
RPTNMLQJPHLFFAP86CA,4,502.96,見其他登記事項,鋼筋混凝土造,101年7月12日,四層,一層 二層 三層 四層 屋頂突出物 地下一層
RPTNMLQJPHLFFAP86CA,4,53.20,見其他登記事項,鋼筋混凝土造,101年7月12日,四層,
RPPNMLKLOHLFFAP58CA,22,89.41,住家用,鋼筋混凝土造,83年6月15日,十層,十層
RPPNMLKLOHLFFAP58CA,22,12.07,共有部份,鋼筋混凝土造,83年6月15日,十二層,
RPPNMLKLOHLFFAP58CA,22,11.11,共有部份,鋼筋混凝土造,83年6月15日,,
RPWNMLMLOHLFFAP86CA,1,308.34,見其他登記事項,鋼筋混凝土造,104年9月18日,四層,一層 二層 三層 四層 騎樓
RPUNMLNLOHLFFAP76CA,21,239.07,住家用,鋼筋混凝土造,84年8月26日,四層,一層 二層 三層 四層
RPQNMLRLNHLFFBP76CA,2,200.97,見其他登記事項,鋼筋混凝土造,103年6月9日,三層,一層 二層 三層 見其他登記事項
RPRNMLRJOHLFFDP96CA,1,202.72,住家用,鋼筋混凝土造,104年5月18日,四層,一層 二層 三層 四層
RPTNMLQLNHLFFDP17CA,19,248.47,見其他登記事項,鋼筋混凝土造,85年12月13日,四層,一層 二層 三層 四層 騎樓 電梯樓梯間
RPUNMLLMNHLFFDP86CA,33,96.95,住家用,加強磚造,72年9月23日,二層,一層 二層
RPWNMLQLNHLFFEP57CA,37,126.22,住商用,加強磚造,67年11月15日,二層,一層 二層 騎樓
RPVNMLMLOHLFFAP96EA,37,85.72,住家用,加強磚造,68年7月15日,二層,一層 二層
RPWNMLLMNHLFFCP17EA,37,267.57,住商用,加強磚造,68年2月23日,三層,一層 二層 三層 騎樓
RPRNMLKMNHLFFDP56DA,18,227.72,住家用,鋼筋混凝土造,87年9月1日,三層,一層 二層 三層 電梯樓梯間
RPTNMLRJOHLFFFP37CA,20,163.36,住家用,鋼筋混凝土造,84年11月27日,三層,一層 二層 三層 屋頂突出物
RPWNMLKMNHLFFDP96CA,10,16.31,住家用,鋼筋混凝土造,95年8月3日,五層,二層
RPWNMLKMNHLFFDP96CA,10,6.96,見其他登記事項,鋼筋混凝土造,95年8月3日,五層,
RPWNMLKMNHLFFDP96CA,10,5.23,見其他登記事項,鋼筋混凝土造,95年8月3日,五層,
RPXNMLKMNHLFFDP07CA,4,183.88,見其他登記事項,鋼筋混凝土造,101年4月26日,三層,一層 二層 三層 屋頂突出物
RPRNMLOKOHLFFDP76CA,9,69.18,見其他登記事項,鋼筋混凝土造,96年2月5日,十一層,二層
RPRNMLOKOHLFFDP76CA,9,27.00,見其他登記事項,鋼筋混凝土造,96年2月5日,十三層,
RPXNMLRLOHLFFAP47CA,18,28.09,住家用,鋼筋混凝土造,87年10月30日,十層,七層
RPXNMLRLOHLFFAP47CA,18,13.11,共同部份,鋼筋混凝土造,87年10月30日,十層,
RPXNMLRLOHLFFAP47CA,18,8.28,共同部份,鋼筋混凝土造,87年10月30日,十層,
RPOOMLRLOHLFFAP66CA,18,25.75,住家用,鋼筋混凝土造,87年10月30日,十層,七層
RPOOMLRLOHLFFAP66CA,18,11.96,共同部份,鋼筋混凝土造,87年10月30日,十層,
RPOOMLRLOHLFFAP66CA,18,7.54,共同部份,鋼筋混凝土造,87年10月30日,十層,
RPXNMLOKOHLFFAP07CA,,306.75,住家用,鋼筋混凝土造,104年10月31日,四層,一層 二層 三層 四層
RPOOMLOKOHLFFAP88CA,,215.27,見其他登記事項,鋼筋混凝土造,104年10月31日,三層,一層 二層 三層 屋頂突出物
RPPOMLOKOHLFFAP98CA,,201.83,見其他登記事項,鋼筋混凝土造,104年10月31日,三層,一層 二層 三層 屋頂突出物
RPQOMLOKOHLFFAP09CA,,207.77,見其他登記事項,鋼筋混凝土造,104年10月31日,三層,一層 二層 三層 屋頂突出物
RPUNMLRLNHLFFAP07CA,1,174.82,住家用,鋼筋混凝土造,104年6月5日,四層,一層 二層 三層 四層
RPQOMLLMNHLFFAP88CA,20,84.24,住家用,鋼筋混凝土造,85年3月25日,九層,七層
RPQOMLLMNHLFFAP88CA,20,13.81,共同部份,鋼筋混凝土造,85年3月25日,九層,
RPQOMLLMNHLFFAP88CA,20,16.25,共同部份,鋼筋混凝土造,85年3月25日,九層,
RPTOMLLMNHLFFAP56CA,9,206.34,見其他登記事項,鋼筋混凝土造,96年4月24日,四層,一層 二層 三層 四層
RPQNMLLJOHLFFAP58CA,51,100.62,住家用,木造,54年3月23日,一層,一層 騎樓
RPRNMLPJOHLFFAP09CA,,187.92,住家用,鋼筋混凝土造,105年1月27日,三層,一層 二層 三層
RPSNMLPJOHLFFAP56CA,,187.92,住家用,鋼筋混凝土造,105年1月27日,三層,一層 二層 三層
RPTNMLPJOHLFFAP66CA,,192.60,住家用,鋼筋混凝土造,105年1月27日,三層,一層 二層 三層
RPUNMLPJOHLFFAP76CA,,192.60,住家用,鋼筋混凝土造,105年1月27日,三層,一層 二層 三層
RPQNMLLLOHLFFAP78CA,22,85.93,住家用,鋼筋混凝土造,83年6月15日,十一層,二層
RPQNMLLLOHLFFAP78CA,22,13.75,見其他登記事項,鋼筋混凝土造,83年6月15日,十二層,地下層
RPQNMLLLOHLFFAP78CA,22,11.79,共同部份,鋼筋混凝土造,83年6月15日,十一層,
RPQNMLLLOHLFFAP78CA,22,10.46,共同部份,鋼筋混凝土造,83年6月15日,,
RPSNMLMLOHLFFDP76CA,22,189.28,住家用,鋼筋混凝土造,83年1月14日,三層,一層 二層 三層 電梯樓梯間
RPSNMLOKOHLFFDP86CA,42,117.05,住家用,加強磚造,63年7月17日,二層,一層 二層 騎樓
RPWNMLLMNHLFFDP07CA,35,139.22,住家用,加強磚造,70年10月10日,二層,一層 二層 電梯樓梯間
RPQOMLKMNHLFFAP88DA,36,105.70,住家用,加強磚造,69年7月15日,二層,一層 二層 騎樓
RPRNMLLMNHLFFBP56EA,34,116.87,住家用,加強磚造,71年9月20日,二層,一層 二層 騎樓
RPRNMLLLOHLFFAP09EA,22,89.75,住家用,鋼筋混凝土造,83年6月15日,十層,二層
RPRNMLLLOHLFFAP09EA,22,11.11,共同部份,鋼筋混凝土造,83年6月15日,,
RPRNMLLLOHLFFAP09EA,22,11.38,共同部份,鋼筋混凝土造,83年6月15日,十層,
RPSNMLQJOHLFFDP96CA,40,100.04,住家用,加強磚造,65年5月30日,二層,一層 二層
RPOOMLKLOHLFFDP88CA,11,209.52,住家用,鋼筋混凝土造,93年11月26日,四層,一層 二層 三層 四層
RPUNMLOLOHLFFDP17CA,,281.08,見其他登記事項,鋼筋混凝土造,104年11月17日,三層,一層 二層 三層 屋頂突出物
RPPNMLNJOHLFFCP88CA,25,206.03,住家用,鋼筋混凝土造,80年11月3日,三層,一層 二層 三層 電梯樓梯間
RPPNMLSJOHLFFCP76CA,,177.56,見其他登記事項,鋼筋混凝土造,104年11月12日,三層,一層 二層 三層 見其他登記事項
RPXNMLQKOHLFFAP27CA,24,41.59,住家用,鋼筋混凝土造,81年8月29日,八層,六層
RPXNMLQKOHLFFAP27CA,24,21.49,共有部份,鋼筋混凝土造,81年8月29日,八層,
RPTNMLNJOHLFFAP09CA,24,158.70,住家用,鋼筋混凝土造,81年5月20日,三層,一層 二層 三層
RPWNMLNJOHLFFAP76CA,24,130.91,住家用,鋼筋混凝土加強磚造,81年10月7日,三層,一層 二層 三層
RPXNMLNJOHLFFAP86CA,49,90.56,住家用,磚造,56年9月19日,一層,一層
RPRNMLQJOHLFFAP56CA,,195.84,見其他登記事項,鋼筋混凝土造,104年12月30日,三層,一層 二層 三層 屋頂突出物
RPWNMLOKOHLFFAP96CA,2,170.35,見其他登記事項,鋼筋混凝土造,103年7月22日,一層,一層 屋頂突出物
RPPNMLLLOHLFFAP68CA,24,149.81,住商用,鋼筋混凝土造,81年9月30日,八層,一層 二層 騎樓
RPPNMLLLOHLFFAP68CA,24,27.01,共同部份,鋼筋混凝土造,81年9月30日,八層,
RPTNMLNLOHLFFAP66CA,37,106.15,見其他登記事項,加強磚造,68年6月15日,二層,一層 二層 屋頂突出物 夾層
RPSNMLNJOHLFFCP56CA,20,49.57,住家用,鋼筋混凝土造,84年12月20日,八層,七層
RPSNMLNJOHLFFCP56CA,20,21.76,共有部份,鋼筋混凝土造,84年12月20日,八層,
RPSNMLNJOHLFFCP56CA,20,.40,共有部份,鋼筋混凝土造,84年12月20日,,
RPSNMLNJOHLFFCP56CA,20,9.65,共有部份,鋼筋混凝土造,84年12月20日,,
RPPNMLRJOHLFFBP56CA,37,78.05,住商用,加強磚造,68年5月24日,二層,一層 二層 騎樓 電梯樓梯間
RPQNMLOJOHLFFDP56CA,2,223.62,住家用,鋼筋混凝土造,103年10月27日,三層,一層 二層 三層
RPWNMLNJOHLFFDP07CA,29,210.15,住商用,鋼筋混凝土造,75年12月5日,三層,一層 二層 三層 騎樓 電梯樓梯間
RPSNMLRJOHLFFEP17CA,38,99.84,住家用,加強磚造,66年11月25日,二層,一層 二層
RPTNMLMJOHLFFAP09DA,,362.68,見其他登記事項,鋼筋混凝土造,104年8月14日,四層,一層 二層 三層 四層
RPRNMLMJOHLFFEP66DA,,200.40,住家用,鋼筋混凝土造,105年2月4日,三層,一層 二層 三層 屋頂突出物
RPPNMLLJPHLFFFP09CA,15,88.31,住家用,鋼筋混凝土造,90年4月9日,九層,四層
RPPNMLLJPHLFFFP09CA,15,44.51,見其他登記事項,鋼筋混凝土造,90年4月9日,九層,
RPPNMLLJPHLFFFP09CA,15,3.25,見其他登記事項,鋼筋混凝土造,90年4月9日,九層,
RPPNMLLJPHLFFFP09CA,15,11.89,見其他登記事項,鋼筋混凝土造,90年4月9日,九層,
RPPNMLOJOHLFFCP56EA,21,140.96,住商用,鋼筋混凝土造,84年4月7日,三層,一層 二層 三層 電梯樓梯間
RPUNMLOKOHLFFDP07CA,9,26.48,見其他登記事項,鋼筋混凝土造,96年2月5日,十三層,七層
RPUNMLOKOHLFFDP07CA,9,11.81,見其他登記事項,鋼筋混凝土造,96年2月5日,十三層,
RPUNMLOKOHLFFDP07CA,9,3.73,見其他登記事項,鋼筋混凝土造,96年2月5日,十三層,
RPPNMLQJOHLFFBP09CA,9,204.20,住家用,鋼筋混凝土造,96年3月30日,三層,一層 二層 三層
RPSNMLOJOHLFFBP56CA,21,99.10,住家用,鋼筋混凝土造,84年3月16日,十二層,二層
RPSNMLOJOHLFFBP56CA,21,26.80,共用部份,鋼筋混凝土造,84年3月16日,,
RPQNMLSJOHLFFCP86CA,1,175.62,見其他登記事項,鋼筋混凝土造,104年11月10日,三層,一層 二層 三層 見其他登記事項
RPTNMLKLOHLFFAP98CA,24,141.06,住家用,鋼筋混凝土加強磚造,81年10月7日,三層,一層 二層 三層
RPTNMLOJOHLFFAP56CA,25,136.62,住家用,鋼筋混凝土造,80年10月17日,十層,二層
RPTNMLOJOHLFFAP56CA,25,22.10,共有部份,鋼筋混凝土造,80年10月17日,十層,
RPTNMLOJOHLFFAP56CA,25,32.44,共有部份,鋼筋混凝土造,80年10月17日,十層,
RPUNMLNJOHLFFAP56CA,9,236.30,住商用,鋼筋混凝土造,96年1月5日,四層,一層 二層 三層 四層
RPVNMLOJOHLFFAP76CA,2,56.51,住家用,鋼筋混凝土造,103年9月4日,四層,一層
RPVNMLOJOHLFFAP76CA,2,5.50,見其他登記事項,鋼筋混凝土造,103年9月4日,四層,
RPWNMLOJOHLFFAP86CA,22,92.93,住家用,鋼筋混凝土造,83年3月25日,七層,二層
RPWNMLOJOHLFFAP86CA,22,13.47,共同部份,鋼筋混凝土造,83年3月25日,七層,
RPWNMLOJOHLFFAP86CA,22,13.09,共同部份,鋼筋混凝土造,83年3月25日,七層,
RPPNMLPJOHLFFAP88CA,17,53.41,住家用,鋼筋混凝土造,88年2月2日,十層,九層
RPPNMLPJOHLFFAP88CA,17,4.03,共有部份,鋼筋混凝土造,88年2月2日,十層,
RPPNMLPJOHLFFAP88CA,17,12.45,共有部份,鋼筋混凝土造,88年2月2日,十層,
RPPNMLPJOHLFFAP88CA,17,9.96,共有部份,鋼筋混凝土造,88年2月2日,十層,
RPQNMLPJOHLFFAP98CA,16,157.90,住家用,鋼筋混凝土造,89年1月31日,三層,一層 二層 三層 電梯樓梯間
RPUNMLQJOHLFFEP27CA,17,95.89,見其他登記事項,鋼筋混凝土造,88年6月3日,十層,七層
RPUNMLQJOHLFFEP27CA,17,.25,見其他登記事項,鋼筋混凝土造,88年6月3日,一層,
RPUNMLQJOHLFFEP27CA,17,15.84,見其他登記事項,,88年6月3日,十層,
RPUNMLQJOHLFFEP27CA,17,48.67,見其他登記事項,鋼筋混凝土造,88年6月3日,10,
RPQNMLQJOHLFFEP86CA,33,150.86,住商用,鋼筋混凝土造,72年8月29日,四層,一層 二層 三層 四層 電梯樓梯間
RPUNMLSJOHLFFCP47EA,22,178.43,住家用,鋼筋混凝土造,83年8月13日,四層,一層 二層 三層 四層 電梯樓梯間
RPSNMLRJOHLFFCP07DA,35,126.48,住家用,加強磚造,70年6月6日,二層,一層 二層
RPWNMLTLOHLFFAP67DA,23,192.00,住家用,鋼筋混凝土造,82年10月12日,三層,一層 二層 三層 電梯樓梯間 見其他登記事項
RPXNMLTLOHLFFAP77DA,23,192.00,住家用,鋼筋混凝土造,82年10月12日,三層,一層 二層 三層 電梯樓梯間 見其他登記事項
RPPOMLNJOHLFFEP66DA,36,95.22,住家用,加強磚造,68年11月14日,二層,一層 二層
RPQNMLSJOHLFFBP96EA,27,177.83,見其他登記事項,見其他登記事項,78年9月2日,一層,一層
RPTNMLOKOHLFFDP96CA,18,232.01,住家用,鋼筋混凝土造,87年10月14日,四層,一層 二層 三層 四層 地下層
RPTNMLOKOHLFFDP96CA,18,30.13,共有部份,鋼筋混凝土造,87年10月14日,一層,
RPPNMLMKOHLFFDP98CA,22,176.77,住商用,鋼筋混凝土造,83年7月23日,三層,一層 二層 三層 騎樓 電梯樓梯間
RPOOMLRJOHLFFDP76CA,19,67.89,住家用,鋼筋混凝土造,86年10月3日,九層,七層
RPOOMLRJOHLFFDP76CA,19,19.47,共有部份,鋼筋混凝土造,86年10月13日,九層,
RPOOMLRJOHLFFDP76CA,19,7.80,共有部份,鋼筋混凝土造,86年10月3日,九層,
RPPNMLSJOHLFFDP86CA,22,236.77,住商用,鋼筋混凝土造,83年4月7日,三層,一層 二層 三層 電梯樓梯間
RPQNMLSJOHLFFDP96CA,22,181.24,住家用,鋼筋混凝土造,83年3月1日,八層,五層
RPQNMLSJOHLFFDP96CA,22,49.64,共有部份,鋼筋混凝土造,83年3月1日,八層,
RPVNMLQJOHLFFAP96CA,35,102.32,住家用,加強磚造,70年10月29日,二層,一層 二層 騎樓 電梯樓梯間
RPSOMLTJOHLFFAP07CA,28,101.90,住家用,加強磚造,76年11月1日,二層,一層 二層
RPPPMLSJOHLFFAP76CA,30,565.26,見其他登記事項,鋼筋混凝土加強磚造,75年10月2日,二層,一層 二層 電梯樓梯間 地下層
RPPPMLSJOHLFFAP76CA,30,1260.77,工業用,鋼筋混凝土加強磚造,75年10月2日,二層,一層 二層
RPVNMLOJPHLFFAP86CA,46,69.53,住商用,加強磚造,59年3月1日,二層,一層 二層 騎樓
RPUNMLRJOHLFFAP96CA,1,174.71,住家用,鋼筋混凝土造,104年6月5日,四層,一層 二層 三層 四層
RPVNMLRJOHLFFAP07CA,1,174.82,住家用,鋼筋混凝土造,104年6月5日,四層,一層 二層 三層 四層
RPOOMLTJOHLFFAP66CA,39,119.24,住商用,加強磚造,66年4月30日,二層,一層 二層 騎樓
RPSNMLSJOHLFFAP86CA,34,76.90,住家用,加強磚造,71年8月2日,二層,一層 二層
RPPNMLQJOHLFFCP56CA,14,517.11,見其他登記事項,見其他登記事項,91年5月20日,一層,見其他登記事項
RPPNMLQJOHLFFCP56CA,27,271.69,農舍,加強磚造,78年1月16日,二層,一層 二層 電梯樓梯間
RPUNMLSJOHLFFCP27CA,1,218.96,見其他登記事項,鋼筋混凝土造,104年5月4日,三層,一層 二層 三層 見其他登記事項
RPTNMLLJPHLFFDP66CA,22,15.15,住家用,鋼筋混凝土造,83年6月14日,九層,八層
RPTNMLLJPHLFFDP66CA,22,5.81,共有部份,鋼筋混凝土造,83年6月14日,九層,
RPPNMLMJPHLFFDP98CA,21,49.13,住家用,鋼筋混凝土造,84年4月6日,十二層,十一層
RPPNMLMJPHLFFDP98CA,21,2.11,共有部份,鋼筋混凝土造,84年4月6日,十二層,
RPPNMLMJPHLFFDP98CA,21,8.03,共有部份,鋼筋混凝土造,84年4月6日,十二層,
RPWNMLRJOHLFFDP47CA,11,184.62,住家用,鋼筋混凝土造,94年5月3日,三層,一層 二層 三層
RPVNMLTLOHLFFAP57DA,25,129.32,住家用,鋼筋混凝土造,80年11月1日,七層,六層
RPVNMLTLOHLFFAP57DA,25,24.72,見其他登記事項,鋼筋混凝土造,80年11月1日,七層,地下層
RPVNMLTLOHLFFAP57DA,25,16.02,共同部份,鋼筋混凝土造,80年11月1日,七層,
RPQNMLLJPHLFFFP56CA,16,53.74,住商用,鋼筋混凝土造,89年8月25日,八層,一層
RPQNMLLJPHLFFFP56CA,16,6.65,見其他登記事項,鋼筋混凝土造,89年8月25日,八層,
RPQNMLLJPHLFFFP56CA,16,8.60,共有部份,鋼筋混凝土造,89年8月25日,八層,
RPQNMLMLOHLFFAP98DA,36,115.58,住商用,加強磚造,69年4月28日,二層,一層 二層 騎樓 電梯樓梯間
RPUNMLNKOHLFFEP07CA,22,135.76,住家用,鋼筋混凝土造,82年12月7日,三層,一層 二層 三層 電梯樓梯間
RPXNMLSJOHLFFCP57CA,1,228.24,見其他登記事項,鋼筋混凝土造,104年2月6日,四層,一層 二層 三層 四層 見其他登記事項
RPQNMLQKOHLFFCP76CA,10,31.24,見其他登記事項,磚造,95年1月6日,一層,一層
RPVNMLSKQHLFFAP47CA,22,98.38,住家用,鋼筋混凝土造,83年5月15日,七層,六層
RPVNMLSKQHLFFAP47CA,22,23.54,共有部份,鋼筋混凝土造,83年5月15日,七層,
RPVNMLSKQHLFFAP47CA,22,18.83,共有部份,鋼筋混凝土造,83年5月15日,七層,
RPQOMLSJOHLFFAP76CA,34,111.72,住商用,加強磚造,70年12月16日,二層,一層 二層 騎樓 電梯樓梯間
RPSOMLSJOHLFFAP96CA,18,20.48,住家用,鋼筋混凝土造,87年10月30日,十層,七層
RPSOMLSJOHLFFAP96CA,18,8.48,共同部份,鋼筋混凝土造,87年10月30日,十層,
RPSOMLSJOHLFFAP96CA,18,5.32,共同部份,鋼筋混凝土造,87年10月30日,十層,
RPUNMLOKOHLFFAP76CA,18,20.48,住家用,鋼筋混凝土造,87年10月30日,十層,九層
RPUNMLOKOHLFFAP76CA,18,8.48,共同部份,鋼筋混凝土造,87年10月30日,十層,
RPUNMLOKOHLFFAP76CA,18,5.32,共同部份,鋼筋混凝土造,87年10月30日,十層,
RPVOMLNLOHLFFAP96CA,18,240.39,住家用,鋼筋混凝土造,87年9月15日,三層,一層 二層 三層
RPPNMLOKOHLFFAP88CA,47,90.84,住家用,見其他登記事項,58年1月10日,一層,一層 騎樓
RPQNMLOKOHLFFAP98CA,,195.84,見其他登記事項,鋼筋混凝土造,104年12月30日,三層,一層 二層 三層 屋頂突出物
RPQNMLRJPHLFFBP76CA,27,166.76,住商用,鋼筋混凝土造,78年10月5日,三層,一層 二層 三層 騎樓 電梯樓梯間
RPPNMLSKOHLFFDP96CA,,167.02,住家用,鋼筋混凝土造,104年11月13日,三層,一層 二層 三層
RPQNMLNKOHLFFDP56CA,2,220.83,住家用,鋼筋混凝土造,103年10月27日,三層,一層 二層 三層
RPRNMLMLOHLFFAP09DA,38,96.10,住家用,加強磚造,67年3月17日,二層,一層 二層
RPQNMLMKPHLFFEP76DA,21,141.64,住家用,鋼筋混凝土造,84年5月26日,十二層,十二層
RPQNMLMKPHLFFEP76DA,21,3.03,共有部份,鋼筋混凝土造,84年5月26日,,
RPQNMLMKPHLFFEP76DA,21,24.84,共有部份,鋼筋混凝土造,84年5月26日,十二層,
RPQNMLMKPHLFFEP76DA,21,5.04,共有部份,鋼筋混凝土造,84年5月26日,,
RPTNMLLLOHLFFFP96CA,21,99.10,住商用,鋼筋混凝土造,84年10月20日,五層,一層 騎樓
RPTNMLLLOHLFFFP96CA,21,21.56,見其他登記事項,鋼筋混凝土造,84年10月20日,五層,
RPVOMLOKOHLFFAP07DA,22,2.47,住家用,鋼筋混凝土造,83年3月18日,四層,一層 二層 三層 四層 見其他登記事項
RPVOMLOKOHLFFAP07DA,22,133.93,住家用,鋼筋混凝土造,83年1月20日,三層,一層 二層 三層 電梯樓梯間
RPWOMLRKOHLFFAP47DA,1,362.50,見其他登記事項,鋼筋混凝土造,104年8月14日,四層,一層 二層 三層 四層
RPTNMLPJPHLFFDP07CA,1,204.48,住家用,鋼筋混凝土造,104年1月27日,三層,一層 二層 三層
RPRNMLOKOHLFFAP09CA,17,149.95,住家用,鋼筋混凝土造,88年1月18日,四層,一層 二層 三層 四層
RPUOMLOKOHLFFAP86CA,26,155.24,住家用,鋼筋混凝土造,79年3月15日,二層,一層 二層 電梯樓梯間
RPPNMLSKOHLFFAP66CA,,192.91,見其他登記事項,鋼筋混凝土造,104年12月30日,三層,一層 二層 三層 屋頂突出物
RPUNMLRLOHLFFAP17CA,22,138.57,住家用,鋼筋混凝土造,83年9月1日,八層,三層
RPUNMLRLOHLFFAP17CA,22,14.10,共同部份,鋼筋混凝土造,83年9月1日,八層,
RPPOMLLKPHLFFAP78CA,,177.48,住家用,鋼筋混凝土造,104年12月2日,三層,一層 二層 三層 電梯樓梯間
RPPNMLLLOHLFFEP09CA,22,15.13,見其他登記事項,鋼筋混凝土造,83年4月27日,七層,
RPPNMLLLOHLFFEP09CA,22,45.54,住家用,鋼筋混凝土造,83年4月27日,七層,六層
RPROMLMKRHLFFDP96CA,1,277.41,住家用,鋼筋混凝土造,104年7月9日,四層,一層 二層 三層 四層
RPSNMLQKPHLFFDP17CA,10,48.88,住家用,鋼筋混凝土造,95年8月3日,五層,五層
RPSNMLQKPHLFFDP17CA,10,20.89,見其他登記事項,鋼筋混凝土造,95年8月3日,五層,
RPSNMLQKPHLFFDP17CA,10,16.12,見其他登記事項,鋼筋混凝土造,95年8月3日,五層,
RPSNMLQKPHLFFDP17CA,10,34.82,住家用,鋼筋混凝土造,95年8月3日,五層,四層
RPSNMLQKPHLFFDP17CA,10,14.92,見其他登記事項,鋼筋混凝土造,95年8月3日,五層,
RPSNMLQKPHLFFDP17CA,10,11.51,見其他登記事項,鋼筋混凝土造,95年8月3日,五層,
RPRNMLLJPHLFFDP09CA,45,114.53,住家用,加強磚造,60年5月15日,三層,一層 二層 三層
RPQNMLKKPHLFFDP98CA,9,178.95,見其他登記事項,鋼筋混凝土造,96年3月14日,三層,一層 二層 三層 見其他登記事項
RPRNMLPKOHLFFDP86CA,17,52.50,住家用,鋼筋混凝土造,87年11月30日,九層,二層
RPRNMLPKOHLFFDP86CA,17,5.31,共有部份,鋼筋混凝土造,87年11月30日,九層,
RPRNMLPKOHLFFDP86CA,17,13.39,共有部份,鋼筋混凝土造,87年11月30日,九層,
RPSNMLPKOHLFFDP96CA,21,107.02,住家用,鋼筋混凝土造,83年11月28日,十層,三層
RPSNMLPKOHLFFDP96CA,21,18.10,共有部份,鋼筋混凝土造,83年11月28日,十層,
RPSNMLPKOHLFFDP96CA,21,9.21,共有部份,鋼筋混凝土造,83年11月28日,十層,
RPSNMLPKOHLFFDP96CA,21,1.14,共有部份,鋼筋混凝土造,83年11月28日,十層,
RPQNMLTKOHLFFFP37CA,4,194.22,見其他登記事項,鋼筋混凝土造,101年11月8日,二層,一層 二層 見其他登記事項
RPPNMLKLOHLFFFP56DA,,174.99,見其他登記事項,鋼筋混凝土造,104年12月4日,三層,騎樓 見其他登記事項
RPUNMLKLOHLFFDP86DA,37,271.01,見其他登記事項,見其他登記事項,68年7月3日,三層,一層 二層 三層 騎樓 見其他登記事項
RPQNMLQKOHLFFDP96DA,15,181.60,住家用,鋼筋混凝土造,90年6月5日,三層,一層 二層 三層
RPPNMLPJPHLFFDP76DA,35,108.72,住商用,加強磚造,70年3月26日,二層,一層 二層 騎樓
RPQNMLQKOHLFFEP07DA,22,116.61,住家用,鋼筋混凝土造,83年4月27日,七層,七層
RPQNMLQKOHLFFEP07DA,22,27.99,見其他登記事項,鋼筋混凝土造,83年4月27日,七層,
RPQNMLKLOHLFFFP66DA,,154.85,見其他登記事項,鋼筋混凝土造,104年12月4日,三層,騎樓 見其他登記事項
RPRNMLKLOHLFFFP76DA,,183.08,見其他登記事項,鋼筋混凝土造,104年12月4日,三層,騎樓 見其他登記事項
RPSNMLKLOHLFFFP86DA,,216.20,見其他登記事項,鋼筋混凝土造,104年12月4日,三層,見其他登記事項
RPTNMLKLOHLFFFP96DA,,211.75,見其他登記事項,鋼筋混凝土造,104年12月4日,三層,見其他登記事項
RPVNMLKLOHLFFFP17DA,,625.07,見其他登記事項,鋼筋混凝土造,104年12月4日,五層,見其他登記事項
RPXNMLKLOHLFFFP37DA,,247.99,見其他登記事項,鋼筋混凝土造,104年12月4日,三層,見其他登記事項
RPQNMLSLOHLFFFP47DA,,266.56,見其他登記事項,鋼筋混凝土造,104年12月4日,三層,騎樓 見其他登記事項
RPRNMLLLOHLFFCP56DA,8,235.12,見其他登記事項,鋼筋混凝土造,96年12月12日,四層,一層 二層 三層 四層 騎樓 見其他登記事項
RPTNMLMLOHLFFCP96EA,40,115.40,住家用,加強磚造,65年11月10日,二層,一層 二層
RPQNMLRKOHLFFDP96CA,13,169.39,見其他登記事項,鋼筋混凝土造,92年1月29日,四層,一層 二層 三層 四層 騎樓 電梯樓梯間
RPPNMLKKPHLFFDP88CA,,195.00,住家用,鋼筋混凝土造,105年3月8日,三層,一層 二層 三層
RPUNMLOKPHLFFDP17CA,,146.98,住家用,鋼筋混凝土造,105年3月8日,三層,一層 二層 三層
RPVNMLOKPHLFFDP27CA,,148.91,住家用,鋼筋混凝土造,105年3月8日,三層,一層 二層 三層
RPQNMLPJPHLFFDP76CA,,146.98,住家用,鋼筋混凝土造,105年3月8日,三層,一層 二層 三層
RPRNMLOLOHLFFDP86CA,,146.98,住家用,鋼筋混凝土造,105年3月8日,三層,一層 二層 三層
RPSOMLTLOHLFFDP57CA,,280.34,住家用,鋼筋混凝土造,105年1月29日,四層,一層 二層 三層 四層
RPVNMLRJPHLFFEP57CA,22,377.01,農舍,鋼筋混凝土造,83年6月17日,三層,一層 二層 三層
RPQNMLTKOHLFFEP27CA,22,170.06,住家用,鋼筋混凝土造,83年8月8日,三層,一層 二層 三層 電梯樓梯間
RPUNMLQKOHLFFEP37CA,22,201.45,住家用,鋼筋混凝土造,83年9月17日,四層,一層 二層 三層 四層 騎樓
RPRNMLMKPHLFFAP98CA,1,308.34,見其他登記事項,鋼筋混凝土造,104年9月18日,四層,一層 二層 三層 四層 騎樓
RPPNMLTKOHLFFAP76CA,21,52.11,住家用,鋼筋混凝土造,83年12月10日,六層,六層
RPPNMLTKOHLFFAP76CA,21,13.20,共有部份,鋼筋混凝土造,83年12月10日,六層,
RPPNMLTKOHLFFAP76CA,21,6.00,共有部份,鋼筋混凝土造,83年12月10日,六層,
RPROMLRKOHLFFAP86CA,8,193.25,住商用,鋼筋混凝土造,97年1月22日,四層,一層 二層 三層 四層 騎樓
RPSOMLRKOHLFFAP96CA,10,153.76,住家用,鋼筋混凝土造,95年5月24日,三層,一層 二層 三層 電梯樓梯間
RPQNMLRKOHLFFAP66CA,10,156.49,住家用,鋼筋混凝土造,95年5月24日,三層,一層 二層 三層 電梯樓梯間
RPVNMLQKOHLFFAP07CA,20,204.78,商業用,鋼筋混凝土造,85年3月18日,八層,五層
RPVNMLQKOHLFFAP07CA,20,47.80,共同部份,鋼筋混凝土造,85年3月18日,八層,
RPQOMLRKOHLFFAP76CA,21,88.49,住家用,鋼筋混凝土造,83年12月9日,九層,三層
RPQOMLRKOHLFFAP76CA,21,51.15,共有部份,鋼筋混凝土造,83年12月9日,九層,
RPSNMLSKOHLFFAP96CA,24,35.35,住家用,鋼筋混凝土造,81年8月26日,六層,五層
RPSNMLSKOHLFFAP96CA,24,6.01,共有部份,鋼筋混凝土造,81年8月26日,六層,
RPSNMLSKOHLFFAP96CA,24,4.02,,鋼筋混凝土造,81年8月26日,六層,
RPSNMLSKOHLFFAP96CA,24,35.80,住家用,鋼筋混凝土造,81年8月26日,六層,五層
RPSNMLSKOHLFFAP96CA,24,5.37,共有部份,鋼筋混凝土造,81年8月26日,六層,
RPSNMLSKOHLFFAP96CA,24,.41,,鋼筋混凝土造,81年8月26日,六層,
RPTOMLMKPHLFFAP66CA,19,76.48,住家用,鋼筋混凝土造,86年3月21日,十三層,五層
RPTOMLMKPHLFFAP66CA,19,11.23,共有部份,鋼筋混凝土造,86年3月21日,十三層,
RPTOMLMKPHLFFAP66CA,19,11.15,共有部份,鋼筋混凝土造,86年3月21日,十三層,
RPQNMLRKOHLFFBP76CA,24,248.90,住家用,鋼筋混凝土造,80年12月10日,三層,一層 二層 三層 電梯樓梯間
RPPNMLNKPHLFFBP98CA,20,116.74,住家用,鋼筋混凝土造,85年10月20日,十一層,四層
RPPNMLNKPHLFFBP98CA,20,25.42,共有部份,鋼筋混凝土造,85年10月20日,十一層,
RPPNMLNKPHLFFBP98CA,20,8.58,見其他登記事項,鋼筋混凝土造,85年10月20日,十一層,
RPTNMLOKPHLFFDP07CA,,152.62,住家用,鋼筋混凝土造,105年3月8日,三層,一層 二層 三層
RPWNMLLKPHLFFDP07CA,1,190.55,見其他登記事項,鋼筋混凝土造,104年3月11日,三層,一層 二層 三層 電梯樓梯間
RPQNMLOLOHLFFDP76CA,1,202.03,見其他登記事項,鋼筋混凝土造,104年5月18日,四層,一層 二層 三層 四層 見其他登記事項
RPWNMLLLOHLFFDP07CA,1,255.85,住家用,鋼筋混凝土造,104年7月9日,四層,一層 二層 三層 四層
RPTNMLKLOHLFFCP66DA,22,151.20,,鋼筋混凝土造,83年4月12日,三層,一層 二層 三層
RPOOMLTLOHLFFFP37CA,30,70.80,農舍,加強磚造,75年2月22日,一層,一層 騎樓
RPSNMLLLOHLFFFP96DA,15,66.46,住家用,鋼筋混凝土造,90年4月9日,九層,七層
RPSNMLLLOHLFFFP96DA,15,13.67,見其他登記事項,鋼筋混凝土造,90年4月9日,九層,
RPSNMLLLOHLFFFP96DA,15,2.45,見其他登記事項,鋼筋混凝土造,90年4月9日,九層,
RPSNMLLLOHLFFFP96DA,15,8.98,見其他登記事項,鋼筋混凝土造,90年4月9日,九層,
RPTNMLSKOHLFFAP17DA,24,189.03,住家用,鋼筋混凝土造,81年8月30日,三層,一層 二層 三層 電梯樓梯間
RPWNMLOLOHLFFAP17DA,21,83.46,住家用,鋼筋混凝土造,84年3月1日,七層,四層
RPWNMLOLOHLFFAP17DA,21,10.89,共同部份,鋼筋混凝土造,84年3月1日,七層,
RPWNMLOLOHLFFAP17DA,21,15.05,共同部份,鋼筋混凝土造,84年3月1日,七層,
RPWNMLKMOHLFFDP07CA,14,266.68,見其他登記事項,鋼筋混凝土造,91年2月20日,五層,一層 二層 三層 四層 五層 水箱
RPSNMLTLOHLFFCP37CA,21,209.22,住家用,鋼筋混凝土造,84年2月20日,三層,一層 二層 三層 電梯樓梯間
RPQNMLSKOHLFFAP76CA,37,115.74,住商用,見其他登記事項,68年6月25日,二層,一層 二層 騎樓
RPRNMLSKOHLFFAP86CA,1,187.42,住家用,鋼筋混凝土造,104年4月19日,四層,一層 二層 三層 四層
RPQNMLKLOHLFFAP68CA,18,179.06,住家用,鋼筋混凝土造,87年11月15日,三層,一層 二層 三層 電梯樓梯間
RPTNMLLLOHLFFAP09CA,23,68.25,住家用,鋼筋混凝土造,82年2月23日,五層,三層
RPTNMLLLOHLFFAP09CA,23,10.14,共同部份,鋼筋混凝土造,82年2月23日,五層,
RPTNMLLLOHLFFCP66CA,18,198.66,住商用,鋼筋混凝土造,87年1月12日,四層,一層 二層 三層 四層 騎樓
RPQNMLPJPHLFFEP86CA,9,197.50,住商用,鋼筋混凝土造,96年6月4日,三層,一層 二層 三層 騎樓 電梯樓梯間
RPPNMLSLOHLFFDP07CA,25,230.62,住家用,鋼筋混凝土造,80年3月10日,三層,一層 二層 三層 電梯樓梯間
RPQNMLTLOHLFFDP27CA,3,206.96,見其他登記事項,鋼筋混凝土造,102年11月1日,三層,一層 二層 三層
RPRNMLTLOHLFFDP37CA,3,182.66,見其他登記事項,鋼筋混凝土造,102年11月1日,三層,一層 二層 三層
RPPNMLNJPHLFFDP09CA,,146.98,住家用,鋼筋混凝土造,105年3月8日,三層,一層 二層 三層
RPPNMLLLOHLFFDP98CA,4,150.83,見其他登記事項,鋼筋混凝土造,101年9月26日,三層,一層 二層 三層 見其他登記事項
RPQNMLLLOHLFFDP09CA,38,96.40,住商用,加強磚造,67年6月18日,二層,一層 二層
RPSNMLRLOHLFFCP27DA,22,180.67,住商用,鋼筋混凝土造,83年4月27日,三層,一層 二層 三層 騎樓 電梯樓梯間
RPQNMLKLPHLFFAP98EA,35,100.21,住家用,加強磚造,70年3月28日,二層,一層 二層 騎樓
RPRNMLMLOHLFFBP56DA,17,106.00,住家用,鋼筋混凝土造,88年7月10日,八層,七層
RPRNMLMLOHLFFBP56DA,17,27.49,共用部份,鋼筋混凝土造,88年7月10日,八層,
RPRNMLMLOHLFFBP56DA,17,11.58,共用部份,鋼筋混凝土造,88年7月10日,八層,
RPTNMLPKPHLFFAP96DA,20,185.14,住商用,鋼筋混凝土造,85年3月25日,四層,一層 二層 三層 四層
RPRNMLKLPHLFFAP98DA,17,99.94,住家用,鋼筋混凝土造,88年9月26日,五層,二層 三層
RPRNMLKLPHLFFAP98DA,17,19.15,停車空間,鋼筋混凝土造,88年9月26日,五層,
RPRNMLKLPHLFFAP98DA,17,19.45,共同部份,鋼筋混凝土造,88年9月26日,五層,
RPRNMLMLOHLFFDP66CA,23,186.24,住家用,鋼筋混凝土造,82年5月10日,三層,一層 二層 三層 電梯樓梯間
SPRNMLMLOHLFFDP76CA,23,191.32,住家用,鋼筋混凝土造,82年5月10日,三層,一層 二層 三層 電梯樓梯間
RPTNMLMLOHLFFDP86CA,21,168.55,住家用,鋼筋混凝土造,84年5月2日,三層,一層 二層 三層 電梯樓梯間
RPXNMLKMOHLFFDP17CA,35,106.27,住商用,加強磚造,70年1月14日,二層,一層 二層 騎樓
RPQNMLMKPHLFFDP56CA,17,206.56,住家用,鋼筋混凝土造,88年10月18日,四層,一層 二層 三層 四層 水箱
RPSNMLMKPHLFFEP86CA,1,184.58,住家用,鋼筋混凝土造,104年9月15日,四層,一層 二層 三層 四層
RPSNMLOLOHLFFEP07CA,35,99.01,住家用,加強磚造,70年1月28日,二層,一層 二層
RPPNMLNLOHLFFCP09CA,21,79.61,住家用,鋼筋混凝土造,84年1月27日,二層,一層 二層 電梯樓梯間
RPPNMLQLOHLFFCP76CA,1,89.35,見其他登記事項,鋼筋混凝土造,104年11月10日,三層,一層 二層 三層 見其他登記事項
RPPNMLQLOHLFFCP76CA,1,89.35,見其他登記事項,鋼筋混凝土造,104年11月10日,三層,一層 二層 三層 見其他登記事項
RPPNMLLKPHLFFBP78CA,2,225.01,見其他登記事項,鋼筋混凝土造,102年12月25日,三層,一層 二層 三層 見其他登記事項
RPQNMLLKPHLFFBP88CA,2,225.01,見其他登記事項,鋼筋混凝土造,102年12月25日,三層,一層 二層 三層 見其他登記事項
RPQNMLTLPHLFFAP07CA,22,82.59,住家用,鋼筋混凝土造,83年1月10日,八層,五層
RPQNMLTLPHLFFAP07CA,22,32.42,共同部份,鋼筋混凝土造,83年1月10日,八層,
RPPNMLMLOHLFFAP78CA,1,215.40,見其他登記事項,鋼筋混凝土造,104年12月30日,三層,一層 二層 三層 屋頂突出物
RPSNMLPLOHLFFAP76CA,21,172.75,住商用,鋼筋混凝土造,84年5月8日,三層,一層 二層 三層 騎樓 電梯樓梯間
RPQNMLLKPHLFFAP78CA,1,185.77,住家用,鋼筋混凝土造,104年11月15日,三層,一層 二層 三層
RPVNMLLKPHLFFAP66CA,24,184.11,住商用,鋼筋混凝土造,81年2月28日,五層,一層 二層 三層 四層 五層 騎樓
RPVNMLLKPHLFFAP66CA,24,194.53,住商用,鋼筋混凝土造,81年2月28日,五層,一層 二層 三層 四層 五層 騎樓
RPQNMLNJPHLFFAP88CA,19,249.89,住商用,加強磚造,86年7月25日,四層,一層 二層 三層 四層 騎樓 電梯樓梯間
RPSNMLSLOHLFFAP07CA,12,187.25,住家用,鋼筋混凝土造,93年3月1日,三層,一層 二層 三層 電梯樓梯間
RPPNMLRLOHLFFAP66CA,9,252.81,住商用,鋼筋混凝土造,96年5月3日,三層,一層 二層 三層 電梯樓梯間
RPUOMLNLOHLFFAP86CA,22,204.18,住家用,鋼筋混凝土造,83年11月15日,四層,一層 二層 三層 四層 電梯樓梯間
RPQNMLLLPHLFFAP88CA,10,246.66,見其他登記事項,鋼筋混凝土造,95年6月30日,四層,一層 二層 三層 四層 騎樓
RPQOMLOLOHLFFEP96CA,21,198.32,住商用,鋼筋混凝土造,84年3月8日,四層,一層 二層 三層 四層 騎樓
RPROMLMLOHLFFAP56DA,1,74.96,見其他登記事項,鋼筋混凝土造,104年5月12日,五層,五層
RPROMLMLOHLFFAP56DA,1,7.33,見其他登記事項,鋼筋混凝土造,104年5月12日,五層,
RPROMLMLOHLFFAP56DA,1,12.48,見其他登記事項,鋼筋混凝土造,104年5月12日,五層,
RPVOMLMLOHLFFAP96DA,38,174.04,住家用,加強磚造,67年11月7日,二層,一層 二層 騎樓 電梯樓梯間
RPTNMLKLPHLFFAP66EA,5,242.62,見其他登記事項,鋼筋混凝土造,100年8月1日,三層,一層 二層 三層
RPQOMLNLOHLFFAP66EA,18,161.17,住家用,鋼筋混凝土造,87年1月20日,三層,一層 二層 三層 電梯樓梯間
RPQOMLNLOHLFFAP66EA,18,99.18,共同部份,鋼筋混凝土造,87年1月20日,四層,
RPQOMLNLOHLFFAP66EA,18,1.80,共同部份,鋼筋混凝土造,87年1月20日,四層,
RPPNMLRLOHLFFFP27DA,,188.51,見其他登記事項,鋼筋混凝土造,104年10月6日,三層,一層 二層 三層 騎樓 見其他登記事項
RPQNMLRLOHLFFFP37DA,,177.53,見其他登記事項,鋼筋混凝土造,104年10月16日,三層,一層 二層 三層 騎樓 見其他登記事項
RPRNMLRLOHLFFFP47DA,,179.47,見其他登記事項,鋼筋混凝土造,104年10月6日,三層,一層 二層 三層 騎樓 見其他登記事項
RPSNMLRLOHLFFFP57DA,,191.85,見其他登記事項,鋼筋混凝土造,104年10月6日,三層,一層 二層 三層 騎樓 見其他登記事項
RPTNMLRLOHLFFFP67DA,,205.14,見其他登記事項,鋼筋混凝土造,104年10月6日,三層,一層 二層 三層 騎樓 見其他登記事項
RPTNMLTLOHLFFFP77CA,8,227.39,見其他登記事項,見其他登記事項,97年7月11日,四層,一層 二層 三層 四層 騎樓 見其他登記事項
RPPNMLPLOHLFFDP76CA,3,194.43,見其他登記事項,鋼筋混凝土造,102年10月16日,三層,一層 二層 三層 見其他登記事項
RPPNMLRJPHLFFDP86CA,21,157.58,住家用,鋼筋混凝土造,84年7月7日,三層,一層 二層 三層 電梯樓梯間
RPSNMLOJPHLFFEP96CA,20,49.45,住家用,鋼筋混凝土造,85年2月15日,四層,一層
RPSNMLOJPHLFFEP96CA,20,2.50,共有部份,鋼筋混凝土造,85年2月15日,,
RPRNMLOLOHLFFEP96CA,21,330.36,住商用,鋼筋混凝土造,84年8月9日,三層,一層 二層 三層 騎樓 電梯樓梯間
RPQNMLQJPHLFFEP96CA,32,133.74,住商用,加強磚造,72年12月1日,二層,一層 二層 騎樓
RPPNMLRKPHLFFDP96CA,1,199.10,住家用,鋼筋混凝土造,104年10月20日,四層,一層 二層 三層 四層
RPTNMLTKPHLFFAP27CA,21,129.59,住家用,鋼筋混凝土造,84年7月30日,九層,七層
RPTNMLTKPHLFFAP27CA,21,5.02,共同部份,鋼筋混凝土造,84年7月30日,九層,
RPQNMLQLOHLFFCP86CA,1,78.58,見其他登記事項,鋼筋混凝土造,104年11月12日,三層,一層 二層 三層 見其他登記事項
RPQNMLQLOHLFFCP86CA,1,78.58,見其他登記事項,鋼筋混凝土造,104年11月12日,三層,一層 二層 三層 見其他登記事項
RPUOMLOLOHLFFAP96CA,17,23.83,住家用,鋼筋混凝土造,88年2月2日,十層,六層
RPUOMLOLOHLFFAP96CA,17,1.53,共同部份,鋼筋混凝土造,88年2月2日,十層,
RPUOMLOLOHLFFAP96CA,17,4.73,共同部份,鋼筋混凝土造,88年2月2日,十層,
RPUOMLOLOHLFFAP96CA,17,3.84,共同部份,鋼筋混凝土造,88年2月2日,十層,
RPSOMLOLOHLFFAP76CA,24,107.69,住家用,鋼筋混凝土造,81年8月29日,八層,五層
RPSOMLOLOHLFFAP76CA,24,23.64,共同部份,鋼筋混凝土造,81年8月29日,八層,
RPRNMLRLOHLFFAP86CA,10,181.46,住家用,鋼筋混凝土造,95年12月1日,三層,一層 二層 三層
RPTNMLLKPHLFFAP09CA,22,103.86,住家用,鋼筋混凝土造,83年2月20日,七層,三層
RPTNMLLKPHLFFAP09CA,22,40.38,共有部份,鋼筋混凝土造,83年2月20日,七層,
RPWNMLKMOHLFFAP76CA,,192.91,見其他登記事項,鋼筋混凝土造,104年12月30日,三層,一層 二層 三層 屋頂突出物
RPWNMLRLOHLFFAP37CA,9,202.33,住家用,鋼筋混凝土造,96年9月20日,四層,一層 二層 三層 四層
RPVNMLOLOHLFFCP17CA,20,134.50,住家用,鋼筋混凝土造,85年6月25日,三層,一層 二層 三層
RPQNMLRLOHLFFCP96CA,1,189.78,見其他登記事項,鋼筋混凝土造,104年8月31日,三層,一層 二層 三層 見其他登記事項
RPRNMLRLOHLFFCP07CA,20,107.54,住家用,鋼筋混凝土造,84年12月20日,八層,三層
RPRNMLRLOHLFFCP07CA,20,18.90,共有部份,鋼筋混凝土造,84年12月20日,八層,
RPRNMLRLOHLFFCP07CA,20,.68,共有部份,鋼筋混凝土造,84年12月20日,,
RPRNMLRLOHLFFCP07CA,20,10.14,共有部份,鋼筋混凝土造,84年12月20日,,
RPWNMLKLPHLFFEP17CA,31,129.08,住商用,加強磚造,74年8月10日,二層,一層 二層 騎樓 電梯樓梯間
RPPNMLMKPHLFFDP09CA,1,167.02,住家用,鋼筋混凝土造,104年11月13日,三層,一層 二層 三層
RPTOMLTLOHLFFDP67CA,1,220.69,住家用,鋼筋混凝土造,104年10月27日,四層,一層 二層 三層 四層
RPQNMLRLOHLFFDP07CA,18,84.30,住家用,鋼筋混凝土造,87年8月1日,六層,三層
RPQNMLRLOHLFFDP07CA,18,20.81,共有部份,鋼筋混凝土造,87年8月1日,六層,
RPQNMLRLOHLFFDP07CA,18,9.11,共有部份,鋼筋混凝土造,87年8月1日,六層,
RPQOMLOLOHLFFAP66DA,26,102.95,住家用,加強磚造,79年3月20日,二層,一層 二層 騎樓 電梯樓梯間
RPRNMLKLPHLFFEP76DA,21,188.73,住商用,鋼筋混凝土造,84年5月22日,三層,一層 二層 三層 騎樓 電梯樓梯間
RPVNMLRLOHLFFAP47EA,34,123.09,住家用,鋼筋混凝土加強磚造,71年1月20日,二層,一層 二層 騎樓 電梯樓梯間
RPVNMLLKPHLFFAP86EA,2,79.47,住家用,鋼筋混凝土造,103年9月4日,四層,二層
RPVNMLLKPHLFFAP86EA,2,16.31,見其他登記事項,鋼筋混凝土造,103年9月4日,四層,
RPWNMLTLOHLFFDP87CA,35,87.77,住商用,鋼筋混凝土造,70年3月28日,三層,一層 二層 三層 騎樓 電梯樓梯間
RPROMLTLOHLFFDP47CA,,194.28,見其他登記事項,鋼筋混凝土造,105年1月29日,四層,一層 二層 三層 四層
RPXNMLQJPHLFFDP57CA,12,187.24,住家用,鋼筋混凝土造,93年2月19日,三層,一層 二層 三層 見其他登記事項
RPUNMLKLPHLFFAP56CA,19,73.73,住家用,鋼筋混凝土造,86年5月15日,十六層,十二層
RPUNMLKLPHLFFAP56CA,19,15.71,共同部份,鋼筋混凝土造,86年5月15日,十六層,
RPUNMLKLPHLFFAP56CA,19,11.79,共同部份,鋼筋混凝土造,86年5月15日,十六層,
RPQNMLLJPHLFFAP68CA,22,25.38,住家用,鋼筋混凝土造,83年10月6日,九層,八層
RPQNMLLJPHLFFAP68CA,22,4.75,共同部份,鋼筋混凝土造,83年10月6日,九層,
RPQNMLLJPHLFFAP68CA,22,7.06,共同部份,鋼筋混凝土造,83年10月6日,九層,
RPUNMLTLOHLFFAP37CA,19,26.25,住家用,鋼筋混凝土造,86年5月15日,十六層,十層
RPUNMLTLOHLFFAP37CA,19,8.63,共同部份,鋼筋混凝土造,86年5月15日,十六層,
RPUNMLTLOHLFFAP37CA,19,4.24,共同部份,鋼筋混凝土造,86年5月15日,十六層,
RPVNMLSLOHLFFAP37CA,22,202.62,住家用,鋼筋混凝土造,83年8月15日,四層,一層 二層 三層 四層 地下層
RPOOMLLJPHLFFAP58CA,19,103.53,住家用,鋼筋混凝土造,86年5月15日,十六層,十三層
RPOOMLLJPHLFFAP58CA,19,25.05,共同部份,鋼筋混凝土造,86年5月15日,十六層,
RPOOMLLJPHLFFAP58CA,19,17.94,共同部份,鋼筋混凝土造,86年5月15日,十六層,
RPWNMLNKPHLFFAP96CA,1,237.30,見其他登記事項,鋼筋混凝土造,104年2月24日,三層,一層 二層 三層 屋頂突出物
RPRNMLLKPHLFFAP88CA,1,189.94,住家用,鋼筋混凝土造,104年11月15日,三層,一層 二層 三層
RPPNMLNJPHLFFAP78CA,8,97.21,見其他登記事項,鋼筋混凝土造,97年11月1日,十層,一層
RPPNMLNJPHLFFAP78CA,8,18.90,共同部份,鋼筋混凝土造,97年11月1日,十層,
RPPNMLNJPHLFFAP78CA,8,8.55,共同部份,鋼筋混凝土造,97年11月1日,十層,
RPRNMLRJPHLFFCP96CA,21,199.33,住家用,鋼筋混凝土造,84年6月27日,三層,一層 二層 三層 騎樓 電梯樓梯間
RPPNMLNJPHLFFBP88CA,21,222.51,住家用,鋼筋混凝土造,84年1月2日,三層,一層 二層 三層 電梯樓梯間 地下層
RPVNMLRJPHLFFDP47CA,23,215.41,住家用,鋼筋混凝土造,82年4月21日,三層,一層 二層 三層 電梯樓梯間
RPWNMLRJPHLFFDP57CA,10,207.07,住家用,鋼筋混凝土造,94年11月28日,四層,一層 二層 三層 四層
RPQNMLNKPHLFFDP66CA,9,65.87,見其他登記事項,鋼筋混凝土造,96年2月5日,十一層,八層
RPQNMLNKPHLFFDP66CA,9,25.71,見其他登記事項,鋼筋混凝土造,96年2月5日,十三層,
RPTNMLTLOHLFFDP57CA,40,87.30,住家用,加強磚造,65年9月10日,二層,一層 二層
RPQNMLTLOHLFFFP47CA,33,101.48,,加強磚造,72年7月1日,二層,一層 二層
RPPNMLLJPHLFFAP68DA,30,143.00,住家用,加強磚造,75年9月10日,二層,一層 二層 電梯樓梯間
RPUNMLRJPHLFFEP57DA,29,246.60,住商用,鋼筋混凝土造,76年8月25日,四層,一層 二層 三層 四層 騎樓
RPUNMLTLOHLFFFP97DA,1,114.06,見其他登記事項,鋼筋混凝土造,104年5月12日,三層,騎樓 見其他登記事項
RPPNMLTKPHLFFBP07DA,1,244.50,住家用,鋼筋混凝土造,104年8月15日,四層,一層 二層 三層 四層
RPQNMLTKPHLFFBP17DA,1,213.40,住家用,鋼筋混凝土造,104年8月15日,四層,一層 二層 三層 四層
RPSNMLTKPHLFFBP37DA,1,216.78,住家用,鋼筋混凝土造,104年8月15日,四層,一層 二層 三層 四層
RPTNMLTKPHLFFBP47DA,1,213.40,住家用,鋼筋混凝土造,104年8月15日,四層,一層 二層 三層 四層
RPSNMLLJPHLFFDP56CA,21,70.18,住家用,鋼筋混凝土造,83年12月31日,四層,一層 二層 三層 四層
RPVNMLLKPHLFFDP96CA,1,201.94,住家用,鋼筋混凝土造,104年5月18日,四層,一層 二層 三層 四層
RPPNMLTLPHLFFAP96CA,22,105.82,住家用,鋼筋混凝土造,83年9月1日,八層,五層
RPPNMLTLPHLFFAP96CA,22,12.92,共同部份,鋼筋混凝土造,83年9月1日,八層,
RPXNMLKMOHLFFAP86CA,32,187.54,住家用,加強磚造,73年3月27日,二層,一層 二層 騎樓 電梯樓梯間
RPQOMLKMOHLFFAP88CA,,195.84,見其他登記事項,鋼筋混凝土造,104年12月30日,三層,一層 二層 三層 屋頂突出物
RPROMLKMOHLFFAP98CA,19,211.84,住家用,鋼筋混凝土造,86年5月10日,三層,一層 二層 三層 電梯樓梯間
RPPNMLOJPHLFFAP88CA,41,263.94,住商用,見其他登記事項,64年1月4日,三層,一層 二層 三層 騎樓 電梯樓梯間
RPPNMLRJPHLFFAP56CA,22,86.10,住家用,鋼筋混凝土造,83年11月15日,十二層,五層
RPPNMLRJPHLFFAP56CA,22,13.93,共有部份,鋼筋混凝土造,83年11月15日,十二層,
RPPNMLRJPHLFFAP56CA,22,15.59,共有部份,鋼筋混凝土造,83年11月15日,十二層,
RPSNMLLJPHLFFAP88CA,22,109.84,住家用,鋼筋混凝土造,83年7月1日,九層,八層
RPSNMLLJPHLFFAP88CA,22,44.23,共同部份,鋼筋混凝土造,83年7月1日,九層,
RPSNMLLJPHLFFAP88CA,22,16.88,共同部份,鋼筋混凝土造,83年7月1日,九層,
RPWNMLLJPHLFFAP66CA,17,261.88,農舍,鋼筋混凝土造,88年3月20日,三層,一層 二層 三層
RPPNMLMKPHLFFCP98CA,1,201.55,見其他登記事項,鋼筋混凝土造,104年8月31日,三層,一層 二層 三層 見其他登記事項
RPVNMLMKPHLFFBP86CA,20,110.40,住家用,鋼筋混凝土造,85年4月28日,三層,一層 二層 三層
RPQNMLOJPHLFFEP76CA,27,96.58,見其他登記事項,鋼筋混凝土造,78年5月10日,九層,五層 走廊
RPQNMLOJPHLFFEP76CA,27,4.66,共有部份,鋼筋混凝土造,78年5月10日,九層,
RPQNMLLJPHLFFEP09CA,24,71.46,住家用,鋼筋混凝土造,81年11月25日,三層,一層 二層 三層
RPQNMLLJPHLFFEP09CA,24,71.46,住家用,鋼筋混凝土造,81年11月25日,三層,一層 二層 三層
RPSOMLLLPHLFFDP86CA,1,211.02,住家用,鋼筋混凝土造,104年5月19日,三層,一層 二層 三層
RPTNMLOJQHLFFDP07CA,19,31.99,住家用,鋼筋混凝土造,86年11月6日,八層,五層
RPTNMLOJQHLFFDP07CA,19,3.60,共有部份,鋼筋混凝土造,86年11月6日,八層,
RPTNMLOJQHLFFDP07CA,19,2.31,共有部份,鋼筋混凝土造,86年11月6日,八層,
RPTNMLOJQHLFFDP07CA,19,1.82,共有部份,鋼筋混凝土造,86年11月6日,八層,
RPTNMLOJQHLFFDP07CA,19,.22,共有部份,鋼筋混凝土造,86年11月6日,八層,
RPTNMLOJQHLFFDP07CA,19,4.60,共有部份,鋼筋混凝土造,86年11月6日,八層,
RPQNMLLKPHLFFDP09CA,6,232.10,見其他登記事項,鋼筋混凝土造,99年12月15日,四層,一層 二層 三層 四層 騎樓
RPQNMLOJPHLFFDP66CA,42,107.98,住家用,磚造,63年3月1日,一層,一層
RPRNMLPJPHLFFCP86DA,,255.42,見其他登記事項,鋼筋混凝土造,105年2月1日,三層,一層 二層 三層 見其他登記事項
RPTNMLPJPHLFFAP86DA,12,167.24,住家用,鋼筋混凝土造,93年7月20日,三層,一層 二層 三層
RPPNMLQJPHLFFDP76CA,12,173.60,見其他登記事項,鋼筋混凝土造,93年12月14日,三層,一層 二層 三層
RPPNMLTJPHLFFDP07CA,19,130.68,住家用,鋼筋混凝土造,86年7月17日,五層,一層 二層 三層 四層 五層 騎樓 電梯樓梯間
RPUNMLRJPHLFFDP37CA,4,199.82,見其他登記事項,鋼筋混凝土造,101年4月20日,三層,一層 二層 三層 見其他登記事項
RPTNMLQJPHLFFDP17CA,1,255.85,住家用,鋼筋混凝土造,104年7月9日,四層,一層 二層 三層 四層
RPVNMLQJPHLFFDP37CA,1,255.85,住家用,鋼筋混凝土造,104年7月9日,四層,一層 二層 三層 四層
RPUNMLLKPHLFFDP86CA,22,208.32,住家用,鋼筋混凝土造,83年3月14日,三層,一層 二層 三層 電梯樓梯間
RPRNMLPJPHLFFAP56CA,45,78.38,見其他登記事項,磚造,60年6月1日,一層,一層
RPRNMLPJPHLFFAP56CA,45,216.97,見其他登記事項,磚造,60年6月1日,一層,一層
RPRNMLPJPHLFFAP56CA,45,279.75,見其他登記事項,磚造,60年6月1日,一層,一層
RPRNMLPJPHLFFAP56CA,45,14.30,見其他登記事項,加強磚造,60年6月1日,一層,一層
RPRNMLPJPHLFFAP56CA,45,184.86,見其他登記事項,鋼造,60年6月1日,一層,一層
RPRNMLPJPHLFFAP56CA,45,164.22,見其他登記事項,鋼造,60年6月1日,一層,一層
RPRNMLPJPHLFFAP56CA,45,188.37,見其他登記事項,鋼造,60年6月1日,一層,一層
RPRNMLPJPHLFFAP56CA,45,54.19,見其他登記事項,磚造,60年6月19日,一層,一層
RPRNMLPJPHLFFAP56CA,45,40.57,見其他登記事項,加強磚造,60年6月1日,一層,一層
RPXNMLLKPHLFFAP86CA,22,155.71,住家用,鋼筋混凝土造,83年8月25日,三層,一層 二層 三層 電梯樓梯間
RPRNMLSKPHLFFAP96CA,4,158.04,住家用,鋼筋混凝土造,101年8月27日,三層,一層 二層 三層
RPWNMLQLPHLFFDP67CA,1,248.76,見其他登記事項,鋼筋混凝土造,104年9月17日,二層,一層 二層
RPVNMLPJPHLFFAP07DA,1,177.80,住家用,鋼筋混凝土造,104年11月5日,三層,一層 二層 三層
RPVNMLMJQHLFFAP96EA,22,80.01,住家用,鋼筋混凝土造,83年1月10日,八層,三層
RPVNMLMJQHLFFAP96EA,22,31.65,共同部份,鋼筋混凝土造,83年1月10日,八層,
RPRNMLMKPHLFFFP96DA,1,214.54,見其他登記事項,鋼筋混凝土造,104年11月10日,三層,一層 二層 三層
RPPNMLPJPHLFFFP96DA,26,105.31,住家用,鋼筋混凝土造,79年1月30日,二層,一層 二層 騎樓 電梯樓梯間
RPPNMLLKPHLFFFP66DA,,203.40,見其他登記事項,鋼筋混凝土造,104年11月10日,三層,一層 二層 三層
RPRNMLLKPHLFFFP86DA,,196.52,見其他登記事項,鋼筋混凝土造,104年11月10日,三層,一層 二層 三層
RPPNMLRJPHLFFBP86EA,35,139.68,住家用,加強磚造,70年2月2日,二層,一層 二層 騎樓
RPTNMLRJPHLFFDP27CA,35,123.04,住家用,加強磚造,70年6月9日,二層,一層 二層 電梯樓梯間
RPTNMLLKPHLFFDP76CA,10,216.44,住商用,鋼筋混凝土造,95年12月6日,四層,一層 二層 三層 四層 騎樓
RPWNMLOKPHLFFDP37CA,39,87.60,住家用,加強磚造,66年7月17日,二層,一層 二層
RPSNMLQJPHLFFDP07CA,43,74.10,住家用,加強磚造,62年7月31日,二層,一層 二層
RPPNMLNKPHLFFEP66CA,22,206.18,住家用,鋼筋混凝土造,83年11月14日,三層,一層 二層 三層
RPPNMLNKPHLFFEP66CA,22,177.96,住家用,鋼筋混凝土造,83年11月14日,三層,一層 二層 三層 騎樓
RPRNMLPJPHLFFEP96CA,43,90.32,住家用,加強磚造,62年2月28日,二層,一層 二層 騎樓
RPQNMLRJPHLFFEP07CA,21,209.79,見其他登記事項,加強磚造,84年9月8日,二層,一層 二層 騎樓
RPQNMLRJPHLFFEP07CA,21,209.79,見其他登記事項,加強磚造,84年9月8日,二層,一層 二層 騎樓
RPOOMLTLPHLFFAP96CA,22,191.29,住家用,鋼筋混凝土造,82年12月15日,四層,一層 二層 三層 四層 電梯樓梯間
RPQOMLMJQHLFFAP98CA,1,185.30,見其他登記事項,鋼筋混凝土造,104年4月15日,三層,一層 二層 三層 屋頂突出物
RPVNMLRLPHLFFAP37CA,18,28.09,住家用,鋼筋混凝土造,87年10月30日,十層,六層
RPVNMLRLPHLFFAP37CA,18,13.11,共同部份,鋼筋混凝土造,87年10月30日,十層,
RPVNMLRLPHLFFAP37CA,18,8.28,共同部份,鋼筋混凝土造,87年10月30日,十層,
RPUNMLRJPHLFFCP27CA,10,189.34,住家用,鋼筋混凝土造,95年6月28日,三層,一層 二層 三層 屋頂突出物
RPXNMLNKPHLFFAP07CA,22,169.44,住家用,鋼筋混凝土造,83年9月7日,七層,六層
RPXNMLNKPHLFFAP07CA,22,35.17,共同部份,鋼筋混凝土造,83年9月23日,七層,
RPPNMLLKPHLFFAP68CA,2,202.67,見其他登記事項,鋼筋混凝土造,103年11月10日,三層,一層 二層 三層 屋頂突出物
RPUNMLPJPHLFFAP86CA,24,73.53,住家用,加強磚造,81年9月20日,二層,一層 二層 騎樓 電梯樓梯間
RPUNMLRJPHLFFAP07CA,17,99.94,住家用,鋼筋混凝土造,88年9月26日,五層,二層 三層
RPUNMLRJPHLFFAP07CA,17,19.15,停車空間,鋼筋混凝土造,88年9月26日,五層,
RPUNMLRJPHLFFAP07CA,17,19.45,共有部份,鋼筋混凝土造,88年9月26日,五層,
RPVNMLQJPHLFFAP07CA,24,83.26,住家用,鋼筋混凝土造,81年10月16日,六層,三層
RPVNMLQJPHLFFAP07CA,24,25.91,共有部份,鋼筋混凝土造,81年10月16日,六層,
RPVNMLQJPHLFFAP07CA,24,18.93,共有部份,鋼筋混凝土造,81年10月16日,六層,
RPQOMLNKPHLFFAP09CA,,186.38,見其他登記事項,鋼筋混凝土造,105年3月15日,三層,一層 二層 三層 屋頂突出物
RPTNMLTLPHLFFBP47CA,36,178.97,住商用,加強磚造,69年7月9日,三層,一層 二層 三層 騎樓 電梯樓梯間
RPXOMLPKQHLFFAP47CA,2,.85,住家用,鋼筋混凝土造,102年12月12日,二層,一層 二層
RPXOMLPKQHLFFAP47CA,2,274.62,住家用,鋼筋混凝土造,102年12月12日,四層,一層 二層 三層 四層
RPRNMLRJPHLFFEP17CA,19,32.81,住家用,鋼筋混凝土造,86年1月3日,十層,九層
RPRNMLRJPHLFFEP17CA,19,18.56,見其他登記事項,鋼筋混凝土造,86年1月3日,十層,
RPRNMLRJPHLFFEP17CA,19,5.96,見其他登記事項,鋼筋混凝土造,86年1月3日,十層,
RPTNMLMKPHLFFBP76DA,32,201.32,住商用,鋼筋混凝土造,73年4月14日,三層,一層 二層 三層 騎樓 電梯樓梯間
RPOOMLLKPHLFFAP78DA,22,133.93,住家用,鋼筋混凝土造,83年1月20日,三層,一層 二層 三層 電梯樓梯間
RPOOMLLKPHLFFAP78DA,22,2.47,住家用,鋼筋混凝土造,83年3月18日,四層,一層 二層 三層 四層 見其他登記事項
RPPNMLOJQHLFFDP66CA,7,186.01,見其他登記事項,鋼筋混凝土造,98年4月6日,三層,一層 二層 三層
RPXNMLLLPHLFFDP27CA,22,109.87,住家用,加強磚造,82年12月28日,二層,一層 二層 電梯樓梯間
RPOOMLLKPHLFFDP98CA,1,233.69,住家用,鋼筋混凝土造,104年7月16日,四層,一層 二層 三層 四層
RPTNMLMJRHLFFAP66CA,1,211.14,住家用,鋼筋混凝土造,104年11月15日,三層,一層 二層 三層
RPSNMLTKPHLFFAP17CA,18,14.27,共同部份,鋼筋混凝土造,87年10月30日,十層,
RPSNMLTKPHLFFAP17CA,18,30.26,住家用,鋼筋混凝土造,87年10月30日,十層,八層
RPSNMLTKPHLFFAP17CA,18,8.87,共同部份,鋼筋混凝土造,87年10月30日,十層,
RPSNMLLLPHLFFAP09CA,1,185.77,住家用,鋼筋混凝土造,104年11月15日,三層,一層 二層 三層
RPTNMLLLPHLFFAP56CA,1,185.77,住家用,鋼筋混凝土造,104年11月15日,三層,一層 二層 三層
RPVNMLLLPHLFFAP76CA,1,185.77,住家用,鋼筋混凝土造,104年11月15日,三層,一層 二層 三層
RPUOMLOJQHLFFAP96CA,19,28.02,住家用,鋼筋混凝土造,86年5月15日,十六層,七層
RPUOMLOJQHLFFAP96CA,19,9.21,共同部份,鋼筋混凝土造,86年5月15日,十六層,
RPUOMLOJQHLFFAP96CA,19,4.42,共同部份,鋼筋混凝土造,86年5月15日,十六層,
RPTNMLNKPHLFFAP66CA,9,218.67,住家用,鋼筋混凝土造,96年11月12日,三層,一層 二層 三層 電梯樓梯間
RPSOMLLKPHLFFAP09CA,10,179.73,見其他登記事項,鋼筋混凝土造,95年9月11日,三層,一層 二層 三層 電梯樓梯間
RPROMLMKPHLFFAP09CA,20,183.49,住家用,鋼筋混凝土造,84年12月25日,四層,一層 二層 三層 四層 屋頂突出物 地下層
RPROMLLKPHLFFAP98CA,35,100.23,住家用,加強磚造,70年3月20日,二層,一層 二層 騎樓 電梯樓梯間
RPWNMLMKPHLFFAP86CA,7,173.32,住家用,鋼筋混凝土造,98年9月28日,三層,一層 二層 三層
RPQOMLMKPHLFFAP98CA,36,97.04,住家用,加強磚造,69年2月20日,二層,一層 二層 騎樓
RPRNMLMKPHLFFCP56CA,1,175.42,見其他登記事項,鋼筋混凝土造,104年8月11日,三層,一層 二層 三層 見其他登記事項
RPTNMLPJQHLFFAP86CA,10,228.80,住家用,鋼筋混凝土造,95年10月1日,四層,一層 二層 三層 四層
RPWNMLLLPHLFFAP86CA,1,185.77,住家用,鋼筋混凝土造,104年11月15日,三層,一層 二層 三層
RPPNMLQKPHLFFDP86CA,1,167.02,住家用,鋼筋混凝土造,104年11月13日,三層,一層 二層 三層
RPQNMLQKPHLFFDP96CA,1,167.02,住家用,鋼筋混凝土造,104年11月13日,三層,一層 二層 三層
RPRNMLQKPHLFFDP07CA,1,182.88,住家用,鋼筋混凝土造,104年11月13日,三層,一層 二層 三層
RPQNMLSLPHLFFFP47CA,20,203.92,住家用,加強磚造,85年3月7日,二層,一層 二層 電梯樓梯間
RPPNMLMLPHLFFBP09DA,20,30.27,住家用,鋼筋混凝土造,85年10月5日,五層,五層
RPPNMLMLPHLFFBP09DA,20,5.89,共用部份,鋼筋混凝土造,85年10月5日,五層,
RPPNMLKLPHLFFAP78DA,18,183.65,住家用,鋼筋混凝土造,87年5月6日,四層,一層 二層 三層 四層
RPSNMLTLPHLFFCP47CA,19,186.71,住家用,鋼筋混凝土造,86年10月19日,三層,一層 二層 三層 電梯樓梯間
RPXNMLSKPHLFFAP57CA,1,198.65,住家用,鋼筋混凝土加強磚造,104年2月3日,三層,一層 二層 三層
RPUNMLPJQHLFFAP96CA,35,118.28,住家用,加強磚造,70年12月31日,二層,一層 二層 騎樓 電梯樓梯間
RPUNMLSJQHLFFAP27CA,1,194.04,住家用,鋼筋混凝土造,104年6月18日,三層,一層 二層 三層 騎樓
RPXOMLTJQHLFFAP77CA,1,172.06,見其他登記事項,鋼筋混凝土造,104年6月18日,三層,一層 二層 三層 電梯樓梯間
RPPNMLTLPHLFFBP07CA,21,49.96,住家用,鋼筋混凝土造,84年7月10日,十三層,二層
RPPNMLTLPHLFFBP07CA,21,33.21,共有部份,鋼筋混凝土造,84年7月10日,十三層,
RPQNMLOKPHLFFAP09CA,46,121.25,住商用,見其他登記事項,59年9月16日,二層,一層 二層
RPVNMLOKPHLFFAP96CA,21,75.17,住家用,鋼筋混凝土造,84年11月21日,九層,二層
RPVNMLOKPHLFFAP96CA,21,14.94,共同部份,鋼筋混凝土造,84年11月21日,九層,
RPVNMLOKPHLFFAP96CA,21,17.48,共同部份,鋼筋混凝土造,84年11月21日,九層,
RPRNMLPKPHLFFAP66CA,2,378.11,住家用,鋼筋混凝土造,103年11月3日,四層,一層 二層 三層 四層
RPSNMLTJQHLFFAP17CA,22,114.47,住家用,鋼筋混凝土造,83年11月15日,十二層,三層
RPSNMLTJQHLFFAP17CA,22,18.15,共同部份,鋼筋混凝土造,83年11月15日,十二層,
RPSNMLTJQHLFFAP17CA,22,20.73,共同部份,鋼筋混凝土造,83年11月15日,十二層,
RPWOMLOJQHLFFAP17CA,19,27.77,住家用,鋼筋混凝土造,86年5月15日,十六層,五層
RPWOMLOJQHLFFAP17CA,19,9.13,共同部份,鋼筋混凝土造,86年5月15日,十六層,
RPWOMLOJQHLFFAP17CA,19,4.42,共同部份,鋼筋混凝土造,86年5月15日,十六層,
RPPNMLPKPHLFFDP76CA,19,67.89,住家用,鋼筋混凝土造,86年10月3日,九層,九層
RPPNMLPKPHLFFDP76CA,19,48.68,共有部份,鋼筋混凝土造,86年10月13日,九層,
RPPNMLPKPHLFFDP76CA,19,7.80,共有部份,鋼筋混凝土造,86年10月3日,九層,
RPQNMLPKPHLFFDP86CA,17,97.61,住家用,鋼筋混凝土造,88年7月30日,十四層,七層
RPQNMLPKPHLFFDP86CA,17,34.58,共有部份,鋼筋混凝土造,88年7月30日,十四層,
RPQNMLPKPHLFFDP86CA,17,1.92,住家用,鋼筋混凝土造,88年7月30日,十四層,
RPQNMLPKPHLFFDP86CA,17,11.16,見其他登記事項,鋼筋混凝土造,88年7月30日,十四層,
RPUNMLSKPHLFFDP57CA,1,233.18,住家用,鋼筋混凝土造,104年7月16日,四層,一層 二層 三層 四層
RPPNMLKLPHLFFDP98CA,,215.94,見其他登記事項,鋼筋混凝土造,105年5月24日,三層,一層 二層 三層
RPQNMLKLPHLFFDP09CA,,215.94,見其他登記事項,鋼筋混凝土造,105年5月24日,三層,一層 二層 三層
RPRNMLKLPHLFFDP56CA,,215.94,見其他登記事項,鋼筋混凝土造,105年5月24日,三層,一層 二層 三層
RPSNMLKLPHLFFDP66CA,,215.94,見其他登記事項,鋼筋混凝土造,105年5月24日,三層,一層 二層 三層
RPRNMLMLPHLFFDP76CA,37,91.34,住商用,鋼筋混凝土造,68年12月15日,二層,一層 二層 騎樓
RPSNMLMLPHLFFDP86CA,19,304.10,見其他登記事項,鋼筋混凝土造,86年6月26日,四層,一層 二層 三層 四層 騎樓 電梯樓梯間
RPTNMLMLPHLFFEP07CA,17,186.22,住家用,鋼筋混凝土造,88年12月29日,三層,一層 二層 三層 電梯樓梯間
RPWNMLNKPHLFFEP37CA,17,15.44,見其他登記事項,,88年6月3日,十層,
RPWNMLNKPHLFFEP37CA,17,93.96,見其他登記事項,鋼筋混凝土造,88年6月3日,十層,二層
RPWNMLNKPHLFFEP37CA,17,.24,見其他登記事項,鋼筋混凝土造,88年6月3日,一層,
RPWNMLNKPHLFFEP37CA,17,48.67,見其他登記事項,鋼筋混凝土造,88年6月3日,10,
RPQNMLTKPHLFFAP17EA,26,282.49,住商用,鋼筋混凝土造,79年1月15日,四層,一層 二層 三層 四層 騎樓 電梯樓梯間 地下層
RPQNMLSKPHLFFAP07EA,,187.92,住家用,鋼筋混凝土造,105年1月27日,三層,一層 二層 三層
RPPNMLPKPHLFFBP76EA,34,97.75,住家用,加強磚造,71年2月18日,二層,一層 二層 電梯樓梯間
RPPNMLMLPHLFFDP66DA,17,114.06,住家用,鋼筋混凝土造,88年7月30日,十四層,十三層
RPPNMLMLPHLFFDP66DA,17,36.89,共有部份,鋼筋混凝土造,88年7月30日,十四層,
RPPNMLMLPHLFFDP66DA,17,2.14,住家用,鋼筋混凝土造,88年7月30日,十四層,
RPPNMLMLPHLFFDP66DA,17,19.26,見其他登記事項,鋼筋混凝土造,88年7月30日,十四層,
RPPNMLLKQHLFFBP98DA,21,41.94,住家用,鋼筋混凝土造,84年7月10日,十三層,九層
RPPNMLLKQHLFFBP98DA,21,28.07,共用部份,鋼筋混凝土造,84年7月10日,十三層,
RPTNMLSKPHLFFDP47CA,1,233.18,住家用,鋼筋混凝土造,104年7月16日,四層,一層 二層 三層 四層
RPPNMLSJQHLFFDP07CA,1,193.32,見其他登記事項,鋼筋混凝土造,104年3月11日,三層,一層 二層 三層 電梯樓梯間
RPPNMLOLPHLFFAP09CA,,176.98,住家用,鋼筋混凝土造,105年3月10日,三層,一層 二層 三層
RPXNMLLLPHLFFAP96CA,1,185.13,見其他登記事項,鋼筋混凝土造,104年8月10日,三層,一層 二層 三層 屋頂突出物
RPXOMLOJQHLFFAP27CA,21,154.35,住家用,鋼筋混凝土造,84年1月2日,三層,一層 二層 三層 電梯樓梯間
RPVNMLNJQHLFFAP86CA,9,183.79,住家用,鋼筋混凝土造,96年2月8日,三層,一層 二層 三層 電梯樓梯間
RPQNMLQKPHLFFCP86CA,36,126.58,住家用,加強磚造,69年11月25日,二層,一層 二層 騎樓
RPPNMLQKPHLFFBP66CA,36,77.50,住商用,加強磚造,69年4月21日,二層,一層 二層
RPPNMLQKPHLFFAP56CA,6,256.80,住家用,鋼筋混凝土造,99年4月2日,四層,一層 二層 三層 四層
RPVNMLSKPHLFFAP37CA,2,205.80,見其他登記事項,鋼筋混凝土造,103年12月30日,三層,一層 二層 三層 屋頂突出物
RPUNMLSKPHLFFAP27CA,23,171.72,住家用,鋼筋混凝土造,82年7月21日,四層,一層 二層 三層 四層 電梯樓梯間
RPUNMLSKPHLFFAP27CA,23,3.17,住家用,鋼筋混凝土造,82年7月25日,二層,一層 二層 電梯樓梯間
RPTOMLTJQHLFFAP37CA,21,22.33,商業用,鋼筋混凝土造,84年12月18日,十層,三層
RPTOMLTJQHLFFAP37CA,21,51.83,共同部份,鋼筋混凝土造,84年12月18日,十層,
RPTOMLTJQHLFFAP37CA,21,99.59,共同部份,鋼筋混凝土造,84年12月18日,十層,
RPTOMLTJQHLFFAP37CA,21,20.69,商業用,鋼筋混凝土造,84年12月18日,十層,三層
RPTOMLTJQHLFFAP37CA,21,11.61,商業用,鋼筋混凝土造,84年12月18日,十層,三層
RPTOMLTJQHLFFAP37CA,21,11.61,商業用,鋼筋混凝土造,84年12月18日,十層,三層
RPTOMLTJQHLFFAP37CA,21,12.56,住家用,鋼筋混凝土造,84年12月18日,十層,三層
RPTOMLTJQHLFFAP37CA,21,19.36,商業用,鋼筋混凝土造,84年12月18日,十層,三層
RPTOMLTJQHLFFAP37CA,21,14.87,商業用,鋼筋混凝土造,84年12月18日,十層,三層
RPTOMLTJQHLFFAP37CA,21,38.41,商業用,鋼筋混凝土造,84年12月18日,十層,三層
RPTOMLTJQHLFFAP37CA,21,13.07,商業用,鋼筋混凝土造,84年12月18日,十層,三層
RPTOMLTJQHLFFAP37CA,21,50.05,商業用,鋼筋混凝土造,84年12月18日,十層,三層
RPXNMLSJQHLFFDP87CA,18,75.53,住家用,鋼筋混凝土造,87年11月30日,九層,六層
RPXNMLSJQHLFFDP87CA,18,7.58,共有部份,鋼筋混凝土造,87年11月30日,九層,
RPXNMLSJQHLFFDP87CA,18,19.10,共有部份,鋼筋混凝土造,87年11月30日,九層,
RPROMLTJQHLFFDP47CA,10,34.63,住家用,鋼筋混凝土造,95年8月3日,五層,五層
RPROMLTJQHLFFDP47CA,10,18.86,見其他登記事項,鋼筋混凝土造,95年8月3日,五層,
RPROMLTJQHLFFDP47CA,10,24.44,見其他登記事項,鋼筋混凝土造,95年8月3日,五層,
RPSNMLSKPHLFFDP37CA,10,.64,見其他登記事項,鋼筋混凝土造,95年12月5日,十二層,一層
RPSNMLSKPHLFFDP37CA,10,53.94,見其他登記事項,鋼筋混凝土造,95年12月5日,十二層,五層
RPSNMLSKPHLFFDP37CA,10,7.45,見其他登記事項,鋼筋混凝土造,95年12月5日,十二層,
RPSNMLSKPHLFFDP37CA,10,10.19,見其他登記事項,鋼筋混凝土造,95年12月5日,十二層,
RPTNMLKLPHLFFDP76CA,,250.13,見其他登記事項,鋼筋混凝土造,105年5月24日,三層,一層 二層 三層
RPRNMLRLPHLFFDP27CA,21,44.47,住家用,鋼筋混凝土造,84年4月6日,十二層,五層
RPRNMLRLPHLFFDP27CA,21,2.11,共有部份,鋼筋混凝土造,84年4月6日,十二層,
RPRNMLRLPHLFFDP27CA,21,6.69,共有部份,鋼筋混凝土造,84年4月6日,十二層,
RPTNMLSLPHLFFDP57CA,1,283.38,住家用,鋼筋混凝土造,104年7月9日,四層,一層 二層 三層 四層
RPTNMLTKPHLFFEP67CA,4,202.73,見其他登記事項,鋼筋混凝土造,101年8月23日,三層,一層 二層 三層 屋頂突出物
RPROMLSKPHLFFAP17DA,35,120.84,見其他登記事項,加強磚造,70年11月20日,二層,一層 二層 屋頂突出物 騎樓
RPQNMLPKPHLFFBP86EA,75,45.67,住家用,見其他登記事項,30年7月1日,一層,一層
RPQNMLPKPHLFFBP86EA,52,139.69,商業用,鋼筋混凝土造,52年12月31日,二層,一層 二層 騎樓
RPTNMLKLPHLFFEP96DA,32,55.12,住家用,加強磚造,73年9月27日,二層,一層 二層 騎樓
RPTNMLKLPHLFFAP56DA,35,103.58,住家用,加強磚造,70年2月11日,二層,一層 二層
RPTNMLKLPHLFFFP96CA,15,88.31,住家用,鋼筋混凝土造,90年4月9日,九層,二層
RPTNMLKLPHLFFFP96CA,15,18.33,見其他登記事項,鋼筋混凝土造,90年4月9日,九層,
RPTNMLKLPHLFFFP96CA,15,3.25,見其他登記事項,鋼筋混凝土造,90年4月9日,九層,
RPTNMLKLPHLFFFP96CA,15,11.89,見其他登記事項,鋼筋混凝土造,90年4月9日,九層,
RPQNMLLKQHLFFAP88CA,21,95.84,住家用,鋼筋混凝土造,84年3月30日,十三層,七層
RPQNMLLKQHLFFAP88CA,21,15.56,共同部份,鋼筋混凝土造,84年3月30日,十二層,
RPQNMLLKQHLFFAP88CA,21,35.56,共同部份,鋼筋混凝土造,84年3月30日,十五層,
RPTNMLMKQHLFFAP66CA,,216.67,見其他登記事項,鋼筋混凝土造,105年4月18日,三層,一層 二層 三層 屋頂突出物
RPUNMLMKQHLFFAP76CA,,216.67,見其他登記事項,鋼筋混凝土造,105年4月18日,三層,一層 二層 三層 屋頂突出物
RPPPMLOJQHLFFAP56CA,32,116.23,見其他登記事項,加強磚造,73年11月1日,二層,一層 二層 騎樓
RPQPMLOJQHLFFAP66CA,36,115.50,住家用,加強磚造,69年10月20日,二層,一層 二層 騎樓 電梯樓梯間
RPQNMLPLPHLFFAP66CA,10,156.49,住家用,鋼筋混凝土造,95年5月24日,三層,一層 二層 三層 電梯樓梯間
RPQOMLLLPHLFFAP98CA,10,152.61,住家用,鋼筋混凝土造,95年5月24日,三層,一層 二層 三層 電梯樓梯間
RPRNMLSKPHLFFCP17CA,1,176.30,見其他登記事項,鋼筋混凝土造,104年8月11日,三層,一層 二層 三層 見其他登記事項
RPROMLLLPHLFFAP09CA,2,191.14,見其他登記事項,鋼筋混凝土造,103年11月10日,三層,一層 二層 三層 屋頂突出物
RPPNMLNLPHLFFAP98CA,17,187.74,住家用,鋼筋混凝土造,88年8月10日,三層,一層 二層 三層 電梯樓梯間
RPTNMLLLPHLFFDP86CA,,146.98,住家用,鋼筋混凝土造,105年3月8日,三層,一層 二層 三層
RPUNMLLLPHLFFDP96CA,,215.94,見其他登記事項,鋼筋混凝土造,105年5月24日,三層,一層 二層 三層
RPPOMLQJRHLFFDP07CA,38,97.96,住家用,加強磚造,67年7月4日,二層,一層 二層 夾層
RPSNMLMLPHLFFFP07CA,,154.31,見其他登記事項,加強磚造,,二層,一層 二層
RPTNMLSLPHLFFFP77CA,1,173.62,見其他登記事項,鋼筋混凝土造,104年10月16日,三層,見其他登記事項
RPPNMLLLPHLFFAP88DA,1,344.06,見其他登記事項,鋼筋混凝土造,104年8月14日,四層,一層 二層 三層 四層
RPSNMLMLPHLFFBP76DA,25,238.13,住家用,鋼筋混凝土造,80年4月18日,三層,一層 二層 三層 騎樓 電梯樓梯間 地下層
RPPNMLRKQHLFFDP17DA,8,210.47,住家用,鋼筋混凝土造,96年12月11日,四層,一層 二層 三層 四層
RPQOMLQKQHLFFAP96DA,39,92.24,住家用,磚造,66年6月2日,一層,一層 騎樓
RPOOMLLLPHLFFAP88DA,12,237.00,住家用,鋼筋混凝土造,93年1月30日,四層,一層 二層 三層 四層
RPTNMLTLPHLFFCP57CA,1,212.21,見其他登記事項,鋼筋混凝土造,104年10月5日,三層,一層 二層 三層 見其他登記事項
RPOOMLLLPHLFFEP56CA,22,169.97,住家用,鋼筋混凝土造,83年9月1日,三層,一層 二層 三層 電梯樓梯間
RPTNMLLLPHLFFEP96CA,21,192.34,見其他登記事項,鋼筋混凝土造,84年5月26日,十五層,十一層
RPTNMLLLPHLFFEP96CA,21,25.18,共有部份,鋼筋混凝土造,84年5月26日,,
RPTNMLLLPHLFFEP96CA,21,3.42,共有部份,鋼筋混凝土造,84年5月26日,,
RPTNMLLLPHLFFEP96CA,21,4.68,共有部份,鋼筋混凝土造,84年5月26日,,
RPUNMLLLPHLFFEP07CA,36,105.20,住商用,鋼筋混凝土加強磚造,69年6月20日,二層,一層 二層 騎樓
RPUNMLSKQHLFFDP67CA,34,97.88,住家用,加強磚造,71年9月25日,二層,一層 二層
RPXNMLTLPHLFFAP77CA,1,214.97,住家用,鋼筋混凝土造,104年11月16日,三層,一層 二層 三層
RPUOMLLLPHLFFAP76CA,2,56.51,住家用,鋼筋混凝土造,103年9月4日,四層,一層
RPUOMLLLPHLFFAP76CA,2,5.50,見其他登記事項,鋼筋混凝土造,103年9月4日,四層,
RPWOMLLLPHLFFAP96CA,17,99.94,住家用,鋼筋混凝土造,88年9月26日,五層,二層 三層
RPWOMLLLPHLFFAP96CA,17,19.15,停車空間,鋼筋混凝土造,88年9月26日,五層,
RPWOMLLLPHLFFAP96CA,17,19.45,共同部份,鋼筋混凝土造,88年9月26日,五層,
RPOPMLLLPHLFFAP88CA,20,151.22,住家用,鋼筋混凝土造,85年8月18日,七層,五層
RPOPMLLLPHLFFAP88CA,20,61.91,共同部份,鋼筋混凝土造,85年8月18日,七層,
RPRNMLMLPHLFFBP56CA,17,188.53,住家用,鋼筋混凝土造,88年1月5日,三層,一層 二層 三層 電梯樓梯間
RPRNMLQLPHLFFBP96CA,23,133.70,住家用,鋼筋混凝土造,82年10月18日,三層,一層 二層 三層
RPUNMLMLPHLFFAP76CA,4,227.65,見其他登記事項,鋼筋混凝土造,101年3月20日,三層,一層 二層 三層 電梯樓梯間
RPXNMLPLPHLFFAP37CA,34,117.49,住商用,加強磚造,71年2月18日,二層,一層 二層 騎樓 電梯樓梯間
RPOOMLPLPHLFFAP56CA,49,36.63,住家用,見其他登記事項,56年1月1日,一層,一層
RPXOMLLLPHLFFAP07CA,37,104.49,住商用,鋼筋混凝土加強磚造,68年1月20日,四層,一層 二層 電梯樓梯間 夾層
RPVNMLTLPHLFFAP57CA,8,193.25,住商用,鋼筋混凝土造,97年1月22日,四層,一層 二層 三層 四層 騎樓
RPXOMLMKQHLFFAP17CA,1,169.85,住家用,鋼筋混凝土造,104年6月18日,三層,一層 二層 三層
RPRNMLSJQHLFFDP27CA,43,80.19,住家用,加強磚造,62年3月15日,二層,一層 二層
RPTNMLSLPHLFFCP47CA,4,161.28,住家用,鋼筋混凝土造,101年8月6日,三層,一層 二層 三層
RPQNMLQLPHLFFCP96CA,1,233.00,見其他登記事項,鋼筋混凝土造,104年5月4日,三層,一層 二層 三層 見其他登記事項
RPRNMLMLPHLFFAP56DA,29,192.15,住家用,加強磚造,76年1月30日,二層,一層 二層 騎樓 電梯樓梯間
RPROMLQKQHLFFAP07DA,37,86.70,住家用,加強磚造,68年3月1日,二層,一層 二層 騎樓
RPRNMLPLPHLFFAP96EA,30,112.49,住家用,加強磚造,75年3月16日,二層,一層 二層 騎樓
RPSNMLQLPHLFFCP27DA,1,410.98,住家用,鋼筋混凝土造,104年6月16日,四層,一層 二層 三層 四層
RPUNMLMLPHLFFBP96DA,10,231.43,住家用,鋼筋混凝土造,95年7月19日,四層,一層 二層 三層 四層
RPRNMLMLPHLFFCP66CA,13,235.83,住商用,鋼筋混凝土造,92年3月18日,四層,一層 二層 三層 四層 騎樓
RPOOMLTJQHLFFDP17CA,32,148.18,住家用,加強磚造,73年2月22日,二層,一層 二層
RPQNMLLKQHLFFDP56CA,,157.38,住家用,鋼筋混凝土造,105年2月1日,三層,一層 二層 三層
RPPNMLSLPHLFFDP17CA,21,160.40,住家用,鋼筋混凝土造,84年7月7日,三層,一層 二層 三層 電梯樓梯間
RPPNMLQLPHLFFDP96CA,18,249.46,住家用,鋼筋混凝土造,87年5月27日,三層,一層 二層 三層 電梯樓梯間
RPSNMLLJQHLFFDP66CA,28,126.01,住商用,加強磚造,77年5月30日,四層,一層 騎樓
RPSNMLLJQHLFFDP66CA,28,122.38,住家用,加強磚造,77年5月30日,四層,二層
RPQNMLRLPHLFFAP86CA,4,84.10,見其他登記事項,鋼筋混凝土造,101年7月25日,六層,五層
RPQNMLRLPHLFFAP86CA,4,9.49,見其他登記事項,鋼筋混凝土造,101年7月25日,六層,
RPQNMLRLPHLFFAP86CA,4,26.90,停車空間,鋼筋混凝土造,101年7月25日,六層,
RPQNMLRLPHLFFAP86CA,4,27.42,見其他登記事項,鋼筋混凝土造,101年7月25日,六層,
RPRNMLRLPHLFFAP96CA,1,74.96,見其他登記事項,鋼筋混凝土造,104年5月12日,五層,三層
RPRNMLRLPHLFFAP96CA,1,7.33,見其他登記事項,鋼筋混凝土造,104年5月12日,五層,
RPRNMLRLPHLFFAP96CA,1,12.48,見其他登記事項,鋼筋混凝土造,104年5月12日,五層,
RPUNMLRLPHLFFAP27CA,62,37.83,住家用,磚造,43年7月1日,一層,一層
RPQNMLSLPHLFFAP96CA,8,193.25,住商用,鋼筋混凝土造,97年1月22日,四層,一層 二層 三層 四層 騎樓
RPRNMLQLPHLFFAP86CA,40,126.00,住商用,加強磚造,65年1月5日,二層,一層 二層 騎樓
RPXNMLQLPHLFFAP47CA,15,160.67,住家用,鋼筋混凝土造,90年4月10日,三層,一層 二層 三層 電梯樓梯間
RPPNMLRKQHLFFAP76CA,,202.12,住家用,鋼筋混凝土造,105年2月3日,三層,一層 二層 三層
RPTNMLLJQHLFFDP76CA,17,24.54,住家用,鋼筋混凝土造,88年7月30日,十四層,四層
RPTNMLLJQHLFFDP76CA,17,.47,住家用,鋼筋混凝土造,88年7月30日,十四層,
RPTNMLLJQHLFFDP76CA,17,17.98,共有部份,鋼筋混凝土造,88年7月30日,十四層,
RPTNMLLJQHLFFDP76CA,17,8.10,見其他登記事項,鋼筋混凝土造,88年7月30日,十四層,
RPSNMLLKQHLFFDP76CA,,138.45,住家用,鋼筋混凝土造,105年2月1日,三層,一層 二層 三層
RPTNMLLKQHLFFDP86CA,,136.20,住家用,鋼筋混凝土造,105年2月1日,三層,一層 二層 三層
RPUNMLLKQHLFFDP96CA,,135.37,住家用,鋼筋混凝土造,105年2月1日,三層,一層 二層 三層
RPVNMLLKQHLFFDP07CA,,146.94,住家用,鋼筋混凝土造,105年2月1日,三層,一層 二層 三層
RPWNMLLKQHLFFDP17CA,,149.55,住家用,鋼筋混凝土造,105年2月1日,三層,一層 二層 三層
RPUNMLTLPHLFFEP87CA,35,50.62,住家用,加強磚造,70年1月28日,二層,一層 二層
RPXNMLMJQHLFFCP17CA,1,182.30,見其他登記事項,鋼筋混凝土造,104年11月10日,三層,一層 二層 三層 見其他登記事項
RPPNMLRLPHLFFCP96CA,22,121.74,住家用,鋼筋混凝土造,83年11月23日,六層,三層
RPPNMLRLPHLFFCP96CA,22,24.27,見其他登記事項,鋼筋混凝土造,83年11月23日,六層,
RPPNMLRLPHLFFCP96CA,22,5.02,見其他登記事項,鋼筋混凝土造,83年11月23日,六層,
RPRNMLTLPHLFFAP27DA,13,17.95,住家用,鋼筋混凝土造,92年7月7日,四層,三層
RPRNMLTLPHLFFAP27DA,13,17.95,住家用,鋼筋混凝土造,92年7月7日,四層,三層
RPRNMLTLPHLFFAP27DA,13,12.03,共有部份,鋼筋混凝土造,92年7月7日,四層,
RPSNMLMJQHLFFDP86DA,15,181.61,住家用,鋼筋混凝土造,90年6月5日,三層,一層 二層 三層
RPOOMLRLPHLFFAP96EA,37,105.84,住商用,加強磚造,68年8月20日,二層,一層 二層 騎樓
RPOOMLRLPHLFFAP96EA,37,105.84,住商用,加強磚造,68年8月20日,二層,一層 二層 騎樓
RPTNMLPLQHLFFAP27EA,13,17.95,住家用,鋼筋混凝土造,92年7月7日,四層,四層
RPTNMLPLQHLFFAP27EA,13,6.29,共同部份,鋼筋混凝土造,92年7月7日,四層,
RPUNMLTLPHLFFDP87DA,7,185.84,見其他登記事項,鋼筋混凝土造,98年2月13日,三層,一層 二層 三層 見其他登記事項
RPPNMLRLPHLFFBP96DA,34,104.11,住家用,加強磚造,71年3月19日,二層,一層 二層 電梯樓梯間
RPXNMLRLPHLFFAP67DA,22,17.48,住家用,鋼筋混凝土造,83年11月12日,七層,六層
RPXNMLRLPHLFFAP67DA,22,4.40,共同部份,鋼筋混凝土造,83年11月12日,七層,
RPUNMLTLPHLFFCP67CA,23,404.62,住家用,鋼筋混凝土造,82年7月22日,四層,一層 二層 三層 四層 騎樓 電梯樓梯間
SPUNMLTLPHLFFCP77CA,23,290.17,住家用,鋼筋混凝土造,82年7月26日,四層,一層 二層 三層 四層 騎樓 電梯樓梯間
RPRNMLQLPHLFFEP27CA,21,98.60,住家用,鋼筋混凝土造,84年5月26日,十五層,十四層
RPRNMLQLPHLFFEP27CA,21,1.93,共有部份,鋼筋混凝土造,84年5月26日,,
RPRNMLQLPHLFFEP27CA,21,16.74,共有部份,鋼筋混凝土造,84年5月26日,十五層,
RPRNMLQLPHLFFEP27CA,21,2.46,共有部份,鋼筋混凝土造,84年5月26日,,
RPQNMLPKQHLFFDP96CA,37,211.22,住家用,加強磚造,68年5月2日,三層,一層 二層 三層
RPWNMLTLPHLFFDP97CA,2,254.59,住家用,鋼筋混凝土造,103年12月23日,三層,一層 二層 三層
RPQNMLRLPHLFFDP17CA,21,196.10,住家用,鋼筋混凝土造,84年10月19日,四層,一層 二層 三層 四層
RPSNMLSLPHLFFAP17CA,23,9.86,共有部份,鋼筋混凝土造,83年1月5日,十一層,
RPSNMLSLPHLFFAP17CA,23,84.93,住家用,鋼筋混凝土造,83年1月5日,十一層,六層
RPSNMLSLPHLFFAP17CA,23,11.47,共有部份,鋼筋混凝土造,83年1月5日,十一層,
RPSNMLSLPHLFFAP17CA,23,8.86,停車空間,鋼筋混凝土造,83年1月5日,十一層,地下層
RPQNMLSLPHLFFBP07CA,22,80.61,住家用,鋼筋混凝土造,83年1月22日,九層,六層
RPQNMLSLPHLFFBP07CA,22,9.90,見其他登記事項,鋼筋混凝土造,83年1月22日,九層,
RPQNMLSLPHLFFBP07CA,22,1.00,共有部份,鋼筋混凝土造,83年1月21日,,
RPQNMLSLPHLFFBP07CA,22,.76,共有部份,鋼筋混凝土造,83年1月21日,,
RPQNMLSLPHLFFBP07CA,22,.66,共有部份,鋼筋混凝土造,83年1月21日,,
RPQNMLSLPHLFFBP07CA,22,2.16,共有部份,鋼筋混凝土造,83年1月21日,,
RPQNMLSLPHLFFBP07CA,22,11.02,共有部份,鋼筋混凝土造,83年1月21日,,
RPQNMLMJQHLFFAP88CA,21,179.84,住家用,鋼筋混凝土造,84年1月8日,四層,一層 二層 三層 四層
RPXNMLSLPHLFFAP67CA,11,197.79,住家用,鋼筋混凝土造,94年7月25日,四層,一層 二層 三層 四層
RPSNMLSLPHLFFDP47CA,21,60.47,住家用,鋼筋混凝土造,84年9月21日,七層,六層 電梯樓梯間
RPSNMLSLPHLFFDP47CA,21,6.07,共有部份,鋼筋混凝土造,84年9月21日,七層,
RPSNMLSLPHLFFDP47CA,21,3.48,共有部份,鋼筋混凝土造,84年9月21日,七層,
RPSNMLTLPHLFFDP57CA,1,280.78,住家用,鋼筋混凝土造,104年7月9日,四層,一層 二層 三層 四層
RPWNMLLJQHLFFDP07CA,21,183.59,住家用,鋼筋混凝土造,84年6月28日,五層,四層
RPWNMLLJQHLFFDP07CA,21,6.67,共有部份,鋼筋混凝土造,84年6月28日,五層,
RPXNMLLJQHLFFDP17CA,22,20.98,住家用,鋼筋混凝土造,83年6月14日,九層,二層
RPXNMLLJQHLFFDP17CA,22,20.98,住家用,鋼筋混凝土造,83年6月14日,九層,二層
RPXNMLLJQHLFFDP17CA,22,8.10,共有部份,鋼筋混凝土造,83年6月14日,九層,
RPXNMLLJQHLFFDP17CA,22,8.10,共有部份,鋼筋混凝土造,83年6月14日,九層,
RPSOMLMKRHLFFDP07CA,1,280.78,住家用,鋼筋混凝土造,104年7月9日,四層,一層 二層 三層 四層
RPVNMLTLPHLFFCP77CA,17,230.24,見其他登記事項,鋼筋混凝土造,88年1月28日,四層,一層 二層 三層 四層 地下一層
RPVNMLTLPHLFFCP77CA,17,23.27,見其他登記事項,鋼筋混凝土造,88年1月28日,三層,
RPPNMLTLPHLFFCP17CA,1,218.96,見其他登記事項,鋼筋混凝土造,104年5月4日,三層,一層 二層 三層 見其他登記事項
RPSNMLOLQHLFFAP96DA,21,217.19,住家用,鋼筋混凝土造,84年12月25日,四層,一層 二層 三層 四層 屋頂突出物 騎樓
RPWNMLSLPHLFFAP67DA,21,128.16,住家用,鋼筋混凝土造,84年11月20日,七層,四層
RPWNMLSLPHLFFAP67DA,21,17.44,共同部份,鋼筋混凝土造,84年11月20日,七層,
RPWNMLSLPHLFFAP67DA,21,8.83,共同部份,鋼筋混凝土造,84年11月20日,七層,
RPQNMLSJQHLFFEP27CA,4,187.59,住家用,鋼筋混凝土造,101年10月22日,三層,一層 二層 三層
RPVNMLSLPHLFFCP77DA,22,168.50,住家用,鋼筋混凝土造,83年2月4日,四層,一層 二層 三層 四層
RPRNMLSJQHLFFAP17EA,23,157.02,住家用,鋼筋混凝土造,82年5月12日,三層,一層 二層 三層
RPPNMLSLPHLFFAP07EA,19,160.00,住家用,鋼筋混凝土造,86年10月8日,三層,一層 二層 三層
RPQNMLOLQHLFFAP86EA,23,105.88,見其他登記事項,鋼筋混凝土造,82年11月20日,二層,一層 二層 屋頂突出物
RPTNMLOJQHLFFAP96EA,20,91.77,住家用,鋼筋混凝土造,85年7月22日,八層,六層
RPTNMLOJQHLFFAP96EA,20,2.47,共同部份,鋼筋混凝土造,85年7月22日,,
RPTNMLOJQHLFFAP96EA,20,14.05,共同部份,鋼筋混凝土造,85年7月22日,,
RPQNMLMLQHLFFEP86CA,1,295.96,住家用,鋼筋混凝土造,104年9月15日,三層,一層 二層 三層
RPQNMLTLPHLFFBP27DA,35,107.48,住家用,加強磚造,70年12月28日,二層,一層 二層 騎樓 電梯樓梯間
RPQNMLNLQHLFFDP86CA,,223.92,住家用,鋼筋混凝土造,105年3月30日,四層,一層 二層 三層 四層
RPXNMLOJQHLFFDP47CA,31,352.81,住商用,加強磚造,74年1月30日,四層,一層 二層 三層 四層 騎樓 地下層
RPPNMLTJQHLFFDP17CA,1,190.15,見其他登記事項,鋼筋混凝土造,104年9月17日,三層,一層 二層 三層 見其他登記事項
RPXNMLTLPHLFFDP08CA,1,280.78,住家用,鋼筋混凝土造,104年7月9日,四層,一層 二層 三層 四層
RPRNMLTJQHLFFAP07CA,1,256.51,見其他登記事項,鋼筋混凝土造,104年11月30日,四層,一層 二層 三層 四層 騎樓
RPQOMLNLQHLFFAP66CA,56,180.64,住商用,見其他登記事項,49年5月30日,三層,一層 二層 三層 騎樓
RPQNMLLJQHLFFAP78CA,40,78.86,住家用,加強磚造,65年7月2日,二層,一層 二層 騎樓
RPPNMLSJQHLFFAP76CA,1,185.77,住家用,鋼筋混凝土造,104年11月15日,三層,一層 二層 三層
RPQNMLOJQHLFFBP56CA,,223.88,住家用,鋼筋混凝土造,105年2月27日,三層,一層 二層 三層
RPRNMLOJQHLFFBP66CA,,223.50,住家用,鋼筋混凝土造,105年2月27日,三層,一層 二層 三層
RPXNMLMJQHLFFAP96CA,23,84.59,住家用,鋼筋混凝土造,82年1月15日,六層,三層
RPXNMLMJQHLFFAP96CA,23,44.39,共同部份,鋼筋混凝土造,82年1月15日,六層,
RPSNMLOJQHLFFAP66CA,12,190.08,住家用,鋼筋混凝土造,93年4月15日,三層,一層 二層 三層 電梯樓梯間
RPPNMLMJQHLFFAP78CA,2,236.20,見其他登記事項,鋼筋混凝土造,103年12月18日,三層,一層 二層 三層 見其他登記事項
RPROMLSJQHLFFAP07CA,22,77.00,住家用,鋼筋混凝土造,83年1月28日,五層,一層
RPROMLSJQHLFFAP07CA,22,12.49,共同部份,鋼筋混凝土造,83年1月28日,五層,
RPPOMLTLPHLFFDP37CA,1,259.36,住家用,鋼筋混凝土造,104年7月9日,四層,一層 二層 三層 四層
RPSOMLTLPHLFFDP67CA,11,156.14,住商用,鋼筋混凝土造,94年5月30日,三層,一層 二層 三層 騎樓 電梯樓梯間
RPWNMLPKQHLFFAP37DA,35,94.22,住家用,加強磚造,70年5月4日,二層,一層 二層 電梯樓梯間
