編號,屋齡,建物移轉面積平方公尺,主要用途,主要建材,建築完成日期,總層數,建物分層
RPRPMLOKNHLFFAW27CA,,99.98,見其他登記事項,鋼筋混凝土造,104年12月1日,十層,十層 見其他登記事項
RPRPMLOKNHLFFAW27CA,,11.10,見其他登記事項,鋼筋混凝土造,104年12月1日,十層,
RPRPMLOKNHLFFAW27CA,,10.30,見其他登記事項,鋼筋混凝土造,104年12月1日,十層,
RPQNMLQKNHLFFAW17CA,,74.80,見其他登記事項,鋼筋混凝土造,104年12月1日,十層,七層
RPQNMLQKNHLFFAW17CA,,11.84,見其他登記事項,鋼筋混凝土造,104年12月1日,十層,
RPQNMLQKNHLFFAW17CA,,6.15,見其他登記事項,鋼筋混凝土造,104年12月1日,十層,
RPQNMLQKNHLFFAW17CA,,8.27,見其他登記事項,鋼筋混凝土造,104年12月1日,十層,
RPQNMLQKNHLFFAW17CA,,31.35,見其他登記事項,鋼筋混凝土造,104年12月1日,十層,
RPVNMLNLNHLFFAW47CA,18,193.42,住家用,鋼筋混凝土造,87年1月25日,二層,一層 二層 屋頂突出物 夾層
RPSNMLNKNHLFFAW07CA,,100.52,見其他登記事項,鋼筋混凝土造,105年2月5日,三層,一層
RPSNMLNKNHLFFAW07CA,,5.45,見其他登記事項,鋼筋混凝土造,105年2月5日,三層,
RPUNMLNKNHLFFAW27CA,,100.52,見其他登記事項,鋼筋混凝土造,105年2月5日,三層,一層
RPUNMLNKNHLFFAW27CA,,4.19,見其他登記事項,鋼筋混凝土造,105年2月5日,三層,
RPUNMLNKNHLFFAW27CA,,5.45,見其他登記事項,鋼筋混凝土造,105年2月5日,三層,
RPUNMLNKNHLFFAW27CA,,13.75,見其他登記事項,鋼筋混凝土造,105年2月5日,三層,
RPPNMLNKNHLFFAW76CA,,27.09,見其他登記事項,鋼筋混凝土造,105年2月5日,三層,一層
RPPNMLNKNHLFFAW76CA,,1.48,見其他登記事項,鋼筋混凝土造,105年2月5日,三層,
RPRNMLNKNHLFFAW96CA,,34.06,見其他登記事項,鋼筋混凝土造,105年2月5日,三層,二層
RPRNMLNKNHLFFAW96CA,,1.87,見其他登記事項,鋼筋混凝土造,105年2月5日,三層,
RPQOMLNKNHLFFAW96CA,1,21.11,見其他登記事項,鋼筋混凝土造,104年7月22日,三層,三層
RPQOMLNKNHLFFAW96CA,1,10.88,見其他登記事項,鋼筋混凝土造,104年7月22日,三層,
RPQOMLNKNHLFFAW96CA,1,8.55,見其他登記事項,鋼筋混凝土造,104年7月22日,三層,
RPSNMLMKNHLFFAW96CA,,21.47,見其他登記事項,鋼筋混凝土造,105年2月5日,三層,一層
RPSNMLMKNHLFFAW96CA,,2.80,見其他登記事項,鋼筋混凝土造,105年2月5日,三層,
RPROMLNKNHLFFAW07CA,,58.06,見其他登記事項,鋼筋混凝土造,105年1月8日,三層,一層
RPROMLNKNHLFFAW07CA,,4.58,見其他登記事項,鋼筋混凝土造,105年1月8日,三層,
RPTOMLNKNHLFFAW27CA,,38.44,見其他登記事項,鋼筋混凝土造,105年1月8日,三層,一層
RPTOMLNKNHLFFAW27CA,,3.02,見其他登記事項,鋼筋混凝土造,105年1月8日,三層,
RPSPMLOKNHLFFAW37CA,,76.80,見其他登記事項,鋼筋混凝土造,104年12月1日,十層,七層
RPSPMLOKNHLFFAW37CA,,6.31,見其他登記事項,鋼筋混凝土造,104年12月1日,十層,
RPSPMLOKNHLFFAW37CA,,8.48,見其他登記事項,鋼筋混凝土造,104年12月1日,十層,
RPSPMLOKNHLFFAW37CA,,31.66,見其他登記事項,鋼筋混凝土造,104年12月1日,十層,
RPTPMLOKNHLFFAW47CA,,52.48,見其他登記事項,鋼筋混凝土造,104年12月1日,十層,十層 見其他登記事項
RPTPMLOKNHLFFAW47CA,,5.85,見其他登記事項,鋼筋混凝土造,104年12月1日,十層,
RPTPMLOKNHLFFAW47CA,,17.06,見其他登記事項,鋼筋混凝土造,104年12月1日,十層,
RPUPMLOKNHLFFAW57CA,,52.48,見其他登記事項,鋼筋混凝土造,104年12月1日,十層,十層 見其他登記事項
RPUPMLOKNHLFFAW57CA,,5.85,見其他登記事項,鋼筋混凝土造,104年12月1日,十層,
RPUPMLOKNHLFFAW57CA,,17.06,見其他登記事項,鋼筋混凝土造,104年12月1日,十層,
RPVPMLLKNHLFFAW37CA,,95.03,見其他登記事項,鋼筋混凝土造,104年11月30日,三層,三層
RPVPMLLKNHLFFAW37CA,,7.13,見其他登記事項,鋼筋混凝土造,104年11月30日,三層,
RPQNMLMKNHLFFAW76CA,,62.81,見其他登記事項,鋼筋混凝土造,105年2月5日,三層,二層
RPQNMLMKNHLFFAW76CA,,8.42,見其他登記事項,鋼筋混凝土造,105年2月5日,三層,
RPRNMLMKNHLFFAW86CA,,51.92,見其他登記事項,鋼筋混凝土造,105年2月5日,三層,二層
RPRNMLMKNHLFFAW86CA,,6.89,見其他登記事項,鋼筋混凝土造,105年2月5日,三層,
RPRNMLQLNHLFFAW37CA,,41.29,見其他登記事項,鋼筋混凝土造,104年11月25日,八層,二層
RPRNMLQLNHLFFAW37CA,,57.14,見其他登記事項,鋼筋混凝土造,104年11月25日,八層,
RPSNMLQLNHLFFAW47CA,,41.29,見其他登記事項,鋼筋混凝土造,104年11月25日,八層,五層
RPSNMLQLNHLFFAW47CA,,24.79,見其他登記事項,鋼筋混凝土造,104年11月25日,八層,
RPUNMLQLNHLFFAW67CA,,39.68,見其他登記事項,鋼筋混凝土造,104年11月25日,八層,六層
RPUNMLQLNHLFFAW67CA,,22.36,見其他登記事項,鋼筋混凝土造,104年11月25日,八層,
RPVNMLQLNHLFFAW77CA,,39.37,見其他登記事項,鋼筋混凝土造,104年11月25日,八層,六層
RPVNMLQLNHLFFAW77CA,,22.36,見其他登記事項,鋼筋混凝土造,104年11月25日,八層,
RPXNMLNKNHLFFAW57CA,,41.66,見其他登記事項,鋼筋混凝土造,105年1月8日,三層,三層
RPXNMLNKNHLFFAW57CA,,3.27,見其他登記事項,鋼筋混凝土造,105年1月8日,三層,
RPQNMLRKNHLFFAW27CA,21,234.09,住家用,鋼筋混凝土加強磚造,84年9月26日,三層,一層 二層 三層
RPPNMLMKNHLFFAW66CA,,51.92,見其他登記事項,鋼筋混凝土造,105年2月5日,三層,三層
RPPNMLMKNHLFFAW66CA,,6.89,見其他登記事項,鋼筋混凝土造,105年2月5日,三層,
RPUNMLTKNHLFFAW87CA,1,40.70,見其他登記事項,鋼筋混凝土造,104年2月4日,五層,二層
RPUNMLTKNHLFFAW87CA,1,12.86,見其他登記事項,鋼筋混凝土造,104年2月4日,五層,
RPWNMLTKNHLFFAW08CA,,67.24,見其他登記事項,鋼筋混凝土造,104年12月30日,三層,三層
RPWNMLTKNHLFFAW08CA,,4.42,見其他登記事項,鋼筋混凝土造,104年12月30日,三層,
RPQNMLLMNHLFFAW86CA,7,87.91,見其他登記事項,鋼筋混凝土造,97年11月18日,五層,三層
RPPNMLRLNHLFFAW27CA,1,21.06,見其他登記事項,鋼筋混凝土造,104年7月22日,三層,三層
RPPNMLRLNHLFFAW27CA,1,10.88,見其他登記事項,鋼筋混凝土造,104年7月22日,三層,
RPPNMLRLNHLFFAW27CA,1,8.55,見其他登記事項,鋼筋混凝土造,104年7月22日,三層,
RPRNMLTKNHLFFAW67DA,,51.47,見其他登記事項,鋼筋混凝土造,105年2月4日,三層,二層
RPRNMLTKNHLFFAW67DA,,5.39,見其他登記事項,鋼筋混凝土造,105年2月4日,三層,
RPSNMLNLNHLFFAW27DA,,94.23,見其他登記事項,鋼筋混凝土造,104年12月10日,三層,一層
RPSNMLNLNHLFFAW27DA,,5.04,見其他登記事項,鋼筋混凝土造,104年12月10日,三層,
RPXNMLRLNHLFFAW08CA,,85.46,見其他登記事項,鋼筋混凝土造,104年12月1日,十層,五層
RPXNMLRLNHLFFAW08CA,,8.91,見其他登記事項,鋼筋混凝土造,104年12月1日,十層,
RPXNMLRLNHLFFAW08CA,,9.46,見其他登記事項,鋼筋混凝土造,104年12月1日,十層,
RPXNMLRLNHLFFAW08CA,,6.70,見其他登記事項,鋼筋混凝土造,104年12月1日,十層,
RPQNMLNLNHLFFAW07DA,,94.56,見其他登記事項,鋼筋混凝土造,104年12月10日,三層,二層
RPQNMLNLNHLFFAW07DA,,5.02,見其他登記事項,鋼筋混凝土造,104年12月10日,三層,
RPRNMLNLNHLFFAW17DA,,94.23,見其他登記事項,鋼筋混凝土造,104年12月10日,三層,一層
RPRNMLNLNHLFFAW17DA,,5.04,見其他登記事項,鋼筋混凝土造,104年12月10日,三層,
RPUNMLPLNHLFFAW67DA,,92.79,見其他登記事項,鋼筋混凝土造,104年12月10日,三層,一層
RPUNMLPLNHLFFAW67DA,,5.04,見其他登記事項,鋼筋混凝土造,104年12月10日,三層,
RPPNMLOJOHLFFAW86CA,35,249.15,見其他登記事項,鋼筋混凝土造,70年10月3日,三層,一層 二層 三層 騎樓
SPPNMLOJOHLFFAW96CA,35,253.68,見其他登記事項,鋼筋混凝土造,70年10月3日,三層,一層 二層 三層 騎樓
RPUNMLMJOHLFFAW17CA,,32.40,見其他登記事項,鋼筋混凝土造,104年11月25日,八層,
RPPNMLMJOHLFFAW76DA,,94.23,見其他登記事項,鋼筋混凝土造,104年12月10日,三層,一層
RPPNMLMJOHLFFAW76DA,,5.04,見其他登記事項,鋼筋混凝土造,104年12月10日,三層,
RPQNMLNJOHLFFAW86CA,,88.20,見其他登記事項,鋼筋混凝土造,104年12月18日,三層,三層
RPQNMLNJOHLFFAW86CA,,12.90,見其他登記事項,鋼筋混凝土造,104年12月18日,三層,
RPQNMLNJOHLFFAW86CA,,46.01,見其他登記事項,鋼筋混凝土造,104年12月18日,三層,
RPUNMLQKOHLFFAW67CA,,39.79,見其他登記事項,鋼筋混凝土造,104年11月25日,八層,七層
RPUNMLQKOHLFFAW67CA,,22.36,見其他登記事項,鋼筋混凝土造,104年11月25日,八層,
RPTNMLLJOHLFFAW96CA,,41.66,見其他登記事項,鋼筋混凝土造,105年1月8日,三層,二層
RPTNMLLJOHLFFAW96CA,,3.27,見其他登記事項,鋼筋混凝土造,105年1月8日,三層,
RPVNMLLJOHLFFAW17CA,,61.11,見其他登記事項,鋼筋混凝土造,105年1月8日,三層,二層
RPVNMLLJOHLFFAW17CA,,4.83,見其他登記事項,鋼筋混凝土造,105年1月8日,三層,
RPXNMLLJOHLFFAW37CA,1,162.73,住家用,鋼筋混凝土造,103年11月24日,三層,一層 二層 三層
RPWNMLMJOHLFFAW37CA,,64.89,見其他登記事項,鋼筋混凝土造,104年12月30日,三層,一層
RPWNMLMJOHLFFAW37CA,,4.42,見其他登記事項,鋼筋混凝土造,104年12月30日,三層,
RPVNMLQKOHLFFAW77CA,,41.29,見其他登記事項,鋼筋混凝土造,104年11月25日,八層,六層
RPVNMLQKOHLFFAW77CA,,24.79,見其他登記事項,鋼筋混凝土造,104年11月25日,八層,
RPWNMLQKOHLFFAW87CA,,38.29,見其他登記事項,鋼筋混凝土造,104年11月25日,八層,三層
RPWNMLQKOHLFFAW87CA,,22.98,見其他登記事項,鋼筋混凝土造,104年11月25日,八層,
RPOOMLQKOHLFFAW17CA,,39.44,見其他登記事項,鋼筋混凝土造,104年11月25日,八層,三層
RPOOMLQKOHLFFAW17CA,,22.15,見其他登記事項,鋼筋混凝土造,104年11月25日,八層,
RPQNMLMJOHLFFAW86DA,,73.27,見其他登記事項,鋼筋混凝土造,105年4月27日,三層,一層
RPQNMLMJOHLFFAW86DA,,9.81,見其他登記事項,鋼筋混凝土造,105年4月27日,三層,
RPRNMLMJOHLFFAW96DA,,80.85,見其他登記事項,鋼筋混凝土造,105年4月27日,三層,二層
RPRNMLMJOHLFFAW96DA,,9.81,見其他登記事項,鋼筋混凝土造,105年4月27日,三層,
RPSNMLMJOHLFFAW07DA,,80.85,見其他登記事項,鋼筋混凝土造,105年4月27日,三層,三層
RPSNMLMJOHLFFAW07DA,,9.81,見其他登記事項,鋼筋混凝土造,105年4月27日,三層,
RPXNMLQKOHLFFAW97CA,,41.29,見其他登記事項,鋼筋混凝土造,104年11月25日,八層,七層
RPXNMLQKOHLFFAW97CA,,57.20,見其他登記事項,鋼筋混凝土造,104年11月25日,八層,
RPQOMLQKOHLFFAW37CA,,83.43,見其他登記事項,鋼筋混凝土造,104年11月25日,八層,二層
RPQOMLQKOHLFFAW37CA,,48.24,見其他登記事項,鋼筋混凝土造,104年11月25日,八層,
RPPNMLOKOHLFFAW96CA,27,127.40,住商用,鋼筋混凝土造,78年6月30日,三層,一層 二層 三層
RPPNMLLLOHLFFAW76CA,,74.27,見其他登記事項,鋼筋混凝土造,104年12月1日,十層,三層
RPPNMLLLOHLFFAW76CA,,5.92,見其他登記事項,鋼筋混凝土造,104年12月1日,十層,
RPPNMLLLOHLFFAW76CA,,8.24,見其他登記事項,鋼筋混凝土造,104年12月1日,十層,
RPPNMLLLOHLFFAW76CA,,7.68,見其他登記事項,鋼筋混凝土造,104年12月1日,十層,
RPQNMLLLOHLFFAW86CA,,76.80,見其他登記事項,鋼筋混凝土造,104年12月1日,十層,六層
RPQNMLLLOHLFFAW86CA,,6.31,見其他登記事項,鋼筋混凝土造,104年12月1日,十層,
RPQNMLLLOHLFFAW86CA,,8.48,見其他登記事項,鋼筋混凝土造,104年12月1日,十層,
RPQNMLLLOHLFFAW86CA,,31.66,見其他登記事項,鋼筋混凝土造,104年12月1日,十層,
RPRNMLPKOHLFFAW27CA,,72.48,見其他登記事項,鋼筋混凝土造,104年12月1日,十層,三層
RPRNMLPKOHLFFAW27CA,,9.72,見其他登記事項,鋼筋混凝土造,104年12月1日,十層,
RPRNMLPKOHLFFAW27CA,,5.78,見其他登記事項,鋼筋混凝土造,104年12月1日,十層,
RPRNMLPKOHLFFAW27CA,,8.02,見其他登記事項,鋼筋混凝土造,104年12月1日,十層,
RPRNMLPKOHLFFAW27CA,,7.53,見其他登記事項,鋼筋混凝土造,104年12月1日,十層,
RPQNMLMLOHLFFAW96CA,32,120.00,住商用,鋼筋混凝土造,73年2月15日,三層,一層 二層 三層
RPQNMLPKOHLFFAW27DA,65,83.62,住家用,見其他登記事項,40年6月6日,一層,一層
RPUNMLPJPHLFFAW57CA,,69.38,見其他登記事項,鋼筋混凝土造,104年11月25日,八層,四層
RPUNMLPJPHLFFAW57CA,,40.89,見其他登記事項,鋼筋混凝土造,104年11月25日,八層,
RPVNMLPJPHLFFAW67CA,,41.29,見其他登記事項,鋼筋混凝土造,104年11月25日,八層,四層
RPVNMLPJPHLFFAW67CA,,57.14,見其他登記事項,鋼筋混凝土造,104年11月25日,八層,
SPRNMLQKOHLFFAW47CA,,104.52,見其他登記事項,鋼筋混凝土造,105年2月5日,三層,二層
SPRNMLQKOHLFFAW47CA,,356.53,見其他登記事項,鋼筋混凝土造,105年2月5日,三層,
SPRNMLQKOHLFFAW47CA,,5.69,見其他登記事項,鋼筋混凝土造,105年2月5日,三層,
SPRNMLQKOHLFFAW47CA,,13.77,見其他登記事項,鋼筋混凝土造,105年2月5日,三層,
RPSNMLRKOHLFFAW57CA,,90.31,見其他登記事項,鋼筋混凝土造,105年4月1日,三層,二層
RPSNMLRKOHLFFAW57CA,,10.19,見其他登記事項,鋼筋混凝土造,105年4月1日,三層,
RPTNMLRKOHLFFAW67CA,,83.44,見其他登記事項,鋼筋混凝土造,105年4月1日,三層,二層
RPTNMLRKOHLFFAW67CA,,6.40,見其他登記事項,鋼筋混凝土造,105年4月1日,三層,
RPPNMLQKOHLFFAW27DA,,171.33,住家用,鋼筋混凝土造,104年12月10日,三層,一層 二層 三層
RPUOMLQKOHLFFAW87DA,,46.53,見其他登記事項,鋼筋混凝土造,105年2月4日,三層,一層
RPUOMLQKOHLFFAW87DA,,5.39,見其他登記事項,鋼筋混凝土造,105年2月4日,三層,
RPUNMLRKOHLFFAW77CA,,80.13,見其他登記事項,鋼筋混凝土造,105年4月1日,三層,一層
RPUNMLRKOHLFFAW77CA,,10.19,見其他登記事項,鋼筋混凝土造,105年4月1日,三層,
RPRNMLMLOHLFFAW07CA,8,241.51,住家用,鋼筋混凝土造,96年12月24日,三層,一層 二層 三層 屋頂突出物
RPWNMLPJPHLFFAW77CA,,38.29,見其他登記事項,鋼筋混凝土造,104年11月25日,八層,三層
RPWNMLPJPHLFFAW77CA,,22.98,見其他登記事項,鋼筋混凝土造,104年11月25日,八層,
RPXNMLPJPHLFFAW87CA,,41.29,見其他登記事項,鋼筋混凝土造,104年11月25日,八層,四層
RPXNMLPJPHLFFAW87CA,,57.20,見其他登記事項,鋼筋混凝土造,104年11月25日,八層,
RPOOMLPJPHLFFAW07CA,1,39.37,見其他登記事項,鋼筋混凝土造,104年11月25日,八層,八層
RPOOMLPJPHLFFAW07CA,1,22.36,見其他登記事項,鋼筋混凝土造,104年11月25日,八層,
RPPOMLPJPHLFFAW17CA,1,41.29,見其他登記事項,鋼筋混凝土造,104年11月25日,八層,六層
RPPOMLPJPHLFFAW17CA,1,24.79,見其他登記事項,鋼筋混凝土造,104年11月25日,八層,
RPQOMLPJPHLFFAW27CA,,41.29,見其他登記事項,鋼筋混凝土造,104年11月25日,八層,六層
RPQOMLPJPHLFFAW27CA,,24.79,見其他登記事項,鋼筋混凝土造,104年11月25日,八層,
RPTNMLKLOHLFFAW07CA,,74.09,見其他登記事項,鋼筋混凝土造,105年4月1日,三層,一層
RPTNMLKLOHLFFAW07CA,,6.13,見其他登記事項,鋼筋混凝土造,105年4月1日,三層,
RPRNMLLLOHLFFAW96CA,,121.54,見其他登記事項,鋼筋混凝土造,105年2月5日,三層,三層
RPRNMLLLOHLFFAW96CA,,6.62,見其他登記事項,鋼筋混凝土造,105年2月5日,三層,
RPSNMLLLOHLFFAW07CA,,121.54,見其他登記事項,鋼筋混凝土造,105年2月5日,三層,三層
RPSNMLLLOHLFFAW07CA,,6.62,見其他登記事項,鋼筋混凝土造,105年2月5日,三層,
RPPNMLKLOHLFFAW66CA,,67.24,見其他登記事項,鋼筋混凝土造,104年12月30日,三層,二層
RPPNMLKLOHLFFAW66CA,,4.42,見其他登記事項,鋼筋混凝土造,104年12月30日,三層,
RPRNMLKLOHLFFAW96DA,,94.56,見其他登記事項,鋼筋混凝土造,104年12月10日,三層,三層
RPRNMLKLOHLFFAW96DA,,5.02,見其他登記事項,鋼筋混凝土造,104年12月10日,三層,
RPQNMLMKPHLFFAW96CA,3,77.78,見其他登記事項,鋼筋混凝土造,102年10月8日,三層,三層
RPQNMLMKPHLFFAW96CA,3,6.24,見其他登記事項,鋼筋混凝土造,102年10月8日,三層,
RPXNMLMLOHLFFAW67CA,1,164.16,見其他登記事項,鋼筋混凝土造,104年5月8日,三層,一層 二層 三層
RPPNMLSLOHLFFAW47CA,,116.31,見其他登記事項,鋼筋混凝土造,104年12月2日,三層,二層
RPPNMLSLOHLFFAW47CA,,6.05,見其他登記事項,鋼筋混凝土造,104年12月2日,三層,
RPQNMLSLOHLFFAW57CA,,58.16,見其他登記事項,鋼筋混凝土造,104年12月2日,三層,三層
RPQNMLSLOHLFFAW57CA,,6.05,見其他登記事項,鋼筋混凝土造,104年12月2日,三層,
RPQNMLSLOHLFFAW57CA,,58.16,見其他登記事項,鋼筋混凝土造,104年12月2日,三層,三層
RPRNMLSLOHLFFAW67CA,,117.32,見其他登記事項,鋼筋混凝土造,104年12月2日,三層,三層
RPRNMLSLOHLFFAW67CA,,6.11,見其他登記事項,鋼筋混凝土造,104年12月2日,三層,
RPSNMLQJPHLFFAW47CA,2,187.78,住家用,鋼筋混凝土造,103年3月11日,三層,一層 二層 三層
RPRNMLTLOHLFFAW77CA,,75.12,見其他登記事項,鋼筋混凝土造,105年4月1日,三層,一層
RPRNMLTLOHLFFAW77CA,,6.17,見其他登記事項,鋼筋混凝土造,105年4月1日,三層,
RPSNMLTLOHLFFAW87CA,,83.44,見其他登記事項,鋼筋混凝土造,105年4月1日,三層,二層
RPSNMLTLOHLFFAW87CA,,6.36,見其他登記事項,鋼筋混凝土造,105年4月1日,三層,
RPPNMLTLOHLFFAW57CA,,84.47,見其他登記事項,鋼筋混凝土造,105年4月1日,三層,三層
RPPNMLTLOHLFFAW57CA,,6.43,見其他登記事項,鋼筋混凝土造,105年4月1日,三層,
RPOOMLOJPHLFFAW96CA,,120.44,見其他登記事項,鋼筋混凝土造,105年4月13日,三層,
RPOOMLOJPHLFFAW96CA,,8.89,見其他登記事項,鋼筋混凝土造,105年4月13日,三層,
RPPNMLPJPHLFFAW07CA,,120.39,見其他登記事項,鋼筋混凝土造,105年4月13日,三層,
RPPNMLPJPHLFFAW07CA,,8.89,見其他登記事項,鋼筋混凝土造,105年4月13日,三層,
RPSNMLPJPHLFFAW37CA,,120.39,見其他登記事項,鋼筋混凝土造,105年4月13日,三層,三層
RPSNMLPJPHLFFAW37CA,,8.89,見其他登記事項,鋼筋混凝土造,105年4月13日,三層,
RPTNMLPJPHLFFAW47CA,,120.39,見其他登記事項,鋼筋混凝土造,105年4月13日,三層,三層
RPTNMLPJPHLFFAW47CA,,8.89,見其他登記事項,鋼筋混凝土造,105年4月13日,三層,
RPROMLOJPHLFFAW27CA,,127.34,見其他登記事項,鋼筋混凝土造,105年4月13日,三層,一層
RPROMLOJPHLFFAW27CA,,16.81,見其他登記事項,鋼筋混凝土造,105年4月13日,三層,
RPPOMLOJPHLFFAW07CA,,128.03,見其他登記事項,鋼筋混凝土造,105年4月13日,三層,三層
RPPOMLOJPHLFFAW07CA,,16.81,見其他登記事項,鋼筋混凝土造,105年4月13日,三層,
RPQOMLOJPHLFFAW17CA,,128.03,見其他登記事項,鋼筋混凝土造,105年4月13日,三層,二層
RPQOMLOJPHLFFAW17CA,,16.81,見其他登記事項,鋼筋混凝土造,105年4月13日,三層,
RPSNMLOJPHLFFAW27CA,1,164.16,見其他登記事項,鋼筋混凝土造,104年5月8日,三層,一層 二層 三層
RPVNMLOJPHLFFAW57CA,1,164.16,見其他登記事項,鋼筋混凝土造,104年5月8日,三層,一層 二層 三層
RPWNMLOJPHLFFAW67CA,1,73.57,見其他登記事項,鋼筋混凝土造,104年4月30日,三層,三層
RPWNMLOJPHLFFAW67CA,1,6.02,見其他登記事項,鋼筋混凝土造,104年4月30日,三層,
RPQNMLQJPHLFFAW27CA,,58.52,見其他登記事項,鋼筋混凝土造,105年1月19日,三層,二層
RPQNMLQJPHLFFAW27CA,,7.68,見其他登記事項,鋼筋混凝土造,105年1月19日,三層,
RPRNMLPJPHLFFAW37DA,,51.47,見其他登記事項,鋼筋混凝土造,105年2月4日,三層,三層
RPRNMLPJPHLFFAW37DA,,5.39,見其他登記事項,鋼筋混凝土造,105年2月4日,三層,
RPXNMLOJPHLFFAW77CA,,74.09,見其他登記事項,鋼筋混凝土造,105年4月1日,三層,一層
RPXNMLOJPHLFFAW77CA,,6.09,見其他登記事項,鋼筋混凝土造,105年4月1日,三層,
RPRNMLSJPHLFFAW57CA,1,86.12,見其他登記事項,鋼筋混凝土造,104年12月18日,三層,三層
RPRNMLSJPHLFFAW57CA,1,12.94,見其他登記事項,鋼筋混凝土造,104年12月18日,三層,
RPRNMLKLPHLFFAW96CA,,48.73,見其他登記事項,鋼筋混凝土造,105年5月9日,三層,一層
RPRNMLKLPHLFFAW96CA,,10.60,見其他登記事項,鋼筋混凝土造,105年5月9日,三層,
RPSNMLKLPHLFFAW07CA,,10.60,見其他登記事項,鋼筋混凝土造,105年5月9日,三層,
RPSNMLKLPHLFFAW07CA,,56.26,見其他登記事項,鋼筋混凝土造,105年5月9日,三層,二層
RPTNMLKLPHLFFAW17CA,,10.60,見其他登記事項,鋼筋混凝土造,105年5月9日,三層,
RPTNMLKLPHLFFAW17CA,,56.26,見其他登記事項,鋼筋混凝土造,105年5月9日,三層,三層
RPUNMLKLPHLFFAW27CA,,5.30,見其他登記事項,鋼筋混凝土造,105年5月9日,三層,
RPUNMLKLPHLFFAW27CA,,57.21,見其他登記事項,鋼筋混凝土造,105年5月9日,三層,二層
RPVNMLKLPHLFFAW37CA,,5.30,見其他登記事項,鋼筋混凝土造,105年5月9日,三層,
RPVNMLKLPHLFFAW37CA,,57.21,見其他登記事項,鋼筋混凝土造,105年5月9日,三層,三層
RPQNMLTKPHLFFAW67CA,1,69.38,見其他登記事項,鋼筋混凝土造,104年11月25日,八層,四層
RPQNMLTKPHLFFAW67CA,1,40.89,見其他登記事項,鋼筋混凝土造,104年11月25日,八層,
RPPNMLLKPHLFFAW76CA,1,191.44,住家用,鋼筋混凝土造,104年12月14日,三層,一層 二層 三層 見其他登記事項
RPXNMLQLPHLFFAW18CA,4,68.70,見其他登記事項,鋼筋混凝土造,101年8月9日,三層,三層
RPXNMLQLPHLFFAW18CA,4,5.44,見其他登記事項,鋼筋混凝土造,101年8月9日,三層,
RPWNMLLKPHLFFAW47CA,,89.46,見其他登記事項,鋼筋混凝土造,105年4月28日,三層,二層
RPWNMLLKPHLFFAW47CA,,5.65,見其他登記事項,鋼筋混凝土造,105年4月28日,三層,
RPPOMLLKPHLFFAW86CA,1,164.16,見其他登記事項,鋼筋混凝土造,104年5月8日,三層,一層 二層 三層
RPPNMLMKPHLFFAW86CA,1,28.64,見其他登記事項,鋼筋混凝土造,104年9月23日,七層,
RPQNMLQLPHLFFAW47CA,3,85.29,見其他登記事項,鋼筋混凝土造,102年11月20日,三層,三層
RPQNMLQLPHLFFAW47CA,3,6.57,見其他登記事項,鋼筋混凝土造,102年11月20日,三層,
RPQNMLQLPHLFFAW47CA,3,43.98,見其他登記事項,鋼筋混凝土造,102年11月20日,三層,
RPXNMLKLPHLFFAW67DA,2,186.95,住家用,鋼筋混凝土造,103年5月8日,三層,一層 二層 三層 見其他登記事項
RPTNMLTKPHLFFAW97CA,1,191.44,住家用,鋼筋混凝土造,104年12月14日,三層,一層 二層 三層 見其他登記事項
RPQNMLPJQHLFFAW27CA,,79.26,見其他登記事項,鋼筋混凝土造,104年12月1日,十層,三層
RPQNMLPJQHLFFAW27CA,,6.39,見其他登記事項,鋼筋混凝土造,104年12月1日,十層,
RPQNMLPJQHLFFAW27CA,,8.75,見其他登記事項,鋼筋混凝土造,104年12月1日,十層,
RPQNMLPJQHLFFAW27CA,,8.14,見其他登記事項,鋼筋混凝土造,104年12月1日,十層,
RPRNMLPJQHLFFAW37CA,,90.78,見其他登記事項,鋼筋混凝土造,104年12月1日,十層,一層
RPRNMLPJQHLFFAW37CA,,10.06,見其他登記事項,鋼筋混凝土造,104年12月1日,十層,
RPRNMLPJQHLFFAW37CA,,9.37,見其他登記事項,鋼筋混凝土造,104年12月1日,十層,
SPRNMLPJQHLFFAW47CA,,58.06,見其他登記事項,鋼筋混凝土造,104年12月1日,十層,一層
SPRNMLPJQHLFFAW47CA,,6.45,見其他登記事項,鋼筋混凝土造,104年12月1日,十層,
SPRNMLPJQHLFFAW47CA,,5.99,見其他登記事項,鋼筋混凝土造,104年12月1日,十層,
RPPNMLQLPHLFFAW37CA,,92.35,見其他登記事項,鋼筋混凝土造,105年4月19日,三層,二層
RPPNMLQLPHLFFAW37CA,,6.12,見其他登記事項,鋼筋混凝土造,105年4月19日,三層,
RPSNMLLLPHLFFAW17CA,1,191.44,住家用,鋼筋混凝土造,104年12月14日,三層,一層 二層 三層 見其他登記事項
RPTNMLNJQHLFFAW37CA,1,178.05,住家用,鋼筋混凝土造,104年9月18日,三層,一層 二層 三層 屋頂突出物
RPVNMLRLPHLFFAW08CA,1,41.29,見其他登記事項,鋼筋混凝土造,104年11月25日,八層,二層
RPVNMLRLPHLFFAW08CA,1,24.74,見其他登記事項,鋼筋混凝土造,104年11月25日,八層,
RPTNMLQLPHLFFAW77CA,1,164.16,見其他登記事項,鋼筋混凝土造,104年5月8日,三層,一層 二層 三層
RPUNMLQLPHLFFAW87CA,1,95.76,見其他登記事項,鋼筋混凝土造,104年7月21日,三層,三層
RPUNMLQLPHLFFAW87CA,1,48.75,見其他登記事項,鋼筋混凝土造,104年7月21日,三層,
RPWNMLQLPHLFFAW08CA,,61.56,見其他登記事項,鋼筋混凝土造,105年3月10日,三層,一層
RPWNMLQLPHLFFAW08CA,,11.04,見其他登記事項,鋼筋混凝土造,105年3月10日,三層,
RPPOMLRLPHLFFAW57CA,1,191.44,住家用,鋼筋混凝土造,104年12月14日,三層,一層 二層 三層 見其他登記事項
RPOOMLLJQHLFFAW76CA,1,65.18,見其他登記事項,鋼筋混凝土造,104年4月28日,三層,二層
RPOOMLLJQHLFFAW76CA,1,5.42,見其他登記事項,鋼筋混凝土造,104年4月28日,三層,
RPTNMLRLPHLFFAW97DA,,93.70,見其他登記事項,鋼筋混凝土造,105年6月14日,三層,二層
RPTNMLRLPHLFFAW97DA,,7.98,見其他登記事項,鋼筋混凝土造,105年6月14日,三層,
RPUNMLRLPHLFFAW08DA,,187.24,見其他登記事項,鋼筋混凝土造,105年6月14日,三層,三層
RPUNMLRLPHLFFAW08DA,,15.95,見其他登記事項,鋼筋混凝土造,105年6月14日,三層,
RPTNMLRKQHLFFAW87CA,1,90.75,見其他登記事項,鋼筋混凝土造,105年1月11日,三層,二層
RPTNMLRKQHLFFAW87CA,1,10.76,見其他登記事項,鋼筋混凝土造,105年1月11日,三層,
RPRNMLLJQHLFFAW96CA,,74.09,見其他登記事項,鋼筋混凝土造,105年4月1日,三層,一層
RPRNMLLJQHLFFAW96CA,,6.13,見其他登記事項,鋼筋混凝土造,105年4月1日,三層,
RPXNMLNJQHLFFAW77CA,17,208.37,見其他登記事項,鋼筋混凝土造,88年7月30日,三層,一層 二層 三層 屋頂突出物
RPPNMLLJQHLFFAW76CA,,83.44,見其他登記事項,鋼筋混凝土造,105年4月1日,三層,三層
RPPNMLLJQHLFFAW76CA,,6.36,見其他登記事項,鋼筋混凝土造,105年4月1日,三層,
RPWNMLLJQHLFFAW57DA,1,93.12,見其他登記事項,鋼筋混凝土造,104年12月10日,三層,三層
RPWNMLLJQHLFFAW57DA,1,5.02,見其他登記事項,鋼筋混凝土造,104年12月10日,三層,
RPXNMLLJQHLFFAW67DA,1,94.56,見其他登記事項,鋼筋混凝土造,104年12月10日,三層,三層
RPXNMLLJQHLFFAW67DA,1,5.02,見其他登記事項,鋼筋混凝土造,104年12月10日,三層,
RPQNMLMJQHLFFAW07DA,,91.74,見其他登記事項,鋼筋混凝土造,105年6月14日,三層,二層
RPQNMLMJQHLFFAW07DA,,7.98,見其他登記事項,鋼筋混凝土造,105年6月14日,三層,
