編號,土地區段位置,土地移轉面積平方公尺,使用分區或編定
RPOQMLNJKHLFFBC27CA,深美段,20.89,都市：住
RPOQMLNJKHLFFBC27CA,深美段,.01,都市：住
RPTQMLNJKHLFFBC77CA,深澳坑段槓子寮小段,151.74,都市：住
RPSOMLQKKHLFFBC87CA,中濱段,35.26,都市：住
RPSNMLOLKHLFFBC67CA,調和段,22.13,都市：住
RPTOMLLJLHLFFBC47CA,調和段,.04,都市：住
RPTOMLLJLHLFFBC47CA,調和段,.66,都市：住
RPTOMLLJLHLFFBC47CA,調和段,26.02,都市：住
RPTOMLLJLHLFFBC47CA,調和段,5.78,都市：住
RPTOMLLJLHLFFBC47CA,調和段,.06,都市：住
RPTOMLLJLHLFFBC47CA,調和段,.04,都市：住
RPTOMLLJLHLFFBC47CA,調和段,6.07,都市：住
RPTOMLLJLHLFFBC47CA,調和段,.20,都市：住
RPTOMLLJLHLFFBC47CA,調和段,2.85,都市：住
RPROMLMJKHLFFCC37CA,安國段,46.65,都市：住
RPROMLMJKHLFFCC37CA,安國段,7.80,都市：其他
RPROMLMJKHLFFCC37CA,安國段,.40,都市：其他
RPQNMLNJKHLFFCC27CA,德育段,12.96,都市：住
RPPNMLOJKHLFFCC27CA,安國段,26.31,都市：住
RPRNMLOJKHLFFCC47CA,安國段,31.38,都市：住
RPQNMLPKKHLFFCC57CA,新城段,4.80,都市：其他
RPQNMLPJKHLFFCC47CA,新城段,32.42,都市：其他
RPTOMLSKKHLFFCC28CA,長安段,37.48,非都市：鄉村區 ; 非都市編定：乙種建築用地
RPWNMLMLKHLFFCC97CA,大華段,32.75,都市：住
RPQNMLPLKHLFFCC67CA,新城段,14.98,都市：住
RPQNMLPLKHLFFCC67CA,新城段,.05,都市：其他
RPQNMLPLKHLFFCC67CA,新城段,.38,都市：其他
RPPOMLLJKHLFFBC07DA,長潭段,2.13,都市：住
RPPOMLLJKHLFFBC07DA,長潭段,21.28,都市：住
RPVNMLNJKHLFFBC87EA,調和段,.66,都市：住
RPVNMLNJKHLFFBC87EA,調和段,.04,都市：住
RPVNMLNJKHLFFBC87EA,調和段,32.99,都市：住
RPVNMLNJKHLFFBC87EA,調和段,7.33,都市：住
RPVNMLNJKHLFFBC87EA,調和段,.06,都市：住
RPVNMLNJKHLFFBC87EA,調和段,.04,都市：住
RPVNMLNJKHLFFBC87EA,調和段,7.70,都市：住
RPVNMLNJKHLFFBC87EA,調和段,.20,都市：住
RPVNMLNJKHLFFBC87EA,調和段,3.61,都市：住
RPRNMLNJKHLFFCC57EA,金華段,12.51,都市：住
RPQOMLLJKHLFFCC27DA,新會段,20.06,都市：住
RPQOMLLJKHLFFCC27DA,新會段,2.09,都市：其他
RPQOMLLJKHLFFCC27DA,新會段,.91,都市：其他
RPQOMLLJKHLFFCC27DA,新會段,.01,都市：其他
RPVNMLNJKHLFFCC87DA,代天府段,.84,都市：住
RPVNMLNJKHLFFCC87DA,代天府段,25.61,都市：住
RPVNMLNJKHLFFCC87DA,代天府段,.07,都市：住
RPQNMLMLKHLFFBC37DA,調和段,22.13,都市：住
RPUNMLMLKHLFFCC77CA,台五線段,.84,都市：其他
RPUNMLMLKHLFFCC77CA,台五線段,3.04,都市：其他
RPUNMLMLKHLFFCC77CA,台五線段,1.59,都市：其他
RPVNMLMLKHLFFCC87CA,舊站段,22.93,都市：商
RPUOMLOLKHLFFCC08CA,源遠段,20.84,都市：住
RPVOMLOLKHLFFCC18CA,暖暖段東勢坑小段,17.26,都市：住
RPVOMLOLKHLFFCC18CA,暖暖段東勢坑小段,17.26,都市：住
RPPNMLPLKHLFFCC57CA,大華段,.23,都市：住
RPQNMLRLKHLFFCC87CA,五堵段五堵北小段,39.27,都市：住
RPRNMLLJLHLFFCC27CA,金華段,7.51,都市：住
RPPNMLPKKHLFFCC47CA,過港段,61.08,都市：住
RPPNMLPKKHLFFCC47CA,過港段,4.74,都市：住
RPPNMLPKKHLFFCC47CA,過港段,8.23,都市：住
RPWNMLPKKHLFFCC18CA,武嶺段,13.93,都市：住
RPRNMLOLKHLFFBC57CA,福祿段,20.11,都市：住
RPPNMLLJLHLFFBC96CA,深美段,28.21,都市：住
RPPNMLLJLHLFFBC96CA,深美段,4.37,都市：住
RPQNMLLJLHLFFBC07CA,深美段,28.21,都市：住
RPQNMLLJLHLFFBC07CA,深美段,4.37,都市：住
RPQNMLRKKHLFFBC67CA,福祿段,21.77,都市：住
RPQNMLRKKHLFFBC67CA,福祿段,.05,都市：其他
RPQNMLRKKHLFFBC67CA,福祿段,.00,都市：其他
RPQNMLRKKHLFFBC67CA,福祿段,.00,都市：其他
RPQNMLRKKHLFFBC67CA,福祿段,.04,都市：其他
RPQNMLRKKHLFFBC67CA,福祿段,.00,都市：其他
RPRNMLMLKHLFFBC37CA,長潭段,2.13,都市：住
RPRNMLMLKHLFFBC37CA,長潭段,21.28,都市：住
RPUQMLNJKHLFFBC87CA,長潭段,31.04,都市：住
RPPQMLNJKHLFFBC37CA,長潭段,2.13,都市：住
RPPQMLNJKHLFFBC37CA,長潭段,21.28,都市：住
RPPOMLNJKHLFFBC17CA,中央段四小段,14.14,都市：商
RPPOMLNJKHLFFBC17CA,中央段四小段,.76,都市：商
RPQNMLPKKHLFFBC47CA,培德段,6.43,都市：住
RPPNMLQKKHLFFBC47CA,調和段,23.41,都市：其他
RPPNMLQKKHLFFBC47CA,調和段,.01,都市：其他
RPPNMLQKKHLFFBC47CA,調和段,.01,都市：住
RPWNMLOJKHLFFBC87CA,調和段,200.71,都市：住
RPWNMLOJKHLFFBC87CA,調和段,.70,都市：住
RPWNMLOJKHLFFBC87CA,調和段,.27,都市：住
RPWNMLOJKHLFFBC87CA,調和段,.94,都市：住
RPWNMLOJKHLFFBC87CA,調和段,1.22,都市：商
RPPNMLPKKHLFFBC37CA,深澳段,.24,都市：住
RPRNMLLJLHLFFBC17CA,深美段,36.10,都市：住
RPTNMLLJLHLFFBC37CA,深美段,36.10,都市：住
RPUNMLLJLHLFFBC47CA,深美段,36.98,都市：住
RPVNMLLJLHLFFBC57CA,深美段,36.98,都市：住
RPWNMLLJLHLFFBC67CA,深美段,37.86,都市：住
RPXNMLLJLHLFFBC77CA,深美段,37.86,都市：住
RPOOMLLJLHLFFBC96CA,深美段,37.86,都市：住
RPPOMLLJLHLFFBC07CA,深美段,38.30,都市：住
RPQOMLLJLHLFFBC17CA,深美段,38.30,都市：住
RPROMLLJLHLFFBC27CA,深美段,38.30,都市：住
RPSOMLSKKHLFFCC18CA,五堵段五堵北小段,39.66,都市：商
SPSOMLSKKHLFFCC28CA,五堵段五堵北小段,9.22,都市：商
RPRNMLOJKHLFFBC47DA,福祿段,11.67,都市：住
RPRNMLOJKHLFFBC47DA,福祿段,1.35,都市：其他
RPRNMLOJKHLFFBC47DA,福祿段,.07,都市：住
RPRNMLOJKHLFFBC47DA,福祿段,5.04,都市：住
RPRNMLOJKHLFFBC47DA,福祿段,.29,都市：其他
RPRNMLOJKHLFFBC47DA,福祿段,.00,都市：住
RPRNMLOJKHLFFBC47DA,福祿段,.13,都市：其他
RPRNMLOJKHLFFBC47DA,福祿段,59.28,都市：住
RPRNMLOJKHLFFBC47DA,福祿段,.02,都市：其他
RPRNMLOJKHLFFBC47DA,福祿段,.11,都市：其他
RPRNMLOJKHLFFBC47DA,福祿段,.05,都市：其他
RPRNMLOJKHLFFBC47DA,福祿段,.49,都市：其他
RPRNMLOJKHLFFBC47DA,福祿段,.09,都市：其他
RPRNMLOJKHLFFBC47DA,福祿段,.03,都市：住
RPRNMLQKKHLFFCC77CA,暖暖段東勢坑小段,33.02,都市：住
RPSNMLQKKHLFFCC87CA,暖暖段暖暖小段,38.19,都市：住
RPSNMLQKKHLFFCC87CA,暖暖段暖暖小段,7.67,都市：住
RPSNMLRKKHLFFCC97CA,觀音段,36.00,都市：住
RPPNMLPJKHLFFCC37CA,榮華段,42.00,都市：住
RPPNMLPJKHLFFCC37CA,榮華段,22.00,都市：其他
RPVOMLQKKHLFFBC18CA,中濱段,17.63,都市：住
RPWOMLQKKHLFFBC28CA,中濱段,32.45,都市：住
RPXOMLQKKHLFFBC38CA,中濱段,32.45,都市：住
RPQOMLRKKHLFFBC77CA,延平段,2.21,都市：商
RPQOMLRKKHLFFBC77CA,延平段,.01,都市：商
RPQNMLSKKHLFFBC77CA,調和段,3.29,都市：住
RPRNMLPKKHLFFBC57CA,長潭段,1.37,都市：住
RPRNMLPKKHLFFBC57CA,長潭段,13.66,都市：住
RPSNMLPKKHLFFBC67CA,東信段一小段,27.60,都市：住
RPSNMLQKKHLFFBC77CA,培德段,24.13,都市：住
RPUNMLPJKHLFFBC77CA,德厚段,12.22,都市：商
RPTNMLTKKHLFFBC18CA,港濱段,25.58,都市：商
RPTNMLQKKHLFFCC97CA,武嶺段,18.99,都市：其他
RPTNMLMLKHLFFCC67CA,榮華段,14.00,都市：住
RPXNMLMLKHLFFCC08CA,源遠段,28.67,都市：住
RPPNMLTKKHLFFCC87CA,保定段,.01,都市：其他
RPPNMLTKKHLFFCC87CA,保定段,18.31,都市：住
RPPNMLTKKHLFFCC87CA,保定段,.20,都市：其他
RPPNMLTKKHLFFCC87CA,保定段,.25,都市：其他
RPPNMLTKKHLFFCC87CA,保定段,13.50,都市：其他
RPPOMLPLKHLFFCC67CA,麥金段,29.07,都市：住
RPPOMLPLKHLFFCC67CA,麥金段,.30,都市：其他
RPTNMLPKKHLFFBC87DA,東明段,15.00,都市：住
RPRNMLRKKHLFFBC77CA,調和段,19.14,都市：住
RPPNMLRKKHLFFBC57CA,延平段,10.55,都市：商
RPPNMLRKKHLFFBC57CA,延平段,11.86,都市：住
RPQNMLQKKHLFFBC57CA,調和段,13.58,都市：住
RPQNMLQKKHLFFBC57CA,調和段,.00,都市：其他
RPSNMLRKKHLFFBC87CA,東明段,24.68,都市：商
RPQNMLTKKHLFFBC87CA,福祿段,24.30,都市：住
RPQNMLPLKHLFFBC57CA,中央段二小段,.02,都市：商
RPQNMLPLKHLFFBC57CA,中央段二小段,.16,都市：商
RPQNMLPLKHLFFBC57CA,中央段二小段,.26,都市：商
RPQNMLPLKHLFFBC57CA,中央段二小段,3.85,都市：商
RPQNMLPLKHLFFBC57CA,中央段二小段,.02,都市：商
RPQNMLPLKHLFFBC57CA,中央段二小段,.30,都市：商
RPRNMLNJLHLFFCC47CA,太平段,18.50,都市：住
RPPNMLRKKHLFFCC67CA,源遠段,61.47,都市：住
RPPNMLRKKHLFFCC67CA,源遠段,.13,都市：住
RPQNMLRKKHLFFCC97EA,觀音段,79.00,都市：住
RPRNMLRKKHLFFCC08EA,情人湖段,25.26,都市：住
RPRNMLRKKHLFFCC08EA,情人湖段,.08,都市：其他
RPSNMLNJLHLFFCC77EA,源遠段,27.97,都市：住
RPUNMLSKKHLFFCC28CA,五堵段五堵北小段,31.84,都市：住
RPROMLSKKHLFFCC08CA,源遠段,16.99,都市：商
RPTOMLTKKHLFFCC38CA,新會段,.39,都市：住
RPTOMLTKKHLFFCC38CA,新會段,13.52,都市：其他
RPTOMLTKKHLFFCC38CA,新會段,1.00,都市：住
RPTOMLTKKHLFFCC38CA,新會段,.72,都市：住
RPVOMLTKKHLFFCC58CA,保定段,33.86,都市：住
RPVOMLTKKHLFFCC58CA,保定段,5.04,都市：其他
RPVOMLTKKHLFFCC58CA,保定段,.07,都市：其他
RPVOMLTKKHLFFCC58CA,保定段,.18,都市：其他
RPSNMLQLKHLFFCC97CA,新城段,110.20,都市：住
RPRNMLPLKHLFFCC77CA,工建段,11.31,都市：住
RPPNMLNKLHLFFCC37CA,麥金段,21.41,都市：住
RPPNMLNKLHLFFCC37CA,麥金段,.63,都市：住
RPPNMLNKLHLFFCC37CA,麥金段,.68,都市：住
RPSNMLSKKHLFFBC97CA,德厚段,23.86,都市：住
RPSNMLSKKHLFFBC97CA,德厚段,.03,都市：住
RPPNMLPJLHLFFBC37CA,深澳段,17.45,都市：住
RPWNMLRJLHLFFBC28CA,長潭段,.55,都市：住
RPWNMLRJLHLFFBC28CA,長潭段,5.52,都市：住
RPXNMLRJLHLFFBC38CA,東明段,79.00,都市：住
RPPNMLTKKHLFFBC77CA,港濱段,30.25,都市：住
RPUNMLTKKHLFFBC28CA,深澳段,26.88,都市：住
RPPNMLNLKHLFFBC27CA,深美段,7.67,都市：住
RPPNMLNLKHLFFBC27CA,深美段,.04,都市：住
RPPNMLNLKHLFFBC27CA,深美段,.40,都市：住
RPPNMLNLKHLFFBC27CA,祥豐段,.07,都市：住
RPRNMLNKLHLFFCC57CA,五堵段五堵北小段,34.61,都市：住
RPSNMLNKLHLFFCC67CA,五堵段五堵北小段,34.61,都市：住
RPSNMLPLKHLFFCC87CA,新會段,.43,都市：住
RPSNMLPLKHLFFCC87CA,新會段,14.85,都市：其他
RPSNMLPLKHLFFCC87CA,新會段,1.10,都市：住
RPSNMLPLKHLFFCC87CA,新會段,.80,都市：住
RPUNMLQLKHLFFCC18CA,保定段,14.00,都市：住
RPPNMLRLKHLFFCC77CA,源遠段,28.16,都市：住
RPPPMLTKKHLFFCC08CA,代天府段,.97,都市：住
RPPPMLTKKHLFFCC08CA,代天府段,45.14,都市：住
RPQNMLTKKHLFFCC97CA,新會段,13.71,都市：住
RPRNMLTKKHLFFCC08CA,源遠段,45.81,都市：住
RPQNMLMLKHLFFCC37CA,武嶺段,18.60,都市：住
RPQNMLMLKHLFFCC37CA,武嶺段,15.05,都市：住
RPQNMLMLKHLFFCC37CA,武嶺段,2.54,都市：住
RPQNMLMLKHLFFCC37CA,武嶺段,.10,都市：其他
RPPNMLNLKHLFFCC37CA,工建段,17.82,都市：工
RPPNMLNLKHLFFCC37CA,工建段,21.54,都市：工
RPPNMLNLKHLFFCC37CA,工建段,.02,都市：工
RPPNMLNLKHLFFCC37CA,工建段,.01,都市：工
RPPNMLNLKHLFFCC37CA,工建段,.01,都市：工
RPPNMLNLKHLFFCC37CA,工建段,21.96,都市：工
RPPNMLNLKHLFFCC37CA,工建段,20.28,都市：工
RPPNMLNLKHLFFCC37CA,工建段,.01,都市：工
RPRNMLMJLHLFFCC37CA,大武崙段內寮小段,27.98,都市：住
RPQPMLOLKHLFFCC77CA,麥金段,28.59,都市：住
RPTNMLNLKHLFFBC67CA,南新段,19.40,都市：住
RPTNMLNLKHLFFBC67CA,南新段,.20,都市：其他
RPTNMLNLKHLFFBC67CA,南新段,.80,都市：住
RPSNMLMLKHLFFBC47CA,長潭段,.55,都市：住
RPSNMLMLKHLFFBC47CA,長潭段,5.52,都市：住
RPPPMLOLKHLFFCC87EA,太平段,31.33,都市：住
RPUNMLNLKHLFFBC87DA,忠義段六小段,41.00,都市：住
RPUNMLNLKHLFFBC87DA,忠義段六小段,9.00,都市：住
RPUNMLNLKHLFFBC87DA,忠義段六小段,25.00,都市：其他
RPUNMLNLKHLFFBC87DA,忠義段六小段,3.00,都市：其他
RPUNMLNLKHLFFBC87DA,忠義段六小段,10.00,都市：其他
RPUNMLNLKHLFFBC87DA,忠義段六小段,1.00,都市：其他
RPPNMLOLKHLFFBC37CA,調和段,10.18,都市：其他
RPPNMLOLKHLFFBC37CA,調和段,.01,都市：其他
RPPNMLOLKHLFFBC37CA,調和段,.00,都市：住
RPUNMLOLKHLFFBC87CA,港濱段,30.60,都市：住
RPVNMLOLKHLFFBC97CA,和平段,28.75,都市：住
RPQNMLKKLHLFFBC07CA,深美段,45.78,都市：住
RPQNMLKKLHLFFBC07CA,深美段,43.40,都市：住
RPQNMLKKLHLFFBC07CA,深美段,24.19,都市：住
RPQNMLKKLHLFFBC07CA,深美段,27.15,都市：住
RPPOMLNLLHLFFBC47CA,東信段二小段,16.60,都市：住
RPPOMLNLLHLFFBC47CA,東信段二小段,9.40,都市：住
RPXOMLOLKHLFFCC38CA,舊站段,32.25,都市：商
RPOPMLOLKHLFFCC57CA,新城段,19.25,都市：住
RPOPMLOLKHLFFCC57CA,新城段,1.72,都市：其他
RPUNMLPLKHLFFCC08CA,過港段,16.08,都市：住
RPPNMLQLKHLFFCC67CA,明德段,41.53,都市：住
RPPNMLQLKHLFFCC67CA,明德段,1.35,都市：其他
RPPNMLQLKHLFFCC67CA,明德段,.62,都市：其他
RPRNMLNLKHLFFCC57CA,新會段,1.35,都市：住
RPRNMLNLKHLFFCC57CA,新會段,1.04,都市：住
RPRNMLNLKHLFFCC57CA,新會段,29.53,都市：住
RPQOMLPLKHLFFCC77CA,大武崙段內寮小段,23.00,都市：住
RPVNMLPLKHLFFCC18CA,觀音段,21.90,都市：住
RPWOMLOLKHLFFCC28CA,源遠段,28.44,都市：住
RPOOMLPLKHLFFCC57CA,安國段,25.20,都市：住
RPPNMLPJLHLFFCC47CA,大華段,5.23,都市：住
RPPNMLPJLHLFFCC47CA,大華段,10.62,都市：住
RPPNMLPJLHLFFCC47CA,大華段,.92,都市：住
RPXNMLMLLHLFFCC18CA,源遠段,.25,都市：商
RPXNMLMLLHLFFCC18CA,源遠段,35.07,都市：住
RPOOMLNLLHLFFBC37CA,延年段,33.00,都市：住
RPQNMLMJLHLFFBC17CA,祥豐段,.21,都市：住
RPQNMLMJLHLFFBC17CA,深美段,23.81,都市：住
RPQNMLMJLHLFFBC17CA,深美段,.13,都市：其他
RPQNMLMJLHLFFBC17CA,深美段,1.25,都市：住
RPPNMLPKLHLFFCC77EA,觀音段,54.31,都市：住
RPPNMLPKLHLFFCC77EA,觀音段,.03,都市：住
RPPNMLPKLHLFFCC77EA,觀音段,20.40,都市：住
RPPNMLPKLHLFFCC77EA,觀音段,5.26,都市：其他
RPPNMLLJLHLFFCC27EA,台五線段,23.66,都市：其他
RPOOMLPLLHLFFCC87EA,大華段,7.28,都市：住
RPQNMLQLKHLFFBC67CA,長潭段,17.75,都市：住
RPRPMLLJLHLFFBC37CA,南新段,9.75,都市：其他
RPRPMLLJLHLFFBC37CA,南新段,35.50,都市：住
RPTNMLQLKHLFFBC97CA,中濱段,14.56,都市：住
RPUOMLLJLHLFFBC57CA,福祿段,35.97,都市：住
RPOOMLRJLHLFFBC57CA,長潭段,.55,都市：住
RPOOMLRJLHLFFBC57CA,長潭段,5.52,都市：住
RPPNMLOLLHLFFCC57CA,源遠段,22.58,都市：住
RPTNMLQLKHLFFCC08CA,新城段,160.21,都市：住
RPQNMLQLKHLFFCC77CA,新會段,5.81,都市：住
RPQNMLQLKHLFFCC77CA,新會段,.61,都市：其他
RPQNMLQLKHLFFCC77CA,新會段,1.67,都市：其他
RPQNMLQLKHLFFCC77CA,新會段,.18,都市：住
RPQNMLQLKHLFFCC77CA,新會段,3.81,都市：住
RPXNMLPLKHLFFCC38CA,觀音段,24.70,都市：住
RPPNMLTLKHLFFCC97CA,麥金段,16.83,都市：住
RPPNMLTLKHLFFCC97CA,麥金段,.17,都市：其他
RPXNMLMJLHLFFCC97CA,舊站段,22.93,都市：商
RPPNMLRJLHLFFCC67CA,代天府段,7.68,都市：住
RPPNMLRJLHLFFCC67CA,代天府段,126.99,都市：住
RPPNMLRJLHLFFCC67CA,代天府段,1.83,都市：住
RPPNMLRJLHLFFCC67CA,代天府段,6.19,都市：住
RPPNMLRJLHLFFCC67CA,代天府段,1.87,都市：住
RPPNMLRJLHLFFCC67CA,代天府段,6.09,都市：住
RPPNMLRJLHLFFCC67CA,代天府段,2.93,都市：住
RPPNMLRJLHLFFCC67CA,代天府段,5.04,都市：住
RPPNMLRJLHLFFCC67CA,代天府段,3.95,都市：住
RPSNMLSJLHLFFCC08CA,五堵段五堵北小段,38.86,都市：住
RPQNMLQJLHLFFBC57CA,福祿段,14.69,都市：住
RPQNMLQJLHLFFBC57CA,福祿段,1.70,都市：其他
RPQNMLQJLHLFFBC57CA,福祿段,.08,都市：住
RPQNMLQJLHLFFBC57CA,福祿段,6.35,都市：住
RPQNMLQJLHLFFBC57CA,福祿段,.36,都市：其他
RPQNMLQJLHLFFBC57CA,福祿段,.00,都市：住
RPQNMLQJLHLFFBC57CA,福祿段,.16,都市：其他
RPQNMLQJLHLFFBC57CA,福祿段,74.65,都市：住
RPQNMLQJLHLFFBC57CA,福祿段,.02,都市：其他
RPQNMLQJLHLFFBC57CA,福祿段,.13,都市：其他
RPQNMLQJLHLFFBC57CA,福祿段,.06,都市：其他
RPQNMLQJLHLFFBC57CA,福祿段,.62,都市：其他
RPQNMLQJLHLFFBC57CA,福祿段,.12,都市：其他
RPQNMLQJLHLFFBC57CA,福祿段,.03,都市：住
RPQNMLOKLHLFFBC47CA,深澳坑段槓子寮小段,122.24,都市：住
RPPNMLMLLHLFFBC27CA,成功段,37.00,都市：住
RPOOMLOKLHLFFBC37CA,港灣段二小段,7.51,都市：商
RPQOMLOKLHLFFBC57CA,東明段,37.75,都市：住
RPSNMLOKLHLFFBC67CA,長潭段,.00,都市：其他
RPSNMLOKLHLFFBC67CA,長潭段,.00,都市：其他
RPSNMLOKLHLFFBC67CA,長潭段,.01,都市：其他
RPSNMLOKLHLFFBC67CA,長潭段,31.87,都市：商
RPTNMLOKLHLFFBC77CA,長潭段,.00,都市：商
RPTNMLOKLHLFFBC77CA,長潭段,36.51,都市：其他
RPTNMLOKLHLFFBC77CA,長潭段,.00,都市：其他
RPTNMLOKLHLFFBC77CA,長潭段,.01,都市：其他
RPPNMLMJLHLFFBC07CA,長潭段,14.20,都市：住
RPSNMLMJLHLFFBC37CA,成功段,.96,都市：商
RPSNMLMJLHLFFBC37CA,成功段,.00,都市：其他
RPSNMLMJLHLFFBC37CA,成功段,.00,都市：其他
RPSNMLMJLHLFFBC37CA,成功段,1.68,都市：住
RPSNMLMJLHLFFBC37CA,成功段,1.93,都市：住
RPSNMLMJLHLFFBC37CA,成功段,22.82,都市：住
RPSNMLMJLHLFFBC37CA,成功段,.04,都市：其他
RPSNMLMJLHLFFBC37CA,成功段,2.07,都市：住
RPSNMLQLKHLFFBC87CA,港濱段,30.60,都市：住
RPQNMLNKLHLFFCC47CA,瑪陵坑段西勢面桶寮小段,150.00,非都市：山坡地保育區 ; 非都市編定：農牧用地
RPQNMLNKLHLFFCC47CA,瑪陵坑段西勢面桶寮小段,150.00,非都市：山坡地保育區 ; 非都市編定：農牧用地
RPQNMLNKLHLFFCC47CA,瑪陵坑段西勢面桶寮小段,558.00,非都市：山坡地保育區 ; 非都市編定：農牧用地
RPQNMLNKLHLFFCC47CA,瑪陵坑段西勢面桶寮小段,689.00,非都市：山坡地保育區 ; 非都市編定：農牧用地
RPQNMLNKLHLFFCC47CA,瑪陵坑段西勢面桶寮小段,262.00,非都市：山坡地保育區 ; 非都市編定：農牧用地
RPUNMLMLLHLFFCC87CA,代天府段,.84,都市：住
RPUNMLMLLHLFFCC87CA,代天府段,23.14,都市：住
RPUNMLMLLHLFFCC87CA,代天府段,.02,都市：其他
RPTNMLMJLHLFFCC57CA,大華段,12.60,都市：商
RPTNMLMJLHLFFCC57CA,大華段,9.40,都市：住
RPTNMLMJLHLFFCC57CA,大華段,20.40,都市：住
RPUNMLMJLHLFFCC67CA,新城段,1.59,都市：其他
RPUNMLMJLHLFFCC67CA,新城段,.01,都市：其他
RPUNMLMJLHLFFCC67CA,新城段,3.20,都市：住
RPUNMLMJLHLFFCC67CA,新城段,.02,都市：其他
RPUNMLMJLHLFFCC67CA,新城段,11.13,都市：住
RPUNMLMJLHLFFCC67CA,新城段,.67,都市：其他
RPUNMLMJLHLFFCC67CA,新城段,.06,都市：其他
RPQNMLMJLHLFFCC27CA,源遠段,16.68,都市：住
RPTNMLNJLHLFFCC67CA,安國段,28.57,都市：其他
RPUNMLNJLHLFFCC77CA,武嶺段,30.95,都市：住
RPVNMLNJLHLFFCC87CA,武嶺段,.05,都市：住
RPRNMLOJLHLFFCC57CA,暖暖段暖暖小段,47.33,都市：住
RPPNMLTJLHLFFCC87CA,武嶺段,18.91,都市：住
RPTNMLMJLHLFFBC47CA,南新段,40.50,都市：住
RPRNMLOJLHLFFBC47CA,深澳段,26.41,都市：住
RPPNMLQJLHLFFBC47CA,深澳段,24.53,都市：住
RPTNMLMLLHLFFCC97EA,保定段,3.00,都市：住
RPPNMLMJLHLFFCC37EA,協和段,29.80,都市：住
RPRNMLLMLHLFFBC57DA,成功段,62.00,都市：商
RPVNMLRJLHLFFBC18CA,調和段,15.48,都市：住
RPRNMLRJLHLFFBC77CA,調和段,.00,都市：住
RPRNMLRJLHLFFBC77CA,調和段,.00,都市：其他
RPRNMLRJLHLFFBC77CA,調和段,16.62,都市：其他
RPRNMLRJLHLFFBC77CA,調和段,.01,都市：其他
RPRNMLRJLHLFFBC77CA,調和段,.00,都市：住
RPQNMLPJLHLFFBC47CA,福祿段,37.33,都市：其他
RPRNMLPJLHLFFBC57CA,長潭段,26.00,都市：住
RPRNMLPJLHLFFBC57CA,長潭段,.27,都市：住
RPROMLOKLHLFFBC67CA,中濱段,16.86,都市：住
RPSOMLOKLHLFFBC77CA,中濱段,15.07,都市：住
RPTOMLOKLHLFFBC87CA,中濱段,16.10,都市：住
RPPNMLNJLHLFFBC17CA,長潭段,1.37,都市：住
RPPNMLNJLHLFFBC17CA,長潭段,13.66,都市：住
RPQNMLNJLHLFFBC27CA,深美段,.03,都市：其他
RPQNMLNJLHLFFBC27CA,深美段,25.45,都市：其他
RPQNMLTJLHLFFCC97CA,源遠段,20.60,都市：住
RPPNMLLKLHLFFCC17CA,大華段,29.60,都市：商
RPQOMLMLLHLFFCC57CA,麥金段,28.37,都市：住
RPQOMLMLLHLFFCC57CA,麥金段,.82,都市：其他
RPRNMLKLLHLFFCC37CA,源遠段,32.76,都市：住
RPTNMLLMLHLFFCC77CA,新城段,3.10,都市：住
RPTNMLLMLHLFFCC77CA,新城段,42.56,都市：住
RPTNMLLMLHLFFCC77CA,新城段,98.46,都市：住
RPUNMLLMLHLFFCC87CA,新城段,3.10,都市：住
RPUNMLLMLHLFFCC87CA,新城段,42.56,都市：住
RPUNMLLMLHLFFCC87CA,新城段,98.46,都市：住
RPWNMLMLLHLFFCC08CA,源遠段,16.97,都市：住
RPPNMLKKLHLFFCC07CA,源遠段,13.78,都市：商
RPRNMLSJLHLFFCC97CA,德育段,28.00,都市：住
RPQNMLRJLHLFFCC77CA,友蚋段港口小段,180.00,非都市：山坡地保育區 ; 非都市編定：丙種建築用地
RPWNMLNJLHLFFCC97CA,代天府段,.84,都市：住
RPWNMLNJLHLFFCC97CA,代天府段,20.47,都市：住
RPWNMLNJLHLFFCC97CA,代天府段,.02,都市：其他
RPPNMLOJLHLFFCC37CA,五堵段五堵北小段,46.41,都市：住
RPUNMLOKLHLFFBC87CA,長潭段,.00,都市：其他
RPUNMLOKLHLFFBC87CA,長潭段,.00,都市：其他
RPUNMLOKLHLFFBC87CA,長潭段,.01,都市：其他
RPUNMLOKLHLFFBC87CA,長潭段,26.22,都市：商
RPSNMLPJLHLFFBC67CA,深澳段,19.81,都市：住
RPTNMLOJLHLFFBC67CA,延年段,20.00,都市：住
RPSNMLRJLHLFFBC87CA,光明段,58.00,都市：住
RPSNMLRJLHLFFBC87CA,光明段,10.00,都市：住
RPTNMLRJLHLFFBC97CA,成功段,103.00,都市：住
RPSNMLKKLHLFFBC27CA,日新段五小段,11.60,都市：商
RPQNMLLKLHLFFBC17CA,福祿段,48.00,都市：商
RPPNMLLLLHLFFBC17CA,長潭段,.55,都市：住
RPPNMLLLLHLFFBC17CA,長潭段,5.52,都市：住
RPRNMLRJLHLFFCC87CA,大華段,3.82,都市：商
RPSNMLRJLHLFFCC97CA,五堵段五堵北小段,29.17,都市：住
RPSNMLOJLHLFFCC67CA,大武崙段內寮小段,15.30,都市：其他
RPSNMLOJLHLFFCC67CA,大武崙段內寮小段,1.37,都市：住
RPUNMLSJLHLFFCC28CA,德安段,21.04,都市：住
RPPNMLMLLHLFFCC37CA,代天府段,.97,都市：住
RPPNMLMLLHLFFCC37CA,代天府段,24.81,都市：住
RPPNMLTKLHLFFCC97CA,五堵段五堵北小段,34.61,都市：住
RPWNMLOLLHLFFCC28CA,溪頭段,261.32,都市：住
RPWNMLOLLHLFFCC28CA,溪頭段,1.88,都市：住
RPWNMLOLLHLFFCC28CA,溪頭段,2310.74,都市：住
RPWNMLOLLHLFFCC28CA,溪頭段,1814.57,都市：住
RPWNMLOLLHLFFCC28CA,溪頭段,2444.30,都市：住
RPWNMLOLLHLFFCC28CA,溪頭段,1245.61,都市：住
RPTNMLPLLHLFFCC08CA,新城段,.38,都市：其他
RPTNMLPLLHLFFCC08CA,新城段,12.44,都市：住
RPTNMLPLLHLFFCC08CA,新城段,3.45,都市：住
RPTNMLPLLHLFFCC08CA,新城段,.09,都市：其他
RPTNMLPLLHLFFCC08CA,新城段,32.71,都市：住
RPTNMLPLLHLFFCC08CA,新城段,.01,都市：其他
RPTNMLPLLHLFFCC08CA,新城段,.16,都市：其他
RPTNMLPLLHLFFCC08CA,新城段,.04,都市：其他
RPTNMLPLLHLFFCC08CA,新城段,.52,都市：其他
RPQNMLSJLHLFFBC87DA,延年段,132.00,都市：商
RPQNMLSJLHLFFBC87DA,延年段,3.00,都市：其他
RPOSMLKMLHLFFCC67CA,代天府段,22.84,都市：住
RPOSMLKMLHLFFCC67CA,代天府段,.84,都市：住
RPQNMLSKLHLFFCC97CA,源遠段,61.47,都市：住
RPQNMLSKLHLFFCC97CA,源遠段,.13,都市：住
RPUNMLNLLHLFFCC97CA,工建段,70.95,都市：工
RPUNMLNLLHLFFCC97CA,工建段,.85,都市：工
RPRNMLKKLHLFFCC27CA,武嶺段,10.46,都市：住
RPRNMLKKLHLFFCC27CA,武嶺段,15.72,都市：住
RPTNMLSJLHLFFCC18CA,源遠段,13.83,都市：住
RPTNMLRJLHLFFCC08CA,麥金段,13.35,都市：住
RPTNMLRJLHLFFCC08CA,麥金段,.51,都市：住
RPTNMLRJLHLFFCC08CA,麥金段,.30,都市：住
RPTNMLRJLHLFFCC08CA,麥金段,.27,都市：其他
RPTNMLRJLHLFFCC08CA,麥金段,.03,都市：住
RPTNMLRJLHLFFCC08CA,麥金段,.01,都市：住
RPTNMLRJLHLFFCC08CA,麥金段,.00,都市：住
RPTNMLRJLHLFFCC08CA,麥金段,.00,都市：住
RPPNMLOKLHLFFBC37CA,調和段,10.56,都市：住
RPSNMLSJLHLFFBC97CA,日新段七小段,63.00,都市：住
RPPOMLRJLHLFFBC67CA,長潭段,14.20,都市：住
RPPNMLTJLHLFFBC77CA,深澳坑段槓子寮小段,136.30,都市：住
RPRNMLTJLHLFFBC97CA,長潭段,384.00,都市：住
RPRNMLTJLHLFFBC97CA,長潭段,1042.00,都市：住
RPRNMLTJLHLFFBC97CA,長潭段,239.00,都市：住
RPRNMLTJLHLFFBC97CA,長潭段,48.00,都市：住
RPPNMLKKLHLFFBC96CA,調和段,.00,都市：其他
RPPNMLKKLHLFFBC96CA,調和段,22.06,都市：住
RPRNMLOKLHLFFBC57CA,和平段,36.00,都市：住
RPRNMLOKLHLFFBC57CA,和平段,10.00,都市：住
RPRNMLKKLHLFFBC17CA,長潭段,2.15,都市：住
RPRNMLKKLHLFFBC17CA,長潭段,21.54,都市：住
RPRNMLTJLHLFFCC08CA,源遠段,15.72,都市：住
RPUNMLPKLHLFFCC08CA,武嶺段,33.84,都市：其他
RPVPMLKMLHLFFCC08CA,源遠段,14.07,都市：住
SPVPMLKMLHLFFCC18CA,源遠段,25.45,都市：住
RPRQMLKMLHLFFCC77CA,源遠段,25.41,都市：住
RPVQMLKMLHLFFCC18CA,源遠段,25.45,都市：住
RPRRMLKMLHLFFCC87CA,源遠段,19.81,都市：住
RPSRMLKMLHLFFCC97CA,源遠段,19.81,都市：住
RPTRMLKMLHLFFCC08CA,源遠段,19.81,都市：住
RPURMLKMLHLFFCC18CA,源遠段,19.81,都市：住
RPVRMLKMLHLFFCC28CA,源遠段,19.81,都市：住
RPXVMLTLLHLFFCC07CA,源遠段,19.15,都市：住
RPOWMLTLLHLFFCC88CA,源遠段,19.15,都市：住
RPRWMLTLLHLFFCC56CA,源遠段,26.11,都市：住
RPTWMLTLLHLFFCC76CA,源遠段,26.01,都市：住
RPVWMLTLLHLFFCC96CA,源遠段,26.15,都市：住
RPONNLTLLHLFFCC08CA,源遠段,26.15,都市：住
RPTOMLKMLHLFFCC77CA,源遠段,13.62,都市：住
RPUOMLKMLHLFFCC87CA,源遠段,13.76,都市：住
RPWOMLKMLHLFFCC08CA,源遠段,13.76,都市：住
RPROMLTLLHLFFCC38CA,源遠段,19.18,都市：住
RPRVMLTLLHLFFCC09CA,源遠段,19.11,都市：住
RPTVMLTLLHLFFCC66CA,源遠段,19.11,都市：住
RPVVMLTLLHLFFCC86CA,源遠段,18.94,都市：住
RPUOMLTLLHLFFCC68CA,源遠段,19.46,都市：住
RPQNMLLLMHLFFBC57EA,新店段四小段,17.00,都市：商
RPPNMLTLLHLFFCC28EA,情人湖段,25.26,都市：住
RPPNMLTLLHLFFCC28EA,情人湖段,.08,都市：其他
RPVOMLTLLHLFFCC78CA,源遠段,19.46,都市：住
RPWOMLTLLHLFFCC88CA,源遠段,19.46,都市：住
RPXOMLTLLHLFFCC98CA,源遠段,19.46,都市：住
RPOPMLTLLHLFFCC18CA,源遠段,19.46,都市：住
RPPPMLTLLHLFFCC28CA,源遠段,18.97,都市：住
SPPPMLTLLHLFFCC38CA,源遠段,19.78,都市：住
RPQPMLTLLHLFFCC38CA,源遠段,18.97,都市：住
RPRPMLTLLHLFFCC48CA,源遠段,18.97,都市：住
RPSPMLTLLHLFFCC58CA,源遠段,18.97,都市：住
RPTPMLTLLHLFFCC68CA,源遠段,18.76,都市：住
RPUPMLTLLHLFFCC78CA,源遠段,18.76,都市：住
RPVPMLTLLHLFFCC88CA,源遠段,18.97,都市：住
SPVPMLTLLHLFFCC98CA,源遠段,18.97,都市：住
RPWPMLTLLHLFFCC98CA,源遠段,18.97,都市：住
RPXPMLTLLHLFFCC09CA,源遠段,18.97,都市：住
RPOQMLTLLHLFFCC28CA,源遠段,26.15,都市：住
RPPQMLTLLHLFFCC38CA,源遠段,26.15,都市：住
RPQQMLTLLHLFFCC48CA,源遠段,26.11,都市：住
RPRQMLTLLHLFFCC58CA,源遠段,26.11,都市：住
RPSQMLTLLHLFFCC68CA,源遠段,26.01,都市：住
RPTQMLTLLHLFFCC78CA,源遠段,26.15,都市：住
RPUQMLTLLHLFFCC88CA,源遠段,26.15,都市：住
RPVQMLTLLHLFFCC98CA,源遠段,26.15,都市：住
RPWQMLTLLHLFFCC09CA,源遠段,26.15,都市：住
RPXQMLTLLHLFFCC56CA,源遠段,26.15,都市：住
RPQRMLTLLHLFFCC58CA,源遠段,14.11,都市：住
RPRRMLTLLHLFFCC68CA,源遠段,13.76,都市：住
RPSRMLTLLHLFFCC78CA,源遠段,14.04,都市：住
RPTRMLTLLHLFFCC88CA,源遠段,14.04,都市：住
RPURMLTLLHLFFCC98CA,源遠段,13.62,都市：住
RPVRMLTLLHLFFCC09CA,源遠段,13.76,都市：住
RPWRMLTLLHLFFCC56CA,源遠段,13.76,都市：住
RPXRMLTLLHLFFCC66CA,源遠段,13.76,都市：住
RPOSMLTLLHLFFCC48CA,源遠段,14.11,都市：住
RPPSMLTLLHLFFCC58CA,源遠段,14.11,都市：住
RPWSMLTLLHLFFCC66CA,源遠段,13.26,都市：住
RPXSMLTLLHLFFCC76CA,源遠段,13.72,都市：住
SPXSMLTLLHLFFCC86CA,源遠段,25.45,都市：住
RPPTMLTLLHLFFCC68CA,源遠段,13.72,都市：住
RPRTMLTLLHLFFCC88CA,源遠段,13.72,都市：住
RPTTMLTLLHLFFCC09CA,源遠段,25.45,都市：住
RPUTMLTLLHLFFCC56CA,源遠段,25.41,都市：住
RPVTMLTLLHLFFCC66CA,源遠段,25.48,都市：住
RPWTMLTLLHLFFCC76CA,源遠段,24.88,都市：住
RPXTMLTLLHLFFCC86CA,源遠段,25.45,都市：住
RPOUMLTLLHLFFCC68CA,源遠段,25.45,都市：住
RPPUMLTLLHLFFCC78CA,源遠段,25.45,都市：住
RPQUMLTLLHLFFCC88CA,源遠段,25.45,都市：住
RPSUMLTLLHLFFCC09CA,源遠段,25.45,都市：住
RPTUMLTLLHLFFCC56CA,源遠段,19.81,都市：住
RPUUMLTLLHLFFCC66CA,源遠段,18.03,都市：住
RPVUMLTLLHLFFCC76CA,源遠段,19.81,都市：住
RPWUMLTLLHLFFCC86CA,源遠段,19.81,都市：住
RPXUMLTLLHLFFCC96CA,源遠段,19.81,都市：住
RPOVMLTLLHLFFCC78CA,源遠段,19.81,都市：住
RPPVMLTLLHLFFCC88CA,源遠段,19.15,都市：住
RPQVMLTLLHLFFCC98CA,源遠段,19.15,都市：住
RPWVMLTLLHLFFCC96CA,源遠段,19.15,都市：住
RPUVMLTLLHLFFCC76CA,源遠段,18.94,都市：住
RPSVMLTLLHLFFCC56CA,源遠段,19.11,都市：住
RPSOMLTLLHLFFCC48CA,源遠段,18.90,都市：住
RPTOMLTLLHLFFCC58CA,源遠段,19.46,都市：住
RPOOMLTLLHLFFCC08CA,源遠段,19.39,都市：住
RPPOMLTLLHLFFCC18CA,源遠段,19.36,都市：住
RPQOMLTLLHLFFCC28CA,源遠段,19.36,都市：住
RPXOMLKMLHLFFCC18CA,源遠段,14.11,都市：住
RPOPMLKMLHLFFCC37CA,源遠段,14.11,都市：住
RPPPMLKMLHLFFCC47CA,源遠段,13.72,都市：住
RPQPMLKMLHLFFCC57CA,源遠段,14.07,都市：住
RPRPMLKMLHLFFCC67CA,源遠段,14.07,都市：住
RPSPMLKMLHLFFCC77CA,源遠段,14.07,都市：住
RPTPMLKMLHLFFCC87CA,源遠段,14.07,都市：住
RPUPMLKMLHLFFCC97CA,源遠段,14.07,都市：住
RPVOMLKMLHLFFCC97CA,源遠段,13.76,都市：住
RPQOMLKMLHLFFCC47CA,源遠段,14.11,都市：住
RPROMLKMLHLFFCC57CA,源遠段,14.04,都市：住
RPSOMLKMLHLFFCC67CA,源遠段,14.04,都市：住
RPRNMLMLLHLFFCC57CA,武嶺段,20.40,都市：住
RPRNMLMLLHLFFCC57CA,武嶺段,.02,都市：住
RPRNMLMLLHLFFCC57CA,武嶺段,.19,都市：住
RPRNMLMLLHLFFCC57CA,武嶺段,.92,都市：住
RPRNMLMLLHLFFCC57CA,武嶺段,.02,都市：住
RPPNNLTLLHLFFCC18CA,源遠段,26.15,都市：住
RPWWMLTLLHLFFCC07CA,源遠段,26.15,都市：住
RPXWMLTLLHLFFCC17CA,源遠段,26.15,都市：住
RPUWMLTLLHLFFCC86CA,源遠段,26.01,都市：住
RPSWMLTLLHLFFCC66CA,源遠段,26.11,都市：住
RPPWMLTLLHLFFCC98CA,源遠段,19.15,都市：住
RPQWMLTLLHLFFCC09CA,源遠段,26.15,都市：住
RPWRMLKMLHLFFCC38CA,源遠段,19.81,都市：住
RPWQMLKMLHLFFCC28CA,源遠段,25.45,都市：住
RPXQMLKMLHLFFCC38CA,源遠段,25.45,都市：住
RPPRMLKMLHLFFCC67CA,源遠段,19.78,都市：住
RPQRMLKMLHLFFCC77CA,源遠段,19.81,都市：住
RPSQMLKMLHLFFCC87CA,源遠段,25.41,都市：住
RPTQMLKMLHLFFCC97CA,源遠段,25.48,都市：住
RPUQMLKMLHLFFCC08CA,源遠段,25.45,都市：住
RPWPMLKMLHLFFCC18CA,源遠段,14.07,都市：住
RPXPMLKMLHLFFCC28CA,源遠段,14.07,都市：住
RPOQMLKMLHLFFCC47CA,源遠段,14.07,都市：住
RPPQMLKMLHLFFCC57CA,源遠段,25.45,都市：住
RPQQMLKMLHLFFCC67CA,源遠段,25.45,都市：住
RPSSMLKMLHLFFCC08CA,源遠段,25.45,都市：住
SPSSMLKMLHLFFCC18CA,源遠段,19.81,都市：住
RPTSMLKMLHLFFCC18CA,源遠段,25.45,都市：住
SPTSMLKMLHLFFCC28CA,源遠段,19.81,都市：住
RPUSMLKMLHLFFCC28CA,源遠段,14.07,都市：住
RPVSMLKMLHLFFCC38CA,源遠段,14.07,都市：住
RPWSMLKMLHLFFCC48CA,源遠段,14.07,都市：住
RPXSMLKMLHLFFCC58CA,源遠段,14.07,都市：住
RPOTMLKMLHLFFCC77CA,源遠段,14.07,都市：住
RPPTMLKMLHLFFCC87CA,源遠段,14.07,都市：住
RPQTMLKMLHLFFCC97CA,源遠段,14.07,都市：住
RPRTMLKMLHLFFCC08CA,源遠段,14.07,都市：住
RPSTMLKMLHLFFCC18CA,源遠段,19.81,都市：住
RPTNMLLKLHLFFCC57CA,代天府段,.09,都市：住
RPTNMLLKLHLFFCC57CA,代天府段,21.64,都市：其他
RPTNMLLKLHLFFCC57CA,代天府段,.13,都市：其他
RPTNMLLKLHLFFCC57CA,代天府段,.17,都市：住
RPTNMLLKLHLFFCC57CA,代天府段,.04,都市：其他
RPTNMLLKLHLFFCC57CA,代天府段,.00,都市：住
RPOOMLMLLHLFFCC37CA,新城段,23.02,都市：住
RPQNMLLKLHLFFCC27CA,五堵段五堵北小段,37.60,都市：住
RPPOMLOKLHLFFCC57CA,源遠段,3.20,都市：住
RPQOMLOKLHLFFCC67CA,源遠段,1.60,都市：住
RPRNMLOKLHLFFCC67CA,源遠段,1.60,都市：住
RPSNMLOKLHLFFCC77CA,源遠段,1.60,都市：住
RPTNMLOKLHLFFCC87CA,源遠段,1.60,都市：住
RPUNMLOKLHLFFCC97CA,源遠段,1.60,都市：住
RPVNMLOKLHLFFCC08CA,源遠段,1.60,都市：住
RPWNMLOKLHLFFCC18CA,源遠段,3.20,都市：住
RPXNMLOKLHLFFCC28CA,源遠段,1.60,都市：住
RPVNMLOKLHLFFBC97CA,調和段,.00,都市：住
RPVNMLOKLHLFFBC97CA,調和段,.00,都市：其他
RPVNMLOKLHLFFBC97CA,調和段,16.62,都市：其他
RPVNMLOKLHLFFBC97CA,調和段,.01,都市：其他
RPVNMLOKLHLFFBC97CA,調和段,.00,都市：住
RPWNMLOKLHLFFBC08CA,長潭段,17.75,都市：住
RPXNMLOKLHLFFBC18CA,延平段,10.35,都市：商
RPXNMLOKLHLFFBC18CA,延平段,.02,都市：商
RPRNMLLKLHLFFBC27CA,中濱段,21.50,都市：住
RPPNMLPKLHLFFBC47CA,深澳段,17.45,都市：住
RPRNMLLKLHLFFCC37CA,暖暖段東勢坑小段,22.28,都市：商
RPVNMLLLLHLFFCC87CA,五堵段五堵北小段,3.74,都市：住
RPPNMLNLLHLFFCC47CA,暖暖段東勢坑小段,30.77,都市：住
RPQOMLPLLHLFFCC87CA,新會段,9.45,都市：住
RPQOMLPLLHLFFCC87CA,新會段,.99,都市：其他
RPQOMLPLLHLFFCC87CA,新會段,2.71,都市：其他
RPQOMLPLLHLFFCC87CA,新會段,.29,都市：住
RPQOMLPLLHLFFCC87CA,新會段,6.20,都市：其他
RPPNMLKMLHLFFBC27DA,深美段,319.41,都市：住
RPRNMLQKLHLFFBC87DA,光明段,50.58,都市：住
RPRNMLQKLHLFFBC87DA,光明段,2.73,都市：住
RPRNMLQKLHLFFBC87DA,光明段,21.78,都市：住
RPRNMLQKLHLFFBC87DA,光明段,26.63,都市：其他
RPRNMLQKLHLFFBC87DA,光明段,48.63,都市：住
RPRNMLQKLHLFFBC87DA,光明段,.12,都市：其他
RPRNMLQKLHLFFBC87DA,光明段,.17,都市：其他
RPRNMLQKLHLFFBC87DA,光明段,2.17,都市：住
RPQNMLQKLHLFFCC77CA,麥金段,29.46,都市：住
RPPOMLRKLHLFFCC87CA,麥金段,3.22,都市：住
RPPOMLRKLHLFFCC87CA,麥金段,.12,都市：住
RPPOMLRKLHLFFCC87CA,麥金段,.07,都市：住
RPPOMLRKLHLFFCC87CA,麥金段,.07,都市：其他
RPPOMLRKLHLFFCC87CA,麥金段,.01,都市：住
RPPOMLRKLHLFFCC87CA,麥金段,.00,都市：住
RPPOMLRKLHLFFCC87CA,麥金段,.00,都市：住
RPPOMLRKLHLFFCC87CA,麥金段,.00,都市：住
RPRNMLRKLHLFFCC97CA,武嶺段,34.53,都市：住
RPOOMLOKLHLFFCC47CA,源遠段,18.30,都市：住
RPROMLOKLHLFFCC77CA,長安段,38.38,非都市：鄉村區 ; 非都市編定：乙種建築用地
RPPNMLOKLHLFFCC47CA,情人湖段,37.78,都市：住
RPPNMLOKLHLFFCC47CA,情人湖段,.12,都市：其他
RPQNMLTLLHLFFBC08CA,中正段三小段,48.05,都市：住
RPRNMLQJMHLFFBC77CA,東明段,37.75,都市：住
RPQNMLPKLHLFFBC57CA,祥豐段,24.25,都市：住
RPRNMLPKLHLFFBC67CA,調和段,5.64,都市：住
RPSNMLPKLHLFFBC77CA,長潭段,18.59,都市：商
RPSNMLPKLHLFFBC77CA,長潭段,.00,都市：其他
RPSNMLPKLHLFFBC77CA,長潭段,.00,都市：其他
RPSNMLPKLHLFFBC77CA,長潭段,.01,都市：其他
RPPNMLSKLHLFFBC77CA,中央段二小段,2.71,都市：商
RPPNMLSKLHLFFBC77CA,復興段三小段,1.43,都市：商
RPPNMLSKLHLFFBC77CA,復興段三小段,8.14,都市：商
RPPNMLSKLHLFFBC77CA,復興段三小段,6.71,都市：商
RPPNMLSKLHLFFBC77CA,復興段三小段,1.14,都市：商
RPPNMLSKLHLFFBC77CA,中央段二小段,13.29,都市：商
RPWNMLNLLHLFFBC08CA,深澳坑段槓子寮小段,123.38,都市：住
RPQNMLPKLHLFFCC67CA,源遠段,19.95,都市：住
RPRNMLPKLHLFFCC77CA,新會段,7.16,都市：住
RPSNMLPKLHLFFCC87CA,源遠段,13.53,都市：住
RPTNMLPKLHLFFCC97CA,源遠段,29.12,都市：住
RPTNMLRKLHLFFCC18CA,武嶺段,.05,都市：其他
RPTNMLRKLHLFFCC18CA,武嶺段,.07,都市：其他
RPTNMLRKLHLFFCC18CA,武嶺段,5.32,都市：其他
RPTNMLRKLHLFFCC18CA,武嶺段,.06,都市：其他
RPTNMLRKLHLFFCC18CA,武嶺段,.13,都市：住
RPTNMLRKLHLFFCC18CA,武嶺段,2.45,都市：其他
RPTNMLRKLHLFFCC18CA,武嶺段,.01,都市：其他
RPTNMLRKLHLFFCC18CA,武嶺段,5.63,都市：其他
RPTNMLRKLHLFFCC18CA,武嶺段,.12,都市：其他
RPTNMLRKLHLFFCC18CA,武嶺段,.05,都市：其他
RPTNMLRKLHLFFCC18CA,武嶺段,.22,都市：其他
RPTNMLRKLHLFFCC18CA,武嶺段,.02,都市：其他
RPTNMLRKLHLFFCC18CA,武嶺段,.12,都市：其他
RPTNMLRKLHLFFCC18CA,武嶺段,.02,都市：住
RPTNMLRKLHLFFCC18CA,武嶺段,.03,都市：其他
RPTNMLRKLHLFFCC18CA,武嶺段,.00,都市：住
RPTNMLRKLHLFFCC18CA,武嶺段,1.21,都市：住
RPTNMLRKLHLFFCC18CA,武嶺段,.09,都市：其他
RPTNMLRKLHLFFCC18CA,武嶺段,7.99,都市：住
RPTNMLRKLHLFFCC18CA,武嶺段,.00,都市：其他
RPTNMLRKLHLFFCC18CA,武嶺段,1.80,都市：住
RPTNMLRKLHLFFCC18CA,武嶺段,.02,都市：住
RPTNMLRKLHLFFCC18CA,武嶺段,.06,都市：住
RPTNMLRKLHLFFCC18CA,武嶺段,.03,都市：住
RPTNMLRKLHLFFCC18CA,武嶺段,2.75,都市：住
RPTNMLRKLHLFFCC18CA,武嶺段,.06,都市：住
RPTNMLRKLHLFFCC18CA,武嶺段,.03,都市：住
RPTNMLRKLHLFFCC18CA,武嶺段,.02,都市：住
RPTNMLRKLHLFFCC18CA,武嶺段,.04,都市：住
RPTNMLRKLHLFFCC18CA,武嶺段,.02,都市：住
RPTNMLRKLHLFFCC18CA,武嶺段,.09,都市：其他
RPTNMLRKLHLFFCC18CA,武嶺段,.05,都市：住
RPTNMLRKLHLFFCC18CA,武嶺段,.00,都市：其他
RPVNMLNLLHLFFCC08CA,麥金段,.02,都市：住
RPVNMLNLLHLFFCC08CA,麥金段,3.30,都市：住
RPVNMLNLLHLFFCC08CA,麥金段,1.03,都市：其他
RPVNMLNLLHLFFCC08CA,麥金段,.12,都市：住
RPVNMLNLLHLFFCC08CA,麥金段,.20,都市：其他
RPVNMLNLLHLFFCC08CA,麥金段,.22,都市：其他
RPVNMLNLLHLFFCC08CA,麥金段,22.66,都市：住
RPVNMLNLLHLFFCC08CA,麥金段,16.89,都市：住
RPVNMLNLLHLFFCC08CA,麥金段,6.81,都市：其他
RPQNMLMLLHLFFCC47CA,代天府段,.84,都市：住
RPQNMLMLLHLFFCC47CA,代天府段,23.14,都市：住
RPQNMLMLLHLFFCC47CA,代天府段,.02,都市：其他
RPSNMLSKLHLFFCC38EA,長安段,27.34,都市：住
RPRNMLMKMHLFFCC77EA,麥金段,2.07,都市：住
RPRNMLMKMHLFFCC77EA,麥金段,.08,都市：住
RPRNMLMKMHLFFCC77EA,麥金段,.05,都市：住
RPRNMLMKMHLFFCC77EA,麥金段,.04,都市：其他
RPRNMLMKMHLFFCC77EA,麥金段,.00,都市：住
RPRNMLMKMHLFFCC77EA,麥金段,.00,都市：住
RPRNMLMKMHLFFCC77EA,麥金段,.00,都市：住
RPRNMLMKMHLFFCC77EA,麥金段,.00,都市：住
RPQNMLOLLHLFFCC67CA,新會段,14.49,都市：住
RPROMLRKLHLFFCC08CA,舊站段,25.73,都市：商
RPPNMLKLLHLFFCC17CA,榮華段,21.33,都市：住
RPTNMLTLLHLFFCC48CA,源遠段,22.00,都市：住
RPSNMLQJMHLFFBC87CA,東明段,37.75,都市：住
RPRNMLTLLHLFFBC18CA,調和段,.01,都市：住
RPRNMLTLLHLFFBC18CA,調和段,.01,都市：其他
RPRNMLTLLHLFFBC18CA,調和段,21.71,都市：其他
RPRNMLTLLHLFFBC18CA,調和段,.01,都市：其他
RPRNMLTLLHLFFBC18CA,調和段,.01,都市：住
RPPNMLQJMHLFFBC57CA,福祿段,37.62,都市：住
RPPNMLMKMHLFFBC27CA,福祿段,.00,都市：其他
RPPNMLMKMHLFFBC27CA,福祿段,.00,都市：其他
RPPNMLMKMHLFFBC27CA,福祿段,.04,都市：其他
RPPNMLMKMHLFFBC27CA,福祿段,.00,都市：其他
RPPNMLMKMHLFFBC27CA,福祿段,23.75,都市：住
RPPNMLMKMHLFFBC27CA,福祿段,.05,都市：其他
RPVNMLLJMHLFFBC67CA,深美段,32.64,都市：住
RPVNMLRKLHLFFCC38CA,源遠段,37.70,都市：住
RPWNMLRKLHLFFCC48CA,源遠段,28.92,都市：住
RPWNMLRKLHLFFCC48CA,源遠段,.05,都市：住
RPOOMLRKLHLFFCC77CA,新城段,33.30,都市：住
RPOOMLRKLHLFFCC77CA,新城段,.02,都市：其他
RPOOMLRKLHLFFCC77CA,新城段,.07,都市：其他
RPOOMLRKLHLFFCC77CA,新城段,.72,都市：其他
RPOOMLRKLHLFFCC77CA,新城段,4.20,都市：住
RPQOMLRKLHLFFCC97CA,麥金段,21.53,都市：住
RPQOMLRKLHLFFCC97CA,麥金段,.22,都市：其他
RPTNMLQKLHLFFCC08CA,過港段,12.21,都市：住
RPWNMLNLLHLFFCC18CA,源遠段,25.01,都市：住
RPRNMLRKLHLFFBC97DA,深美段,3.07,都市：住
RPRNMLRKLHLFFBC97DA,深美段,.00,都市：住
RPQNMLLKMHLFFCC37CA,五堵段五堵北小段,79.18,都市：住
RPSNMLMKMHLFFCC67CA,安國段,37.10,都市：住
RPOPMLKKMHLFFCC27CA,源遠段,25.45,都市：住
RPPPMLKKMHLFFCC37CA,源遠段,25.45,都市：住
RPRPMLKKMHLFFCC57CA,源遠段,26.11,都市：住
RPPNMLKKMHLFFCC17CA,源遠段,19.39,都市：住
RPQNMLKKMHLFFCC27CA,源遠段,18.97,都市：住
RPRNMLKKMHLFFCC37CA,源遠段,18.97,都市：住
RPSNMLKKMHLFFCC47CA,源遠段,26.11,都市：住
RPTNMLKKMHLFFCC57CA,源遠段,26.01,都市：住
RPUNMLKKMHLFFCC67CA,源遠段,26.15,都市：住
RPVNMLKKMHLFFCC77CA,源遠段,14.11,都市：住
RPWNMLKKMHLFFCC87CA,源遠段,14.07,都市：住
RPPOMLKKMHLFFCC27CA,源遠段,19.78,都市：住
RPQOMLKKMHLFFCC37CA,源遠段,19.81,都市：住
RPROMLKKMHLFFCC47CA,源遠段,19.81,都市：住
RPSOMLKKMHLFFCC57CA,源遠段,19.15,都市：住
RPTOMLKKMHLFFCC67CA,源遠段,26.15,都市：住
RPUOMLKKMHLFFCC77CA,源遠段,26.11,都市：住
RPVOMLKKMHLFFCC87CA,源遠段,14.04,都市：住
RPWOMLKKMHLFFCC97CA,源遠段,13.72,都市：住
RPUNMLLLLHLFFCC97EA,五堵段五堵北小段,31.82,都市：商
RPUNMLRJMHLFFCC48EA,工建段,21.63,都市：工
RPUNMLRJMHLFFCC48EA,工建段,26.15,都市：工
RPUNMLRJMHLFFCC48EA,工建段,.02,都市：工
RPUNMLRJMHLFFCC48EA,工建段,.01,都市：工
RPUNMLRJMHLFFCC48EA,工建段,.01,都市：工
RPUNMLRJMHLFFCC48EA,工建段,26.65,都市：工
RPUNMLRJMHLFFCC48EA,工建段,24.62,都市：工
RPUNMLRJMHLFFCC48EA,工建段,.01,都市：工
RPRNMLLLLHLFFCC47CA,觀音段,9.67,都市：其他
RPSNMLLLLHLFFCC57CA,大武崙段武崙小段,1043.00,都市：工
RPSNMLLLLHLFFCC57CA,大武崙段武崙小段,1772.00,都市：工
RPSNMLLLLHLFFCC57CA,大武崙段武崙小段,1460.00,都市：工
RPSNMLLLLHLFFCC57CA,大武崙段武崙小段,896.00,都市：工
RPXNMLKMLHLFFCC08CA,五堵段五堵北小段,36.74,都市：住
RPUNMLNLLHLFFBC87CA,調和段,11.03,都市：住
RPSOMLSLLHLFFBC28CA,調和段,.01,都市：其他
RPSOMLSLLHLFFBC28CA,調和段,.00,都市：住
RPSOMLSLLHLFFBC28CA,調和段,.00,都市：其他
RPSOMLSLLHLFFBC28CA,調和段,10.18,都市：其他
RPSOMLSLLHLFFBC28CA,調和段,.00,都市：住
RPQNMLNLLHLFFBC47CA,深澳坑段槓子寮小段,158.74,都市：住
RPQNMLLJMHLFFBC17CA,福祿段,37.62,都市：住
RPPNMLSKMHLFFBC87CA,延年段,21.00,都市：住
RPWNMLPLLHLFFCC38CA,仁德段,43.00,都市：住
RPWNMLPLLHLFFCC38CA,仁德段,6.00,都市：住
RPWNMLPLLHLFFCC38CA,仁德段,10.00,都市：住
RPXNMLPLLHLFFCC48CA,長安段,58.07,非都市：鄉村區 ; 非都市編定：乙種建築用地
RPPOMLPLLHLFFCC77CA,代天府段,21.23,都市：其他
RPPOMLPLLHLFFCC77CA,代天府段,.13,都市：其他
RPPOMLPLLHLFFCC77CA,代天府段,.17,都市：住
RPPOMLPLLHLFFCC77CA,代天府段,.04,都市：其他
RPPOMLPLLHLFFCC77CA,代天府段,.00,都市：住
RPPOMLPLLHLFFCC77CA,代天府段,.08,都市：住
RPRNMLNLLHLFFCC67CA,五堵段五堵北小段,12.85,都市：商
RPPOMLMLLHLFFCC47CA,暖暖段東勢坑小段,1.84,都市：住
RPPOMLMLLHLFFCC47CA,暖暖段東勢坑小段,5.31,都市：住
RPPOMLMLLHLFFCC47CA,暖暖段東勢坑小段,32.60,都市：住
RPQNMLPLLHLFFCC97EA,代天府段,3.84,都市：住
RPQNMLPLLHLFFCC97EA,代天府段,.92,都市：住
RPQNMLPLLHLFFCC97EA,代天府段,3.10,都市：住
RPQNMLPLLHLFFCC97EA,代天府段,.94,都市：住
RPQNMLPLLHLFFCC97EA,代天府段,3.05,都市：住
RPQNMLPLLHLFFCC97EA,代天府段,1.46,都市：住
RPQNMLPLLHLFFCC97EA,代天府段,2.52,都市：住
RPQNMLPLLHLFFCC97EA,代天府段,1.97,都市：住
RPXOMLKKMHLFFCC08CA,源遠段,24.88,都市：住
RPUNMLOKMHLFFCC08CA,五堵段五堵北小段,42.10,都市：住
RPVNMLOKMHLFFCC18CA,五堵段五堵北小段,.81,都市：住
RPWNMLOKMHLFFCC28CA,五堵段五堵北小段,35.42,都市：住
RPPNMLLLLHLFFCC47EA,德育段,26.89,都市：住
RPPNMLLLLHLFFCC47EA,德育段,3.08,都市：住
RPWNMLLLLHLFFCC97CA,源遠段,13.65,都市：住
RPWNMLLLLHLFFCC97CA,源遠段,.06,都市：其他
RPXNMLNLLHLFFCC28CA,新會段,.17,都市：住
RPVNMLPLLHLFFCC28CA,八堵段八堵北小段,156.63,都市：住
RPVNMLPLLHLFFCC28CA,八堵段八堵北小段,1.48,都市：住
RPVNMLPLLHLFFCC28CA,八堵段八堵北小段,.10,都市：住
RPROMLPLLHLFFCC97CA,麥金段,44.49,都市：住
RPUNMLTLLHLFFCC58CA,暖暖段暖暖小段,34.15,都市：住
RPRNMLSLLHLFFCC18CA,代天府段,16.33,都市：其他
RPRNMLSLLHLFFCC18CA,代天府段,.10,都市：其他
RPRNMLSLLHLFFCC18CA,代天府段,.13,都市：住
RPRNMLSLLHLFFCC18CA,代天府段,.03,都市：其他
RPRNMLSLLHLFFCC18CA,代天府段,.00,都市：住
RPRNMLSLLHLFFCC18CA,代天府段,.06,都市：住
RPUNMLOLLHLFFBC97CA,長潭段,30.48,都市：住
RPPNMLPJMHLFFBC47CA,中濱段,32.45,都市：住
RPXNMLSKMHLFFBC68CA,調和段,.73,都市：商
RPXNMLSKMHLFFBC68CA,調和段,120.20,都市：住
RPXNMLSKMHLFFBC68CA,調和段,.42,都市：住
RPXNMLSKMHLFFBC68CA,調和段,.16,都市：住
RPXNMLSKMHLFFBC68CA,調和段,.56,都市：住
RPPOMLSKMHLFFBC97CA,調和段,.74,都市：商
RPPOMLSKMHLFFBC97CA,調和段,120.72,都市：住
RPPOMLSKMHLFFBC97CA,調和段,.43,都市：住
RPPOMLSKMHLFFBC97CA,調和段,.16,都市：住
RPPOMLSKMHLFFBC97CA,調和段,.57,都市：住
RPUNMLRKNHLFFBC58EA,調和段,.74,都市：商
RPUNMLRKNHLFFBC58EA,調和段,121.95,都市：住
RPUNMLRKNHLFFBC58EA,調和段,.43,都市：住
RPUNMLRKNHLFFBC58EA,調和段,.16,都市：住
RPUNMLRKNHLFFBC58EA,調和段,.57,都市：住
RPRNMLPKMHLFFCC87CA,金華段,35.80,都市：其他
RPSNMLNKMHLFFCC77CA,觀音段,22.29,都市：住
RPSNMLNKMHLFFCC77CA,觀音段,.06,都市：住
RPPNMLSLLHLFFCC18EA,工建段,10.32,都市：住
RPROMLSKMHLFFBC18CA,調和段,.16,都市：住
RPROMLSKMHLFFBC18CA,調和段,.57,都市：住
RPROMLSKMHLFFBC18CA,調和段,.74,都市：商
RPROMLSKMHLFFBC18CA,調和段,121.34,都市：住
RPROMLSKMHLFFBC18CA,調和段,.42,都市：住
RPTNMLOLLHLFFBC87CA,長潭段,1.37,都市：住
RPTNMLOLLHLFFBC87CA,長潭段,13.66,都市：住
RPQNMLKMLHLFFBC27CA,深澳坑段槓子寮小段,140.73,都市：住
RPWNMLPLLHLFFBC28CA,基瑞段,127.08,都市：住
RPPNMLOLLHLFFBC47CA,深澳坑段槓子寮小段,122.59,都市：住
RPQNMLOLLHLFFBC57CA,調和段,32.77,都市：住
RPQNMLOLLHLFFBC57CA,調和段,.05,都市：其他
RPQNMLOLLHLFFBC57CA,調和段,.05,都市：其他
RPQNMLOLLHLFFBC57CA,調和段,.05,都市：其他
RPWNMLTLLHLFFCC78CA,工建段,.01,都市：工
RPWNMLTLLHLFFCC78CA,工建段,.02,都市：工
RPWNMLTLLHLFFCC78CA,工建段,.01,都市：工
RPWNMLTLLHLFFCC78CA,工建段,.01,都市：工
RPWNMLTLLHLFFCC78CA,工建段,21.96,都市：工
RPWNMLTLLHLFFCC78CA,工建段,20.28,都市：工
RPWNMLTLLHLFFCC78CA,工建段,17.82,都市：工
RPWNMLTLLHLFFCC78CA,工建段,21.54,都市：工
RPTNMLSLLHLFFCC38CA,安國段,26.27,都市：其他
RPUNMLSLLHLFFCC48CA,武嶺段,23.87,都市：住
RPUNMLSLLHLFFCC48CA,武嶺段,.66,都市：其他
RPWNMLKMLHLFFCC97CA,情人湖段,39.35,都市：住
RPRNMLLJMHLFFCC37CA,新城段,12.52,都市：住
RPRNMLLJMHLFFCC37CA,新城段,.75,都市：住
RPRNMLLJMHLFFCC37CA,新城段,.07,都市：住
RPRNMLLJMHLFFCC37CA,新城段,1.78,都市：住
RPRNMLLJMHLFFCC37CA,新城段,.01,都市：住
RPRNMLLJMHLFFCC37CA,新城段,3.60,都市：住
RPRNMLLJMHLFFCC37CA,新城段,.02,都市：住
RPVNMLOLLHLFFCC18CA,大德段,37.80,都市：住
RPVNMLOLLHLFFCC18CA,大德段,1.60,都市：其他
RPVNMLOLLHLFFCC18CA,大德段,.40,都市：住
RPVNMLOLLHLFFCC18CA,大德段,4.20,都市：其他
RPPNMLLMLHLFFCC37CA,新城段,23.02,都市：住
RPRNMLKMLHLFFCC47CA,暖暖段暖暖小段,32.85,都市：住
RPTNMLKMLHLFFCC67CA,暖暖段暖暖小段,13.98,都市：住
RPVNMLSLLHLFFCC58CA,源遠段,14.60,都市：住
RPSOMLPLLHLFFCC08CA,大華段,26.97,都市：其他
RPTOMLPLLHLFFCC18CA,武嶺段,23.87,都市：住
RPTOMLPLLHLFFCC18CA,武嶺段,.66,都市：其他
RPXNMLOLLHLFFCC38CA,源遠段,17.02,都市：住
RPOOMLOLLHLFFCC57CA,代天府段,.84,都市：住
RPOOMLOLLHLFFCC57CA,代天府段,26.08,都市：住
RPOOMLOLLHLFFCC57CA,代天府段,.07,都市：住
RPSNMLPLLHLFFCC97CA,武嶺段,2.23,都市：住
RPSNMLPLLHLFFCC97CA,武嶺段,.04,都市：其他
RPSNMLPLLHLFFCC97CA,武嶺段,.06,都市：其他
RPSNMLPLLHLFFCC97CA,武嶺段,4.85,都市：住
RPSNMLPLLHLFFCC97CA,武嶺段,.05,都市：其他
RPSNMLPLLHLFFCC97CA,武嶺段,.12,都市：住
RPSNMLPLLHLFFCC97CA,武嶺段,.01,都市：其他
RPSNMLPLLHLFFCC97CA,武嶺段,5.13,都市：住
RPSNMLPLLHLFFCC97CA,武嶺段,.11,都市：其他
RPSNMLPLLHLFFCC97CA,武嶺段,.05,都市：其他
RPSNMLPLLHLFFCC97CA,武嶺段,.20,都市：其他
RPSNMLPLLHLFFCC97CA,武嶺段,.02,都市：其他
RPSNMLPLLHLFFCC97CA,武嶺段,.11,都市：其他
RPSNMLPLLHLFFCC97CA,武嶺段,.02,都市：住
RPSNMLPLLHLFFCC97CA,武嶺段,.03,都市：其他
RPSNMLPLLHLFFCC97CA,武嶺段,.00,都市：住
RPSNMLPLLHLFFCC97CA,武嶺段,1.10,都市：住
RPSNMLPLLHLFFCC97CA,武嶺段,.08,都市：其他
RPSNMLPLLHLFFCC97CA,武嶺段,7.28,都市：住
RPSNMLPLLHLFFCC97CA,武嶺段,.00,都市：其他
RPSNMLPLLHLFFCC97CA,武嶺段,1.64,都市：住
RPSNMLPLLHLFFCC97CA,武嶺段,.02,都市：住
RPSNMLPLLHLFFCC97CA,武嶺段,.06,都市：住
RPSNMLPLLHLFFCC97CA,武嶺段,.02,都市：住
RPSNMLPLLHLFFCC97CA,武嶺段,2.51,都市：住
RPSNMLPLLHLFFCC97CA,武嶺段,.05,都市：住
RPSNMLPLLHLFFCC97CA,武嶺段,.03,都市：住
RPSNMLPLLHLFFCC97CA,武嶺段,.02,都市：住
RPSNMLPLLHLFFCC97CA,武嶺段,.03,都市：住
RPSNMLPLLHLFFCC97CA,武嶺段,.02,都市：住
RPSNMLPLLHLFFCC97CA,武嶺段,.08,都市：其他
RPSNMLPLLHLFFCC97CA,武嶺段,.05,都市：住
RPSNMLPLLHLFFCC97CA,武嶺段,.00,都市：其他
RPXNMLTLLHLFFCC88CA,武嶺段,2.40,都市：住
RPXNMLTLLHLFFCC88CA,武嶺段,22.74,都市：住
RPRNMLOLLHLFFBC67CA,長潭段,1.52,都市：住
RPRNMLOLLHLFFBC67CA,長潭段,15.24,都市：住
RPPNMLTLLHLFFBC97CA,成功段,.04,都市：其他
RPPNMLTLLHLFFBC97CA,成功段,.00,都市：其他
RPPNMLTLLHLFFBC97CA,成功段,.00,都市：其他
RPPNMLTLLHLFFBC97CA,成功段,1.60,都市：住
RPPNMLTLLHLFFBC97CA,成功段,1.84,都市：住
RPPNMLTLLHLFFBC97CA,成功段,21.75,都市：住
RPPNMLTLLHLFFBC97CA,成功段,.92,都市：商
RPPNMLTLLHLFFBC97CA,成功段,1.97,都市：住
RPXNMLLMLHLFFBC08CA,光明段,72.00,都市：住
RPUNMLNKMHLFFBC87CA,深澳段,25.23,都市：住
RPQNMLLMLHLFFBC37CA,海濱段三小段,24.24,都市：商
RPPNMLKMLHLFFCC47EA,新會段,24.66,都市：住
RPPNMLLKMHLFFCC27CA,源遠段,26.04,都市：住
RPQNMLRJMHLFFCC87CA,碇內段溪西股小段,277.50,都市：其他
RPPNMLRKMHLFFCC87CA,麥金段,34.03,都市：住
RPUNMLSKMHLFFCC48CA,舊站段,22.98,都市：商
RPPNMLPKMHLFFBC67DA,長潭段,27.40,都市：住
RPSNMLRJMHLFFCC08CA,源遠段,30.48,都市：住
RPVNMLRJMHLFFCC38CA,源遠段,20.90,都市：住
RPWNMLSLLHLFFCC88EA,長安段,33.69,非都市：鄉村區 ; 非都市編定：乙種建築用地
RPTNMLSKMHLFFCC58EA,代天府段,13.06,都市：其他
RPTNMLSKMHLFFCC58EA,代天府段,.08,都市：其他
RPTNMLSKMHLFFCC58EA,代天府段,.10,都市：住
RPTNMLSKMHLFFCC58EA,代天府段,.02,都市：其他
RPTNMLSKMHLFFCC58EA,代天府段,.00,都市：住
RPTNMLSKMHLFFCC58EA,代天府段,.05,都市：住
RPPNMLLKMHLFFBC17CA,南新段,112.50,都市：其他
RPPNMLLKMHLFFBC17CA,南新段,5.00,都市：其他
RPPNMLLKMHLFFBC17CA,南新段,1.00,都市：其他
RPPNMLLKMHLFFBC17CA,南新段,5.50,都市：其他
RPWNMLQJMHLFFBC28CA,調和段,68.78,都市：住
RPXNMLQJMHLFFBC38CA,調和段,.04,都市：其他
RPXNMLQJMHLFFBC38CA,調和段,.04,都市：其他
RPXNMLQJMHLFFBC38CA,調和段,.03,都市：其他
RPXNMLQJMHLFFBC38CA,調和段,24.32,都市：住
RPPNMLQLLHLFFBC67CA,港灣段二小段,17.25,都市：商
RPPNMLQLLHLFFBC67CA,港灣段二小段,.08,都市：住
RPPNMLQLLHLFFBC67CA,港灣段二小段,1.92,都市：商
RPSNMLSLLHLFFCC28CA,代天府段,.84,都市：住
RPSNMLSLLHLFFCC28CA,代天府段,34.18,都市：住
RPRNMLTLLHLFFCC28CA,舊站段,24.67,都市：商
RPSNMLTLLHLFFCC38CA,源遠段,21.37,都市：住
RPQNMLKMLHLFFCC37CA,五堵段五堵北小段,27.79,都市：住
RPUNMLKMLHLFFCC77CA,源遠段,54.38,都市：住
RPUNMLKMLHLFFCC77CA,源遠段,.11,都市：住
RPVNMLKMLHLFFCC87CA,源遠段,53.63,都市：住
RPVNMLKMLHLFFCC87CA,源遠段,.78,都市：住
RPQNMLLMLHLFFCC47CA,暖暖段暖暖小段,29.54,都市：住
RPPNMLQJMHLFFCC67CA,武嶺段,.04,都市：其他
RPPNMLQJMHLFFCC67CA,武嶺段,.06,都市：其他
RPPNMLQJMHLFFCC67CA,武嶺段,.26,都市：其他
RPPNMLQJMHLFFCC67CA,武嶺段,.03,都市：其他
RPPNMLQJMHLFFCC67CA,武嶺段,.15,都市：其他
RPPNMLQJMHLFFCC67CA,武嶺段,.02,都市：住
RPPNMLQJMHLFFCC67CA,武嶺段,.06,都市：其他
RPPNMLQJMHLFFCC67CA,武嶺段,.09,都市：其他
RPPNMLQJMHLFFCC67CA,武嶺段,6.46,都市：其他
RPPNMLQJMHLFFCC67CA,武嶺段,.07,都市：其他
RPPNMLQJMHLFFCC67CA,武嶺段,.15,都市：住
RPPNMLQJMHLFFCC67CA,武嶺段,2.97,都市：其他
RPPNMLQJMHLFFCC67CA,武嶺段,.02,都市：其他
RPPNMLQJMHLFFCC67CA,武嶺段,6.84,都市：其他
RPPNMLQJMHLFFCC67CA,武嶺段,.15,都市：其他
RPPNMLQJMHLFFCC67CA,武嶺段,.00,都市：住
RPPNMLQJMHLFFCC67CA,武嶺段,1.47,都市：住
RPPNMLQJMHLFFCC67CA,武嶺段,.11,都市：其他
RPPNMLQJMHLFFCC67CA,武嶺段,9.71,都市：住
RPPNMLQJMHLFFCC67CA,武嶺段,.00,都市：其他
RPPNMLQJMHLFFCC67CA,武嶺段,2.19,都市：住
RPPNMLQJMHLFFCC67CA,武嶺段,.02,都市：住
RPPNMLQJMHLFFCC67CA,武嶺段,.08,都市：住
RPPNMLQJMHLFFCC67CA,武嶺段,.03,都市：住
RPPNMLQJMHLFFCC67CA,武嶺段,3.34,都市：住
RPPNMLQJMHLFFCC67CA,武嶺段,.07,都市：住
RPPNMLQJMHLFFCC67CA,武嶺段,.04,都市：住
RPPNMLQJMHLFFCC67CA,武嶺段,.02,都市：住
RPPNMLQJMHLFFCC67CA,武嶺段,.04,都市：住
RPPNMLQJMHLFFCC67CA,武嶺段,.03,都市：住
RPPNMLQJMHLFFCC67CA,武嶺段,.11,都市：其他
RPPNMLQJMHLFFCC67CA,武嶺段,.07,都市：住
RPPNMLQJMHLFFCC67CA,武嶺段,.00,都市：其他
RPSNMLLKMHLFFBC47CA,深澳段,14.83,都市：住
RPSNMLLJMHLFFBC37CA,深美段,63.67,都市：住
RPWOMLSLLHLFFBC68CA,長潭段,.55,都市：住
RPWOMLSLLHLFFBC68CA,長潭段,5.52,都市：住
RPPNMLLMLHLFFBC27CA,港濱段,20.00,都市：住
RPPNMLLMLHLFFBC27CA,港濱段,47.00,都市：住
RPSNMLRLMHLFFBC18CA,福祿段,83.93,都市：住
RPRSMLKMLHLFFCC97CA,源遠段,16.68,都市：住
RPOOMLSJMHLFFCC87CA,源遠段,20.90,都市：住
RPTNMLMKMHLFFCC77CA,源遠段,32.17,都市：住
RPUNMLMKMHLFFCC87CA,安國段,29.85,都市：住
RPUNMLMKMHLFFCC87CA,安國段,.55,都市：住
RPVNMLMKMHLFFCC97CA,過港段,34.94,都市：住
RPVNMLMKMHLFFCC97CA,過港段,.04,都市：其他
RPPNMLPKMHLFFCC67CA,大武崙段內寮小段,101.11,都市：住
RPUNMLTKMHLFFCC58CA,大華段,24.00,都市：住
RPUNMLTKMHLFFCC58CA,大華段,3.50,都市：其他
RPUNMLLLMHLFFCC87CA,大華段,63.11,都市：住
RPVOMLSLLHLFFBC68DA,光明段,3.47,都市：住
RPVOMLSLLHLFFBC68DA,光明段,29.12,都市：住
RPVOMLSLLHLFFBC68DA,光明段,.51,都市：其他
RPVOMLSLLHLFFBC68DA,光明段,6.12,都市：住
RPRNMLRJMHLFFCC97CA,源遠段,30.48,都市：住
RPRNMLLMLHLFFCC77EA,友蚋段港口小段,173.00,非都市：山坡地保育區 ; 非都市編定：暫未編定
RPRNMLLMLHLFFCC77EA,友蚋段港口小段,25.00,非都市：山坡地保育區 ; 非都市編定：丙種建築用地
RPTOMLSKMHLFFBC38CA,港濱段,19.01,都市：住
RPTOMLSKMHLFFBC38CA,港濱段,.07,都市：住
RPTNMLLJMHLFFBC47CA,延年段,7.92,都市：商
RPTNMLLJMHLFFBC47CA,延年段,.00,都市：其他
RPTNMLLJMHLFFBC47CA,延年段,.01,都市：其他
RPUNMLLJMHLFFBC57CA,深澳段,23.82,都市：住
RPVNMLLMLHLFFBC87CA,調和段,.14,都市：住
RPWNMLLMLHLFFBC97CA,培德段,18.81,都市：住
RPQNMLPJMHLFFBC57CA,中濱段,33.73,都市：住
RPTNMLQJMHLFFBC97CA,調和段,25.78,都市：其他
RPTNMLQJMHLFFBC97CA,調和段,.01,都市：其他
RPTNMLQJMHLFFBC97CA,調和段,.01,都市：住
RPSNMLRJMHLFFBC97CA,海濱段三小段,9.10,都市：商
RPTNMLRJMHLFFBC08CA,調和段,6.08,都市：住
RPTNMLLJMHLFFCC57CA,明德段,32.70,都市：住
RPQNMLLJMHLFFCC27CA,明德段,32.37,都市：住
RPOOMLKMLHLFFCC27CA,暖暖段東勢坑小段,32.93,都市：住
RPQSMLKMLHLFFCC87CA,麥金段,31.20,都市：住
RPOOMLLMLHLFFBC27CA,福祿段,24.82,都市：住
RPRNMLLJMHLFFBC27CA,長潭段,1.37,都市：住
RPRNMLLJMHLFFBC27CA,長潭段,13.66,都市：住
RPPNMLRJMHLFFBC67CA,港濱段,25.20,都市：住
RPPNMLRJMHLFFBC67CA,港濱段,2.60,都市：其他
RPQNMLMKMHLFFBC37CA,東信段一小段,.01,都市：商
RPQNMLMKMHLFFBC37CA,東信段一小段,.00,都市：其他
RPQNMLMKMHLFFBC37CA,東信段一小段,.04,都市：商
RPRNMLMKMHLFFBC47CA,東信段一小段,.01,都市：商
RPRNMLMKMHLFFBC47CA,東信段一小段,.00,都市：其他
RPRNMLMKMHLFFBC47CA,東信段一小段,.04,都市：商
RPRNMLOKMHLFFBC67CA,調和段,26.65,都市：住
RPSNMLOKMHLFFBC77CA,長潭段,13.66,都市：住
RPSNMLOKMHLFFBC77CA,長潭段,1.37,都市：住
RPRNMLLJMHLFFCC57EA,代天府段,.97,都市：住
RPRNMLLJMHLFFCC57EA,代天府段,21.18,都市：其他
RPRNMLLJMHLFFCC57EA,代天府段,5.17,都市：住
RPXNMLQJMHLFFCC48CA,長安段,33.31,都市：住
RPOOMLQJMHLFFCC67CA,源遠段,53.13,都市：住
RPOOMLQJMHLFFCC67CA,源遠段,.11,都市：住
RPWNMLQJMHLFFCC38CA,安國段,29.96,都市：住
RPWNMLRJMHLFFCC48CA,源遠段,20.74,都市：住
RPRNMLSJMHLFFCC08CA,源遠段,17.86,都市：住
RPPNMLMKMHLFFCC37CA,新城段,48.98,都市：住
RPPNMLOKMHLFFCC57CA,武嶺段,33.00,都市：住
RPROMLQLMHLFFCC18CA,麥金段,21.86,都市：住
RPROMLQLMHLFFCC18CA,麥金段,.23,都市：住
RPSNMLLMLHLFFCC87EA,溪頭段,11.33,都市：住
RPSNMLLMLHLFFCC87EA,溪頭段,.25,都市：其他
RPQNMLQJMHLFFBC67CA,日新段三小段,6.94,都市：商
RPQNMLQJMHLFFBC67CA,日新段三小段,1.00,都市：商
RPPNMLLJMHLFFBC07CA,祥豐段,6.33,都市：住
RPPNMLSJMHLFFBC77CA,深澳段,30.66,都市：住
RPUNMLQJMHLFFBC08CA,調和段,17.85,都市：住
RPUNMLLKMHLFFBC67CA,調和段,.00,都市：住
RPUNMLLKMHLFFBC67CA,調和段,.00,都市：其他
RPUNMLLKMHLFFBC67CA,調和段,9.84,都市：其他
RPUNMLLKMHLFFBC67CA,調和段,.00,都市：其他
RPUNMLLKMHLFFBC67CA,調和段,.00,都市：住
RPQNMLRJMHLFFBC77CA,基瑞段,114.00,都市：住
RPSNMLNKMHLFFBC67CA,中正段三小段,17.00,都市：住
RPSNMLNKMHLFFBC67CA,中正段三小段,14.50,都市：住
RPSNMLNKMHLFFBC67CA,中正段三小段,2.50,都市：住
RPTNMLQJMHLFFCC08CA,源遠段,17.51,都市：住
RPWNMLMLMHLFFCC18CA,明德段,32.40,都市：住
RPWNMLMLMHLFFCC18CA,明德段,.50,都市：其他
RPPNMLRLMHLFFCC97CA,過港段,20.94,都市：住
RPPNMLRLMHLFFCC97CA,過港段,.44,都市：其他
RPPNMLSKMHLFFCC97CA,明德段,1.27,都市：住
RPPNMLSKMHLFFCC97CA,明德段,8.73,都市：住
RPPNMLSKMHLFFCC97CA,明德段,5.07,都市：住
RPPNMLSKMHLFFCC97CA,明德段,8.13,都市：住
RPPNMLSJMHLFFCC87CA,觀音段,25.47,都市：住
RPPNMLSJMHLFFCC87CA,觀音段,.15,都市：其他
RPPNMLSJMHLFFCC87CA,觀音段,1.03,都市：其他
RPOOMLKKMHLFFCC17CA,源遠段,25.41,都市：住
RPXNMLRJMHLFFCC58CA,西定段,17.50,都市：住
RPXNMLRJMHLFFCC58CA,西定段,6.25,都市：住
RPUNMLNKMHLFFCC97CA,台五線段,4.95,都市：住
RPUNMLNKMHLFFCC97CA,台五線段,31.85,都市：住
RPUNMLNKMHLFFCC97CA,台五線段,20.70,都市：住
RPUNMLNKMHLFFCC97CA,台五線段,123.89,都市：住
RPQNMLRKMHLFFCC97CA,德育段,22.00,都市：住
RPTNMLMKMHLFFBC67CA,調和段,.00,都市：住
RPTNMLMKMHLFFBC67CA,調和段,.00,都市：其他
RPTNMLMKMHLFFBC67CA,調和段,16.62,都市：其他
RPTNMLMKMHLFFBC67CA,調和段,.01,都市：其他
RPTNMLMKMHLFFBC67CA,調和段,.00,都市：住
RPUNMLMLMHLFFBC87CA,調和段,29.36,都市：住
RPSNMLPLMHLFFBC97CA,長潭段,22.66,都市：住
RPTNMLPLMHLFFBC08CA,中濱段,18.40,都市：住
RPVNMLMLMHLFFBC97CA,調和段,19.24,都市：住
RPUNMLMKMHLFFBC77CA,調和段,.04,都市：住
RPUNMLMKMHLFFBC77CA,調和段,36.00,都市：住
RPUNMLMKMHLFFBC77CA,調和段,.66,都市：住
RPUNMLMKMHLFFBC77CA,調和段,26.35,都市：住
RPUNMLMKMHLFFBC77CA,調和段,11.84,都市：住
RPUNMLMKMHLFFBC77CA,調和段,.06,都市：住
RPUNMLMKMHLFFBC77CA,調和段,.04,都市：住
RPUNMLMKMHLFFBC77CA,調和段,.20,都市：住
RPWNMLMKMHLFFBC97CA,深美段,19.94,都市：住
RPQNMLSJMHLFFBC87CA,調和段,15.62,都市：住
RPTNMLNKMHLFFCC87CA,暖暖段東勢坑小段,25.15,都市：住
RPTNMLOKMHLFFCC97CA,新會段,16.45,都市：住
RPUNMLLKMHLFFCC77CA,新城段,17.88,都市：住
RPQOMLSJMHLFFCC08CA,大武崙段內寮小段,23.00,都市：住
RPWNMLMKNHLFFBC18DA,調和段,57.49,都市：住
RPWNMLNJNHLFFCC18CA,瑪陵坑段東勢中股小段,1.89,非都市：山坡地保育區 ; 非都市編定：農牧用地
RPWNMLNJNHLFFCC18CA,瑪陵坑段東勢中股小段,5.11,非都市：山坡地保育區 ; 非都市編定：農牧用地
RPWNMLNJNHLFFCC18CA,瑪陵坑段東勢中股小段,.28,非都市：山坡地保育區 ; 非都市編定：農牧用地
RPWNMLNJNHLFFCC18CA,瑪陵坑段東勢中股小段,.02,非都市：山坡地保育區 ; 非都市編定：交通用地
RPWNMLNJNHLFFCC18CA,瑪陵坑段東勢中股小段,26.09,非都市：山坡地保育區 ; 非都市編定：農牧用地
RPWNMLNJNHLFFCC18CA,瑪陵坑段東勢中股小段,5.04,非都市：山坡地保育區 ; 非都市編定：農牧用地
RPWNMLNJNHLFFCC18CA,瑪陵坑段東勢中股小段,4.07,非都市：山坡地保育區 ; 非都市編定：農牧用地
RPWNMLNJNHLFFCC18CA,瑪陵坑段東勢中股小段,2.33,非都市：山坡地保育區 ; 非都市編定：林業用地
RPWNMLNJNHLFFCC18CA,瑪陵坑段東勢中股小段,17.63,非都市：山坡地保育區 ; 非都市編定：農牧用地
RPWNMLNJNHLFFCC18CA,瑪陵坑段東勢中股小段,.24,非都市：山坡地保育區 ; 非都市編定：丙種建築用地
RPWNMLNJNHLFFCC18CA,瑪陵坑段東勢中股小段,47.35,非都市：山坡地保育區 ; 非都市編定：農牧用地
RPWNMLNJNHLFFCC18CA,瑪陵坑段東勢中股小段,50.89,非都市：山坡地保育區 ; 非都市編定：農牧用地
RPWNMLNJNHLFFCC18CA,瑪陵坑段東勢中股小段,4.11,非都市：山坡地保育區 ; 非都市編定：農牧用地
RPWNMLNJNHLFFCC18CA,瑪陵坑段東勢中股小段,.06,非都市：山坡地保育區 ; 非都市編定：交通用地
RPWNMLNJNHLFFCC18CA,瑪陵坑段東勢中股小段,33.07,非都市：山坡地保育區 ; 非都市編定：農牧用地
RPWNMLNJNHLFFCC18CA,瑪陵坑段東勢中股小段,3.00,非都市：山坡地保育區 ; 非都市編定：農牧用地
RPWNMLNJNHLFFCC18CA,瑪陵坑段東勢中股小段,.54,非都市：山坡地保育區 ; 非都市編定：交通用地
RPWNMLNJNHLFFCC18CA,瑪陵坑段東勢中股小段,.02,非都市：山坡地保育區 ; 非都市編定：交通用地
RPWNMLNJNHLFFCC18CA,瑪陵坑段東勢中股小段,32.33,非都市：山坡地保育區 ; 非都市編定：農牧用地
RPWNMLNJNHLFFCC18CA,瑪陵坑段東勢中股小段,.89,非都市：山坡地保育區 ; 非都市編定：農牧用地
RPWNMLNJNHLFFCC18CA,瑪陵坑段東勢中股小段,.04,非都市：山坡地保育區 ; 非都市編定：交通用地
RPWNMLNJNHLFFCC18CA,瑪陵坑段東勢中股小段,12.06,非都市：山坡地保育區 ; 非都市編定：丙種建築用地
RPWNMLNJNHLFFCC18CA,瑪陵坑段東勢中股小段,19.07,非都市：山坡地保育區 ; 非都市編定：農牧用地
RPWNMLNJNHLFFCC18CA,瑪陵坑段東勢中股小段,.33,非都市：山坡地保育區 ; 非都市編定：農牧用地
RPWNMLNJNHLFFCC18CA,瑪陵坑段東勢中股小段,16.11,非都市：山坡地保育區 ; 非都市編定：農牧用地
RPWNMLNJNHLFFCC18CA,瑪陵坑段東勢中股小段,1.70,非都市：山坡地保育區 ; 非都市編定：農牧用地
RPWNMLNJNHLFFCC18CA,瑪陵坑段東勢中股小段,1.81,非都市：山坡地保育區 ; 非都市編定：交通用地
RPWNMLNJNHLFFCC18CA,瑪陵坑段東勢中股小段,328.00,非都市：山坡地保育區 ; 非都市編定：農牧用地
RPWNMLNJNHLFFCC18CA,瑪陵坑段東勢中股小段,116.33,非都市：山坡地保育區 ; 非都市編定：丙種建築用地
RPWNMLNJNHLFFCC18CA,瑪陵坑段東勢中股小段,.91,非都市：山坡地保育區 ; 非都市編定：農牧用地
RPWNMLNJNHLFFCC18CA,瑪陵坑段東勢中股小段,.37,非都市：山坡地保育區 ; 非都市編定：交通用地
RPWNMLNJNHLFFCC18CA,瑪陵坑段東勢中股小段,4.57,非都市：山坡地保育區 ; 非都市編定：農牧用地
RPWNMLNJNHLFFCC18CA,瑪陵坑段東勢中股小段,.17,非都市：山坡地保育區 ; 非都市編定：農牧用地
RPWNMLNJNHLFFCC18CA,瑪陵坑段東勢中股小段,38.30,非都市：山坡地保育區 ; 非都市編定：農牧用地
RPWNMLNJNHLFFCC18CA,瑪陵坑段東勢中股小段,84.52,非都市：山坡地保育區 ; 非都市編定：林業用地
RPWNMLNJNHLFFCC18CA,瑪陵坑段東勢中股小段,.26,非都市：山坡地保育區 ; 非都市編定：農牧用地
RPWNMLNJNHLFFCC18CA,瑪陵坑段東勢中股小段,.37,非都市：山坡地保育區 ; 非都市編定：農牧用地
RPWNMLNJNHLFFCC18CA,瑪陵坑段東勢中股小段,8.72,非都市：山坡地保育區 ; 非都市編定：農牧用地
RPWNMLNJNHLFFCC18CA,瑪陵坑段東勢中股小段,3.85,非都市：山坡地保育區 ; 非都市編定：丙種建築用地
RPWNMLNJNHLFFCC18CA,瑪陵坑段東勢中股小段,5.02,非都市：山坡地保育區 ; 非都市編定：交通用地
RPWNMLNJNHLFFCC18CA,瑪陵坑段東勢中股小段,.93,非都市：山坡地保育區 ; 非都市編定：農牧用地
RPWNMLNJNHLFFCC18CA,瑪陵坑段東勢中股小段,18.65,非都市：山坡地保育區 ; 非都市編定：農牧用地
RPWNMLNJNHLFFCC18CA,瑪陵坑段東勢中股小段,.69,非都市：山坡地保育區 ; 非都市編定：農牧用地
RPWNMLNJNHLFFCC18CA,瑪陵坑段東勢中股小段,4.85,非都市：山坡地保育區 ; 非都市編定：農牧用地
RPWNMLNJNHLFFCC18CA,瑪陵坑段東勢中股小段,3.83,非都市：山坡地保育區 ; 非都市編定：交通用地
RPWNMLNJNHLFFCC18CA,瑪陵坑段東勢中股小段,7.43,非都市：山坡地保育區 ; 非都市編定：農牧用地
RPWNMLNJNHLFFCC18CA,瑪陵坑段東勢中股小段,74.70,非都市：山坡地保育區 ; 非都市編定：農牧用地
RPWNMLNJNHLFFCC18CA,瑪陵坑段東勢中股小段,.41,非都市：山坡地保育區 ; 非都市編定：交通用地
RPWNMLNJNHLFFCC18CA,瑪陵坑段東勢中股小段,5.76,非都市：山坡地保育區 ; 非都市編定：農牧用地
RPWNMLNJNHLFFCC18CA,瑪陵坑段東勢中股小段,22.91,非都市：山坡地保育區 ; 非都市編定：林業用地
RPWNMLNJNHLFFCC18CA,瑪陵坑段東勢中股小段,13.61,非都市：山坡地保育區 ; 非都市編定：農牧用地
RPWNMLNJNHLFFCC18CA,瑪陵坑段東勢中股小段,38.80,非都市：山坡地保育區 ; 非都市編定：林業用地
RPWNMLNJNHLFFCC18CA,瑪陵坑段東勢中股小段,23.65,非都市：山坡地保育區 ; 非都市編定：林業用地
RPWNMLNJNHLFFCC18CA,瑪陵坑段東勢中股小段,9.31,非都市：山坡地保育區 ; 非都市編定：農牧用地
RPROMLQJNHLFFCC08CA,新崙段,248.68,都市：住
RPROMLQJNHLFFCC08CA,新崙段,40.41,都市：住
RPROMLQJNHLFFCC08CA,新崙段,9.28,都市：住
RPSOMLQJNHLFFCC18CA,新崙段,174.40,都市：住
RPSOMLQJNHLFFCC18CA,新崙段,28.34,都市：住
RPSOMLQJNHLFFCC18CA,新崙段,6.51,都市：住
RPTOMLQJNHLFFCC28CA,新崙段,264.82,都市：住
RPTOMLQJNHLFFCC28CA,新崙段,43.03,都市：住
RPTOMLQJNHLFFCC28CA,新崙段,9.88,都市：住
RPXOMLQJNHLFFCC68CA,新崙段,174.40,都市：住
RPXOMLQJNHLFFCC68CA,新崙段,28.34,都市：住
RPXOMLQJNHLFFCC68CA,新崙段,6.51,都市：住
RPOPMLQJNHLFFCC87CA,新崙段,226.07,都市：住
RPOPMLQJNHLFFCC87CA,新崙段,36.74,都市：住
RPOPMLQJNHLFFCC87CA,新崙段,8.44,都市：住
RPRPMLQJNHLFFCC18CA,新崙段,174.40,都市：住
RPRPMLQJNHLFFCC18CA,新崙段,28.34,都市：住
RPRPMLQJNHLFFCC18CA,新崙段,6.51,都市：住
RPWNMLQJNHLFFCC48CA,新崙段,174.40,都市：住
RPWNMLQJNHLFFCC48CA,新崙段,28.34,都市：住
RPWNMLQJNHLFFCC48CA,新崙段,6.51,都市：住
RPTNMLQJNHLFFCC18CA,新崙段,248.68,都市：住
RPTNMLQJNHLFFCC18CA,新崙段,40.41,都市：住
RPTNMLQJNHLFFCC18CA,新崙段,9.28,都市：住
RPQOMLQJNHLFFCC97CA,新崙段,174.40,都市：住
RPQOMLQJNHLFFCC97CA,新崙段,28.34,都市：住
RPQOMLQJNHLFFCC97CA,新崙段,6.51,都市：住
RPOQMLQJNHLFFCC97CA,新崙段,177.63,都市：住
RPOQMLQJNHLFFCC97CA,新崙段,28.86,都市：住
RPOQMLQJNHLFFCC97CA,新崙段,6.63,都市：住
RPPQMLQJNHLFFCC08CA,新崙段,174.40,都市：住
RPPQMLQJNHLFFCC08CA,新崙段,28.34,都市：住
RPPQMLQJNHLFFCC08CA,新崙段,6.51,都市：住
RPUPMLQJNHLFFCC48CA,新崙段,174.40,都市：住
RPUPMLQJNHLFFCC48CA,新崙段,28.34,都市：住
RPUPMLQJNHLFFCC48CA,新崙段,6.51,都市：住
RPXNMLPJNHLFFCC48CA,暖暖段暖暖小段,49.95,都市：住
RPVNMLMJNHLFFCC97CA,源遠段,11.15,都市：住
RPVNMLSJMHLFFCC48CA,新會段,35.35,都市：住
RPWNMLSJMHLFFCC58CA,情人湖段,25.26,都市：住
RPWNMLSJMHLFFCC58CA,情人湖段,.08,都市：其他
RPXNMLSJMHLFFCC68CA,新城段,7.80,都市：其他
RPXNMLSJMHLFFCC68CA,新城段,20.72,都市：其他
RPXNMLSJMHLFFCC68CA,新城段,.01,都市：其他
RPXNMLSJMHLFFCC68CA,新城段,.00,都市：其他
RPOOMLMKMHLFFCC37CA,新城段,25.57,都市：住
RPRNMLLKMHLFFCC47CA,源遠段,61.47,都市：住
RPRNMLLKMHLFFCC47CA,源遠段,.13,都市：住
RPSNMLLKMHLFFCC57CA,大武崙段武崙小段,1026.00,都市：工
RPSNMLLKMHLFFCC57CA,大武崙段武崙小段,847.00,都市：工
RPTNMLLKMHLFFCC67CA,工建段,45.00,都市：住
RPTNMLLKMHLFFCC67CA,工建段,.33,都市：住
RPQNMLNKMHLFFCC57CA,麥金段,45.12,都市：住
RPRNMLNKMHLFFCC67CA,代天府段,.97,都市：住
RPRNMLNKMHLFFCC67CA,代天府段,21.18,都市：住
RPRNMLNKMHLFFCC67CA,代天府段,5.17,都市：住
RPXNMLNKMHLFFCC28CA,源遠段,17.51,都市：住
RPVNMLSKMHLFFCC58CA,五堵段五堵北小段,7.67,都市：住
RPVNMLSKMHLFFCC58CA,五堵段五堵北小段,1.51,都市：住
RPPNMLTKMHLFFCC08CA,安國段,25.16,都市：商
RPQNMLTKMHLFFCC18CA,五堵段五堵北小段,15.45,都市：商
RPXNMLPKMHLFFCC48CA,五堵段五堵北小段,7.79,都市：其他
RPWNMLKLMHLFFCC97CA,武嶺段,25.66,都市：住
RPRNMLSJMHLFFBC97CA,調和段,5.64,都市：住
RPVNMLMKMHLFFBC87CA,和平段,28.50,都市：住
RPVNMLMKMHLFFBC87CA,和平段,.42,都市：住
RPRNMLSKMHLFFBC08CA,東明段,3.00,都市：住
RPRNMLPLMHLFFBC87CA,復興段三小段,6.42,都市：商
RPRNMLPLMHLFFBC87CA,復興段三小段,2.66,都市：其他
RPPNMLMJNHLFFBC27CA,深澳坑段槓子寮小段,84.24,都市：住
RPQNMLMJNHLFFBC37CA,調和段,30.64,都市：住
RPSNMLPJNHLFFBC87CA,港灣段一小段,3.59,都市：商
RPSNMLPJNHLFFBC87CA,港灣段一小段,.26,都市：商
RPTNMLPJNHLFFBC97CA,調和段,85.25,都市：住
RPPOMLOKMHLFFBC57CA,東信段一小段,42.19,都市：住
RPPOMLOKMHLFFBC57CA,東信段一小段,1.86,都市：住
RPTNMLNKMHLFFBC77CA,德厚段,71.00,都市：住
RPTNMLOKMHLFFBC87CA,港濱段,.48,都市：其他
RPTNMLOKMHLFFBC87CA,港濱段,19.11,都市：其他
RPTNMLOKMHLFFBC87CA,港濱段,.46,都市：其他
RPTNMLOKMHLFFBC87CA,港濱段,.44,都市：其他
RPTNMLOKMHLFFBC87CA,港濱段,.57,都市：其他
RPTNMLOKMHLFFBC87CA,港濱段,.05,都市：其他
RPTNMLOKMHLFFBC87CA,港濱段,.04,都市：其他
RPPNMLNKMHLFFBC37CA,成功段,87.00,都市：商
RPSNMLMKMHLFFBC57CA,調和段,23.76,都市：住
RPSNMLMKMHLFFBC57CA,調和段,.00,都市：其他
RPSNMLLLMHLFFCC67CA,代天府段,.84,都市：住
RPSNMLLLMHLFFCC67CA,代天府段,34.18,都市：住
RPTNMLTKMHLFFCC48CA,武嶺段,14.20,都市：住
RPTNMLTKMHLFFCC48CA,武嶺段,.15,都市：其他
RPTNMLTKMHLFFCC48CA,武嶺段,.01,都市：其他
RPTNMLTKMHLFFCC48CA,武嶺段,4.97,都市：住
RPPOMLOKMHLFFCC67CA,西定段,26.50,都市：住
RPPNMLNKMHLFFCC47CA,金華段,62.26,都市：住
RPWNMLMKMHLFFCC08CA,工建段,17.52,都市：住
RPXNMLMKMHLFFCC18CA,新城段,27.04,都市：住
RPWOMLNJNHLFFCC28CA,五堵段五堵北小段,42.91,都市：住
RPXOMLNJNHLFFCC38CA,源遠段,19.46,都市：住
RPOPMLNJNHLFFCC57CA,源遠段,25.97,都市：住
RPPPMLNJNHLFFCC67CA,源遠段,14.11,都市：住
RPQPMLNJNHLFFCC77CA,源遠段,14.07,都市：住
RPSPMLNJNHLFFCC97CA,源遠段,19.81,都市：住
RPTOMLNJNHLFFCC97CA,安國段,25.80,都市：住
RPVPMLQJNHLFFCC58CA,新崙段,174.40,都市：住
RPVPMLQJNHLFFCC58CA,新崙段,28.34,都市：住
RPVPMLQJNHLFFCC58CA,新崙段,6.51,都市：住
RPWPMLQJNHLFFCC68CA,新崙段,248.68,都市：住
RPWPMLQJNHLFFCC68CA,新崙段,40.41,都市：住
RPWPMLQJNHLFFCC68CA,新崙段,9.28,都市：住
RPXPMLQJNHLFFCC78CA,新崙段,226.07,都市：住
RPXPMLQJNHLFFCC78CA,新崙段,36.74,都市：住
RPXPMLQJNHLFFCC78CA,新崙段,8.44,都市：住
RPQNMLMKNHLFFCC57CA,新崙段,226.07,都市：住
RPQNMLMKNHLFFCC57CA,新崙段,36.74,都市：住
RPQNMLMKNHLFFCC57CA,新崙段,8.44,都市：住
RPRQMLQJNHLFFCC28CA,源遠段,50.58,都市：住
RPRQMLQJNHLFFCC28CA,源遠段,.74,都市：住
RPQNMLQJNHLFFCC87CA,大德段,76.00,都市：住
RPUNMLQJNHLFFCC28CA,新崙段,36.74,都市：住
RPUNMLQJNHLFFCC28CA,新崙段,226.07,都市：住
RPUNMLQJNHLFFCC28CA,新崙段,8.44,都市：住
RPVNMLQJNHLFFCC38CA,新崙段,222.84,都市：住
RPVNMLQJNHLFFCC38CA,新崙段,36.21,都市：住
RPVNMLQJNHLFFCC38CA,新崙段,8.32,都市：住
RPXNMLQJNHLFFCC58CA,新崙段,177.63,都市：住
RPXNMLQJNHLFFCC58CA,新崙段,28.86,都市：住
RPXNMLQJNHLFFCC58CA,新崙段,6.63,都市：住
RPOOMLQJNHLFFCC77CA,新崙段,226.07,都市：住
RPOOMLQJNHLFFCC77CA,新崙段,36.74,都市：住
RPOOMLQJNHLFFCC77CA,新崙段,8.44,都市：住
RPPOMLQJNHLFFCC87CA,新崙段,6.51,都市：住
RPPOMLQJNHLFFCC87CA,新崙段,174.40,都市：住
RPPOMLQJNHLFFCC87CA,新崙段,28.34,都市：住
RPSPMLQJNHLFFCC28CA,新崙段,177.63,都市：住
RPSPMLQJNHLFFCC28CA,新崙段,28.86,都市：住
RPSPMLQJNHLFFCC28CA,新崙段,6.63,都市：住
RPTPMLQJNHLFFCC38CA,新崙段,222.84,都市：住
RPTPMLQJNHLFFCC38CA,新崙段,36.21,都市：住
RPTPMLQJNHLFFCC38CA,新崙段,8.32,都市：住
RPQPMLQJNHLFFCC08CA,新崙段,235.76,都市：住
RPQPMLQJNHLFFCC08CA,新崙段,38.31,都市：住
RPQPMLQJNHLFFCC08CA,新崙段,8.80,都市：住
RPUOMLQJNHLFFCC38CA,新崙段,222.84,都市：住
RPUOMLQJNHLFFCC38CA,新崙段,36.21,都市：住
RPUOMLQJNHLFFCC38CA,新崙段,8.32,都市：住
RPVOMLQJNHLFFCC48CA,新崙段,174.40,都市：住
RPVOMLQJNHLFFCC48CA,新崙段,28.34,都市：住
RPVOMLQJNHLFFCC48CA,新崙段,6.51,都市：住
RPPNMLQJNHLFFBC77DA,調和段,5.21,都市：住
RPPNMLOKMHLFFBC57DA,田寮段,5.60,都市：其他
RPWNMLNKMHLFFCC18CA,五堵段五堵北小段,12.35,都市：住
RPWNMLNKMHLFFCC18CA,五堵段五堵北小段,16.78,都市：住
RPRNMLOKMHLFFCC77CA,源遠段,25.79,都市：住
RPWNMLPKMHLFFCC38CA,明德段,37.51,都市：住
RPTNMLPKMHLFFCC08CA,源遠段,3.28,都市：住
RPOOMLKLMHLFFCC27CA,五堵段五堵北小段,37.55,都市：住
RPVNMLMLMHLFFCC08CA,源遠段,54.10,都市：住
RPVNMLMLMHLFFCC08CA,源遠段,.11,都市：住
RPRPMLQLMHLFFCC28CA,溪頭段,8.94,都市：住
RPPNMLMLMHLFFBC37CA,深澳段,20.60,都市：住
RPPNMLTKMHLFFBC97CA,調和段,19.14,都市：住
RPRNMLMJNHLFFBC47CA,長潭段,20.19,都市：住
RPPNMLMKNHLFFBC37CA,日新段六小段,2.00,都市：商
RPPNMLMKNHLFFBC37CA,日新段六小段,13.10,都市：商
RPXNMLOKMHLFFBC28CA,長潭段,24.57,都市：住
RPOOMLOKMHLFFBC47CA,東信段四小段,24.00,都市：住
RPQNMLOKMHLFFBC57CA,忠義段六小段,23.67,都市：住
RPQUMLPKMHLFFBC38CA,福祿段,32.00,都市：住
RPTNMLSKMHLFFBC28CA,長潭段,24.57,都市：住
RPSOMLKLMHLFFCC67CA,新會段,25.15,都市：住
RPQOMLTKMHLFFCC28CA,源遠段,14.07,都市：住
RPROMLTKMHLFFCC38CA,過港段,23.69,都市：住
RPROMLTKMHLFFCC38CA,過港段,.03,都市：其他
RPSNMLPKMHLFFCC97CA,大華段,22.00,都市：住
RPOOMLOKMHLFFCC57CA,代天府段,17.15,都市：其他
RPOOMLOKMHLFFCC57CA,代天府段,.10,都市：其他
RPOOMLOKMHLFFCC57CA,代天府段,.14,都市：住
RPOOMLOKMHLFFCC57CA,代天府段,.03,都市：其他
RPOOMLOKMHLFFCC57CA,代天府段,.00,都市：住
RPOOMLOKMHLFFCC57CA,代天府段,.07,都市：住
RPWNMLMLMHLFFBC18DA,福祿段,11.00,都市：住
RPWNMLMLMHLFFBC18DA,福祿段,.46,都市：住
RPQNMLOKMHLFFCC87EA,源遠段,90.00,都市：住
RPPNMLLLMHLFFCC57EA,德育段,23.45,都市：住
RPPNMLLLMHLFFCC57EA,德育段,2.52,都市：其他
RPRNMLKKNHLFFCC67EA,德育段,14.66,都市：住
RPVPMLPKMHLFFBC48DA,中正段二小段,13.55,都市：商
RPQNMLLMNHLFFBC77EA,調和段,84.76,都市：住
RPOOMLPJNHLFFCC67CA,麥金段,21.97,都市：住
RPOOMLPJNHLFFCC67CA,麥金段,.23,都市：其他
RPXNMLOKMHLFFCC38CA,德育段,100.01,都市：住
RPXNMLOKMHLFFCC38CA,德育段,.26,都市：其他
RPXNMLOKMHLFFCC38CA,德育段,2.74,都市：住
RPXNMLOKMHLFFCC38CA,德育段,.00,都市：其他
RPXNMLOKMHLFFCC38CA,德育段,.01,都市：其他
RPXNMLOKMHLFFCC38CA,德育段,.10,都市：其他
RPUNMLPKMHLFFCC18CA,新城段,4.15,都市：其他
RPUNMLPKMHLFFCC18CA,新城段,11.03,都市：其他
RPUNMLPKMHLFFCC18CA,新城段,.01,都市：其他
RPUNMLPKMHLFFCC18CA,新城段,.00,都市：其他
RPVNMLPKMHLFFCC28CA,新城段,.34,都市：住
RPVNMLPKMHLFFCC28CA,新城段,15.61,都市：其他
RPVNMLPKMHLFFCC28CA,新城段,.01,都市：其他
RPVNMLPKMHLFFCC28CA,新城段,.03,都市：其他
RPVNMLPKMHLFFCC28CA,新城段,1.97,都市：住
RPRNMLTKMHLFFCC28CA,工建段,11.31,都市：住
RPXRMLQLMHLFFCC09CA,工建段,10.07,都市：住
RPUNMLSKMHLFFBC38CA,福祿段,31.75,都市：住
RPSNMLSKMHLFFBC18CA,成功段,.48,都市：其他
RPSNMLSKMHLFFBC18CA,成功段,.53,都市：其他
RPSNMLSKMHLFFBC18CA,成功段,1.68,都市：其他
RPSNMLSKMHLFFBC18CA,成功段,.04,都市：其他
RPSNMLSKMHLFFBC18CA,成功段,.01,都市：其他
RPSNMLSKMHLFFBC18CA,成功段,8.32,都市：其他
RPSNMLSKMHLFFBC18CA,成功段,.02,都市：其他
RPSNMLSKMHLFFBC18CA,成功段,9.30,都市：其他
RPQNMLSKMHLFFBC97CA,中興段二小段,18.80,都市：商
RPSOMLSKMHLFFBC28CA,祥豐段,26.27,都市：住
RPSOMLSKMHLFFBC28CA,祥豐段,2.47,都市：住
RPSOMLSKMHLFFBC28CA,祥豐段,6.13,都市：住
RPWNMLLLMHLFFBC97CA,成功段,34.38,都市：住
RPWNMLLLMHLFFBC97CA,成功段,2.88,都市：其他
RPVNMLLLMHLFFBC87CA,東信段二小段,3.62,都市：住
RPVNMLLLMHLFFBC87CA,東信段二小段,.07,都市：其他
RPRNMLTKMHLFFBC18CA,調和段,.00,都市：住
RPRNMLTKMHLFFBC18CA,調和段,.00,都市：其他
RPRNMLTKMHLFFBC18CA,調和段,14.93,都市：其他
RPRNMLTKMHLFFBC18CA,調和段,.01,都市：其他
RPRNMLTKMHLFFBC18CA,調和段,.00,都市：住
RPSNMLTKMHLFFBC28CA,南新段,33.88,都市：住
RPUNMLPLMHLFFBC18CA,延年段,15.76,都市：商
RPUNMLPLMHLFFBC18CA,延年段,.01,都市：商
RPUNMLPLMHLFFBC18CA,延年段,.02,都市：商
RPSNMLMKNHLFFBC67CA,深美段,13.41,都市：住
RPUNMLMKNHLFFBC87CA,調和段,19.14,都市：住
RPROMLKLMHLFFCC57CA,麥金段,.16,都市：其他
RPROMLKLMHLFFCC57CA,麥金段,2.64,都市：其他
RPROMLKLMHLFFCC57CA,麥金段,.28,都市：其他
RPROMLKLMHLFFCC57CA,麥金段,43.58,都市：住
RPROMLKLMHLFFCC57CA,麥金段,.05,都市：其他
RPROMLKLMHLFFCC57CA,麥金段,.25,都市：其他
RPSNMLSLMHLFFCC38CA,大武崙段內寮小段,125.30,都市：住
RPXNMLRLMHLFFCC78CA,麥金段,21.82,都市：住
RPXNMLRLMHLFFCC78CA,麥金段,.63,都市：其他
RPOPMLQLMHLFFCC97CA,五堵段五堵北小段,39.84,都市：住
RPRNMLSKMHLFFCC18CA,源遠段,13.76,都市：住
RPSNMLSKMHLFFCC28CA,源遠段,54.67,都市：住
RPWNMLTKMHLFFCC78CA,中山段,11.05,都市：商
RPTNMLLLMHLFFCC77CA,大華段,3699.03,都市：農
RPRRMLOJNHLFFCC18CA,麥金段,26.74,都市：住
RPWNMLMJNHLFFCC08CA,德安段,21.77,都市：住
RPWNMLMJNHLFFCC08CA,德安段,.21,都市：其他
RPWNMLMJNHLFFCC08CA,德安段,.06,都市：其他
RPWNMLMJNHLFFCC08CA,德安段,.04,都市：住
RPWNMLMJNHLFFCC08CA,德安段,.07,都市：其他
RPWNMLMJNHLFFCC08CA,德安段,.03,都市：其他
RPXNMLKKNHLFFCC08CA,源遠段,18.97,都市：住
RPSNMLMLMHLFFBC77DA,長潭段,22.00,都市：住
RPQNMLRKNHLFFCC08CA,碇內段溪西股小段,92.50,都市：其他
RPQNMLLLMHLFFCC47CA,新城段,24.49,都市：住
RPQNMLLLMHLFFCC47CA,新城段,24.49,都市：住
RPRNMLLLMHLFFCC57CA,新城段,48.98,都市：住
RPXNMLKLMHLFFCC08CA,麥金段,41.92,都市：住
RPXNMLKLMHLFFCC08CA,麥金段,.05,都市：其他
RPXNMLKLMHLFFCC08CA,麥金段,.15,都市：其他
RPXNMLKLMHLFFCC08CA,麥金段,2.54,都市：其他
RPXNMLKLMHLFFCC08CA,麥金段,.27,都市：其他
RPXNMLKLMHLFFCC08CA,麥金段,.24,都市：其他
RPVNMLKLMHLFFCC87CA,武嶺段,.08,都市：其他
RPVNMLKLMHLFFCC87CA,武嶺段,.12,都市：其他
RPVNMLKLMHLFFCC87CA,武嶺段,8.71,都市：住
RPVNMLKLMHLFFCC87CA,武嶺段,.09,都市：其他
RPVNMLKLMHLFFCC87CA,武嶺段,.21,都市：住
RPVNMLKLMHLFFCC87CA,武嶺段,4.00,都市：住
RPVNMLKLMHLFFCC87CA,武嶺段,.02,都市：其他
RPVNMLKLMHLFFCC87CA,武嶺段,9.21,都市：住
RPVNMLKLMHLFFCC87CA,武嶺段,.20,都市：其他
RPVNMLKLMHLFFCC87CA,武嶺段,.09,都市：其他
RPVNMLKLMHLFFCC87CA,武嶺段,.36,都市：其他
RPVNMLKLMHLFFCC87CA,武嶺段,.04,都市：其他
RPVNMLKLMHLFFCC87CA,武嶺段,.20,都市：其他
RPVNMLKLMHLFFCC87CA,武嶺段,.03,都市：住
RPVNMLKLMHLFFCC87CA,武嶺段,.05,都市：其他
RPVNMLKLMHLFFCC87CA,武嶺段,.00,都市：住
RPVNMLKLMHLFFCC87CA,武嶺段,1.98,都市：住
RPVNMLKLMHLFFCC87CA,武嶺段,.14,都市：其他
RPVNMLKLMHLFFCC87CA,武嶺段,13.08,都市：住
RPVNMLKLMHLFFCC87CA,武嶺段,.01,都市：其他
RPVNMLKLMHLFFCC87CA,武嶺段,2.95,都市：住
RPVNMLKLMHLFFCC87CA,武嶺段,.03,都市：住
RPVNMLKLMHLFFCC87CA,武嶺段,.10,都市：住
RPVNMLKLMHLFFCC87CA,武嶺段,.04,都市：住
RPVNMLKLMHLFFCC87CA,武嶺段,4.50,都市：住
RPVNMLKLMHLFFCC87CA,武嶺段,.09,都市：住
RPVNMLKLMHLFFCC87CA,武嶺段,.05,都市：住
RPVNMLKLMHLFFCC87CA,武嶺段,.03,都市：住
RPVNMLKLMHLFFCC87CA,武嶺段,.06,都市：住
RPVNMLKLMHLFFCC87CA,武嶺段,.03,都市：住
RPVNMLKLMHLFFCC87CA,武嶺段,.15,都市：其他
RPVNMLKLMHLFFCC87CA,武嶺段,.09,都市：住
RPVNMLKLMHLFFCC87CA,武嶺段,.00,都市：其他
RPQNMLKLMHLFFCC37CA,觀音段,18.60,都市：住
RPQNMLKLMHLFFCC37CA,觀音段,.20,都市：其他
RPUNMLKLMHLFFCC97EA,大德段,18.15,都市：住
RPUNMLKLMHLFFCC97EA,大德段,5.64,都市：住
RPUNMLKLMHLFFCC97EA,大德段,4.43,都市：其他
RPUNMLKLMHLFFCC97EA,大德段,.24,都市：其他
RPROMLPJNHLFFBC87CA,祥豐段,49.00,都市：住
RPROMLPJNHLFFBC87CA,祥豐段,38.00,都市：其他
RPROMLPJNHLFFBC87CA,祥豐段,2.00,都市：住
RPTNMLMLMHLFFBC77CA,東明段,13.40,都市：商
RPTNMLMLMHLFFBC77CA,東明段,3.60,都市：住
RPTNMLMLMHLFFBC77CA,東明段,6.00,都市：商
RPPNMLRLMHLFFBC87CA,深澳段,24.53,都市：住
RPPNMLKLMHLFFBC17CA,成功段,13.79,都市：其他
RPRNMLLLMHLFFBC47CA,港灣段一小段,5.82,都市：商
RPRNMLLLMHLFFBC47CA,港灣段一小段,9.79,都市：商
RPSNMLLLMHLFFBC57CA,調和段,20.37,都市：住
RPSNMLLLMHLFFBC57CA,調和段,.00,都市：其他
RPPOMLSKNHLFFBC08CA,調和段,13.91,都市：其他
RPPOMLSKNHLFFBC08CA,調和段,.01,都市：其他
RPPOMLSKNHLFFBC08CA,調和段,.00,都市：住
RPRNMLSKNHLFFCC48EA,過港段,33.76,都市：住
RPQNMLQLMHLFFCC18EA,德育段,2.74,都市：住
RPQNMLQLMHLFFCC18EA,德育段,.00,都市：其他
RPQNMLQLMHLFFCC18EA,德育段,.01,都市：其他
RPQNMLQLMHLFFCC18EA,德育段,.10,都市：其他
RPQNMLQLMHLFFCC18EA,德育段,116.97,都市：住
RPQNMLQLMHLFFCC18EA,德育段,.04,都市：其他
RPQNMLQLMHLFFCC18EA,德育段,1.13,都市：其他
RPQNMLQLMHLFFCC18EA,德育段,.00,都市：住
RPQNMLQLMHLFFCC18EA,德育段,.01,都市：住
RPTNMLKLMHLFFCC67CA,源遠段,19.15,都市：住
RPPOMLTKMHLFFCC18CA,源遠段,61.47,都市：住
RPPOMLTKMHLFFCC18CA,源遠段,.13,都市：住
RPPNMLKLMHLFFCC27CA,麥金段,85.37,都市：住
RPPOMLKLMHLFFCC37CA,西定段,20.00,都市：商
RPXOMLQLMHLFFCC78CA,保定段,.53,都市：其他
RPXOMLQLMHLFFCC78CA,保定段,3.02,都市：住
RPXOMLQLMHLFFCC78CA,保定段,.01,都市：其他
RPXOMLQLMHLFFCC78CA,保定段,.30,都市：其他
RPXOMLQLMHLFFCC78CA,保定段,3.82,都市：住
RPXOMLQLMHLFFCC78CA,保定段,23.59,都市：住
RPSQMLQLMHLFFCC48CA,明德段,37.49,都市：住
RPSQMLQLMHLFFCC48CA,明德段,1.22,都市：其他
RPSQMLQLMHLFFCC48CA,明德段,.56,都市：其他
RPSRMLQLMHLFFCC58CA,大武崙段內寮小段,109.23,都市：住
RPVPMLPLMHLFFCC58CA,大武崙段內寮小段,8.41,都市：其他
RPVPMLPLMHLFFCC58CA,大武崙段內寮小段,.75,都市：住
RPXNMLMLMHLFFCC28CA,長安段,27.34,都市：住
RPOOMLMLMHLFFCC47CA,新會段,18.68,都市：住
RPQOMLKLMHLFFCC47CA,代天府段,35.74,都市：住
RPQOMLKLMHLFFCC47CA,代天府段,.01,都市：其他
RPQOMLKLMHLFFCC47CA,代天府段,.84,都市：住
RPRPMLNKNHLFFCC97CA,武嶺段,.13,都市：其他
RPRPMLNKNHLFFCC97CA,武嶺段,5.96,都市：其他
RPRPMLNKNHLFFCC97CA,武嶺段,.13,都市：其他
RPRPMLNKNHLFFCC97CA,武嶺段,.06,都市：其他
RPRPMLNKNHLFFCC97CA,武嶺段,.23,都市：其他
RPRPMLNKNHLFFCC97CA,武嶺段,.02,都市：其他
RPRPMLNKNHLFFCC97CA,武嶺段,.05,都市：其他
RPRPMLNKNHLFFCC97CA,武嶺段,.07,都市：其他
RPRPMLNKNHLFFCC97CA,武嶺段,5.64,都市：其他
RPRPMLNKNHLFFCC97CA,武嶺段,.06,都市：其他
RPRPMLNKNHLFFCC97CA,武嶺段,.13,都市：住
RPRPMLNKNHLFFCC97CA,武嶺段,2.59,都市：其他
RPRPMLNKNHLFFCC97CA,武嶺段,.02,都市：其他
RPRPMLNKNHLFFCC97CA,武嶺段,.02,都市：住
RPRPMLNKNHLFFCC97CA,武嶺段,.03,都市：其他
RPRPMLNKNHLFFCC97CA,武嶺段,.00,都市：住
RPRPMLNKNHLFFCC97CA,武嶺段,1.28,都市：住
RPRPMLNKNHLFFCC97CA,武嶺段,.09,都市：其他
RPRPMLNKNHLFFCC97CA,武嶺段,8.47,都市：住
RPRPMLNKNHLFFCC97CA,武嶺段,.00,都市：其他
RPRPMLNKNHLFFCC97CA,武嶺段,1.91,都市：住
RPRPMLNKNHLFFCC97CA,武嶺段,.02,都市：住
RPRPMLNKNHLFFCC97CA,武嶺段,.07,都市：住
RPRPMLNKNHLFFCC97CA,武嶺段,.03,都市：住
RPRPMLNKNHLFFCC97CA,武嶺段,2.91,都市：住
RPRPMLNKNHLFFCC97CA,武嶺段,.06,都市：住
RPRPMLNKNHLFFCC97CA,武嶺段,.03,都市：住
RPRPMLNKNHLFFCC97CA,武嶺段,.02,都市：住
RPRPMLNKNHLFFCC97CA,武嶺段,.04,都市：住
RPRPMLNKNHLFFCC97CA,武嶺段,.02,都市：住
RPRPMLNKNHLFFCC97CA,武嶺段,.09,都市：其他
RPRPMLNKNHLFFCC97CA,武嶺段,.06,都市：住
RPRPMLNKNHLFFCC97CA,武嶺段,.00,都市：其他
RPSPMLOJNHLFFCC08CA,仁德段,24.25,都市：住
RPPNMLMLMHLFFCC67EA,新城段,26.02,都市：住
RPPNMLMLMHLFFCC67EA,新城段,.02,都市：其他
RPPNMLMLMHLFFCC67EA,新城段,.06,都市：其他
RPPNMLMLMHLFFCC67EA,新城段,.56,都市：其他
RPPNMLMLMHLFFCC67EA,新城段,3.28,都市：住
RPQPMLPLMHLFFCC28EA,友蚋段港口小段,173.00,非都市：山坡地保育區 ; 非都市編定：暫未編定
RPQPMLPLMHLFFCC28EA,友蚋段港口小段,25.00,非都市：山坡地保育區 ; 非都市編定：丙種建築用地
RPPNMLLKNHLFFCC57EA,武嶺段,29.11,都市：其他
RPPNMLLKNHLFFCC57EA,武嶺段,.55,都市：其他
RPVNMLLLMHLFFCC08DA,麥金段,13.38,都市：住
RPVNMLLLMHLFFCC08DA,麥金段,.39,都市：住
RPRNMLTKNHLFFBC28CA,祥豐段,.50,都市：其他
RPRNMLTKNHLFFBC28CA,祥豐段,35.75,都市：住
RPSOMLTKNHLFFBC48CA,長潭段,22.66,都市：住
RPRNMLRLMHLFFBC08CA,忠義段二小段,10.00,都市：商
RPRNMLRLMHLFFBC08CA,忠義段二小段,2.25,都市：商
RPPNMLNJNHLFFBC37CA,南新段,17.25,都市：住
RPPNMLNJNHLFFBC37CA,南新段,25.99,都市：住
RPRNMLOJNHLFFBC67CA,培德段,27.56,都市：住
RPTNMLRKNHLFFBC28CA,調和段,73.08,都市：住
RPTNMLRKNHLFFBC28CA,調和段,.04,都市：住
RPTNMLRKNHLFFBC28CA,調和段,.66,都市：住
RPTNMLRKNHLFFBC28CA,調和段,.06,都市：住
RPTNMLRKNHLFFBC28CA,調和段,.04,都市：住
RPTNMLRKNHLFFBC28CA,調和段,.20,都市：住
RPPNMLQLMHLFFBC77CA,調和段,20.37,都市：住
RPPNMLQLMHLFFBC77CA,調和段,.00,都市：住
RPPRMLOJNHLFFCC97CA,明德段,14.55,都市：住
RPPRMLOJNHLFFCC97CA,明德段,3.20,都市：住
RPPRMLOJNHLFFCC97CA,明德段,29.90,都市：住
RPQOMLPJNHLFFCC87CA,八德段,26.60,都市：住
RPQOMLOJNHLFFCC77CA,暖暖段東勢坑小段,42.87,都市：住
RPTNMLMKNHLFFCC87CA,德育段,100.23,都市：住
RPTNMLMKNHLFFCC87CA,德育段,1.50,都市：住
RPTNMLMKNHLFFCC87CA,德育段,.02,都市：住
RPVOMLNKNHLFFCC28CA,新崙段,174.40,都市：住
RPVOMLNKNHLFFCC28CA,新崙段,28.34,都市：住
RPVOMLNKNHLFFCC28CA,新崙段,6.51,都市：住
RPWNMLNKNHLFFCC28CA,新崙段,174.40,都市：住
RPWNMLNKNHLFFCC28CA,新崙段,28.34,都市：住
RPWNMLNKNHLFFCC28CA,新崙段,6.51,都市：住
RPXNMLNKNHLFFCC38CA,新崙段,177.63,都市：住
RPXNMLNKNHLFFCC38CA,新崙段,28.86,都市：住
RPXNMLNKNHLFFCC38CA,新崙段,6.63,都市：住
RPOOMLNKNHLFFCC57CA,新崙段,174.40,都市：住
RPOOMLNKNHLFFCC57CA,新崙段,28.34,都市：住
RPOOMLNKNHLFFCC57CA,新崙段,6.51,都市：住
RPTNMLPLMHLFFCC18CA,新會段,78.39,都市：住
RPTNMLPLMHLFFCC18CA,新會段,7.93,都市：其他
RPTNMLPLMHLFFCC18CA,新會段,.16,都市：其他
RPUNMLPLMHLFFCC28CA,武嶺段,39.33,都市：其他
RPTRMLQLMHLFFCC68CA,新會段,16.05,都市：住
RPTRMLQLMHLFFCC68CA,新會段,1.67,都市：其他
RPTRMLQLMHLFFCC68CA,新會段,.72,都市：其他
RPTRMLQLMHLFFCC68CA,新會段,.01,都市：其他
RPURMLQLMHLFFCC78CA,保定段,17.63,都市：住
RPURMLQLMHLFFCC78CA,保定段,.01,都市：其他
RPURMLQLMHLFFCC78CA,保定段,.22,都市：其他
RPURMLQLMHLFFCC78CA,保定段,.31,都市：其他
RPURMLQLMHLFFCC78CA,保定段,7.83,都市：住
RPSPMLPLMHLFFCC28CA,大華段,45.02,都市：住
RPTNMLSLMHLFFCC48CA,觀音段,40.25,都市：住
RPPOMLNKNHLFFCC67CA,新崙段,174.40,都市：住
RPPOMLNKNHLFFCC67CA,新崙段,28.34,都市：住
RPPOMLNKNHLFFCC67CA,新崙段,6.51,都市：住
RPQOMLNKNHLFFCC77CA,新崙段,264.82,都市：住
RPQOMLNKNHLFFCC77CA,新崙段,43.03,都市：住
RPQOMLNKNHLFFCC77CA,新崙段,9.88,都市：住
RPROMLNKNHLFFCC87CA,新崙段,248.68,都市：住
RPROMLNKNHLFFCC87CA,新崙段,40.41,都市：住
RPROMLNKNHLFFCC87CA,新崙段,9.28,都市：住
RPSOMLNKNHLFFCC97CA,新崙段,248.68,都市：住
RPSOMLNKNHLFFCC97CA,新崙段,40.41,都市：住
RPSOMLNKNHLFFCC97CA,新崙段,9.28,都市：住
RPWOMLNKNHLFFCC38CA,新崙段,177.63,都市：住
RPWOMLNKNHLFFCC38CA,新崙段,28.86,都市：住
RPWOMLNKNHLFFCC38CA,新崙段,6.63,都市：住
RPXOMLNKNHLFFCC48CA,新崙段,226.07,都市：住
RPXOMLNKNHLFFCC48CA,新崙段,36.74,都市：住
RPXOMLNKNHLFFCC48CA,新崙段,8.44,都市：住
RPUNMLNKNHLFFCC08CA,新崙段,177.63,都市：住
RPUNMLNKNHLFFCC08CA,新崙段,28.86,都市：住
RPUNMLNKNHLFFCC08CA,新崙段,6.63,都市：住
RPVNMLNKNHLFFCC18CA,新崙段,174.40,都市：住
RPVNMLNKNHLFFCC18CA,新崙段,28.34,都市：住
RPVNMLNKNHLFFCC18CA,新崙段,6.51,都市：住
RPUOMLNKNHLFFCC18CA,新崙段,222.84,都市：住
RPUOMLNKNHLFFCC18CA,新崙段,36.21,都市：住
RPUOMLNKNHLFFCC18CA,新崙段,8.32,都市：住
RPQNMLRKOHLFFBC28EA,港濱段,16.50,都市：住
RPQNMLRKOHLFFBC28EA,港濱段,1.12,都市：其他
RPRNMLNJNHLFFCC67CA,源遠段,14.73,都市：商
RPPOMLNJNHLFFCC57CA,保定段,36.50,都市：住
RPRNMLMLMHLFFCC87EA,五堵段五堵北小段,51.35,都市：住
RPRNMLQLMHLFFBC97CA,深美段,29.49,都市：住
RPRNMLQLMHLFFBC97CA,深美段,.01,都市：住
RPTNMLQLMHLFFBC18CA,深澳坑段槓子寮小段,106.54,都市：住
RPTNMLSLMHLFFBC38CA,長潭段,2.15,都市：住
RPTNMLSLMHLFFBC38CA,長潭段,21.54,都市：住
RPPNMLPLMHLFFBC67CA,港濱段,28.59,都市：住
RPQNMLPLMHLFFBC77CA,調和段,13.31,都市：住
RPSOMLPJNHLFFBC97CA,調和段,97.04,都市：住
RPPNMLTJNHLFFBC97CA,深美段,20.89,都市：住
RPPNMLTJNHLFFBC97CA,深美段,.01,都市：住
RPPNMLKKNHLFFBC17CA,調和段,193.74,都市：住
RPTNMLOJNHLFFBC87CA,港濱段,27.25,都市：住
RPTNMLOJNHLFFBC87CA,港濱段,.08,都市：商
RPPOMLPJNHLFFBC67CA,港濱段,5.39,都市：住
RPPOMLPJNHLFFBC67CA,港濱段,3.12,都市：住
RPXNMLRLMHLFFBC68CA,延平段,28.27,都市：商
RPSNMLMJNHLFFBC57CA,福祿段,30.00,都市：其他
RPSNMLMJNHLFFBC57CA,福祿段,2.75,都市：住
RPQNMLNJNHLFFBC47CA,深澳段,17.45,都市：住
RPQOMLPJNHLFFBC77CA,光明段,31.37,都市：其他
RPOOMLOJNHLFFBC47CA,調和段,35.38,都市：住
RPUNMLRLMHLFFBC38CA,港濱段,16.79,都市：住
RPUNMLRLMHLFFBC38CA,港濱段,9.60,都市：其他
RPQNMLRLMHLFFBC97CA,深美段,6.89,都市：住
RPQNMLRLMHLFFBC97CA,深美段,.04,都市：其他
RPQNMLRLMHLFFBC97CA,深美段,.36,都市：住
RPQNMLRLMHLFFBC97CA,祥豐段,.06,都市：住
RPROMLNJNHLFFCC97EA,協和段,185.96,都市：住
RPROMLNJNHLFFCC97EA,協和段,9.01,都市：其他
RPROMLNJNHLFFCC97EA,協和段,1.71,都市：其他
RPROMLNJNHLFFCC97EA,協和段,.12,都市：其他
RPROMLNJNHLFFCC97EA,協和段,5.34,都市：其他
RPROMLNJNHLFFCC97EA,協和段,.04,都市：其他
RPPOMLPJNHLFFCC77CA,新崙段,38.09,都市：住
RPVNMLTLMHLFFCC78CA,大武崙段內寮小段,39.48,都市：其他
RPVNMLTLMHLFFCC78CA,大武崙段內寮小段,.86,都市：住
RPVNMLTLMHLFFCC78CA,大武崙段內寮小段,1.25,都市：住
RPVNMLTLMHLFFCC78CA,大武崙段內寮小段,1.44,都市：住
RPSNMLMKNHLFFCC77CA,源遠段,17.51,都市：住
RPSQMLQJNHLFFCC38CA,大華段,7.12,都市：住
RPSQMLQJNHLFFCC38CA,大華段,23.73,都市：住
RPUQMLQJNHLFFCC58CA,大武崙段內寮小段,126.83,都市：住
RPVQMLQJNHLFFCC68CA,金華段,23.13,都市：住
RPVQMLQJNHLFFCC68CA,金華段,1.66,都市：其他
RPVQMLQJNHLFFCC68CA,金華段,2.67,都市：其他
RPSNMLTKNHLFFCC48CA,源遠段,1.60,都市：住
RPSNMLRLMHLFFCC28CA,新城段,7.29,都市：其他
RPSNMLRLMHLFFCC28CA,新城段,19.38,都市：其他
RPSNMLRLMHLFFCC28CA,新城段,.01,都市：其他
RPSNMLRLMHLFFCC28CA,新城段,.00,都市：其他
RPOQMLPLMHLFFCC97CA,源遠段,17.51,都市：住
RPPPMLQLMHLFFCC08CA,大武崙段內寮小段,116.95,都市：住
RPTNMLRLMHLFFCC38CA,大武崙段內寮小段,79.11,都市：住
RPUNMLRLMHLFFCC48CA,新會段,28.03,都市：住
RPVNMLRLMHLFFCC58CA,武嶺段,34.94,都市：住
RPQNMLRLMHLFFCC08CA,德安段,21.11,都市：住
RPQNMLRLMHLFFCC08CA,德安段,1.32,都市：其他
RPRNMLRLMHLFFCC18CA,新崙段,22.78,都市：住
RPPOMLRLMHLFFCC08CA,暖暖段暖暖小段,35.21,都市：住
RPSNMLQLMHLFFBC18DA,培德段,19.30,都市：住
RPRNMLOLNHLFFCC97CA,代天府段,17.15,都市：其他
RPRNMLOLNHLFFCC97CA,代天府段,.10,都市：其他
RPRNMLOLNHLFFCC97CA,代天府段,.14,都市：住
RPRNMLOLNHLFFCC97CA,代天府段,.03,都市：其他
RPRNMLOLNHLFFCC97CA,代天府段,.00,都市：住
RPRNMLOLNHLFFCC97CA,代天府段,.07,都市：住
RPSNMLNJNHLFFCC77CA,過港段,19.08,都市：住
RPSNMLNJNHLFFCC77CA,過港段,.11,都市：其他
RPSNMLNJNHLFFCC77CA,過港段,.21,都市：其他
RPSNMLNJNHLFFCC77CA,過港段,.28,都市：其他
RPQNMLPJNHLFFCC77CA,武嶺段,23.80,都市：住
RPQNMLPJNHLFFCC77CA,武嶺段,2.27,都市：其他
RPQNMLPJNHLFFCC77CA,武嶺段,.28,都市：其他
RPQNMLPJNHLFFCC77CA,武嶺段,.12,都市：其他
RPQPMLOJNHLFFCC87CA,中山段,46.00,都市：商
RPQPMLOJNHLFFCC87CA,中山段,73.00,都市：商
RPRPMLOJNHLFFCC97CA,安國段,24.98,都市：商
RPUNMLTLMHLFFCC68CA,代天府段,.84,都市：住
RPUNMLTLMHLFFCC68CA,代天府段,24.85,都市：住
RPSNMLKKNHLFFCC77EA,觀音段,33.58,都市：住
RPSNMLKKNHLFFCC77EA,觀音段,5.54,都市：其他
RPUNMLSLMHLFFBC48CA,東信段一小段,21.09,都市：住
RPUNMLSLMHLFFBC48CA,東信段一小段,21.09,都市：住
RPUNMLSLMHLFFBC48CA,東信段一小段,.93,都市：住
RPUNMLSLMHLFFBC48CA,東信段一小段,.93,都市：住
RPPNMLSLMHLFFBC97CA,深澳段,49.03,都市：住
RPSNMLSLMHLFFBC28CA,長潭段,13.11,都市：住
RPTNMLMJNHLFFBC67CA,深澳段,43.60,都市：住
RPQNMLPJNHLFFBC67CA,調和段,29.36,都市：住
RPRNMLSJNHLFFBC08CA,福祿段,35.19,都市：住
RPSNMLQJNHLFFBC97CA,調和段,5.64,都市：住
RPPNMLRJNHLFFBC77CA,中濱段,12.52,都市：住
RPVNMLRLMHLFFBC48CA,調和段,31.72,都市：住
RPVNMLRLMHLFFBC48CA,調和段,.05,都市：其他
RPVNMLRLMHLFFBC48CA,調和段,.05,都市：其他
RPVNMLRLMHLFFBC48CA,調和段,.05,都市：其他
RPTQMLOJNHLFFCC48EA,觀音段,24.17,都市：住
RPPNMLSLMHLFFCC28EA,大華段,23.25,都市：住
RPOOMLNJNHLFFCC47CA,太平段,2.33,都市：商
RPOOMLNJNHLFFCC47CA,太平段,11.67,都市：住
RPOOMLNJNHLFFCC47CA,太平段,3.33,都市：商
RPQRMLOJNHLFFCC08CA,代天府段,16.33,都市：住
RPQRMLOJNHLFFCC08CA,代天府段,.10,都市：住
RPQRMLOJNHLFFCC08CA,代天府段,.13,都市：住
RPQRMLOJNHLFFCC08CA,代天府段,.03,都市：住
RPQRMLOJNHLFFCC08CA,代天府段,.00,都市：住
RPQRMLOJNHLFFCC08CA,代天府段,.06,都市：住
RPPNMLNJNHLFFCC47CA,新會段,20.31,都市：住
RPPNMLNJNHLFFCC47CA,新會段,2.11,都市：其他
RPPNMLNJNHLFFCC47CA,新會段,.92,都市：其他
RPPNMLNJNHLFFCC47CA,新會段,.01,都市：其他
RPQNMLNJNHLFFCC57CA,安國段,26.76,都市：住
RPPNMLMJNHLFFCC37CA,榮華段,16.03,都市：住
RPPNMLMJNHLFFCC37CA,榮華段,1.00,都市：其他
RPQNMLMJNHLFFCC47CA,五堵段五堵北小段,34.58,都市：住
RPSNMLTLMHLFFCC48CA,武嶺段,32.80,都市：住
RPSNMLTLMHLFFCC48CA,武嶺段,.11,都市：其他
RPSNMLTLMHLFFCC48CA,武嶺段,1.86,都市：其他
RPOOMLRLMHLFFCC97CA,五堵段五堵北小段,4.58,都市：住
RPVNMLSLMHLFFCC68CA,觀音段,26.34,都市：住
RPPNMLTLMHLFFCC18CA,友蚋段樟空湖小段,1552.00,非都市：山坡地保育區 ; 非都市編定：農牧用地
RPRNMLTLMHLFFCC38CA,暖暖段暖暖小段,42.53,都市：住
RPWOMLOJNHLFFCC38CA,新城段,68.86,都市：住
RPTNMLPJNHLFFCC08CA,暖暖段東勢坑小段,27.84,都市：住
RPXNMLNJNHLFFCC28CA,新會段,.43,都市：住
RPXNMLNJNHLFFCC28CA,新會段,14.85,都市：其他
RPXNMLNJNHLFFCC28CA,新會段,1.10,都市：住
RPXNMLNJNHLFFCC28CA,新會段,.80,都市：住
RPVNMLKKNHLFFCC87CA,源遠段,19.46,都市：住
RPWNMLLKNHLFFCC08CA,源遠段,25.97,都市：住
RPWNMLRLNHLFFCC78CA,麥金段,16.01,都市：住
RPWNMLRLNHLFFCC78CA,麥金段,.02,都市：住
RPWNMLRLNHLFFCC78CA,麥金段,.01,都市：住
RPXNMLQLNHLFFCC78CA,麥金段,17.13,都市：住
RPXNMLQLNHLFFCC78CA,麥金段,.02,都市：住
RPXNMLQLNHLFFCC78CA,麥金段,.01,都市：住
RPPOMLQLNHLFFCC08CA,麥金段,14.03,都市：住
RPPOMLQLNHLFFCC08CA,麥金段,.02,都市：住
RPPOMLQLNHLFFCC08CA,麥金段,.01,都市：住
RPQOMLQLNHLFFCC18CA,麥金段,12.18,都市：住
RPQOMLQLNHLFFCC18CA,麥金段,.01,都市：住
RPQOMLQLNHLFFCC18CA,麥金段,.00,都市：住
RPROMLQLNHLFFCC28CA,麥金段,7.11,都市：住
RPROMLQLNHLFFCC28CA,麥金段,.01,都市：住
RPROMLQLNHLFFCC28CA,麥金段,.00,都市：住
RPSOMLQLNHLFFCC38CA,麥金段,10.48,都市：住
RPSOMLQLNHLFFCC38CA,麥金段,.01,都市：住
RPSOMLQLNHLFFCC38CA,麥金段,.00,都市：住
RPPOMLOJNHLFFCC87EA,五堵段五堵北小段,37.58,都市：住
RPSNMLQJNHLFFCC28EA,源遠段,22.35,都市：住
RPPNMLTLMHLFFBC08CA,長潭段,25.74,都市：住
RPXNMLNJNHLFFBC18CA,東明段,55.00,都市：住
RPRNMLSKNHLFFBC18CA,深澳段,20.60,都市：住
RPPNMLLKNHLFFBC27CA,福祿段,31.46,都市：住
RPTNMLRLNHLFFBC38CA,培德段,5.36,都市：住
RPQNMLRKNHLFFBC97CA,德厚段,24.80,都市：住
RPQNMLRKNHLFFBC97CA,德厚段,15.00,都市：其他
RPQNMLRKNHLFFBC97CA,德厚段,9.00,都市：其他
RPRNMLKKNHLFFBC37CA,長潭段,33.57,都市：住
RPQNMLRJNHLFFBC87CA,中濱段,14.05,都市：住
RPUNMLOJNHLFFBC97CA,港濱段,11.50,都市：住
RPUNMLOJNHLFFBC97CA,港濱段,10.00,都市：住
RPRNMLNJNHLFFBC57CA,成功段,23.05,都市：住
RPPNMLLJNHLFFBC17CA,港濱段,27.93,都市：住
RPPNMLLJNHLFFBC17CA,港濱段,.19,都市：其他
RPPNMLLJNHLFFBC17CA,港濱段,.58,都市：其他
RPTNMLMJNHLFFCC97EA,麥金段,9.21,都市：住
RPTNMLMJNHLFFCC97EA,麥金段,.35,都市：住
RPTNMLMJNHLFFCC97EA,麥金段,.20,都市：其他
RPTNMLMJNHLFFCC97EA,麥金段,.19,都市：住
RPTNMLMJNHLFFCC97EA,麥金段,.02,都市：住
RPTNMLMJNHLFFCC97EA,麥金段,.01,都市：住
RPTNMLMJNHLFFCC97EA,麥金段,.00,都市：住
RPTNMLMJNHLFFCC97EA,麥金段,.00,都市：住
RPTOMLQLNHLFFCC48CA,麥金段,16.03,都市：住
RPTOMLQLNHLFFCC48CA,麥金段,.02,都市：住
RPTOMLQLNHLFFCC48CA,麥金段,.01,都市：住
RPUOMLQLNHLFFCC58CA,麥金段,15.72,都市：住
RPUOMLQLNHLFFCC58CA,麥金段,.02,都市：住
RPUOMLQLNHLFFCC58CA,麥金段,.01,都市：住
RPVOMLQLNHLFFCC68CA,麥金段,7.11,都市：住
RPVOMLQLNHLFFCC68CA,麥金段,.01,都市：住
RPVOMLQLNHLFFCC68CA,麥金段,.00,都市：住
RPWOMLQLNHLFFCC78CA,麥金段,7.11,都市：住
RPWOMLQLNHLFFCC78CA,麥金段,.01,都市：住
RPWOMLQLNHLFFCC78CA,麥金段,.00,都市：住
RPXOMLQLNHLFFCC88CA,麥金段,24.48,都市：住
RPXOMLQLNHLFFCC88CA,麥金段,.03,都市：住
RPXOMLQLNHLFFCC88CA,麥金段,.01,都市：住
RPOPMLQLNHLFFCC08CA,麥金段,6.82,都市：住
RPOPMLQLNHLFFCC08CA,麥金段,.01,都市：住
RPOPMLQLNHLFFCC08CA,麥金段,.00,都市：住
RPPPMLQLNHLFFCC18CA,麥金段,15.73,都市：住
RPPPMLQLNHLFFCC18CA,麥金段,.02,都市：住
RPPPMLQLNHLFFCC18CA,麥金段,.01,都市：住
RPQPMLQLNHLFFCC28CA,麥金段,7.25,都市：住
RPQPMLQLNHLFFCC28CA,麥金段,.01,都市：住
RPQPMLQLNHLFFCC28CA,麥金段,.00,都市：住
RPTPMLQLNHLFFCC58CA,麥金段,28.04,都市：住
RPTPMLQLNHLFFCC58CA,麥金段,.03,都市：住
RPTPMLQLNHLFFCC58CA,麥金段,.01,都市：住
RPUPMLQLNHLFFCC68CA,麥金段,6.82,都市：住
RPUPMLQLNHLFFCC68CA,麥金段,.01,都市：住
RPUPMLQLNHLFFCC68CA,麥金段,.00,都市：住
RPVPMLQLNHLFFCC78CA,麥金段,16.95,都市：住
RPVPMLQLNHLFFCC78CA,麥金段,.02,都市：住
RPVPMLQLNHLFFCC78CA,麥金段,.01,都市：住
RPWPMLQLNHLFFCC88CA,麥金段,16.03,都市：住
RPWPMLQLNHLFFCC88CA,麥金段,.02,都市：住
RPWPMLQLNHLFFCC88CA,麥金段,.01,都市：住
RPXPMLQLNHLFFCC98CA,麥金段,10.67,都市：住
RPXPMLQLNHLFFCC98CA,麥金段,.01,都市：住
RPXPMLQLNHLFFCC98CA,麥金段,.00,都市：住
RPOQMLQLNHLFFCC18CA,麥金段,6.95,都市：住
RPOQMLQLNHLFFCC18CA,麥金段,.01,都市：住
RPOQMLQLNHLFFCC18CA,麥金段,.00,都市：住
RPPQMLQLNHLFFCC28CA,麥金段,7.25,都市：住
RPPQMLQLNHLFFCC28CA,麥金段,.01,都市：住
RPPQMLQLNHLFFCC28CA,麥金段,.00,都市：住
RPQQMLQLNHLFFCC38CA,麥金段,6.82,都市：住
RPQQMLQLNHLFFCC38CA,麥金段,.01,都市：住
RPQQMLQLNHLFFCC38CA,麥金段,.00,都市：住
RPRQMLQLNHLFFCC48CA,麥金段,15.53,都市：住
RPRQMLQLNHLFFCC48CA,麥金段,.02,都市：住
RPRQMLQLNHLFFCC48CA,麥金段,.01,都市：住
RPSQMLQLNHLFFCC58CA,麥金段,7.11,都市：住
RPSQMLQLNHLFFCC58CA,麥金段,.01,都市：住
RPSQMLQLNHLFFCC58CA,麥金段,.00,都市：住
RPTQMLQLNHLFFCC68CA,麥金段,7.11,都市：住
RPTQMLQLNHLFFCC68CA,麥金段,.01,都市：住
RPTQMLQLNHLFFCC68CA,麥金段,.00,都市：住
RPUQMLQLNHLFFCC78CA,麥金段,16.03,都市：住
RPUQMLQLNHLFFCC78CA,麥金段,.02,都市：住
RPUQMLQLNHLFFCC78CA,麥金段,.01,都市：住
RPVQMLQLNHLFFCC88CA,麥金段,12.18,都市：住
RPVQMLQLNHLFFCC88CA,麥金段,.01,都市：住
RPVQMLQLNHLFFCC88CA,麥金段,.00,都市：住
RPWQMLQLNHLFFCC98CA,麥金段,17.13,都市：住
RPWQMLQLNHLFFCC98CA,麥金段,.02,都市：住
RPWQMLQLNHLFFCC98CA,麥金段,.01,都市：住
RPXQMLQLNHLFFCC09CA,麥金段,14.01,都市：住
RPXQMLQLNHLFFCC09CA,麥金段,.02,都市：住
RPXQMLQLNHLFFCC09CA,麥金段,.01,都市：住
RPPNMLOLNHLFFCC77CA,德育段,1.37,都市：住
RPPNMLOLNHLFFCC77CA,德育段,29.86,都市：住
RPPNMLOLNHLFFCC77CA,德育段,2.00,都市：其他
RPTOMLNKNHLFFCC08CA,源遠段,12.69,都市：住
RPTOMLNKNHLFFCC08CA,源遠段,1.32,都市：住
RPXNMLRLNHLFFCC88CA,麥金段,17.13,都市：住
RPXNMLRLNHLFFCC88CA,麥金段,.02,都市：住
RPXNMLRLNHLFFCC88CA,麥金段,.01,都市：住
RPOOMLRLNHLFFCC08CA,麥金段,14.01,都市：住
RPOOMLRLNHLFFCC08CA,麥金段,.02,都市：住
RPOOMLRLNHLFFCC08CA,麥金段,.01,都市：住
RPTNMLPLNHLFFCC28CA,溪頭段,3.95,都市：住
RPSNMLQKNHLFFBC18DA,深澳坑段槓子寮小段,461.40,都市：住
RPTNMLKMNHLFFBC87DA,忠義段六小段,3.80,都市：住
RPTNMLKMNHLFFBC87DA,忠義段六小段,9.40,都市：住
RPTNMLKMNHLFFBC87DA,忠義段六小段,.40,都市：住
RPTNMLKMNHLFFBC87DA,忠義段六小段,1.00,都市：住
RPUOMLNJNHLFFCC08CA,德育段,26.00,都市：住
RPUOMLNJNHLFFCC08CA,德育段,2.98,都市：住
RPVOMLNJNHLFFCC18CA,源遠段,19.11,都市：住
RPOOMLMJNHLFFCC37CA,五堵段五堵北小段,24.89,都市：住
RPTNMLNJNHLFFCC87CA,安國段,48.90,都市：住
