絪腹,跋琿竚,簿锣縩キよそへ,ㄏノだ跋┪絪﹚
RPSNMLTKKHLFFCC38DB,琿,41.78,常カ
RPTNMLTKKHLFFCC48DB,琿,34.19,常カ
RPUNMLTKKHLFFCC58DB,琿,33.99,常カ
RPVNMLTKKHLFFCC68DB,琿,34.19,常カ
RPWNMLTKKHLFFCC78DB,琿,38.98,常カ
RPXNMLTKKHLFFCC88DB,琿,37.38,常カ
RPOOMLTKKHLFFCC08DB,琿,41.98,常カ
RPPOMLTKKHLFFCC18DB,琿,41.78,常カ
RPQOMLTKKHLFFCC28DB,琿,41.78,常カ
RPROMLTKKHLFFCC38DB,琿,41.38,常カ
RPSOMLTKKHLFFCC48DB,琿,41.38,常カ
RPUOMLTKKHLFFCC68DB,琿,33.99,常カ
RPWOMLTKKHLFFCC88DB,琿,34.19,常カ
RPXOMLTKKHLFFCC98DB,琿,34.19,常カ
RPOPMLTKKHLFFCC18DB,琿,38.78,常カ
