編號,車位類別,車位價格,車位面積平方公尺
RPTNMLTKKHLFFCC48DB,坡道平面,1200000,33.99
RPVNMLTKKHLFFCC68DB,坡道平面,1200000,33.99
RPWNMLTKKHLFFCC78DB,坡道平面,1200000,33.99
RPXNMLTKKHLFFCC88DB,坡道平面,1200000,33.99
RPOOMLTKKHLFFCC08DB,坡道平面,1100000,33.99
RPWOMLTKKHLFFCC88DB,坡道平面,1100000,33.99
RPXOMLTKKHLFFCC98DB,坡道平面,1100000,30.00
