鄉鎮市區,租賃標的,土地區段位置或建物區門牌,租賃總面積平方公尺,都市土地使用分區,非都市土地使用分區,非都市土地使用編定,租賃年月日,租賃筆棟數,租賃層次,總樓層數,建物型態,主要用途,主要建材,建築完成年月,租賃總面積平方公尺,建物現況格局-房,建物現況格局-廳,建物現況格局-衛,建物現況格局-隔間,有無管理組織,有無附傢俱,總額元,單價每平方公尺,車位類別,租賃總面積平方公尺,租金總額元,備註,編號
竹南鎮,土地,大同段811~840地號,1995.84,住,,,1050130,土地1建物0車位0,,,其他,,,,0.0,0,0,0,有,無,無,85000,43,,0.0,0,,RPQNMLMLKHLFFDK48CC
頭份鎮,房地(土地+建物),苗栗縣頭份鎮忠孝里12鄰忠孝一路69巷1弄1~30號,17.68,住,,,1050228,土地1建物1車位0,三層,12,住宅大樓(11層含以上有電梯),見其他登記事項,見其他登記事項,1011212,102.42,3,2,1,有,有,有,18500,181,,0.0,0,,RPVNMLMJLHLFFFK56DC
苑裡鎮,房地(土地+建物),苗栗縣苑裡鎮信義路1~30號,93.41,住,,,1050321,土地2建物1車位0,全,3,透天厝,住商用,鋼筋混凝土造,,184.47,0,0,0,無,無,有,18000,98,,0.0,0,,RPRNMLLJMHLFFCK38CC
苗栗市,房地(土地+建物)+車位,苗栗縣苗栗巿北苗里19鄰文?街91~120號,445.0,住,,,1050425,土地1建物1車位1,七層,7,華廈(10層含以下有電梯),住家用,鋼筋混凝土造,1041116,763.98,3,2,2,有,有,有,18000,24,一樓平面,0.0,0,,RPPNMLPLMHLFFBK68CC
