絪腹,跋琿竚,簿锣縩キよそへ,ㄏノだ跋┪絪﹚
RPWNMLLJKHLFFAM78DC,盺琿,23.33,獶常カ穨跋 ; 獶常カ絪﹚贺縱ノ
RPSOMLLJKHLFFAM48DC,Ю琿,15.38,常カ
RPUNMLMJKHLFFAM68DC,狶琿玭盺琿,2535.00,常カ
RPXNMLMJKHLFFAM88CC,Ю琿,11.09,常カㄤ
RPOOMLRKKHLFFBM78CC,綾糩琿,226.13,常カ
RPOOMLRKKHLFFBM78CC,綾糩琿,2.43,常カ
RPPOMLRKKHLFFBM88CC,綾糩琿,200.17,常カ
RPPNMLMJLHLFFAM28DC,盺琿,6.00,獶常カ穨跋 ; 獶常カ絪﹚贺縱ノ
RPTNMLNJLHLFFAM68CC,玭щ琿,109.00,常カ坝
RPSNMLQKLHLFFAM98CC,穝琿,105.47,常カ
RPQNMLMLLHLFFAM48CC,穝琿,120.23,常カ
RPWNMLOLLHLFFAM66CC,穝琿,57.90,常カㄤ
RPRNMLOLLHLFFBM88CC,い砍琿,69.00,常カㄤ
RPSNMLOLLHLFFBM98CC,綾糩琿,123.35,常カㄤ
RPQNMLSLLHLFFBM56CC,ド畃琿,34.04,常カ
RPSNMLSLLHLFFBM76CC,べ琿,149.00,常カ坝
RPQNMLSLLHLFFCM66CC,┚У琿,8.38,常カ坝
RPOOMLTLLHLFFAM09CC,篴琿,678.92,常カㄤ
RPRNMLLJMHLFFBM48CC,ら穝琿,537.00,常カ
RPTNMLLJMHLFFBM68CC,㎝キ琿,718.00,常カ笰
RPTNMLLJMHLFFBM68CC,㎝キ琿,25.00,常カ笰
RPSNMLNKMHLFFBM88CC,穝眘琿,12.92,常カ
RPRNMLSKMHLFFBM66CC,穝琿,66.14,常カ
RPVNMLQLMHLFFAM86CC,穝ネ琿,92.00,常カ
RPSNMLSLMHLFFBM86CC,べ琿,129.00,常カ坝
RPUNMLTLMHLFFAM07CC,笲猿琿,73.00,常カ
RPUNMLTLMHLFFAM07CC,笲猿琿,6.00,常カ
