編號,屋齡,建物移轉面積平方公尺,主要用途,主要建材,建築完成日期,總層數,建物分層
RPQNMLPJKHLFFAN38CA,,133.99,見其他登記事項,鋼筋混凝土造,104年10月5日,三層,一層 二層 三層 屋頂突出物
RPSNMLQKKHLFFAN78CA,23,36.92,見其他登記事項,鋼筋混凝土造,81年7月11日,十六層,七層
RPSNMLQKKHLFFAN78CA,23,6.68,見其他登記事項,鋼筋混凝土造,81年7月11日,十六層,
RPSNMLQKKHLFFAN78CA,23,4.59,見其他登記事項,鋼筋混凝土造,81年7月11日,十六層,
RPPNMLPLKHLFFBN58CA,17,160.59,住商用,鋼筋混凝土造,87年9月9日,三層,一層 二層 三層
RPSNMLNJKHLFFCN58CA,21,90.65,住家用,鋼筋混凝土造,84年3月21日,八層,三層
RPSNMLNJKHLFFCN58CA,21,26.69,見其他登記事項,鋼筋混凝土造,84年3月21日,八層,
RPTNMLOJKHLFFDN88CA,34,180.34,商業用,鋼筋混凝土造,70年9月10日,四層,二層 三層 四層
RPROMLPJKHLFFDN88CA,,170.94,見其他登記事項,鋼筋混凝土造,104年7月31日,三層,一層 二層 三層 見其他登記事項
RPRNMLRKKHLFFDN09CA,20,52.04,住家用,鋼筋混凝土造,84年8月22日,十層,六層
RPRNMLRKKHLFFDN09CA,20,.16,見其他登記事項,鋼筋混凝土造,84年8月22日,十層,地下一層
RPSNMLQLKHLFFDN56CA,34,147.71,住商用,鋼筋混凝土造,71年2月26日,三層,一層 二層 三層
RPVNMLRJMHLFFDN96CA,1,529.98,見其他登記事項,鋼筋混凝土造,104年3月24日,五層,一層 二層 三層 四層 五層 騎樓 見其他登記事項
RPRNMLQKKHLFFEN09CA,36,85.32,住商用,鋼筋混凝土加強磚造,68年9月3日,二層,一層 二層 騎樓
RPQNMLNJKHLFFFN68CA,20,234.16,住家用,鋼筋混凝土造,84年8月11日,四層,一層 二層 三層 四層 騎樓
RPRNMLRKKHLFFHN86CA,1,188.67,見其他登記事項,鋼筋混凝土造,104年6月25日,三層,一層 二層 三層 屋頂突出物
RPTNMLLJKHLFFBN48DA,14,186.84,見其他登記事項,鋼筋混凝土造,90年10月8日,四層,一層 二層 三層 四層
RPSNMLLJKHLFFEN68DA,27,148.50,住家用,鋼筋混凝土造,77年11月29日,三層,一層 二層 三層 騎樓
RPXNMLMJKHLFFGN86DA,2,191.27,住家用,鋼筋混凝土造,102年9月17日,三層,一層 二層 三層 屋頂突出物
RPROMLMJKHLFFAN38DA,45,37.20,住家用,鋼筋混凝土加強磚造,59年12月22日,一層,一層
RPVNMLRKKHLFFAN66DA,37,168.63,住商用,鋼筋混凝土造,67年12月22日,三層,一層 二層 三層 騎樓
RPRNMLMLKHLFFHN09CA,36,155.93,工業用,鐵造,69年6月23日,一層,一層
RPPNMLOLKHLFFHN09CA,10,191.47,見其他登記事項,鋼筋混凝土造,94年12月19日,四層,一層 二層 三層 四層
RPRNMLQLKHLFFHN86CA,3,304.77,見其他登記事項,鋼筋混凝土造,102年4月25日,四層,一層 二層 三層 四層 騎樓
RPPNMLPJKHLFFHN98CA,36,145.40,住商用,加強磚造,68年10月1日,二層,一層 二層
RPSNMLMJKHLFFFN78CA,1,260.72,住宅,鋼筋混凝土造,104年5月20日,四層,一層 二層 三層 四層
RPPNMLNLKHLFFFN78CA,1,288.85,見其他登記事項,鋼筋混凝土造,103年7月1日,四層,一層 二層 三層 四層 見其他登記事項
RPQNMLMLKHLFFEN68CA,15,186.32,見其他登記事項,鋼筋混凝土造,89年9月22日,三層,一層 二層 三層
RPSNMLOJKHLFFEN88CA,14,202.32,農舍,鋼骨混凝土造,91年5月22日,二層,一層 二層
RPRNMLOLKHLFFDN88CA,19,174.91,見其他登記事項,鋼筋混凝土造,86年6月30日,三層,一層 二層 三層 騎樓
RPPNMLPLKHLFFDN78CA,37,122.94,住家用,鋼筋混凝土加強磚造,67年9月21日,三層,一層 二層 三層
RPOPMLPJKHLFFDN68CA,4,208.82,見其他登記事項,鋼筋混凝土造,101年1月30日,五層,一層 二層 三層 四層 五層 騎樓
RPSNMLNJKHLFFDN68CA,22,188.54,住家用,鋼筋混凝土造,82年8月27日,四層,一層 二層 三層 四層
RPSNMLOJKHLFFCN68CA,35,117.68,住商用,鋼筋混凝土加強磚造,70年1月12日,二層,一層 二層 騎樓
RPOOMLPKKHLFFAN38CA,20,99.68,住家用,鋼筋混凝土造,85年7月8日,十層,八層
RPWOMLNJKHLFFAN88CA,,212.51,見其他登記事項,鋼筋混凝土造,104年8月19日,五層,一層 二層 三層 四層 五層
RPWOMLNJKHLFFAN88CA,,.83,見其他登記事項,鋼筋混凝土造,104年8月19日,一層,一層
RPRNMLPJKHLFFAN48CA,17,56.96,見其他登記事項,鋼筋混凝土造,87年12月31日,九層,
RPRNMLPJKHLFFAN48CA,17,111.81,見其他登記事項,鋼筋混凝土造,87年12月31日,九層,六層
RPUNMLQKKHLFFAN98CA,37,88.92,住家用,鋼筋混凝土加強磚造,68年6月28日,二層,一層 二層
RPUNMLRKKHLFFAN09CA,34,163.59,住商用,鋼筋混凝土造,70年12月12日,三層,一層 二層 三層 騎樓
RPPNMLQLKHLFFAN58CA,36,87.12,住家用,加強磚造,69年5月26日,二層,一層 二層
RPQNMLRKKHLFFBN78CA,22,81.20,住家用,鋼筋混凝土造,83年1月26日,七層,六層
RPQNMLRKKHLFFBN78CA,22,36.00,見其他登記事項,鋼筋混凝土造,83年1月26日,七層,
RPQNMLMLKHLFFBN38CA,1,272.24,見其他登記事項,鋼筋混凝土造,104年5月8日,四層,一層 二層 三層 四層 見其他登記事項
RPSNMLNLKHLFFBN68CA,2,459.99,見其他登記事項,鋼筋混凝土造,103年6月10日,四層,一層 二層 三層 四層 見其他登記事項
RPPNMLOKKHLFFDN58CA,36,165.42,住商用,鋼筋混凝土造,69年1月22日,三層,一層 二層 三層 騎樓
RPQNMLPKKHLFFDN78CA,,314.30,見其他登記事項,鋼筋混凝土造,104年11月30日,四層,一層 二層 三層 四層 見其他登記事項
RPQNMLQKLHLFFFN56CA,36,108.36,住家用,加強磚造,68年9月20日,二層,一層 二層 騎樓
RPPNMLPKKHLFFHN09CA,21,161.25,住家用,鋼筋混凝土造,84年4月15日,三層,一層 二層 三層 騎樓
RPPNMLLLKHLFFHN78CA,7,197.38,見其他登記事項,鋼筋混凝土造,97年10月13日,三層,一層 二層 三層
RPQNMLRKKHLFFFN56CA,22,120.35,住家用,鋼筋混凝土造,82年7月31日,三層,一層 二層 三層
RPVNMLOJKHLFFEN56CA,18,109.31,住家用,鋼筋混凝土造,86年10月30日,八層,七層
RPVNMLOJKHLFFEN56CA,18,17.13,見其他登記事項,鋼筋混凝土造,86年10月30日,八層,
RPVNMLOJKHLFFEN56CA,18,11.32,見其他登記事項,鋼筋混凝土造,86年10月30日,八層,
RPPNMLRKKHLFFDN88CA,35,101.06,住家用,鋼筋混凝土加強磚造,70年4月30日,二層,一層 二層
RPPNMLRKKHLFFDN88CA,35,104.58,住家用,鋼筋混凝土加強磚造,70年4月30日,二層,一層 二層
RPPNMLNLKHLFFDN58CA,,178.71,見其他登記事項,鋼筋混凝土造,104年12月7日,三層,一層 二層 三層 見其他登記事項
RPVNMLOLKHLFFDN66CA,3,219.13,見其他登記事項,鋼筋混凝土造,101年7月12日,四層,一層 二層 三層 四層 騎樓
RPTNMLTKKHLFFCN76CA,3,243.43,見其他登記事項,鋼筋混凝土造,102年5月27日,二層,一層 二層
RPSNMLOJLHLFFCN78CA,11,205.59,工業用,見其他登記事項,94年1月24日,一層,一層
RPSNMLOJLHLFFCN78CA,11,585.00,工業用,見其他登記事項,94年1月24日,一層,一層
RPSNMLOJLHLFFCN78CA,11,233.35,見其他登記事項,見其他登記事項,94年1月24日,二層,一層 二層
RPSNMLOJLHLFFCN78CA,11,50.63,見其他登記事項,見其他登記事項,94年1月24日,一層,一層
RPVNMLNLKHLFFBN98CA,38,818.70,工業用,鋼筋混凝土加強磚造,66年10月12日,二層,一層 二層
RPVNMLNLKHLFFBN98CA,38,70.08,見其他登記事項,鋼筋混凝土加強磚造,66年10月12日,一層,一層 地下層
RPPNMLLKKHLFFBN08CA,,228.18,見其他登記事項,鋼筋混凝土造,104年5月19日,四層,一層 二層 三層 四層 見其他登記事項
RPQNMLMJLHLFFAN18CA,6,126.52,見其他登記事項,鋼筋混凝土造,98年8月21日,七層,四層
RPQNMLMJLHLFFAN18CA,6,79.35,見其他登記事項,鋼筋混凝土造,98年8月21日,七層,
RPQOMLMLKHLFFAN38CA,38,119.21,住商用,鋼筋混凝土加強磚造,67年7月10日,二層,一層 二層 騎樓
RPSNMLMLKHLFFAN48CA,32,78.00,住家用,鋼筋混凝土造,73年6月1日,二層,一層 二層
RPSNMLMLKHLFFAN48CA,32,78.00,住工用,鋼筋混凝土造,73年6月1日,二層,一層 二層
RPOOMLRKKHLFFAN58CA,20,222.15,住家用,鋼筋混凝土造,84年12月27日,五層,一層 二層 三層 四層 五層
RPPNMLTLKHLFFAN88CA,16,189.72,住家用,鋼筋混凝土造,88年9月13日,四層,一層 二層 三層 四層
RPQNMLRKKHLFFCN88CA,38,98.38,工業用,加強磚造,66年7月12日,二層,一層 二層
RPQNMLNJLHLFFDN58CA,36,180.96,住家用,鋼筋混凝土加強磚造,68年12月1日,三層,一層 二層 三層 騎樓
RPUNMLTKKHLFFDN96CA,8,60.14,住家用,鋼筋混凝土造,97年4月3日,七層,二層 機械房
RPUNMLTKKHLFFDN96CA,8,23.45,見其他登記事項,鋼筋混凝土造,97年4月3日,七層,
RPUNMLTKKHLFFDN96CA,8,15.47,見其他登記事項,鋼筋混凝土造,97年4月3日,七層,
RPVNMLTKKHLFFDN07CA,8,61.50,住家用,鋼筋混凝土造,97年4月3日,七層,二層 機械房
RPVNMLTKKHLFFDN07CA,8,23.45,見其他登記事項,鋼筋混凝土造,97年4月3日,七層,
RPVNMLTKKHLFFDN07CA,8,15.47,見其他登記事項,鋼筋混凝土造,97年4月3日,七層,
RPSNMLRKKHLFFDN56CA,40,93.75,住家用,鋼筋混凝土加強磚造,64年9月9日,二層,一層 二層 夾層
RPSNMLQKKHLFFEN56CA,28,105.48,住家用,鋼筋混凝土造,77年4月19日,二層,一層 二層 騎樓
RPPNMLMJLHLFFFN58CA,,167.24,住宅,鋼筋混凝土造,104年10月20日,三層,一層 二層 三層 見其他登記事項
RPQNMLMJLHLFFFN68CA,,165.71,住宅,鋼筋混凝土造,104年10月20日,三層,一層 二層 三層 見其他登記事項
RPRNMLPKKHLFFBN78DA,20,163.55,住家用,鋼筋混凝土造,84年9月8日,四層,一層 二層 三層 四層 騎樓
RPPNMLPKKHLFFFN98DA,19,245.39,見其他登記事項,鋼筋混凝土造,86年4月24日,四層,一層 二層 三層 四層 騎樓
RPQNMLRKKHLFFAN78DA,18,398.01,農舍,鋼筋混凝土造,86年11月7日,三層,一層 二層 三層
RPSNMLRKKHLFFAN98DA,35,141.41,住商用,鋼筋混凝土造,69年12月17日,三層,一層 二層 三層
RPQNMLQKKHLFFHN66CA,2,190.98,見其他登記事項,鋼筋混凝土造,103年5月19日,三層,一層 二層 三層 屋頂突出物
RPRNMLQKKHLFFCN98DA,38,95.38,住家用,加強磚造,66年10月27日,二層,一層 二層
RPPNMLRKKHLFFCN78CA,35,117.38,住商用,鋼筋混凝土加強磚造,70年1月12日,二層,一層 二層 騎樓
RPVNMLPLKHLFFAN09CA,,157.18,住家用,鋼筋混凝土造,104年7月22日,四層,一層 二層 三層 四層
RPRNMLQLKHLFFAN78CA,34,69.20,住家用,鋼筋混凝土造,70年12月31日,四層,三層
RPRNMLRJLHLFFBN88CA,,154.97,見其他登記事項,鋼筋混凝土造,104年11月30日,三層,一層 二層 三層 見其他登記事項
RPTNMLRJLHLFFBN09CA,,154.97,見其他登記事項,鋼筋混凝土造,104年11月30日,三層,一層 二層 三層 見其他登記事項
RPVNMLRJLHLFFBN66CA,,154.97,見其他登記事項,鋼筋混凝土造,104年11月30日,三層,一層 二層 三層 見其他登記事項
RPWNMLTKKHLFFAN86CA,38,110.42,住家用,加強磚造,67年5月3日,二層,一層 二層 騎樓
RPXNMLRKKHLFFAN76CA,23,75.94,住家用,鋼筋混凝土造,82年4月30日,八層,五層
RPXNMLRKKHLFFAN76CA,23,47.22,見其他登記事項,鋼筋混凝土造,82年4月30日,八層,
RPQNMLTLKHLFFAN98CA,15,99.51,住家用,鋼筋混凝土造,89年10月20日,十四層,十層
RPQNMLTLKHLFFAN98CA,15,61.73,見其他登記事項,鋼筋混凝土造,89年10月20日,十四層,
RPSNMLRJLHLFFAN88CA,32,160.47,住商用,鋼筋混凝土造,72年7月23日,三層,一層 二層 三層 地下層
RPQOMLKKLHLFFAN18CA,,135.86,見其他登記事項,鋼筋混凝土造,104年10月5日,三層,一層 二層 三層 屋頂突出物
RPUNMLOKLHLFFAN88CA,50,6.04,住商用,鋼筋混凝土加強磚造,55年2月1日,四層,一層 二層 三層 四層 騎樓
RPQNMLMLKHLFFDN58CA,8,59.04,住家用,鋼筋混凝土造,97年4月3日,七層,一層 機械房
RPQNMLMLKHLFFDN58CA,8,23.45,見其他登記事項,鋼筋混凝土造,97年4月3日,七層,
RPQNMLMLKHLFFDN58CA,8,15.47,見其他登記事項,鋼筋混凝土造,97年4月3日,七層,
RPRNMLMLKHLFFDN68CA,30,132.31,住家用,加強磚造,75年7月12日,二層,一層 二層
RPPNMLRKKHLFFFN09CA,18,99.75,農舍,見其他登記事項,87年6月10日,一層,一層
RPQNMLSKKHLFFCN09DA,,156.90,見其他登記事項,鋼筋混凝土造,104年8月14日,三層,一層 二層 三層 見其他登記事項
RPRNMLTKKHLFFCN66DA,31,207.15,見其他登記事項,鋼造,74年1月30日,一層,一層
RPOOMLPKLHLFFFN98CA,,207.77,住宅,鋼筋混凝土造,104年11月16日,三層,一層 二層 三層
RPRNMLSKKHLFFHN96CA,1,185.22,住家用,鋼筋混凝土造,104年6月16日,四層,一層 二層 三層 四層
RPQNMLSKKHLFFEN56CA,31,136.38,住商用,鋼筋混凝土造,74年5月6日,三層,一層 二層 三層 騎樓
RPSNMLOLKHLFFEN09CA,37,192.64,工業用,鋼筋混凝土加強磚造,67年10月14日,二層,一層 二層
RPTNMLNLKHLFFEN09CA,38,168.82,工業用,鋼筋混凝土加強磚造,66年10月17日,一層,一層
RPTNMLLKLHLFFDN78CA,,285.58,見其他登記事項,鋼筋混凝土造,104年10月14日,四層,一層 二層 三層 四層 屋頂突出物
RPPNMLQKLHLFFDN88CA,17,224.22,見其他登記事項,鋼筋混凝土造,88年6月15日,三層,一層 二層 三層 地下層
RPPNMLQKLHLFFDN88CA,17,25.31,見其他登記事項,鋼筋混凝土造,88年6月15日,三層,
RPUNMLMLKHLFFAN68CA,31,7.01,見其他登記事項,鋼筋混凝土造,74年7月23日,五層,
RPUNMLMLKHLFFAN68CA,31,88.36,住家用,鋼筋混凝土造,74年7月23日,五層,四層
RPUNMLMLKHLFFAN68CA,31,5.62,見其他登記事項,鋼筋混凝土造,74年7月23日,五層,
RPQNMLTKKHLFFAN88CA,36,82.60,住家用,鋼筋混凝土加強磚造,68年9月20日,二層,一層 二層
RPPNMLMLKHLFFBN28CA,36,98.56,住家用,加強磚造,68年12月22日,二層,一層 二層
RPPNMLMJLHLFFBN18CA,1,182.29,見其他登記事項,鋼筋混凝土造,104年4月21日,四層,一層 二層 三層 四層
RPPNMLTKKHLFFBN88CA,25,177.39,住商用,鋼筋混凝土造,79年11月15日,四層,一層 二層 三層 四層 騎樓
RPRNMLTKKHLFFAN98CA,23,183.26,住家用,鋼筋混凝土造,81年9月2日,四層,一層 二層 三層 四層
RPSNMLTKKHLFFAN09CA,9,190.48,住家用,鋼筋混凝土造,95年9月25日,四層,一層 二層 三層 四層
RPPNMLLLKHLFFAN08CA,33,96.96,住家用,加強磚造,72年4月16日,二層,一層 二層
RPPNMLTKKHLFFAN78CA,7,190.80,見其他登記事項,鋼筋混凝土造,98年3月6日,四層,一層 二層 三層 四層 騎樓
RPQNMLLJLHLFFAN08CA,16,85.20,見其他登記事項,鋼筋混凝土造,88年8月13日,八層,三層
RPQNMLLJLHLFFAN08CA,16,33.27,見其他登記事項,鋼筋混凝土造,88年8月13日,八層,
RPSNMLLJLHLFFAN28CA,47,48.59,住家用,磚造,57年9月25日,一層,一層
RPUOMLNLKHLFFAN88CA,,319.89,農舍,鋼筋混凝土造,104年12月18日,一層,一層
RPOPMLNLKHLFFAN38CA,34,62.63,住家用,鋼筋混凝土造,70年10月15日,五層,五層
RPSNMLPKLHLFFCN98CA,2,243.86,見其他登記事項,鋼筋混凝土造,103年5月9日,四層,一層 二層 三層 四層
RPPNMLTLKHLFFCN09CA,21,123.02,住家用,鋼筋混凝土造,83年12月23日,三層,一層 二層 三層
RPSNMLSKKHLFFHN07CA,22,108.22,住家用,鋼筋混凝土造,82年11月25日,二層,一層 二層 騎樓
RPPNMLRLKHLFFHN76CA,34,100.68,住家用,見其他登記事項,70年9月2日,二層,一層 二層 騎樓
RPUNMLOLKHLFFEN66CA,20,228.05,見其他登記事項,鋼筋混凝土造,84年11月24日,四層,一層 二層 三層 四層
RPOOMLOLKHLFFEN78CA,20,234.58,見其他登記事項,鋼筋混凝土造,84年11月24日,四層,一層 二層 三層 四層
RPPNMLPLKHLFFEN88CA,20,228.05,見其他登記事項,鋼筋混凝土造,84年11月24日,四層,一層 二層 三層 四層
RPQNMLRJLHLFFCN88CA,4,179.92,見其他登記事項,鋼筋混凝土造,100年10月5日,四層,一層 二層 三層 四層 騎樓
RPRNMLNJLHLFFDN68CA,6,199.30,住家用,鋼筋混凝土造,98年7月14日,四層,一層 二層 三層 四層
RPUNMLOLKHLFFDN56CA,22,156.46,住家用,鋼筋混凝土造,82年12月3日,三層,一層 二層 三層
RPRNMLNJLHLFFAN38CA,22,118.10,住家用,鋼筋混凝土造,83年1月14日,三層,一層 二層 三層
RPPNMLMLKHLFFAN18CA,15,138.00,住家用,鋼筋混凝土造,89年10月20日,十四層,十三層
RPPNMLMLKHLFFAN18CA,15,101.33,見其他登記事項,鋼筋混凝土造,89年10月20日,十四層,
RPXNMLNLKHLFFAN09CA,2,281.27,見其他登記事項,鋼筋混凝土造,102年12月30日,四層,一層 二層 三層 四層 地下一層
RPXNMLNLKHLFFAN09CA,2,31.12,見其他登記事項,鋼筋混凝土造,102年12月30日,四層,
RPXNMLNLKHLFFAN09CA,2,4.44,見其他登記事項,鋼筋混凝土造,102年12月30日,四層,
RPOOMLNLKHLFFAN28CA,27,168.08,住商用,鋼筋混凝土造,78年1月27日,三層,一層 二層 三層 騎樓
RPROMLNLKHLFFAN58CA,2,286.31,見其他登記事項,鋼筋混凝土造,102年12月30日,四層,一層 二層 三層 四層 地下一層
RPROMLNLKHLFFAN58CA,2,31.12,見其他登記事項,鋼筋混凝土造,102年12月30日,四層,
RPROMLNLKHLFFAN58CA,2,4.44,見其他登記事項,鋼筋混凝土造,102年12月30日,四層,
RPSOMLNLKHLFFAN68CA,2,274.83,見其他登記事項,鋼筋混凝土造,102年12月30日,四層,一層 二層 三層 四層 地下一層
RPSOMLNLKHLFFAN68CA,2,31.12,見其他登記事項,鋼筋混凝土造,102年12月30日,四層,
RPSOMLNLKHLFFAN68CA,2,4.44,見其他登記事項,鋼筋混凝土造,102年12月30日,四層,
RPQNMLOLKHLFFBN58CA,25,98.31,住家用,鋼筋混凝土造,80年4月25日,五層,三層
RPQNMLOLKHLFFBN58CA,25,24.86,見其他登記事項,鋼筋混凝土造,80年4月25日,五層,
RPQNMLOLKHLFFBN58CA,25,16.79,見其他登記事項,鋼筋混凝土造,80年4月25日,五層,地下層
RPXNMLRJLHLFFBN86CA,,154.97,見其他登記事項,鋼筋混凝土造,104年11月30日,三層,一層 二層 三層 見其他登記事項
RPWNMLNLKHLFFAN98CA,2,329.15,見其他登記事項,鋼筋混凝土造,102年12月30日,四層,一層 二層 三層 四層 騎樓 地下一層
RPWNMLNLKHLFFAN98CA,2,31.12,見其他登記事項,鋼筋混凝土造,102年12月30日,四層,
RPWNMLNLKHLFFAN98CA,2,4.44,見其他登記事項,鋼筋混凝土造,102年12月30日,四層,
RPRNMLLJLHLFFAN18CA,27,99.44,住家用,加強磚造,78年6月20日,一層,一層
RPRNMLMJLHLFFAN28CA,9,181.73,住家用,鋼筋混凝土造,96年3月26日,四層,一層 二層 三層 四層
RPRNMLOLKHLFFAN58CA,20,217.49,住商用,鋼筋混凝土造,84年9月23日,四層,一層 二層 三層 四層 騎樓
RPVOMLNLKHLFFAN98CA,24,160.98,住家用,鋼筋混凝土造,81年6月30日,三層,一層 二層 三層
RPVNMLOLKHLFFAN98CA,19,84.08,住家用,鋼筋混凝土造,86年4月2日,十六層,六層
RPVNMLOLKHLFFAN98CA,19,25.55,見其他登記事項,鋼筋混凝土造,86年4月2日,十六層,
RPTNMLNJLHLFFDN88CA,,200.96,見其他登記事項,鋼筋混凝土造,104年7月31日,三層,一層 二層 三層 見其他登記事項
RPWNMLNLKHLFFDN66CA,8,148.18,住家用,鋼筋混凝土造,96年11月1日,三層,一層 二層 三層 屋頂突出物
RPXNMLNLKHLFFDN76CA,8,160.69,住家用,鋼筋混凝土造,96年11月1日,三層,一層 二層 三層 屋頂突出物
RPPNMLRJLHLFFEN98CA,1,223.23,住家用,鋼筋混凝土造,104年6月3日,三層,一層 二層 三層 見其他登記事項
RPPNMLOLKHLFFFN88CA,,207.77,住宅,鋼筋混凝土造,104年11月16日,三層,一層 二層 三層
RPPNMLNJLHLFFFN68CA,1,223.52,見其他登記事項,見其他登記事項,104年1月22日,三層,一層 二層 三層
RPPNMLPLKHLFFHN56CA,35,115.92,住商用,加強磚造,70年6月24日,二層,一層 二層 騎樓
RPRNMLSKLHLFFDN76DA,23,182.96,住家用,鋼筋混凝土造,82年4月3日,四層,一層 二層 三層 四層
RPPNMLOLKHLFFEN78CA,1,158.12,住家用,鋼筋混凝土造,104年5月12日,三層,一層 二層 三層 騎樓
RPPNMLPLKHLFFCN68CA,25,149.70,住家用,鋼筋混凝土造,79年7月30日,三層,一層 二層 三層
RPVNMLNJLHLFFDN09CA,32,84.03,住家用,鋼筋混凝土造,73年5月18日,五層,四層
RPVNMLNJLHLFFDN09CA,32,15.56,見其他登記事項,,73年5月18日,,
RPSNMLOLLHLFFDN09CA,20,126.73,住家用,鋼筋混凝土造,84年8月21日,十五層,六層
RPSNMLOLLHLFFDN09CA,20,10.94,見其他登記事項,鋼筋混凝土造,84年8月21日,十六層,
RPSNMLOLLHLFFDN09CA,20,21.42,見其他登記事項,鋼筋混凝土造,84年8月21日,十六層,
RPSNMLOLLHLFFDN09CA,20,16.89,見其他登記事項,鋼筋混凝土造,84年8月21日,十五層,
RPSNMLOLKHLFFAN68CA,13,163.04,住家用,鋼筋混凝土造,91年8月5日,三層,一層 二層 三層
RPSNMLOKLHLFFBN78CA,1,175.77,住家用,鋼筋混凝土造,104年4月20日,四層,一層 二層 三層 四層
RPPOMLRJLHLFFBN78CA,8,210.63,住商用,鋼筋混凝土造,96年12月7日,四層,一層 二層 三層 四層 騎樓
RPPOMLRJLHLFFBN78CA,9,3.36,見其他登記事項,鋼筋混凝土造,96年6月22日,一層,
RPTNMLOJLHLFFBN78CA,36,107.20,住家用,鋼筋混凝土加強磚造,68年12月20日,二層,一層 二層 騎樓
RPVNMLKKLHLFFAN58CA,,180.89,見其他登記事項,鋼筋混凝土造,104年11月2日,三層,一層 二層 三層 屋頂突出物
RPXNMLKKLHLFFAN78CA,,180.89,見其他登記事項,鋼筋混凝土造,104年11月2日,三層,一層 二層 三層 屋頂突出物
RPSOMLKKLHLFFAN38CA,37,85.65,商業用,鋼筋混凝土造,68年6月4日,一層,一層
RPPNMLRJLHLFFAN58CA,18,.20,見其他登記事項,鋼筋混凝土造,86年10月20日,十三層,一層
RPPNMLRJLHLFFAN58CA,18,101.01,住家用,鋼筋混凝土造,86年10月20日,十三層,七層
RPTNMLOLKHLFFAN78CA,39,95.58,住家用,鋼筋混凝土加強磚造,66年4月7日,二層,一層 二層
RPQNMLPLKHLFFAN58CA,29,190.65,見其他登記事項,鋼筋混凝土造,76年1月26日,三層,一層 二層 三層 騎樓 地下層
RPPNMLSLKHLFFAN78CA,34,53.75,住家用,鋼筋混凝土造,70年12月28日,七層,六層
RPPNMLNJLHLFFAN18CA,33,44.83,商業用,鋼筋混凝土造,71年9月30日,九層,八層
RPTNMLLJLHLFFAN38CA,33,115.20,見其他登記事項,鋼筋混凝土造,72年3月17日,三層,一層 二層 三層
RPPNMLTLKHLFFDN56CA,1,310.57,見其他登記事項,鋼筋混凝土造,104年1月9日,一層,一層
RPPNMLQLKHLFFDN88CA,30,36.51,住家用,鋼筋混凝土造,74年12月24日,五層,四層
RPTNMLPLKHLFFEN66CA,22,226.59,住家用,鋼筋混凝土造,83年3月24日,三層,一層 二層 三層
RPPNMLSLKHLFFFN66CA,24,182.70,見其他登記事項,鋼筋混凝土造,81年4月10日,三層,一層 二層 三層
RPPNMLQLKHLFFHN66CA,22,142.96,住商用,鋼筋混凝土造,82年12月1日,三層,一層 二層 三層 騎樓
RPPNMLSLKHLFFGN86DA,21,92.99,見其他登記事項,鋼筋混凝土造,84年8月12日,十層,六層
RPPNMLSLKHLFFGN86DA,21,18.21,見其他登記事項,鋼筋混凝土造,84年8月12日,十層,
RPPNMLRJLHLFFGN56CA,17,177.54,見其他登記事項,鋼筋混凝土造,88年3月30日,三層,一層 二層 三層
RPPNMLOJLHLFFFN78CA,38,113.59,住家用,加強磚造,66年12月23日,二層,一層 二層
RPWNMLRKLHLFFHN47CA,28,140.19,住商用,鋼筋混凝土造,77年2月5日,二層,一層 二層 騎樓
RPOOMLLJLHLFFFN48CA,1,187.51,見其他登記事項,鋼筋混凝土造,104年1月8日,四層,一層 二層 三層 四層
RPRNMLQLKHLFFCN98CA,17,101.85,住家用,鋼筋混凝土造,88年1月8日,八層,七層
RPRNMLQLKHLFFCN98CA,17,59.93,見其他登記事項,鋼筋混凝土造,88年1月8日,八層,
RPSNMLQLKHLFFCN09CA,7,170.83,見其他登記事項,鋼筋混凝土造,98年6月29日,四層,一層 二層 三層 四層 騎樓
RPQNMLLJLHLFFCN28CA,17,180.68,住家用,鋼筋混凝土造,87年10月28日,四層,一層 二層 三層 四層
RPPNMLOJLHLFFDN58CA,37,114.61,住家用,加強磚造,67年7月31日,二層,一層 二層
RPQNMLQJLHLFFDN88CA,1,195.57,見其他登記事項,鋼筋混凝土造,103年9月3日,四層,一層 二層 三層 四層
RPQNMLQJLHLFFDN88CA,1,1.26,見其他登記事項,鋼筋混凝土造,103年9月3日,二層,一層 二層
RPQNMLLKLHLFFDN48CA,1,276.19,見其他登記事項,鋼筋混凝土造,104年3月25日,四層,一層 二層 三層 四層 屋頂突出物
RPSNMLLKLHLFFDN68CA,39,151.86,住家用,鋼筋混凝土加強磚造,65年12月30日,三層,一層 二層 三層
RPSNMLNJLHLFFAN48CA,,180.89,見其他登記事項,鋼筋混凝土造,104年11月2日,三層,一層 二層 三層 屋頂突出物
RPOOMLOJLHLFFAN28CA,38,83.67,住家用,加強磚造,66年11月26日,二層,一層 二層
RPROMLKKLHLFFAN28CA,,135.86,見其他登記事項,鋼筋混凝土造,104年10月5日,三層,一層 二層 三層 屋頂突出物
RPSNMLRKLHLFFAN98CA,37,1054.62,見其他登記事項,鋼筋混凝土造,68年2月27日,四層,一層 二層 三層 四層 地下層
RPUNMLNLLHLFFAN88CA,40,48.62,見其他登記事項,見其他登記事項,64年12月22日,三層,一層 二層 三層 地下層
RPUNMLNLLHLFFAN88CA,40,24.31,見其他登記事項,見其他登記事項,64年12月22日,三層,一層 二層 三層 地下層
RPUNMLNLLHLFFAN88CA,40,48.62,見其他登記事項,見其他登記事項,64年12月22日,三層,一層 二層 三層 地下層
RPUNMLNLLHLFFAN88CA,40,38.70,工業用,鋼筋混凝土加強磚造,64年11月1日,一層,一層
RPUNMLNLLHLFFAN88CA,40,19.35,工業用,鋼筋混凝土加強磚造,64年11月1日,一層,一層
RPUNMLNLLHLFFAN88CA,40,19.35,工業用,鋼筋混凝土加強磚造,64年11月1日,一層,一層
RPUNMLNLLHLFFAN88CA,40,19.35,工業用,鋼筋混凝土加強磚造,64年11月1日,一層,一層
RPUNMLNLLHLFFAN88CA,40,19.35,工業用,鋼筋混凝土加強磚造,64年11月1日,一層,一層
RPUNMLNLLHLFFAN88CA,40,19.35,工業用,鋼筋混凝土加強磚造,64年11月1日,一層,一層
RPUNMLNLLHLFFAN88CA,40,19.35,工業用,鋼筋混凝土加強磚造,64年11月1日,一層,一層
RPUNMLNLLHLFFAN88CA,40,38.70,工業用,鋼筋混凝土加強磚造,64年11月1日,一層,一層
RPSNMLLKLHLFFBN48CA,3,203.06,住家用,鋼筋混凝土造,102年6月17日,四層,一層 二層 三層 四層
RPSNMLLKLHLFFBN48CA,3,.26,見其他登記事項,鋼筋混凝土造,102年6月17日,一層,
RPPNMLNJLHLFFDN48CA,3,271.78,住家用,鋼筋混凝土造,102年3月20日,五層,一層 二層 三層 四層 五層
RPSNMLRJLHLFFCN09CA,20,79.72,住家用,鋼筋混凝土造,85年4月18日,七層,六層
RPSNMLRJLHLFFCN09CA,20,23.48,見其他登記事項,鋼筋混凝土造,85年4月18日,七層,
RPPNMLLJLHLFFBN18DA,2,175.61,住家用,鋼筋混凝土造,102年8月21日,四層,一層 二層 三層 四層
RPPNMLSJLHLFFFN56CA,21,219.13,住商用,鋼筋混凝土造,83年11月19日,四層,一層 二層 三層 四層
RPRNMLTJLHLFFFN86CA,1,188.32,住宅,鋼筋混凝土造,104年1月8日,四層,一層 二層 三層 四層
RPQNMLSLKHLFFGN96DA,21,72.20,見其他登記事項,鋼筋混凝土造,84年1月9日,八層,二層
RPQNMLSLKHLFFGN96DA,21,14.25,見其他登記事項,鋼筋混凝土造,84年1月9日,八層,
RPPNMLOKLHLFFGN98CA,34,128.94,住商用,加強磚造,70年12月11日,三層,一層 二層 三層 騎樓
RPPNMLSKLHLFFFN66CA,1,195.07,住宅,鋼筋混凝土造,104年6月9日,三層,一層 二層 三層 見其他登記事項
RPQNMLSJLHLFFAN78CA,33,96.96,住家用,加強磚造,72年4月16日,二層,一層 二層
RPRNMLTJLHLFFBN09CA,42,114.00,住家用,加強磚造,63年7月1日,二層,一層 二層
RPOOMLNJLHLFFAN18CA,22,94.64,住家用,鋼筋混凝土造,82年9月23日,七層,二層
RPOOMLNJLHLFFAN18CA,22,16.88,見其他登記事項,鋼筋混凝土造,82年9月23日,七層,
RPPNMLOJLHLFFAN28CA,21,245.09,住家用,鋼筋混凝土造,84年5月22日,四層,一層 二層 三層 四層
RPROMLMJLHLFFAN38CA,19,337.74,見其他登記事項,鋼筋混凝土造,86年6月18日,五層,一層 二層 三層 四層 五層 騎樓
RPRNMLLKLHLFFCN48CA,,46.69,農舍,見其他登記事項,104年8月18日,一層,一層
RPPNMLNJLHLFFCN38CA,,73.89,農舍,見其他登記事項,105年1月13日,一層,一層 見其他登記事項
RPOOMLNJLHLFFDN48CA,20,149.87,住家用,鋼筋混凝土造,85年4月11日,三層,一層 二層 三層
RPPNMLOKLHLFFDN68CA,16,183.78,住家用,鋼筋混凝土造,89年1月31日,三層,一層 二層 三層
RPTNMLLMLHLFFDN98CA,7,235.60,見其他登記事項,鋼筋混凝土造,97年11月21日,五層,一層 二層 三層 四層 五層
RPWNMLPKLHLFFFN07CA,10,223.02,農舍,見其他登記事項,95年7月12日,一層,一層
RPQNMLTJLHLFFFN76CA,3,255.46,住宅,鋼筋混凝土造,101年11月28日,四層,一層 二層 三層 四層 騎樓
RPPNMLQJLHLFFFN98CA,29,185.50,住家用,鋼筋混凝土造,76年3月27日,三層,一層 二層 三層 騎樓
RPQNMLRJLHLFFGN66CA,,191.59,住家用,鋼筋混凝土造,104年9月18日,三層,一層 二層 三層 屋頂突出物
RPPNMLOJLHLFFGN88CA,21,171.10,見其他登記事項,鋼筋混凝土造,84年1月9日,八層,四層
RPPNMLSJLHLFFHN76CA,32,150.55,住商用,加強磚造,72年10月14日,二層,一層 二層 騎樓
RPTNMLRJLHLFFHN07CA,2,177.71,見其他登記事項,鋼筋混凝土造,103年4月28日,四層,一層 二層 三層 四層
RPRNMLRJLHLFFHN86CA,11,237.35,見其他登記事項,鋼筋混凝土造,94年2月25日,四層,一層 二層 三層 四層
RPRNMLSKLHLFFFN86CA,2,250.11,住宅,鋼筋混凝土造,103年7月17日,三層,一層 二層 三層 見其他登記事項
RPPNMLRKLHLFFHN76CA,11,176.29,住家用,鋼筋混凝土造,94年4月28日,四層,一層 二層 三層 四層 屋頂突出物
RPRNMLNLLHLFFDN88CA,38,120.96,住家用,鋼筋混凝土加強磚造,67年5月5日,二層,一層 二層 騎樓
RPPNMLLLLHLFFDN48CA,1,259.40,見其他登記事項,鋼筋混凝土造,104年3月25日,四層,一層 二層 三層 四層 屋頂突出物
RPPNMLKKLHLFFDN28CA,24,62.57,住家用,鋼筋混凝土造,81年1月6日,六層,六層
RPPNMLKKLHLFFDN28CA,24,9.94,住家用,鋼筋混凝土造,81年1月6日,六層,
RPPNMLKKLHLFFDN28CA,24,2.35,見其他登記事項,鋼筋混凝土造,81年1月6日,六層,
RPPNMLKKLHLFFDN28CA,24,16.72,見其他登記事項,鋼筋混凝土造,81年1月6日,六層,
RPRNMLRJLHLFFCN98CA,34,110.50,住商用,加強磚造,71年5月29日,二層,一層 二層 騎樓
RPRNMLOKLHLFFCN78CA,31,204.67,住家用,加強磚造,73年11月2日,二層,一層 二層
RPQNMLNLLHLFFEN88CA,29,354.58,住商用,鋼筋混凝土造,75年10月21日,三層,一層 二層 三層 騎樓
RPSNMLOJLHLFFAN58CA,23,138.74,住家用,鋼筋混凝土造,82年3月2日,三層,一層 二層 三層
RPXNMLOJLHLFFAN09CA,21,150.77,住商用,鋼筋混凝土造,83年9月29日,八層,一層 二層 三層 騎樓
RPXNMLOJLHLFFAN09CA,21,37.25,見其他登記事項,鋼筋混凝土造,83年9月29日,八層,
RPRNMLLKLHLFFAN28CA,22,131.82,住家用,鋼骨鋼筋混凝土造,83年1月12日,十二層,四層
RPRNMLLKLHLFFAN28CA,22,28.88,見其他登記事項,鋼骨混凝土造,83年1月12日,十二層,
RPRNMLLKLHLFFAN28CA,22,25.20,見其他登記事項,鋼骨鋼筋混凝土造,83年1月12日,十二層,地下一層
RPRNMLLKLHLFFAN28CA,22,5.45,見其他登記事項,鋼骨混凝土造,83年1月12日,十二層,
RPRNMLSJLHLFFBN98CA,46,142.80,住家用,鋼筋混凝土加強磚造,59年6月10日,三層,一層 二層 三層
RPPNMLTJLHLFFBN88CA,19,88.58,見其他登記事項,鋼筋混凝土造,86年2月3日,九層,一層
RPPNMLTJLHLFFBN88CA,19,8.25,停車空間,鋼筋混凝土造,86年2月3日,九層,
RPPNMLTJLHLFFBN88CA,19,28.35,見其他登記事項,鋼筋混凝土造,86年2月3日,九層,
RPQNMLOJLHLFFBN48CA,25,104.60,住家用,鋼筋混凝土造,80年4月16日,二層,一層 二層
RPOOMLLLLHLFFBN28CA,20,165.58,住家用,鋼筋混凝土造,85年6月25日,四層,一層 二層 三層 四層
RPRNMLPLLHLFFAN78CA,,228.55,見其他登記事項,見其他登記事項,104年9月1日,一層,一層
RPPNMLLJMHLFFAN08CA,41,118.62,住商用,見其他登記事項,63年9月7日,一層,一層
RPSNMLRJLHLFFEN66CA,27,227.95,住家用,鋼筋混凝土造,78年7月26日,三層,一層 二層 三層 騎樓
RPPNMLRJLHLFFDN88CA,24,23.33,住家用,鋼筋混凝土造,81年6月13日,八層,七層
RPQNMLOKLHLFFDN78CA,4,208.34,見其他登記事項,鋼筋混凝土造,101年1月30日,五層,一層 二層 三層 四層 五層 騎樓
RPQNMLOKLHLFFDN78CA,4,.50,見其他登記事項,鋼筋混凝土造,101年1月30日,一層,
RPTNMLRKLHLFFDN76CA,10,124.77,住家用,鋼筋混凝土造,94年11月3日,三層,一層 二層 三層 電梯樓梯間
RPTNMLNLLHLFFDN09CA,41,68.10,住家用,磚造,64年1月15日,一層,一層
RPRNMLOJLHLFFEN98DA,8,181.22,住家用,鋼筋混凝土造,96年11月14日,三層,一層 二層 三層
RPRNMLOKLHLFFGN56CA,14,146.21,見其他登記事項,鋼筋混凝土造,89年8月16日,三層,一層 二層 三層 騎樓
RPTNMLRKLHLFFGN17DA,1,189.72,住家用,鋼筋混凝土造,104年6月16日,四層,一層 二層 三層 四層
RPPNMLLKLHLFFFN68DA,3,276.04,住宅,鋼筋混凝土造,101年11月28日,四層,一層 二層 三層 四層 騎樓
RPQNMLSJLHLFFGN76CA,12,98.18,見其他登記事項,加強磚造,93年5月7日,一層,一層
RPPNMLTJLHLFFDN09CA,23,123.91,住家用,鋼筋混凝土造,82年6月21日,七層,五層
RPPNMLTJLHLFFDN09CA,23,26.79,見其他登記事項,鋼筋混凝土造,82年6月21日,七層,
RPPNMLTJLHLFFDN09CA,23,10.71,見其他登記事項,鋼筋混凝土造,82年6月21日,七層,
RPQNMLRJLHLFFEN09CA,1,191.16,住家用,鋼筋混凝土造,104年3月31日,三層,一層 二層 三層 見其他登記事項
RPRNMLRJLHLFFEN56CA,,144.05,住家用,鋼筋混凝土造,105年1月18日,三層,一層 二層 三層 見其他登記事項
RPUNMLTJLHLFFAN66CA,21,202.83,住家用,鋼筋混凝土造,83年9月24日,三層,一層 二層 三層
RPXNMLNLLHLFFAN56CA,26,193.64,住家用,鋼筋混凝土造,78年10月4日,四層,一層 二層 三層 四層
RPXNMLNLLHLFFAN56CA,26,23.73,見其他登記事項,鋼筋混凝土造,78年10月4日,四層,地下層
RPPNMLLKLHLFFBN18CA,19,191.73,住商用,鋼筋混凝土造,86年4月30日,四層,一層 二層 三層 四層 騎樓
RPSNMLMLLHLFFAN58CA,10,123.67,住家用,鋼筋混凝土造,95年3月8日,三層,一層 二層 三層
RPPNMLLKLHLFFAN08CA,28,95.53,住家用,鋼筋混凝土造,77年5月13日,五層,三層
RPPNMLLKLHLFFAN08CA,28,12.05,見其他登記事項,鋼筋混凝土造,77年5月13日,五層,
RPRNMLLKLHLFFEN68CA,1,192.71,住家用,鋼筋混凝土造,104年5月13日,三層,一層 二層 三層
RPUNMLLJMHLFFDN88CA,30,72.64,住商用,鋼筋混凝土造,74年11月2日,九層,一層
RPVNMLLLLHLFFDN09CA,32,155.28,住家用,鋼筋混凝土造,73年2月23日,五層,五層
RPPOMLOLLHLFFAN68DA,1,176.64,見其他登記事項,鋼筋混凝土造,104年5月21日,三層,一層 二層 三層 屋頂突出物
RPQNMLLKLHLFFHN88CA,15,110.49,住家用,鋼筋混凝土造,90年3月12日,十二層,一層
RPQNMLLKLHLFFHN88CA,15,53.86,共有部份,鋼筋混凝土造,90年3月12日,十二層,
RPPNMLTJLHLFFHN07EA,1,213.52,見其他登記事項,鋼筋混凝土造,104年5月19日,四層,一層 二層 三層 四層
RPRNMLOLLHLFFFN56CA,,167.24,住宅,鋼筋混凝土造,104年10月20日,三層,一層 二層 三層 見其他登記事項
RPPNMLQKLHLFFHN66CA,30,113.24,住家用,鋼筋混凝土造,74年10月12日,二層,一層 二層 騎樓
RPPNMLOKLHLFFHN09CA,9,172.91,住家用,鋼筋混凝土造,95年12月15日,三層,一層 二層 三層 屋頂突出物
RPPNMLLLLHLFFHN88CA,2,227.21,見其他登記事項,鋼筋混凝土造,103年6月13日,四層,一層 二層 三層 四層 屋頂突出物
RPQNMLLLLHLFFHN98CA,2,227.21,見其他登記事項,鋼筋混凝土造,103年6月13日,四層,一層 二層 三層 四層 屋頂突出物
RPSNMLOKLHLFFDN98CA,,200.92,見其他登記事項,鋼筋混凝土造,104年7月31日,三層,一層 二層 三層 見其他登記事項
RPQNMLKKLHLFFDN38CA,31,373.64,住家用,鋼筋混凝土造,73年12月15日,四層,一層 二層 三層 四層 騎樓
RPUOMLKKLHLFFAN58CA,,130.51,住家用,鋼筋混凝土造,104年9月4日,三層,一層 二層 三層
RPRNMLLLLHLFFAN38CA,44,316.79,住商用,鋼筋混凝土加強磚造,61年6月16日,四層,一層 二層 三層 四層 騎樓
RPRNMLSKLHLFFAN98CA,31,90.91,住家用,鋼筋混凝土造,73年9月13日,五層,五層
RPRNMLSKLHLFFAN98CA,31,6.58,見其他登記事項,鋼筋混凝土造,73年9月13日,五層,
RPRNMLSKLHLFFAN98CA,31,6.63,見其他登記事項,鋼筋混凝土造,73年9月13日,五層,
RPQNMLOKLHLFFAN48CA,38,80.26,住家用,加強磚造,67年2月3日,三層,一層 二層 三層
RPQNMLOKLHLFFAN48CA,38,80.26,住家用,加強磚造,67年2月3日,三層,一層 二層 三層
RPTNMLOKLHLFFAN78CA,3,217.44,見其他登記事項,鋼筋混凝土造,102年4月16日,三層,一層 二層 三層 騎樓
RPWOMLOLLHLFFAN66CA,19,123.18,住家用,鋼筋混凝土造,85年9月12日,十三層,十三層
RPWOMLOLLHLFFAN66CA,19,32.29,見其他登記事項,鋼筋混凝土造,85年9月12日,十三層,
RPWOMLOLLHLFFAN66CA,19,122.92,住家用,鋼筋混凝土造,85年9月12日,十三層,十三層
RPWOMLOLLHLFFAN66CA,19,31.20,見其他登記事項,鋼筋混凝土造,85年9月12日,十三層,
RPWOMLOLLHLFFAN66CA,19,.86,見其他登記事項,鋼筋混凝土造,85年9月12日,十三層,地下層
RPWOMLOLLHLFFAN66CA,19,15.16,見其他登記事項,鋼筋混凝土造,85年9月12日,十三層,
RPTNMLTJLHLFFBN66CA,25,85.26,住家用,鋼筋混凝土造,80年4月25日,五層,二層
RPTNMLTJLHLFFBN66CA,25,26.20,見其他登記事項,鋼筋混凝土造,80年4月25日,五層,
RPQNMLLKLHLFFBN28CA,36,99.05,見其他登記事項,鋼筋混凝土造,68年9月26日,二層,一層 二層 屋頂突出物 騎樓
RPPNMLOKLHLFFBN48CA,8,174.94,住家用,鋼筋混凝土造,96年10月11日,四層,一層 二層 三層 四層
RPTNMLNLLHLFFBN88CA,,228.96,見其他登記事項,鋼筋混凝土造,104年5月19日,四層,一層 二層 三層 四層 見其他登記事項
RPPNMLNLLHLFFAN38CA,20,104.66,住家用,鋼筋混凝土造,85年5月6日,十層,十層
RPPNMLNLLHLFFAN38CA,20,35.86,,鋼筋混凝土造,85年5月6日,十層,
RPPNMLNLLHLFFAN38CA,20,.29,見其他登記事項,鋼筋混凝土造,85年5月6日,十層,地下層
RPPNMLNLLHLFFAN38CA,20,.02,,鋼筋混凝土造,85年5月6日,十層,
RPPNMLNLLHLFFAN38CA,20,6.76,停車空間,鋼筋混凝土造,85年5月6日,十層,
RPQNMLQKLHLFFAN68CA,1,208.67,見其他登記事項,鋼筋混凝土造,104年8月4日,四層,一層 二層 三層 四層
RPRNMLQKLHLFFAN78CA,38,139.78,住商用,加強磚造,67年7月27日,三層,一層 二層 三層 騎樓
RPQNMLRKLHLFFAN78CA,,216.40,住商用,鋼筋混凝土造,,四層,一層 二層 三層 四層 騎樓
RPRNMLNLLHLFFHN66CA,20,117.48,住家用,鋼筋混凝土造,85年3月26日,六層,五層
RPRNMLNLLHLFFHN66CA,20,39.90,共有部份,鋼筋混凝土造,85年3月26日,六層,
RPRNMLLKLHLFFDN68DA,,155.61,農舍,見其他登記事項,104年12月10日,一層,一層
RPUNMLRKLHLFFFN07CA,35,99.50,住商用,加強磚造,69年11月10日,二層,一層 二層 騎樓
RPPNMLLLLHLFFGN78CA,25,188.18,住商用,鋼筋混凝土造,80年7月17日,四層,一層 二層 三層 四層 騎樓
RPQNMLRKLHLFFHN96DA,,172.24,見其他登記事項,鋼筋混凝土造,104年10月26日,三層,一層 二層 三層 屋頂突出物 騎樓
RPRNMLRKLHLFFHN07DA,,160.71,見其他登記事項,鋼筋混凝土造,104年10月26日,三層,一層 二層 三層 屋頂突出物 騎樓
RPSNMLRKLHLFFHN17DA,,172.90,見其他登記事項,鋼筋混凝土造,104年10月26日,三層,一層 二層 三層 屋頂突出物 騎樓
RPPNMLLLLHLFFFN68CA,,160.54,住宅,鋼筋混凝土造,104年12月14日,三層,一層 二層 三層 見其他登記事項
RPQNMLLLLHLFFFN78CA,,161.78,住宅,鋼筋混凝土造,104年12月14日,三層,一層 二層 三層 見其他登記事項
RPRNMLLLLHLFFFN88CA,,172.08,住宅,鋼筋混凝土造,104年12月14日,三層,一層 二層 三層 見其他登記事項
RPSNMLLLLHLFFFN98CA,,172.08,住宅,鋼筋混凝土造,104年12月14日,三層,一層 二層 三層 見其他登記事項
RPTNMLLLLHLFFFN09CA,,172.08,住宅,鋼筋混凝土造,104年12月14日,三層,一層 二層 三層 見其他登記事項
RPUNMLLLLHLFFFN56CA,,172.08,住宅,鋼筋混凝土造,104年12月14日,三層,一層 二層 三層 見其他登記事項
RPVNMLLLLHLFFFN66CA,,172.08,住宅,鋼筋混凝土造,104年12月14日,三層,一層 二層 三層 見其他登記事項
RPWNMLLLLHLFFFN76CA,,172.08,住宅,鋼筋混凝土造,104年12月14日,三層,一層 二層 三層 見其他登記事項
RPXNMLLLLHLFFFN86CA,,172.08,住宅,鋼筋混凝土造,104年12月14日,三層,一層 二層 三層 見其他登記事項
RPSNMLQKLHLFFAN98DA,21,112.00,見其他登記事項,鋼筋混凝土造,84年1月26日,四層,一層 二層 三層 四層
RPTNMLLLLHLFFHN66CA,,180.52,見其他登記事項,鋼筋混凝土造,104年7月7日,三層,一層 二層 三層 屋頂突出物
RPUNMLRKLHLFFHN27CA,39,91.86,住家用,加強磚造,66年5月6日,二層,一層 二層 騎樓
RPUNMLRKLHLFFDN86CA,42,165.96,住家用,鋼筋混凝土加強磚造,62年7月31日,四層,一層 二層 三層 四層
RPWNMLRKLHLFFDN07CA,34,161.67,住商用,鋼筋混凝土造,71年2月27日,三層,一層 二層 三層 騎樓
RPRNMLPKLHLFFDN98CA,,293.63,見其他登記事項,鋼筋混凝土造,104年11月30日,四層,一層 二層 三層 四層 見其他登記事項
RPPNMLKLLHLFFCN28CA,46,228.42,住家用,加強磚造,59年1月1日,二層,一層 二層
RPRNMLRKLHLFFAN88CA,37,83.20,住家用,鋼筋混凝土加強磚造,68年4月12日,二層,一層 二層
RPQNMLPKLHLFFAN58CA,35,124.50,住家用,鋼筋混凝土加強磚造,69年12月31日,二層,一層 二層
RPRNMLOLLHLFFAN68CA,6,112.83,見其他登記事項,鋼筋混凝土造,98年8月21日,七層,五層
RPRNMLOLLHLFFAN68CA,6,70.77,見其他登記事項,鋼筋混凝土造,98年8月21日,七層,
RPXOMLOLLHLFFAN76CA,38,107.64,住家用,見其他登記事項,66年10月1日,三層,一層 二層 三層
RPPOMLLLLHLFFBN38CA,36,97.92,住商用,鋼筋混凝土造,69年5月23日,二層,一層 二層 騎樓
RPVNMLPLLHLFFBN66CA,1,228.18,見其他登記事項,鋼筋混凝土造,104年5月19日,四層,一層 二層 三層 四層 見其他登記事項
RPQNMLSKLHLFFBN98CA,19,8.25,停車空間,鋼筋混凝土造,86年2月3日,九層,
RPQNMLSKLHLFFBN98CA,19,87.48,見其他登記事項,鋼筋混凝土造,86年2月3日,九層,九層
RPQNMLSKLHLFFBN98CA,19,25.86,見其他登記事項,鋼筋混凝土造,86年2月3日,九層,
RPPNMLQKLHLFFBN68CA,3,182.01,住家用,鋼筋混凝土造,102年7月2日,四層,一層 二層 三層 四層
RPPNMLOKMHLFFAN48CA,34,140.64,住商用,鋼筋混凝土造,70年12月31日,四層,一層 二層 三層 四層
RPUNMLQKLHLFFAN09CA,18,200.23,見其他登記事項,鋼筋混凝土造,86年10月20日,三層,一層 二層 三層 地下層
RPSNMLSKLHLFFAN09CA,4,257.81,見其他登記事項,鋼筋混凝土造,100年11月22日,四層,一層 二層 三層 四層 騎樓
RPUNMLRKLHLFFAN56CA,46,104.12,住家用,鋼筋混凝土加強磚造,59年4月6日,二層,一層 二層
RPQNMLMLLHLFFCN58CA,45,90.07,住家用,加強磚造,60年1月23日,二層,一層 二層
RPSNMLPKLHLFFDN09CA,33,70.37,住家用,鋼筋混凝土造,72年7月15日,五層,五層
RPSNMLPKLHLFFDN09CA,33,9.79,見其他登記事項,鋼筋混凝土造,72年7月15日,五層,
RPSNMLKMLHLFFDN78CA,42,122.28,商業用,鋼筋混凝土加強磚造,62年10月10日,一層,一層
RPSNMLKMLHLFFDN78CA,42,172.82,商業用,鋼筋混凝土加強磚造,62年10月10日,一層,一層
RPSNMLKMLHLFFDN78CA,42,24.30,見其他登記事項,鋼筋混凝土加強磚造,62年10月10日,一層,一層
RPSNMLKMLHLFFDN78CA,42,32.38,見其他登記事項,見其他登記事項,62年10月10日,一層,一層
RPSNMLKMLHLFFDN78CA,42,229.47,工業用,鋼筋混凝土加強磚造,62年10月10日,一層,一層
RPSNMLKMLHLFFDN78CA,44,329.33,商業用,鐵造,61年2月2日,一層,一層
RPPNMLQKLHLFFEN09DA,47,110.90,住家用,鋼筋混凝土加強磚造,58年5月30日,二層,一層 二層
RPPNMLQKLHLFFCN88DA,24,88.35,見其他登記事項,鋼筋混凝土造,81年7月2日,七層,一層 二層 騎樓
RPPNMLQKLHLFFCN88DA,24,24.71,見其他登記事項,鋼筋混凝土造,81年7月2日,七層,
RPPNMLLJMHLFFFN58CA,7,135.00,農舍,見其他登記事項,98年7月30日,一層,一層
RPTNMLNLLHLFFFN66CA,36,89.50,住商用,加強磚造,69年6月30日,二層,一層 二層
RPVNMLQKLHLFFGN17CA,23,170.38,住家用,鋼筋混凝土造,82年8月11日,三層,一層 二層 三層
RPTNMLPKLHLFFFN86DA,,192.79,住宅,鋼筋混凝土造,104年8月11日,三層,一層 二層 三層 見其他登記事項
RPQNMLRKLHLFFGN86DA,21,168.81,住家用,鋼筋混凝土造,84年4月25日,三層,一層 二層 三層
RPSNMLSKLHLFFGN17DA,21,91.71,見其他登記事項,鋼筋混凝土造,84年8月12日,十層,四層
RPSNMLSKLHLFFGN17DA,21,19.67,見其他登記事項,鋼筋混凝土造,84年8月12日,十層,
RPVNMLLLLHLFFAN78CA,36,107.92,住商用,鋼筋混凝土造,69年4月22日,四層,一層 二層 三層 四層 騎樓
RPSOMLLKMHLFFAN58CA,1,199.77,見其他登記事項,鋼筋混凝土造,104年6月18日,四層,一層 二層 三層 四層 騎樓
RPQNMLRKLHLFFBN88CA,34,78.54,住商用,鋼筋混凝土加強磚造,71年2月1日,三層,一層 二層 三層
RPPNMLSKLHLFFBN88CA,3,196.66,住家用,鋼筋混凝土造,102年6月17日,四層,一層 二層 三層 四層
RPPNMLSKLHLFFBN88CA,3,.26,見其他登記事項,鋼筋混凝土造,102年6月17日,一層,
RPSNMLNLLHLFFBN78CA,2,20.57,農舍,見其他登記事項,103年8月5日,一層,一層
RPQNMLTLLHLFFBN56CA,21,180.60,住商用,鋼筋混凝土造,83年12月24日,四層,一層 二層 三層 四層 騎樓
RPQNMLRJMHLFFBN88CA,19,101.66,住家用,鋼筋混凝土造,85年9月23日,十三層,十三層
RPQNMLRJMHLFFBN88CA,19,20.72,見其他登記事項,鋼筋混凝土造,85年9月23日,十三層,
RPVNMLRKLHLFFAN66CA,,209.46,見其他登記事項,鋼筋混凝土造,104年12月22日,三層,一層 二層 三層 騎樓
RPRNMLLMLHLFFEN88CA,23,141.24,住商用,鋼筋混凝土造,81年11月24日,三層,一層 二層 三層 騎樓
RPXNMLLKMHLFFDN66CA,6,106.89,見其他登記事項,鋼筋混凝土造,98年7月24日,七層,二層
RPXNMLLKMHLFFDN66CA,6,.58,見其他登記事項,鋼筋混凝土造,98年7月24日,七層,一層
RPXNMLLKMHLFFDN66CA,6,.19,見其他登記事項,鋼筋混凝土造,98年7月24日,七層,
RPXNMLLKMHLFFDN66CA,6,.02,見其他登記事項,鋼筋混凝土造,98年7月24日,七層,
RPXNMLLKMHLFFDN66CA,6,2.80,見其他登記事項,鋼筋混凝土造,98年7月24日,七層,
RPXNMLLKMHLFFDN66CA,6,33.42,見其他登記事項,鋼筋混凝土造,98年7月24日,七層,
RPPNMLLMLHLFFCN48CA,2,193.78,見其他登記事項,鋼筋混凝土造,102年10月15日,四層,一層 二層 三層 四層
RPPNMLSKLHLFFCN98CA,,188.61,見其他登記事項,鋼筋混凝土造,104年10月12日,三層,一層 二層 三層 騎樓 見其他登記事項
RPRNMLRKLHLFFDN56CA,1,200.08,見其他登記事項,鋼筋混凝土造,104年5月15日,四層,一層 二層 三層 四層
RPQNMLLMLHLFFDN68CA,36,169.92,住家用,鋼筋混凝土造,68年10月22日,三層,一層 二層 三層 騎樓 地下層
RPPOMLLLLHLFFFN88DA,21,135.00,住家用,鋼筋混凝土造,83年8月23日,三層,一層 二層 三層 騎樓
RPSNMLSKLHLFFFN96CA,14,188.64,住商用,鋼筋混凝土造,90年11月5日,三層,一層 二層 三層 騎樓
RPRNMLPLLHLFFFN66CA,20,135.13,住家用,鋼筋混凝土造,85年7月10日,三層,一層 二層 三層
RPXNMLRKLHLFFHN57CA,29,108.05,住商用,鋼筋混凝土造,76年4月10日,二層,一層 二層 騎樓
RPTNMLLLLHLFFDN88CA,,317.68,見其他登記事項,鋼筋混凝土造,104年11月30日,四層,一層 二層 三層 四層 見其他登記事項
RPQNMLSJMHLFFCN09CA,14,150.61,見其他登記事項,鋼筋混凝土造,91年2月7日,四層,一層 二層 三層 四層
RPTNMLLJMHLFFCN68CA,3,159.79,見其他登記事項,鋼筋混凝土造,101年11月2日,四層,一層 二層 三層 四層
RPTNMLRJMHLFFDN76CA,35,126.38,住家用,加強磚造,69年11月22日,二層,一層 二層 騎樓
RPVNMLSLLHLFFAN86CA,32,96.00,住家用,鋼筋混凝土造,73年8月1日,五層,五層
RPXNMLOLLHLFFAN66CA,41,134.82,住家用,鋼筋混凝土加強磚造,63年7月19日,三層,一層 二層 三層 騎樓
RPXNMLQJMHLFFAN76CA,47,44.00,住家用,鋼筋混凝土加強磚造,57年9月6日,二層,一層 二層
RPWNMLSLLHLFFAN96CA,35,93.52,住家用,加強磚造,69年10月8日,二層,一層 二層
RPQPMLMKMHLFFAN58CA,,219.77,見其他登記事項,鋼筋混凝土造,104年11月6日,四層,一層 二層 三層 四層 屋頂突出物 騎樓
RPRPMLMKMHLFFAN68CA,,217.12,見其他登記事項,鋼筋混凝土造,104年11月6日,四層,一層 二層 三層 四層 屋頂突出物 騎樓
RPUNMLLLLHLFFAN68CA,8,174.44,住家用,鋼筋混凝土造,97年1月24日,四層,一層 二層 三層 四層
RPQNMLLLLHLFFAN28CA,6,227.90,見其他登記事項,鋼筋混凝土造,99年7月28日,四層,一層 二層 三層 四層 騎樓
RPQNMLKMLHLFFEN68CA,22,159.42,住商用,鋼筋混凝土造,83年1月14日,四層,一層 二層 三層 四層
RPRNMLMLLHLFFCN68CA,2,45.72,農舍,見其他登記事項,103年4月15日,一層,一層
RPTNMLOLLHLFFDN56CA,21,143.08,工業用,鋼筋混凝土造,83年9月17日,十一層,四層
RPTNMLOLLHLFFDN56CA,21,19.49,共有部分,鋼筋混凝土造,83年9月17日,十一層,
RPTNMLOLLHLFFDN56CA,21,22.36,見其他登記事項,鋼筋混凝土造,83年9月17日,十一層,
RPPNMLNLLHLFFDN68CA,42,47.90,住家用,鋼筋混凝土加強磚造,62年9月21日,一層,一層
RPPNMLSKLHLFFHN86CA,41,126.36,住家用,鋼筋混凝土加強磚造,64年7月18日,二層,一層 二層 騎樓
RPTNMLSKLHLFFFN17DA,18,163.57,住宅,鋼筋混凝土造,87年5月6日,二層,一層 二層
RPPNMLMLLHLFFGN98DA,23,169.72,見其他登記事項,鋼筋混凝土造,82年3月12日,四層,一層 二層 三層 四層
RPRNMLSJMHLFFCN56CA,40,90.58,住家用,加強磚造,64年10月15日,二層,一層 二層
RPQNMLOLLHLFFCN78CA,40,84.00,住家用,加強磚造,64年12月3日,二層,一層 二層
RPSNMLQJMHLFFDN56CA,22,164.52,住家用,鋼筋混凝土造,83年2月5日,三層,一層 二層 三層 騎樓
RPVNMLKLMHLFFDN09CA,2,148.10,見其他登記事項,鋼筋混凝土造,103年1月9日,三層,一層 二層 三層 見其他登記事項
RPVNMLOLLHLFFAN09CA,23,125.57,住家用,鋼筋混凝土造,82年3月11日,三層,一層 二層 三層
RPSOMLOLLHLFFAN88CA,17,235.11,住家用,鋼筋混凝土造,88年1月11日,五層,一層 二層 三層 四層 五層 騎樓
RPQNMLNLLHLFFAN48CA,35,212.76,住家用,鋼筋混凝土加強磚造,69年10月24日,三層,一層 二層 三層
RPVNMLPLLHLFFAN56CA,1,230.68,見其他登記事項,鋼筋混凝土造,103年12月9日,四層,一層 二層 三層 四層
RPPOMLQJMHLFFAN68CA,39,94.68,住家用,鋼筋混凝土加強磚造,65年10月20日,二層,一層 二層
RPTNMLOLLHLFFBN98CA,31,40.95,農舍,磚造,74年6月14日,一層,一層
RPPOMLPLLHLFFAN68CA,33,87.00,住家用,加強磚造,72年3月22日,二層,一層 二層
RPPNMLSLLHLFFAN88CA,43,81.86,住家用,鋼筋混凝土加強磚造,61年11月21日,二層,一層 二層
RPXNMLSLLHLFFAN07CA,18,212.15,見其他登記事項,鋼筋混凝土造,86年10月20日,三層,一層 二層 三層 地下層
RPXOMLMKMHLFFAN56CA,34,97.70,住商用,加強磚造,70年12月31日,二層,一層 二層
RPVOMLMKMHLFFAN98CA,36,84.60,住商用,加強磚造,68年12月19日,二層,一層 二層 騎樓
RPQOMLMKMHLFFAN48CA,37,163.68,住商用,鋼筋混凝土造,68年9月8日,三層,一層 二層 三層 騎樓
RPUOMLLKMHLFFAN78CA,40,76.96,住家用,鋼筋混凝土加強磚造,65年5月13日,二層,一層 二層
RPPNMLSLLHLFFEN66CA,17,185.06,住家用,鋼筋混凝土造,87年10月28日,三層,一層 二層 三層 騎樓
RPTNMLOLLHLFFCN09CA,23,113.33,住家用,鋼筋混凝土造,82年5月22日,七層,四層
RPTNMLOLLHLFFCN09CA,23,52.11,見其他登記事項,鋼筋混凝土造,82年5月22日,七層,
RPVNMLTLLHLFFCN17CA,,178.57,見其他登記事項,鋼筋混凝土造,104年12月16日,四層,一層 二層 三層 四層 騎樓
RPVNMLTLLHLFFCN17CA,,178.57,見其他登記事項,鋼筋混凝土造,104年12月16日,四層,一層 二層 三層 四層 騎樓
RPWNMLTLLHLFFCN27CA,,350.97,住家用,鋼筋混凝土造,104年12月16日,四層,一層 二層 三層 四層
RPXNMLTLLHLFFCN37CA,,182.12,見其他登記事項,鋼筋混凝土造,104年12月16日,三層,一層 二層 三層 屋頂突出物 騎樓
RPOOMLTLLHLFFCN56CA,,182.12,見其他登記事項,鋼筋混凝土造,104年12月16日,三層,一層 二層 三層 屋頂突出物 騎樓
RPSNMLTLLHLFFCN86CA,,182.12,見其他登記事項,鋼筋混凝土造,104年12月16日,三層,一層 二層 三層 屋頂突出物 騎樓
RPQNMLOLLHLFFDN88CA,1,321.29,見其他登記事項,鋼筋混凝土造,104年7月28日,五層,一層 二層 三層 四層 五層
RPSNMLOLLHLFFHN86CA,35,99.54,住家用,見其他登記事項,70年9月2日,二層,一層 二層 騎樓
RPPNMLPLLHLFFCN88DA,24,128.98,住家用,加強磚造,81年6月25日,二層,一層 二層
RPPNMLSLLHLFFCN56DA,11,245.06,見其他登記事項,鋼筋混凝土造,93年12月24日,四層,一層 二層 三層 四層 地下一層
RPPNMLSLLHLFFCN56DA,11,19.30,見其他登記事項,鋼筋混凝土造,93年12月24日,,
RPQNMLLMLHLFFGN98CA,16,150.25,住家用,鋼筋混凝土造,88年8月13日,三層,一層 二層 三層
RPPNMLKMLHLFFGN78CA,22,180.00,住家用,鋼筋混凝土造,82年10月4日,三層,一層 二層 三層
RPRNMLKMLHLFFGN98CA,3,204.47,住家用,鋼筋混凝土造,101年11月5日,四層,一層 二層 三層 四層
RPPNMLOLLHLFFHN56CA,21,134.02,住家用,鋼筋混凝土造,84年7月11日,三層,一層 二層 三層
RPUNMLRJMHLFFHN27CA,1,172.68,見其他登記事項,鋼筋混凝土造,104年8月7日,三層,一層 二層 三層 屋頂突出物
RPVNMLRJMHLFFHN37CA,1,172.07,見其他登記事項,鋼筋混凝土造,104年8月7日,三層,一層 二層 三層 屋頂突出物 騎樓
RPQNMLLKMHLFFHN98CA,4,304.76,見其他登記事項,鋼筋混凝土造,101年3月23日,三層,一層 二層 三層 屋頂突出物 騎樓
RPQNMLNLLHLFFDN78CA,16,27.49,住家用,鋼筋混凝土造,89年7月12日,十層,九層
RPQNMLNLLHLFFDN78CA,16,9.86,見其他登記事項,鋼筋混凝土造,89年7月12日,十層,
RPTNMLPLLHLFFCN56CA,1,172.54,見其他登記事項,鋼筋混凝土造,103年10月8日,四層,一層 二層 三層 四層
RPPNMLKLMHLFFDN48CA,,217.26,見其他登記事項,鋼筋混凝土造,104年12月24日,四層,一層 二層 三層 四層
RPWNMLLMLHLFFDN66CA,24,166.92,住家用,鋼筋混凝土造,80年11月27日,三層,一層 二層 三層
RPPNMLSJMHLFFDN09CA,18,166.70,見其他登記事項,鋼筋混凝土造,87年9月5日,三層,一層 二層 三層
RPPNMLOJNHLFFDN78CA,,346.09,見其他登記事項,鋼筋混凝土造,104年12月24日,四層,一層 二層 三層 四層 屋頂突出物 騎樓
RPSNMLOLLHLFFAN78CA,27,98.90,住家用,加強磚造,78年6月20日,二層,一層 二層
RPTNMLOLLHLFFAN88CA,17,248.14,住家用,鋼筋混凝土造,87年11月21日,五層,一層 二層 三層 四層 五層
RPRNMLNLLHLFFBN68CA,35,101.20,住家用,加強磚造,69年12月20日,二層,一層 二層 騎樓
RPQOMLPLLHLFFBN88CA,30,216.00,住家用,鋼筋混凝土造,75年4月3日,三層,一層 二層 三層
RPPNMLPLLHLFFBN68CA,20,287.44,住家用,鋼筋混凝土造,84年10月9日,四層,一層 二層 三層 四層 騎樓
RPQNMLPLLHLFFBN78CA,36,96.76,住家用,加強磚造,69年5月9日,二層,一層 二層 騎樓
RPROMLOLLHLFFAN78CA,24,102.93,住家用,鋼筋混凝土造,81年1月8日,三層,一層 二層 三層
RPOPMLMKMHLFFAN38CA,35,88.56,住家用,加強磚造,70年2月4日,二層,一層 二層
RPOPMLMKMHLFFAN38CA,35,88.56,住家用,加強磚造,70年2月4日,二層,一層 二層
RPQNMLTKMHLFFAN09CA,18,115.33,住家用,鋼筋混凝土造,87年4月22日,七層,七層
RPQNMLTKMHLFFAN09CA,18,47.98,見其他登記事項,鋼筋混凝土造,87年4月22日,七層,
RPTNMLMLMHLFFDN09CA,27,147.89,住商用,鋼筋混凝土造,78年4月27日,三層,一層 二層 三層 騎樓
RPUNMLTKMHLFFDN17CA,36,111.02,住家用,鋼筋混凝土加強磚造,69年6月18日,二層,一層 二層
RPUNMLKMLHLFFDN98CA,33,50.95,住家用,鋼筋混凝土造,72年5月20日,五層,五層
RPQNMLPLLHLFFDN98CA,16,27.47,住家用,鋼筋混凝土造,89年7月12日,十層,六層
RPQNMLPLLHLFFDN98CA,16,9.86,見其他登記事項,鋼筋混凝土造,89年7月12日,十層,
RPQNMLQLMHLFFHN96CA,22,108.19,住家用,鋼筋混凝土造,82年9月23日,二層,一層 二層
RPPNMLTLLHLFFGN96CA,1,200.90,住家用,鋼筋混凝土造,104年9月18日,三層,一層 二層 三層 屋頂突出物
RPQNMLTKMHLFFGN07CA,22,186.76,住家用,鋼筋混凝土造,83年3月25日,三層,一層 二層 三層
RPQNMLLJMHLFFFN68CA,13,157.25,住家用,鋼筋混凝土造,92年4月29日,三層,一層 二層 三層
RPPNMLSLLHLFFFN76CA,39,47.63,住家用,加強磚造,66年4月1日,二層,一層 二層
RPXNMLSLLHLFFFN57CA,35,87.29,住家用,加強磚造,69年12月30日,二層,一層 二層
RPQNMLNKMHLFFCN78DA,1,156.90,見其他登記事項,鋼筋混凝土造,104年8月14日,三層,一層 二層 三層 見其他登記事項
RPSNMLLMLHLFFHN66CA,24,257.31,住家用,鋼筋混凝土造,81年5月20日,四層,一層 二層 三層 四層 地下層
RPPOMLTLLHLFFCN66CA,,91.06,見其他登記事項,鋼筋混凝土造,104年12月16日,三層,一層 二層 三層 屋頂突出物 騎樓
RPPOMLTLLHLFFCN66CA,,91.06,見其他登記事項,鋼筋混凝土造,104年12月16日,三層,一層 二層 三層 屋頂突出物 騎樓
RPRNMLKMLHLFFCN58CA,85,87.28,住家用,加強磚造,20年5月13日,二層,一層 二層 騎樓
RPPNMLTKMHLFFDN66CA,21,86.78,住家用,鋼筋混凝土造,84年7月7日,八層,八層
RPPNMLTKMHLFFDN66CA,21,12.96,見其他登記事項,鋼筋混凝土造,84年7月7日,八層,
RPPNMLTKMHLFFDN66CA,21,11.57,見其他登記事項,鋼筋混凝土造,84年7月7日,八層,
RPPNMLKMLHLFFEN58CA,36,102.50,住商用,鋼筋混凝土加強磚造,69年9月5日,二層,一層 二層
RPTNMLSLLHLFFEN07CA,1,201.03,住家用,鋼筋混凝土造,104年6月3日,三層,一層 二層 三層 見其他登記事項
RPRNMLTLLHLFFEN96CA,24,208.23,住商用,鋼筋混凝土造,81年1月28日,三層,一層 二層 三層 騎樓
RPROMLTKMHLFFAN66CA,1,228.27,見其他登記事項,鋼筋混凝土造,104年7月2日,四層,一層 二層 三層 四層 騎樓
RPROMLRJMHLFFAN98CA,23,372.51,商業用,鋼筋混凝土造,82年7月7日,十二層,地下一層
RPROMLRJMHLFFAN98CA,23,9.32,見其他登記事項,鋼筋混凝土造,82年7月7日,十二層,
RPROMLRJMHLFFAN98CA,23,37.75,見其他登記事項,鋼筋混凝土造,82年7月7日,十二層,
RPROMLRJMHLFFAN98CA,23,529.95,見其他登記事項,鋼筋混凝土造,82年7月7日,十二層,地下一層
RPROMLRJMHLFFAN98CA,23,37.75,見其他登記事項,鋼筋混凝土造,82年7月7日,十二層,
RPROMLRJMHLFFAN98CA,23,26.63,見其他登記事項,鋼筋混凝土造,82年7月7日,十二層,
RPPOMLLJMHLFFAN18CA,15,127.30,住商用,鋼筋混凝土造,89年9月18日,四層,一層 二層 三層 四層 騎樓
RPQNMLLJMHLFFAN18CA,21,116.12,住家用,鋼筋混凝土造,83年10月7日,三層,一層 二層 三層
RPOOMLSLLHLFFAN88CA,37,103.12,住家用,加強磚造,68年4月13日,二層,一層 二層
RPPOMLSLLHLFFAN98CA,9,192.40,住家用,鋼筋混凝土造,96年3月28日,四層,一層 二層 三層 四層
RPPNMLLMLHLFFAN28CA,23,103.40,住工用,鋼筋混凝土造,82年6月14日,六層,四層
RPPNMLLMLHLFFAN28CA,23,4.89,見其他登記事項,鋼筋混凝土造,82年6月14日,六層,
RPPNMLLMLHLFFAN28CA,23,17.10,見其他登記事項,鋼筋混凝土造,82年6月14日,六層,
RPPPMLSKMHLFFBN56CA,35,112.56,住商用,加強磚造,69年12月30日,二層,一層 二層 騎樓
RPSOMLRLMHLFFAN66CA,19,175.06,住商用,鋼筋混凝土造,86年5月15日,十一層,一層 二層 三層
RPSOMLRLMHLFFAN66CA,19,10.71,見其他登記事項,鋼筋混凝土造,86年5月15日,十一層,
RPSOMLRLMHLFFAN66CA,19,22.77,見其他登記事項,鋼筋混凝土造,86年5月15日,十一層,
RPPNMLTLLHLFFAN98CA,23,89.65,住家用,鋼筋混凝土造,82年1月21日,七層,四層
RPPNMLTLLHLFFAN98CA,23,28.60,見其他登記事項,鋼筋混凝土造,82年1月21日,七層,
RPQOMLQJMHLFFAN78CA,32,86.98,住家用,加強磚造,73年7月6日,二層,一層 二層
RPVNMLRJMHLFFAN66CA,21,97.76,住家用,鋼筋混凝土造,84年2月5日,四層,一層 二層 三層 四層
RPVNMLRJMHLFFAN66CA,21,97.76,住家用,鋼筋混凝土造,84年2月5日,四層,一層 二層 三層 四層
RPSNMLTLLHLFFEN07CA,2,184.16,見其他登記事項,鋼筋混凝土造,103年7月21日,三層,一層 二層 三層 見其他登記事項
RPTNMLTLLHLFFEN17CA,,144.17,住家用,鋼筋混凝土造,105年1月18日,三層,一層 二層 三層 見其他登記事項
RPQNMLQJMHLFFEN09CA,31,136.38,住商用,鋼筋混凝土造,74年5月6日,三層,一層 二層 三層 騎樓
RPPNMLRJMHLFFCN88CA,35,120.96,住商用,鋼筋混凝土加強磚造,70年5月12日,二層,一層 二層 騎樓
RPSNMLTLLHLFFDN96CA,1,230.77,見其他登記事項,鋼筋混凝土造,104年2月17日,四層,一層 二層 三層 四層 屋頂突出物 騎樓
RPQNMLMKMHLFFHN09CA,,175.62,見其他登記事項,鋼筋混凝土造,104年10月26日,三層,一層 二層 三層 屋頂突出物 騎樓
RPPNMLNKMHLFFHN09CA,,192.63,見其他登記事項,鋼筋混凝土造,104年10月26日,四層,一層 二層 三層 四層
RPQNMLNKMHLFFHN56CA,,207.81,見其他登記事項,鋼筋混凝土造,104年10月26日,四層,一層 二層 三層 四層
RPSNMLNKMHLFFHN76CA,,154.11,住家用,鋼筋混凝土造,104年10月26日,四層,一層 二層 三層 四層
RPQNMLOKMHLFFHN66CA,35,148.06,住商用,加強磚造,70年2月4日,二層,一層 二層 騎樓
RPQNMLKMLHLFFCN58DA,19,158.04,農舍,鋼筋混凝土造,86年5月16日,三層,一層 二層 三層 屋頂突出物
RPQNMLRJMHLFFFN66CA,2,182.76,住宅,鋼筋混凝土造,102年9月18日,三層,一層 二層 三層
RPQNMLTLLHLFFHN27DA,24,152.99,住商用,鋼筋混凝土造,81年8月21日,三層,一層 二層 三層 騎樓
RPSNMLSJMHLFFGN07CA,21,153.06,住家用,鋼筋混凝土造,84年5月5日,三層,一層 二層 三層
RPQNMLKKMHLFFFN68CA,25,136.96,住家用,鋼筋混凝土造,80年3月25日,三層,一層 二層 三層 騎樓
RPRNMLKMLHLFFFN88CA,3,276.04,住宅,鋼筋混凝土造,101年11月28日,四層,一層 二層 三層 四層 騎樓
RPVNMLKMLHLFFDN56DA,24,58.92,住家用,鋼筋混凝土造,81年5月27日,三層,一層 二層 三層
RPPNMLNLMHLFFHN56CA,32,106.78,住商用,加強磚造,72年12月5日,二層,一層 二層 騎樓
RPRNMLLMLHLFFCN68CA,,175.65,住家用,鋼筋混凝土造,104年10月26日,四層,一層 二層 三層 四層
RPTNMLSJMHLFFCN76CA,17,101.85,見其他登記事項,鋼筋混凝土造,88年1月14日,八層,六層
RPTNMLSJMHLFFCN76CA,17,58.02,見其他登記事項,鋼筋混凝土造,88年1月14日,八層,
RPUNMLKMLHLFFCN88CA,,181.81,住家用,鋼筋混凝土造,104年12月1日,四層,一層 二層 三層 四層
RPVNMLKMLHLFFCN98CA,,181.81,住家用,鋼筋混凝土造,104年12月1日,四層,一層 二層 三層 四層
RPWNMLKMLHLFFCN09CA,,181.81,住家用,鋼筋混凝土造,104年12月1日,四層,一層 二層 三層 四層
RPWNMLPLMHLFFCN96CA,24,148.94,住家用,鋼筋混凝土造,81年6月8日,四層,一層 二層 三層 四層
RPRNMLNKMHLFFDN88CA,40,31.00,見其他登記事項,鋼筋混凝土加強磚造,64年11月5日,二層,一層 二層
RPSNMLNKMHLFFDN98CA,45,48.04,住家用,磚造,60年2月18日,一層,一層
RPWNMLRJMHLFFAN76CA,23,308.00,住工用,鋼筋混凝土造,82年8月16日,四層,一層 二層 三層 四層
RPXNMLRJMHLFFAN86CA,7,186.51,見其他登記事項,鋼筋混凝土造,98年1月16日,三層,一層 二層 三層 騎樓
RPQNMLTLLHLFFAN09CA,23,99.36,住家用,鋼筋混凝土造,81年11月28日,六層,五層
RPQNMLTLLHLFFAN09CA,23,26.77,見其他登記事項,鋼筋混凝土造,81年11月28日,六層,
RPPNMLKMLHLFFAN18CA,15,143.34,住家用,鋼筋混凝土造,90年4月10日,三層,一層 二層 三層 騎樓
RPQNMLKMLHLFFAN28CA,20,376.33,住家用,鋼筋混凝土造,84年12月15日,四層,一層 二層 三層 四層
RPUNMLKMLHLFFAN68CA,11,202.31,見其他登記事項,鋼筋混凝土造,94年3月23日,三層,一層 二層 三層 騎樓
RPUNMLNKMHLFFAN88CA,3,289.27,見其他登記事項,鋼筋混凝土造,102年8月23日,四層,一層 二層 三層 四層 地下一層
RPUNMLNKMHLFFAN88CA,3,33.90,見其他登記事項,鋼筋混凝土造,102年8月23日,四層,
RPTOMLQLMHLFFAN66CA,8,320.42,見其他登記事項,鋼筋混凝土造,96年11月7日,四層,一層 二層 三層 四層 地下一層
RPTOMLQLMHLFFAN66CA,8,31.85,見其他登記事項,鋼筋混凝土造,96年11月7日,四層,
RPQNMLRLMHLFFAN98CA,33,99.00,住家用,鋼筋混凝土造,72年8月23日,四層,一層 夾層
RPQNMLRLMHLFFAN98CA,33,11.09,見其他登記事項,鋼筋混凝土造,72年8月23日,四層,
RPUNMLMKMHLFFDN09CA,7,211.28,見其他登記事項,鋼筋混凝土造,98年4月6日,四層,一層 二層 三層 四層
RPUNMLMKMHLFFDN09CA,7,66.59,見其他登記事項,鋼筋混凝土造,98年4月6日,四層,
RPXNMLMKMHLFFDN76CA,33,85.40,住家用,加強磚造,72年3月28日,二層,一層 二層
RPOOMLMKMHLFFDN58CA,,465.83,見其他登記事項,鋼筋混凝土造,104年9月18日,四層,一層 二層 三層 四層 見其他登記事項
RPOOMLMKMHLFFDN58CA,,2.45,見其他登記事項,鋼筋混凝土造,104年9月18日,一層,一層
RPPOMLMKMHLFFDN68CA,,453.32,見其他登記事項,鋼筋混凝土造,104年9月18日,四層,一層 二層 三層 四層 見其他登記事項
RPPOMLMKMHLFFDN68CA,,2.45,見其他登記事項,鋼筋混凝土造,104年9月18日,一層,一層
RPQOMLMKMHLFFDN78CA,,522.44,見其他登記事項,鋼筋混凝土造,104年9月18日,五層,一層 二層 三層 四層 五層
RPQOMLMKMHLFFDN78CA,,2.45,見其他登記事項,鋼筋混凝土造,104年9月18日,一層,一層
RPROMLMKMHLFFDN88CA,,444.05,見其他登記事項,鋼筋混凝土造,104年9月18日,四層,一層 二層 三層 四層 見其他登記事項
RPROMLMKMHLFFDN88CA,,2.45,見其他登記事項,鋼筋混凝土造,104年9月18日,一層,一層
RPTNMLLJMHLFFEN88CA,26,127.93,住家用,鋼筋混凝土造,78年12月20日,三層,一層 二層 三層
RPPNMLPLMHLFFCN88CA,36,101.22,住家用,鋼筋混凝土加強磚造,69年4月15日,二層,一層 二層
RPRNMLPKMHLFFCN98CA,35,126.94,住商用,鋼筋混凝土加強磚造,70年1月26日,二層,一層 二層 騎樓
RPUNMLNKMHLFFHN96CA,1,164.26,見其他登記事項,鋼筋混凝土造,104年8月7日,三層,一層 二層 三層 屋頂突出物
RPVNMLNKMHLFFHN07CA,1,170.55,見其他登記事項,鋼筋混凝土造,103年11月20日,三層,一層 二層 三層 屋頂突出物
RPPNMLQJMHLFFHN66CA,21,2095.15,商業用,見其他登記事項,84年8月18日,三層,一層 二層 三層
RPPNMLLMLHLFFBN48DA,3,182.68,住家用,鋼筋混凝土造,102年8月21日,四層,一層 二層 三層 四層
RPPNMLRLMHLFFGN96DA,24,359.70,見其他登記事項,見其他登記事項,80年9月10日,二層,一層 二層 地下層
RPSNMLQJMHLFFGN86CA,35,191.20,住商用,鋼筋混凝土造,70年6月29日,四層,一層 二層 三層 四層 騎樓
RPSNMLOKMHLFFGN76CA,33,83.86,住家用,加強磚造,71年12月10日,二層,一層 二層
RPPNMLMJMHLFFFN68CA,21,128.83,住家用,鋼筋混凝土造,84年8月3日,三層,一層 二層 三層
RPRNMLSJMHLFFFN86CA,35,81.40,住家用,加強磚造,69年12月2日,二層,一層 二層
RPSNMLRLMHLFFDN96DA,35,192.89,住工用,鋼筋混凝土造,69年8月6日,二層,一層 二層
RPPNMLMKMHLFFHN98CA,,184.90,住家用,鋼筋混凝土造,104年11月30日,四層,一層 二層 三層 四層
RPWNMLNKMHLFFHN17CA,1,170.36,見其他登記事項,鋼筋混凝土造,103年11月20日,三層,一層 二層 三層 屋頂突出物
RPSNMLNKMHLFFCN88CA,32,152.20,住商用,鋼筋混凝土加強磚造,73年5月7日,二層,一層 二層 三層 騎樓
RPUNMLLJMHLFFCN78CA,22,199.96,住家用,鋼筋混凝土造,83年8月12日,四層,一層 二層 三層 四層 騎樓
RPQNMLRJMHLFFEN56CA,17,164.11,住商用,鋼筋混凝土造,87年11月27日,三層,一層 二層 三層
RPWNMLMKMHLFFDN66CA,10,154.79,住家用,鋼筋混凝土造,95年2月17日,三層,一層 二層 三層 電梯樓梯間
RPUNMLQJMHLFFDN76CA,1,170.28,住家用,鋼筋混凝土造,104年6月25日,三層,一層 二層 三層 屋頂突出物
RPVNMLQJMHLFFDN86CA,,261.07,見其他登記事項,鋼筋混凝土造,104年11月12日,四層,一層 二層 三層 四層 地下一層
RPVNMLQJMHLFFDN86CA,,7.17,共有部分,鋼筋混凝土造,104年11月12日,四層,
RPVNMLQJMHLFFDN86CA,,17.66,共有部分,鋼筋混凝土造,104年11月12日,四層,
RPQOMLTLMHLFFDN96CA,,251.85,見其他登記事項,鋼筋混凝土造,104年12月11日,四層,一層 二層 三層 四層 屋頂突出物
RPSOMLTLMHLFFDN17CA,,285.78,見其他登記事項,鋼筋混凝土造,104年12月11日,四層,一層 二層 三層 四層 屋頂突出物
RPVOMLTLMHLFFDN47CA,,194.63,見其他登記事項,鋼筋混凝土造,104年12月11日,四層,一層 二層 三層 四層
RPPPMLTLMHLFFDN96CA,,195.09,見其他登記事項,鋼筋混凝土造,104年12月11日,四層,一層 二層 三層 四層
RPSPMLTLMHLFFDN27CA,,195.21,見其他登記事項,鋼筋混凝土造,104年12月11日,四層,一層 二層 三層 四層
RPVPMLTLMHLFFDN57CA,,194.63,見其他登記事項,鋼筋混凝土造,104年12月11日,四層,一層 二層 三層 四層
RPSNMLTLMHLFFDN07CA,,245.11,見其他登記事項,鋼筋混凝土造,104年12月11日,四層,一層 二層 三層 四層 屋頂突出物
RPVNMLLJMHLFFAN68CA,24,234.28,住家用,鋼筋混凝土造,80年10月1日,五層,一層 二層 三層 四層 五層 騎樓
RPPOMLRJMHLFFAN78CA,31,123.12,住家用,鋼筋混凝土造,74年4月20日,三層,一層 二層 三層
RPUNMLLKMHLFFAN68CA,16,390.96,見其他登記事項,鋼筋混凝土造,89年6月27日,三層,一層 二層 三層
RPWNMLNKMHLFFAN09CA,,160.89,住家用,鋼筋混凝土造,104年12月14日,四層,一層 二層 三層 四層
RPXNMLNKMHLFFAN56CA,,158.73,住家用,鋼筋混凝土造,104年12月14日,四層,一層 二層 三層 四層
RPOOMLNKMHLFFAN38CA,,160.65,住家用,鋼筋混凝土造,104年12月14日,四層,一層 二層 三層 四層
RPPOMLNKMHLFFAN48CA,,150.63,住家用,鋼筋混凝土造,104年12月14日,四層,一層 二層 三層 四層
RPRNMLNKMHLFFAN58CA,19,109.92,住家用,鋼筋混凝土造,85年10月12日,五層,五層
RPRNMLNKMHLFFAN58CA,19,26.31,見其他登記事項,鋼筋混凝土造,85年10月12日,五層,
RPRNMLNKMHLFFAN58CA,19,16.91,見其他登記事項,鋼筋混凝土造,85年10月12日,五層,
RPOOMLLKMHLFFAN18CA,37,79.76,住家用,鋼筋混凝土造,67年9月29日,四層,四層
RPPNMLMKMHLFFAN28CA,48,515.04,住商用,鋼筋混凝土加強磚造,57年3月12日,四層,一層 二層 三層 四層 騎樓 地下層
RPRNMLLJMHLFFBN38CA,30,120.00,住家用,鋼筋混凝土造,75年8月5日,二層,一層 二層 騎樓
RPRNMLNKMHLFFBN68CA,25,127.16,住家用,鋼筋混凝土造,79年8月9日,三層,一層 二層 三層 騎樓
RPSPMLSKMHLFFBN86CA,,171.35,見其他登記事項,鋼筋混凝土造,104年11月30日,三層,一層 二層 三層 騎樓 見其他登記事項
RPSNMLRLMHLFFAN56CA,8,169.08,見其他登記事項,鋼筋混凝土造,97年7月10日,四層,一層 二層 三層 四層
RPPOMLRLMHLFFAN98CA,,209.12,見其他登記事項,鋼筋混凝土造,104年11月6日,四層,一層 二層 三層 四層 屋頂突出物 騎樓
RPQOMLRLMHLFFAN09CA,,243.94,見其他登記事項,鋼筋混凝土造,104年11月6日,四層,一層 二層 三層 四層 屋頂突出物 騎樓
RPSOMLQLMHLFFAN56CA,21,132.10,見其他登記事項,鋼筋混凝土造,84年6月22日,四層,一層 二層 三層 四層
RPPNMLQLMHLFFAN78CA,,218.56,見其他登記事項,鋼筋混凝土造,104年11月6日,四層,一層 二層 三層 四層 屋頂突出物 騎樓
RPOOMLMKMHLFFAN28CA,11,192.16,住家用,鋼筋混凝土造,93年12月15日,四層,一層 二層 三層 四層
RPQNMLNKMHLFFAN48CA,28,75.33,住家用,鋼筋混凝土造,77年7月26日,五層,五層
RPQNMLNKMHLFFAN48CA,28,8.96,見其他登記事項,鋼筋混凝土造,77年7月26日,五層,
RPQOMLRJMHLFFAN88CA,26,240.25,見其他登記事項,鋼筋混凝土造,79年2月6日,四層,一層 二層 三層 四層 地下層
RPTNMLLJMHLFFAN48CA,23,89.60,住家用,鋼筋混凝土造,82年1月21日,七層,七層
RPTNMLLJMHLFFAN48CA,23,30.33,見其他登記事項,鋼筋混凝土造,82年1月21日,七層,
RPXNMLTLMHLFFDN57CA,41,132.64,住家用,鋼筋混凝土加強磚造,63年12月13日,二層,一層 二層
RPQNMLPLMHLFFDN09CA,30,132.68,住家用,鋼筋混凝土加強磚造,75年3月12日,二層,一層 二層 騎樓
RPXNMLRJMHLFFDN17CA,1,123.98,見其他登記事項,鋼筋混凝土造,103年9月30日,四層,一層 二層 三層 四層 屋頂突出物
RPXNMLRJMHLFFDN17CA,1,123.98,見其他登記事項,鋼筋混凝土造,103年9月30日,四層,一層 二層 三層 四層 屋頂突出物
RPUNMLPLMHLFFCN76CA,17,101.06,見其他登記事項,鋼筋混凝土造,88年1月14日,八層,三層
RPUNMLPLMHLFFCN76CA,17,57.80,見其他登記事項,鋼筋混凝土造,88年1月14日,八層,
RPPOMLNKMHLFFHN56CA,36,107.02,住商用,鋼筋混凝土加強磚造,69年7月10日,二層,一層 二層 騎樓
RPQNMLNJNHLFFFN98CA,1,235.92,住宅,鋼筋混凝土造,104年1月8日,四層,一層 二層 三層 四層 騎樓
RPSNMLSJMHLFFFN96CA,36,90.72,住家用,加強磚造,69年4月10日,二層,一層 二層
RPSNMLRJMHLFFFN86CA,19,168.17,農舍,見其他登記事項,86年1月11日,一層,一層
RPPNMLKKMHLFFFN58CA,34,165.92,住家用,加強磚造,71年8月18日,二層,一層 二層
RPPNMLPLMHLFFFN56CA,21,119.55,住家用,鋼筋混凝土造,84年7月6日,三層,一層 二層 三層
RPSNMLRJMHLFFDN66CA,,265.95,見其他登記事項,鋼筋混凝土造,104年11月12日,四層,一層 二層 三層 四層 地下一層
RPSNMLRJMHLFFDN66CA,,7.17,共有部分,鋼筋混凝土造,104年11月12日,四層,
RPSNMLRJMHLFFDN66CA,,17.66,共有部分,鋼筋混凝土造,104年11月12日,四層,
RPPNMLRJMHLFFDN98CA,20,193.84,住家用,鋼筋混凝土造,84年10月7日,十二層,二層 三層
RPPNMLRJMHLFFDN98CA,20,8.49,見其他登記事項,鋼筋混凝土造,84年10月7日,十二層,一層
RPPNMLRJMHLFFDN98CA,20,86.39,見其他登記事項,鋼筋混凝土造,84年10月7日,十二層,
RPRNMLSJMHLFFDN66CA,1,321.93,見其他登記事項,鋼筋混凝土造,104年7月28日,五層,一層 二層 三層 四層 五層
RPVNMLMKMHLFFDN56CA,20,152.82,住家用,鋼筋混凝土造,85年2月16日,二層,一層 二層 騎樓
RPQNMLMKMHLFFEN78CA,23,168.21,住家用,鋼筋混凝土造,82年8月7日,三層,一層 二層 三層
RPWNMLQJMHLFFAN66CA,22,111.78,住家用,鋼筋混凝土造,83年7月29日,十三層,九層
RPWNMLQJMHLFFAN66CA,22,34.19,見其他登記事項,鋼筋混凝土造,83年7月29日,十三層,
RPRNMLLKMHLFFAN38CA,1,45.00,農舍,見其他登記事項,104年4月8日,一層,一層
RPTNMLNKMHLFFAN78CA,49,142.75,住家用,鋼筋混凝土加強磚造,56年7月20日,三層,一層 二層 三層
RPTNMLNKMHLFFAN78CA,50,61.44,住商用,磚造,55年8月22日,一層,一層 騎樓
RPTOMLLKMHLFFAN68CA,39,100.20,住家用,鋼筋混凝土加強磚造,65年12月10日,二層,一層 二層
RPXNMLLKMHLFFAN98CA,9,41.14,見其他登記事項,鋼筋混凝土造,95年12月26日,一層,
RPXNMLLKMHLFFAN98CA,9,170.41,見其他登記事項,鋼筋混凝土造,95年12月26日,四層,一層 二層 三層 四層
RPROMLSKMHLFFAN56CA,26,123.85,住家用,鋼筋混凝土造,79年6月26日,七層,六層
RPROMLSKMHLFFAN56CA,26,11.32,見其他登記事項,鋼筋混凝土造,79年6月26日,七層,地下層
RPROMLSKMHLFFAN56CA,26,10.98,見其他登記事項,鋼筋混凝土造,79年6月26日,七層,
RPROMLSKMHLFFAN56CA,26,15.38,見其他登記事項,鋼筋混凝土造,79年6月26日,七層,
RPRNMLLKMHLFFBN48CA,19,86.60,見其他登記事項,鋼筋混凝土造,86年2月3日,九層,四層
RPRNMLLKMHLFFBN48CA,19,27.17,見其他登記事項,鋼筋混凝土造,86年2月3日,九層,
RPQNMLKLMHLFFBN38CA,5,151.89,住家用,鋼筋混凝土造,100年3月11日,三層,一層 二層 三層 屋頂突出物
RPSNMLPKMHLFFBN98CA,16,379.09,見其他登記事項,鋼筋混凝土造,89年7月3日,三層,一層 二層 三層
RPQNMLOJNHLFFBN68CA,11,217.69,見其他登記事項,鋼筋混凝土造,93年12月6日,四層,一層 二層 三層 四層
RPUNMLPKMHLFFAN09CA,3,163.23,見其他登記事項,鋼筋混凝土造,102年1月21日,四層,一層 二層 三層 四層
RPQOMLSJMHLFFAN98CA,1,228.95,見其他登記事項,鋼筋混凝土造,104年5月11日,四層,一層 二層 三層 四層 屋頂突出物 騎樓
RPWNMLSJMHLFFAN86CA,4,378.99,見其他登記事項,鋼筋混凝土造,100年10月24日,五層,一層 二層 三層 四層 五層
RPWNMLSJMHLFFAN86CA,4,4.00,見其他登記事項,鋼筋混凝土造,100年10月24日,三層,一層 二層 三層 騎樓
RPPNMLSJMHLFFEN56CA,21,282.56,住家用,鋼筋混凝土造,84年6月10日,四層,一層 二層 三層 四層 騎樓
RPRNMLRJMHLFFEN66CA,3,184.12,住家用,鋼筋混凝土造,102年3月5日,三層,一層 二層 三層
RPPNMLOLMHLFFDN88CA,2,206.75,見其他登記事項,鋼筋混凝土造,103年9月3日,四層,一層 二層 三層 四層
RPPNMLOLMHLFFDN88CA,2,1.08,見其他登記事項,鋼筋混凝土造,103年9月3日,二層,一層 二層
RPPNMLMJNHLFFDN58CA,,108.24,見其他登記事項,見其他登記事項,105年2月23日,一層,一層
RPPNMLLKMHLFFCN38CA,,356.06,見其他登記事項,鋼筋混凝土造,104年12月16日,四層,一層 二層 三層 四層 騎樓
RPQNMLLKMHLFFCN48CA,,182.03,見其他登記事項,鋼筋混凝土造,104年12月16日,三層,一層 二層 三層 屋頂突出物 騎樓
RPPNMLNKMHLFFCN58CA,2,317.58,見其他登記事項,鋼筋混凝土造,102年10月23日,三層,一層 二層 三層
RPSNMLRJMHLFFGN07DA,33,83.86,住家用,加強磚造,71年12月10日,二層,一層 二層
RPTNMLRJMHLFFGN17DA,33,83.86,住家用,加強磚造,71年12月10日,二層,一層 二層
RPSNMLOKMHLFFHN86CA,56,78.34,住商用,磚造,49年7月1日,二層,一層 二層 騎樓
RPQNMLKLMHLFFHN98CA,19,134.38,住家用,鋼筋混凝土造,86年2月5日,三層,一層 二層 三層
RPUNMLPKMHLFFFN07DA,16,249.94,住商用,鋼筋混凝土造,88年12月15日,四層,一層 二層 三層 四層 騎樓
RPUNMLSJMHLFFGN27CA,23,203.52,住家用,鋼筋混凝土造,82年1月20日,三層,一層 二層 三層
RPVNMLSJMHLFFGN37CA,23,203.52,住家用,鋼筋混凝土造,82年1月20日,三層,一層 二層 三層
RPPNMLTJMHLFFGN86CA,19,61.93,住家用,鋼筋混凝土造,86年1月6日,三層,一層 二層 三層
RPRNMLKLMHLFFFN88CA,23,143.34,住家用,鋼筋混凝土造,82年3月2日,三層,一層 二層 三層
RPRNMLMKMHLFFAN58DA,35,136.05,住商用,鋼筋混凝土造,70年7月22日,三層,一層 二層 三層 騎樓
RPRNMLNKMHLFFHN66CA,,170.17,見其他登記事項,鋼筋混凝土造,104年10月26日,四層,一層 二層 三層 四層
RPPNMLLKMHLFFHN98DA,5,48.36,住家用,見其他登記事項,100年1月12日,一層,一層
RPPNMLSKMHLFFCN09CA,22,188.60,住商用,鋼筋混凝土造,83年2月28日,四層,一層 二層 三層 四層 騎樓
RPQNMLOJNHLFFDN88CA,,200.73,見其他登記事項,鋼筋混凝土造,104年11月3日,三層,一層 二層 三層
RPRNMLOJNHLFFDN98CA,,200.73,見其他登記事項,鋼筋混凝土造,104年11月3日,三層,一層 二層 三層
RPTNMLRLMHLFFDN96CA,32,93.55,住家用,鋼筋混凝土造,73年6月5日,五層,三層
RPTNMLRLMHLFFDN96CA,32,7.42,見其他登記事項,鋼筋混凝土造,73年6月5日,五層,
RPPNMLLLMHLFFDN58CA,23,169.23,住家用,鋼筋混凝土造,81年10月30日,三層,一層 二層 三層 騎樓
RPSNMLMKMHLFFDN88CA,,317.68,見其他登記事項,鋼筋混凝土造,104年11月30日,四層,一層 二層 三層 四層 見其他登記事項
RPQNMLLKMHLFFDN58CA,40,96.84,住家用,鋼筋混凝土加強磚造,64年9月9日,二層,一層 二層 夾層
RPOOMLSJMHLFFAN78CA,1,228.95,見其他登記事項,鋼筋混凝土造,104年5月11日,四層,一層 二層 三層 四層 屋頂突出物 騎樓
RPROMLMKMHLFFAN58CA,22,91.41,住家用,鋼筋混凝土造,83年7月8日,十二層,八層
RPROMLMKMHLFFAN58CA,22,12.31,見其他登記事項,鋼筋混凝土造,83年7月8日,十二層,
RPROMLMKMHLFFAN58CA,22,14.40,見其他登記事項,鋼筋混凝土造,83年7月8日,十二層,
RPWOMLMKMHLFFAN09CA,49,135.92,見其他登記事項,見其他登記事項,56年1月10日,二層,一層 二層 騎樓
RPUNMLSKMHLFFBN86CA,,182.28,見其他登記事項,鋼筋混凝土造,104年12月15日,三層,一層 二層 三層 見其他登記事項
RPVNMLSKMHLFFBN96CA,,194.97,見其他登記事項,鋼筋混凝土造,104年12月15日,三層,一層 二層 三層 見其他登記事項
RPWNMLSKMHLFFBN07CA,,185.72,見其他登記事項,鋼筋混凝土造,104年12月15日,三層,一層 二層 三層 見其他登記事項
RPXNMLSKMHLFFBN17CA,,185.72,見其他登記事項,鋼筋混凝土造,104年12月15日,三層,一層 二層 三層 見其他登記事項
RPQNMLOKMHLFFBN68CA,37,335.28,見其他登記事項,鋼筋混凝土加強磚造,68年6月30日,二層,一層 二層 騎樓
RPPNMLSLMHLFFAN98CA,38,122.24,住家用,鋼筋混凝土造,67年3月24日,三層,一層 二層 三層
RPRNMLNJNHLFFAN58CA,23,89.35,住家用,鋼筋混凝土造,82年1月21日,七層,七層
RPRNMLNJNHLFFAN58CA,23,30.33,見其他登記事項,鋼筋混凝土造,82年1月21日,七層,
RPTNMLSKMHLFFEN07CA,3,146.14,住家用,鋼筋混凝土造,102年8月8日,三層,一層 二層 三層
RPXNMLLLMHLFFEN86CA,22,162.88,住商用,鋼筋混凝土造,83年1月14日,四層,一層 二層 三層 四層
RPPOMLMKMHLFFAN48DA,35,90.00,住商用,加強磚造,70年7月24日,二層,一層 二層 騎樓
RPQNMLOKMHLFFAN68DA,20,103.13,住家用,鋼筋混凝土造,85年2月12日,十四層,九層
RPWNMLLKMHLFFCN56DA,35,178.80,住商用,鋼筋混凝土加強磚造,69年12月26日,二層,一層 二層 騎樓
RPROMLRLMHLFFAN66DA,41,82.00,住家用,鋼筋混凝土加強磚造,64年1月21日,二層,一層 二層
RPUNMLNKMHLFFFN76CA,1,248.19,住宅,鋼筋混凝土造,104年2月11日,三層,一層 二層 三層 見其他登記事項
RPWNMLNKMHLFFFN96CA,,192.38,住宅,鋼筋混凝土造,105年1月13日,三層,一層 二層 三層
RPXNMLNKMHLFFFN07CA,,171.15,住宅,鋼筋混凝土造,105年1月13日,三層,一層 二層 三層
RPPNMLPKMHLFFGN56CA,13,140.85,住家用,鋼筋混凝土造,92年5月7日,三層,一層 二層 三層
RPWNMLSKMHLFFGN57CA,37,48.61,住家用,見其他登記事項,68年5月30日,一層,一層 騎樓
RPSNMLTKMHLFFGN27CA,22,141.71,住家用,鋼筋混凝土造,82年12月1日,三層,一層 二層 三層
RPTNMLOKMHLFFGN86CA,33,153.86,住家用,加強磚造,72年8月19日,二層,一層 二層
RPRNMLPJNHLFFHN86CA,1,369.14,見其他登記事項,鋼筋混凝土造,104年9月4日,三層,一層 二層 三層 屋頂突出物 騎樓
RPRNMLRLMHLFFHN17CA,29,110.70,住商用,鋼筋混凝土造,76年7月20日,二層,一層 二層 騎樓
RPQNMLLLMHLFFGN09DA,21,67.74,住家用,鋼筋混凝土造,84年5月26日,八層,四層
RPQNMLLLMHLFFGN09DA,21,32.53,見其他登記事項,鋼筋混凝土造,84年5月26日,八層,
RPTNMLOJNHLFFDN56CA,,200.73,見其他登記事項,鋼筋混凝土造,104年11月3日,三層,一層 二層 三層
RPPNMLMKNHLFFDN68CA,,195.09,見其他登記事項,鋼筋混凝土造,104年12月11日,四層,一層 二層 三層 四層
RPWNMLSKMHLFFDN27CA,,497.62,見其他登記事項,鋼筋混凝土造,104年9月18日,五層,一層 二層 三層 四層 五層
RPWNMLSKMHLFFDN27CA,,2.45,見其他登記事項,鋼筋混凝土造,104年9月18日,一層,一層
RPRNMLTKMHLFFDN86CA,3,125.13,見其他登記事項,鋼筋混凝土造,101年11月19日,四層,一層 二層 三層 四層
RPTNMLPKMHLFFAN98CA,56,117.60,住家用,磚造,49年7月1日,一層,一層
RPQOMLMJNHLFFAN48CA,24,71.97,住家用,鋼筋混凝土造,80年12月26日,七層,七層
RPQOMLMJNHLFFAN48CA,24,42.08,見其他登記事項,鋼筋混凝土造,80年12月26日,七層,
RPOOMLSKMHLFFBN98CA,,185.72,見其他登記事項,鋼筋混凝土造,104年12月15日,三層,一層 二層 三層 見其他登記事項
RPPOMLSKMHLFFBN09CA,,201.08,住家用,鋼筋混凝土造,104年12月15日,四層,一層 二層 三層 四層
RPROMLSKMHLFFBN66CA,,182.85,見其他登記事項,鋼筋混凝土造,104年12月15日,三層,一層 二層 三層 見其他登記事項
RPSOMLSKMHLFFBN76CA,,185.72,見其他登記事項,鋼筋混凝土造,104年12月15日,三層,一層 二層 三層 見其他登記事項
RPTOMLSKMHLFFBN86CA,,203.24,住家用,鋼筋混凝土造,104年12月15日,四層,一層 二層 三層 四層
RPVOMLSKMHLFFBN07CA,,185.72,見其他登記事項,鋼筋混凝土造,104年12月15日,三層,一層 二層 三層 見其他登記事項
RPWOMLSKMHLFFBN17CA,,185.72,見其他登記事項,鋼筋混凝土造,104年12月15日,三層,一層 二層 三層 見其他登記事項
RPPNMLPKMHLFFBN68CA,1,178.08,住家用,鋼筋混凝土造,104年8月5日,三層,一層 二層 三層
RPQNMLPKMHLFFBN78CA,2,179.70,住家用,鋼筋混凝土造,103年7月22日,三層,一層 二層 三層
RPQNMLQLMHLFFBN98CA,1,182.00,見其他登記事項,鋼筋混凝土造,104年4月21日,四層,一層 二層 三層 四層
RPPNMLTLMHLFFBN56CA,35,102.60,住商用,加強磚造,70年1月29日,二層,一層 二層 騎樓
RPRNMLNJNHLFFBN68CA,,164.63,見其他登記事項,鋼筋混凝土造,104年12月30日,三層,一層 二層 三層 見其他登記事項
RPQOMLPKMHLFFAN78CA,33,52.21,住家用,鋼筋混凝土造,71年11月18日,七層,七層
RPOOMLTKMHLFFAN98CA,1,245.95,見其他登記事項,鋼筋混凝土造,103年12月9日,四層,一層 二層 三層 四層
RPQNMLSKMHLFFAN98CA,33,49.50,住家用,鋼筋混凝土造,72年8月23日,四層,四層
RPWNMLKLMHLFFAN88CA,47,46.51,住家用,鋼筋混凝土加強磚造,57年11月5日,一層,一層
RPTOMLTKMHLFFAN86CA,1,102.38,見其他登記事項,鋼筋混凝土造,104年7月2日,四層,一層 二層 三層 四層 騎樓
RPTOMLTKMHLFFAN86CA,1,102.38,見其他登記事項,鋼筋混凝土造,104年7月2日,四層,一層 二層 三層 四層 騎樓
RPSNMLLLMHLFFDN88CA,7,367.85,見其他登記事項,鋼筋混凝土造,98年7月24日,三層,一層 二層 三層 屋頂突出物 地下一層
RPSNMLLLMHLFFDN88CA,7,.58,見其他登記事項,鋼筋混凝土造,98年7月24日,七層,一層
RPSNMLLLMHLFFDN88CA,7,29.12,見其他登記事項,鋼筋混凝土造,98年7月24日,七層,
RPSNMLLLMHLFFDN88CA,7,9.81,見其他登記事項,鋼筋混凝土造,98年7月24日,七層,
RPSNMLLLMHLFFDN88CA,7,.19,見其他登記事項,鋼筋混凝土造,98年7月24日,七層,
RPSNMLLLMHLFFDN88CA,7,.02,見其他登記事項,鋼筋混凝土造,98年7月24日,七層,
RPPNMLPKMHLFFDN88CA,19,78.16,住家用,鋼筋混凝土造,86年4月11日,十五層,九層
RPPNMLPKMHLFFDN88CA,19,18.64,見其他登記事項,鋼筋混凝土造,86年4月11日,十六層,
RPPNMLPKMHLFFDN88CA,19,14.78,見其他登記事項,鋼筋混凝土造,86年4月11日,十五層,
RPROMLMKNHLFFDN98CA,37,151.05,住商用,鋼筋混凝土造,68年1月18日,三層,一層 二層 三層 騎樓
RPTNMLMJNHLFFDN98CA,28,262.65,住工用,鋼筋混凝土造,77年8月25日,三層,一層 二層 三層 騎樓
RPRNMLNKMHLFFCN78CA,27,178.50,見其他登記事項,鋼筋混凝土造,78年9月6日,二層,一層 二層
RPPNMLPKMHLFFCN78CA,,214.93,見其他登記事項,鋼筋混凝土造,104年10月12日,四層,一層 二層 三層 四層 騎樓
RPPNMLSLMHLFFCN56CA,15,232.50,住家用,鋼筋混凝土造,90年5月15日,三層,一層 二層 三層
RPTNMLTLMHLFFCN07CA,22,130.58,住家用,鋼筋混凝土造,83年3月11日,三層,一層 二層 三層
RPQNMLPKMHLFFHN76CA,27,79.52,住家用,鋼筋混凝土造,78年3月28日,三層,一層 二層 三層
RPQNMLQJNHLFFHN86CA,23,150.09,住家用,鋼筋混凝土造,82年3月23日,三層,一層 二層 三層 騎樓
RPPNMLSKMHLFFAN98DA,34,41.06,見其他登記事項,鋼筋混凝土造,71年3月4日,四層,一層 二層 三層 四層 騎樓
RPWNMLQJNHLFFCN07DA,21,93.41,住家用,鋼筋混凝土造,84年3月21日,八層,八層
RPWNMLQJNHLFFCN07DA,21,27.50,見其他登記事項,鋼筋混凝土造,84年3月21日,八層,
RPUNMLLLMHLFFFN66CA,37,111.06,住家用,加強磚造,68年7月20日,二層,一層 二層 騎樓
RPWNMLSKMHLFFFN47CA,26,212.64,住家用,鋼筋混凝土造,78年10月3日,三層,一層 二層 三層
RPOOMLSKMHLFFGN86CA,35,116.76,住家用,加強磚造,69年12月25日,二層,一層 二層 騎樓
RPRNMLKKNHLFFGN98CA,22,95.10,住家用,鋼筋混凝土造,83年3月2日,六層,四層
RPQNMLKLMHLFFFN78CA,32,102.28,住家用,加強磚造,72年10月4日,二層,一層 二層
RPQNMLSKMHLFFFN86CA,1,312.93,住宅,鋼筋混凝土造,104年5月20日,四層,一層 二層 三層 四層
RPQNMLPKMHLFFDN09DA,32,78.20,住家用,鋼筋混凝土造,72年10月13日,五層,四層
RPQNMLPKMHLFFDN09DA,32,5.71,見其他登記事項,鋼筋混凝土造,72年10月13日,五層,
RPQNMLPKMHLFFDN09DA,32,5.98,見其他登記事項,鋼筋混凝土造,72年10月13日,五層,
RPRNMLPKMHLFFBN98DA,,199.44,住家用,鋼筋混凝土造,104年11月12日,四層,一層 二層 三層 四層
RPSNMLTKMHLFFAN76DA,22,84.30,住家用,鋼筋混凝土造,82年9月23日,八層,八層
RPSNMLTKMHLFFAN76DA,22,40.03,見其他登記事項,鋼筋混凝土造,82年9月23日,八層,
RPQNMLSKMHLFFCN66DA,39,94.08,住家用,鋼筋混凝土加強磚造,66年4月21日,二層,一層 二層
RPQNMLMLMHLFFCN68CA,,297.88,見其他登記事項,鋼筋混凝土造,104年9月9日,四層,一層 二層 三層 四層 騎樓 見其他登記事項
RPSNMLSKMHLFFCN76CA,41,101.33,住家用,加強磚造,63年12月1日,一層,一層
RPUNMLSKMHLFFCN96CA,,181.81,住家用,鋼筋混凝土造,104年12月1日,四層,一層 二層 三層 四層
RPPNMLQKMHLFFCN88CA,15,186.15,住家用,加強磚造,89年10月2日,二層,一層 二層
RPSOMLMKNHLFFDN09CA,21,123.80,住家用,鋼筋混凝土造,84年8月21日,十六層,十一層
RPSOMLMKNHLFFDN09CA,21,21.00,見其他登記事項,鋼筋混凝土造,84年8月21日,十六層,
RPSOMLMKNHLFFDN09CA,21,16.61,見其他登記事項,鋼筋混凝土造,84年8月21日,十五層,
RPSOMLMKNHLFFDN09CA,21,10.82,見其他登記事項,鋼筋混凝土造,84年8月21日,十六層,
RPVNMLPLMHLFFDN96CA,44,126.64,住家用,加強磚造,61年1月6日,二層,一層 二層
RPQNMLSKMHLFFDN66CA,41,57.68,住商用,鋼筋混凝土加強磚造,64年2月4日,二層,一層 二層
RPPNMLOKMHLFFDN78CA,35,82.35,住家用,鋼筋混凝土加強磚造,69年12月27日,二層,一層 二層 騎樓
RPROMLPKMHLFFAN88CA,38,114.88,住商用,鋼筋混凝土加強磚造,67年6月29日,二層,一層 二層 騎樓
RPVNMLMLMHLFFAN98CA,38,121.88,住商用,鋼筋混凝土加強磚造,67年7月24日,二層,一層 二層 騎樓
RPUNMLTLMHLFFAN96CA,1,147.97,見其他登記事項,鋼筋混凝土造,104年7月22日,三層,一層 二層 三層 屋頂突出物
RPQNMLKMMHLFFAN38CA,30,110.50,住家用,加強磚造,75年6月20日,二層,一層 二層
RPXNMLQJNHLFFAN86CA,8,185.01,見其他登記事項,鋼筋混凝土造,96年10月31日,四層,一層 二層 三層 四層
RPSOMLTJNHLFFAN76CA,71,141.66,見其他登記事項,見其他登記事項,34年7月1日,二層,一層 二層 騎樓
RPRNMLMKNHLFFBN68CA,37,226.96,農舍,鋼筋混凝土加強磚造,68年3月25日,二層,一層 二層 騎樓
RPQNMLSKMHLFFBN09CA,8,257.70,住家用,鋼筋混凝土造,96年9月28日,三層,一層 二層 三層
RPPNMLTKMHLFFBN09CA,19,148.21,住家用,鋼筋混凝土造,86年9月15日,三層,一層 二層 三層
RPVNMLTJNHLFFAN96CA,47,88.00,住家用,鋼筋混凝土加強磚造,57年11月2日,二層,一層 二層
RPOOMLTJNHLFFAN98CA,26,132.44,住家用,加強磚造,78年12月1日,二層,一層 二層
RPUNMLSKMHLFFAN76CA,1,145.74,住家用,鋼筋混凝土造,104年9月4日,三層,一層 二層 三層
RPOOMLPKMHLFFAN58CA,,466.07,見其他登記事項,鋼筋混凝土造,104年11月2日,四層,一層 二層 三層 四層
RPRNMLTKMHLFFAN56CA,23,94.52,住家用,鋼筋混凝土造,82年6月23日,五層,一層
RPRNMLTKMHLFFAN56CA,23,20.73,見其他登記事項,鋼筋混凝土造,82年6月23日,五層,
RPUNMLTKMHLFFAN86CA,10,268.84,見其他登記事項,鋼筋混凝土造,94年10月6日,四層,一層 二層 三層 四層 地下一層
RPQNMLTKMHLFFDN76CA,35,78.28,住家用,鋼筋混凝土加強磚造,69年11月22日,二層,一層 二層
RPSNMLPLMHLFFDN66CA,22,187.06,住家用,鋼筋混凝土造,83年5月30日,五層,一層 二層 三層 四層 五層
RPVNMLOJNHLFFDN76CA,30,69.20,住家用,鋼筋混凝土造,75年8月2日,五層,一層
RPUNMLLKNHLFFDN09CA,8,222.24,住家用,鋼筋混凝土造,97年2月1日,四層,一層 二層 三層 四層 屋頂突出物
RPQNMLNJNHLFFDN78CA,29,106.44,住家用,鋼筋混凝土造,76年3月20日,二層,一層 二層 騎樓 夾層
RPRNMLTKMHLFFEN96CA,21,137.44,住家用,鋼筋混凝土造,84年9月8日,三層,一層 二層 三層 夾層
RPQNMLKLMHLFFCN48CA,23,204.98,見其他登記事項,鋼筋混凝土造,82年7月15日,四層,一層 二層 三層 四層
RPPNMLKMMHLFFBN48DA,32,748.93,住商用,鋼筋混凝土造,73年7月9日,四層,一層 二層 三層 四層 騎樓
RPPNMLSKMHLFFBN09DA,6,234.01,住家用,鋼筋混凝土造,99年8月31日,三層,一層 二層 三層
RPPNMLSKMHLFFBN09DA,6,.21,見其他登記事項,鋼筋混凝土造,99年1月28日,一層,一層
RPRNMLSKMHLFFBN66DA,6,416.54,住家用,鋼筋混凝土造,99年8月31日,三層,一層 二層 三層
RPRNMLSKMHLFFBN66DA,6,.43,見其他登記事項,鋼筋混凝土造,99年1月28日,一層,一層
RPTNMLLLMHLFFFN56CA,20,72.99,見其他登記事項,鋼筋混凝土造,85年4月12日,十三層,九層
RPPNMLSKMHLFFFN76CA,6,192.20,住家用,鋼筋混凝土造,99年7月30日,三層,一層 二層 三層
RPTNMLPKMHLFFFN86CA,,182.85,住宅,鋼筋混凝土造,105年1月13日,三層,一層 二層 三層
RPQNMLQLMHLFFFN76CA,25,224.89,住家用,鋼筋混凝土造,79年10月8日,三層,一層 二層 三層
RPQNMLPKMHLFFGN76DA,23,140.91,住家用,鋼筋混凝土造,82年8月16日,三層,一層 二層 三層
RPRNMLQLMHLFFFN86CA,15,102.05,住家用,鋼筋混凝土造,90年2月1日,三層,一層 二層 三層
RPQNMLTJNHLFFFN96CA,17,117.24,住家用,鋼筋混凝土造,87年11月16日,四層,一層 二層 三層 四層
RPSNMLRLMHLFFCN86DA,1,156.80,見其他登記事項,鋼筋混凝土造,104年8月14日,三層,一層 二層 三層 見其他登記事項
RPSNMLSKMHLFFFN17DA,22,146.86,住商用,鋼筋混凝土造,83年2月3日,三層,一層 二層 三層 騎樓
RPSNMLSKMHLFFFN17DA,22,146.86,住商用,鋼筋混凝土造,83年2月3日,三層,一層 二層 三層 騎樓
RPTNMLSKMHLFFFN27DA,22,174.99,住家用,鋼筋混凝土造,83年5月26日,三層,一層 二層 三層 騎樓
RPPNMLKLMHLFFFN78DA,1,192.79,住宅,鋼筋混凝土造,104年8月11日,三層,一層 二層 三層 見其他登記事項
RPPNMLKLMHLFFAN28DA,35,74.85,農舍,加強磚造,69年11月19日,一層,一層
RPSNMLTKMHLFFCN86CA,44,75.56,住家用,加強磚造,61年8月21日,二層,一層 二層
RPVNMLTLMHLFFCN27CA,35,87.60,住商用,鋼筋混凝土加強磚造,70年7月24日,二層,一層 二層 騎樓
RPPNMLLJNHLFFCN38CA,36,101.58,住家用,鋼筋混凝土加強磚造,69年4月15日,二層,一層 二層
RPQNMLMJNHLFFCN58CA,23,99.39,住家用,鋼筋混凝土造,82年8月4日,五層,三層
RPQNMLMJNHLFFCN58CA,23,11.35,見其他登記事項,鋼筋混凝土造,82年8月4日,五層,
RPVNMLQKNHLFFDN07CA,,165.37,見其他登記事項,鋼筋混凝土造,104年11月17日,三層,一層 二層 三層 屋頂突出物
RPXNMLQKNHLFFDN27CA,,165.37,見其他登記事項,鋼筋混凝土造,104年11月17日,三層,一層 二層 三層 屋頂突出物
RPQNMLRKNHLFFDN66CA,,186.02,見其他登記事項,鋼筋混凝土造,104年10月14日,四層,一層 二層 三層 四層
RPPNMLTKNHLFFDN76CA,79,98.01,住商用,見其他登記事項,26年3月1日,二層,一層 二層
RPPNMLTKNHLFFDN76CA,80,91.43,住家用,見其他登記事項,25年3月1日,一層,一層
RPSNMLOJNHLFFDN09CA,,200.73,見其他登記事項,鋼筋混凝土造,104年11月3日,三層,一層 二層 三層
RPWNMLMJNHLFFDN66CA,21,244.69,住家用,鋼筋混凝土造,83年12月27日,三層,一層 二層 三層 騎樓
RPOOMLQJNHLFFDN98CA,43,53.26,住家用,鋼筋混凝土加強磚造,62年4月20日,一層,一層
RPQNMLMJNHLFFDN68CA,15,324.09,見其他登記事項,鋼筋混凝土造,89年8月29日,四層,一層 二層 三層 四層 騎樓 地下層
RPQNMLMJNHLFFDN68CA,15,46.29,見其他登記事項,鋼筋混凝土造,89年8月29日,八層,
RPRNMLLLMHLFFAN48CA,38,119.62,住商用,鋼筋混凝土加強磚造,67年9月13日,二層,一層 二層 騎樓
RPSNMLLLMHLFFAN58CA,20,16.55,見其他登記事項,鋼筋混凝土造,85年6月29日,十四層,
RPSNMLLLMHLFFAN58CA,20,89.89,住家用,鋼筋混凝土造,85年6月29日,十四層,十四層
RPSNMLLLMHLFFAN58CA,20,30.39,見其他登記事項,鋼筋混凝土造,85年6月29日,十四層,
RPSNMLLLMHLFFAN58CA,20,1.49,見其他登記事項,鋼筋混凝土造,85年6月29日,十四層,一層
RPPOMLKLMHLFFAN28CA,40,110.40,住商用,鋼筋混凝土加強磚造,64年10月23日,二層,一層 二層 騎樓
RPSNMLMLMHLFFAN68CA,25,250.78,住商用,鋼筋混凝土造,80年7月5日,五層,一層 二層 三層 四層 五層 騎樓
RPTNMLMLMHLFFAN78CA,45,63.52,住家用,鋼筋混凝土加強磚造,60年4月27日,二層,一層 二層
RPTNMLQLMHLFFAN56CA,1,193.79,見其他登記事項,鋼筋混凝土造,104年6月3日,三層,一層 二層 三層 屋頂突出物
RPUNMLQLMHLFFAN66CA,1,193.79,見其他登記事項,鋼筋混凝土造,104年6月3日,三層,一層 二層 三層 屋頂突出物
RPSNMLPLMHLFFAN98CA,36,110.34,住商用,鋼筋混凝土造,69年2月5日,三層,一層 二層 三層
RPPNMLKMMHLFFAN28CA,22,61.16,農舍,鋼筋混凝土造,83年5月27日,二層,一層 二層
RPWNMLTJNHLFFAN07CA,3,158.98,見其他登記事項,鋼筋混凝土造,102年1月21日,三層,一層 二層 三層
RPQNMLKKNHLFFAN28CA,1,184.63,見其他登記事項,鋼筋混凝土造,104年7月20日,四層,一層 二層 三層 四層
RPPNMLOJNHLFFBN58CA,36,97.18,住家用,鋼筋混凝土加強磚造,69年5月9日,二層,一層 二層 騎樓
RPRNMLPLMHLFFBN98CA,1,272.24,見其他登記事項,鋼筋混凝土造,104年5月8日,四層,一層 二層 三層 四層 見其他登記事項
RPSNMLPLMHLFFBN09CA,,272.24,見其他登記事項,鋼筋混凝土造,104年5月8日,四層,一層 二層 三層 四層 見其他登記事項
RPUNMLPLMHLFFBN66CA,4,88.06,住家用,鋼筋混凝土造,100年10月20日,四層,一層 二層 三層 四層
RPUNMLPLMHLFFBN66CA,4,88.06,住家用,鋼筋混凝土造,100年10月20日,四層,一層 二層 三層 四層
RPRNMLLLMHLFFBN58CA,36,98.26,住商用,鋼筋混凝土造,68年9月25日,二層,一層 二層 騎樓
RPSNMLLLMHLFFBN68CA,1,228.18,見其他登記事項,鋼筋混凝土造,104年5月19日,四層,一層 二層 三層 四層 見其他登記事項
RPQNMLRLMHLFFBN09CA,3,14.29,農舍,見其他登記事項,102年7月4日,一層,一層
RPSNMLNKNHLFFBN88CA,8,207.04,住家用,鋼筋混凝土造,96年9月17日,三層,一層 二層 三層
RPRNMLLKNHLFFBN58CA,19,129.25,住家用,鋼筋混凝土造,85年10月19日,三層,一層 二層 三層
RPWNMLQKNHLFFAN86CA,30,170.63,住工用,加強磚造,75年6月9日,二層,一層 二層
RPRNMLKKNHLFFAN38CA,1,183.86,見其他登記事項,鋼筋混凝土造,104年7月20日,四層,一層 二層 三層 四層
RPSNMLKKNHLFFAN48CA,1,183.86,見其他登記事項,鋼筋混凝土造,104年7月20日,四層,一層 二層 三層 四層
RPUOMLTJNHLFFAN96CA,1,193.79,見其他登記事項,鋼筋混凝土造,104年6月3日,三層,一層 二層 三層 屋頂突出物
RPWNMLMJNHLFFAN98CA,42,125.24,住商用,鋼筋混凝土加強磚造,62年11月22日,二層,一層 二層 騎樓
RPTNMLPLMHLFFAN09CA,42,78.66,住家用,鋼筋混凝土加強磚造,63年8月10日,二層,一層 二層
RPVNMLQLMHLFFAN76CA,1,193.79,見其他登記事項,鋼筋混凝土造,104年6月3日,三層,一層 二層 三層 屋頂突出物
RPWNMLQLMHLFFAN86CA,1,193.79,見其他登記事項,鋼筋混凝土造,104年6月3日,三層,一層 二層 三層 屋頂突出物
RPOOMLQLMHLFFAN78CA,1,170.75,見其他登記事項,鋼筋混凝土造,104年6月3日,三層,一層 二層 三層 屋頂突出物 騎樓
RPWNMLLLMHLFFAN98CA,29,76.99,住家用,鋼筋混凝土造,76年9月14日,五層,四層
RPWNMLLLMHLFFAN98CA,29,17.27,見其他登記事項,鋼筋混凝土造,76年9月14日,五層,
RPUNMLLLMHLFFAN78CA,18,161.13,住家用,鋼筋混凝土造,87年5月20日,四層,一層 二層 三層 四層
RPQNMLLLMHLFFAN38CA,34,160.40,住家用,鋼筋混凝土造,71年2月26日,四層,一層 二層 三層 四層
RPRNMLKLMHLFFAN38CA,34,37.61,見其他登記事項,鋼筋混凝土造,70年12月31日,十一層,七層
RPRNMLKLMHLFFAN38CA,34,12.74,見其他登記事項,鋼筋混凝土造,70年12月31日,十一層,
RPRNMLKLMHLFFAN38CA,34,15.99,見其他登記事項,鋼筋混凝土造,70年12月31日,十一層,
RPPOMLTKMHLFFAN09CA,27,47.72,住家用,鋼筋混凝土造,78年2月1日,五層,二層
RPSNMLSLMHLFFDN96CA,23,79.38,住家用,鋼造,82年8月25日,一層,一層
RPPNMLSLMHLFFDN66CA,1,216.43,見其他登記事項,鋼筋混凝土造,104年7月17日,四層,一層 二層 三層 四層
RPRNMLQLMHLFFDN66CA,20,4.16,見其他登記事項,鋼筋混凝土造,85年2月12日,十三層,
RPRNMLQLMHLFFDN66CA,20,7.86,住家用,鋼筋混凝土造,85年2月12日,十三層,十二層
RPRNMLQLMHLFFDN66CA,20,7.86,住家用,鋼筋混凝土造,85年2月12日,十三層,十二層
RPPNMLNLMHLFFFN98CA,1,271.45,住宅,鋼筋混凝土造,104年8月7日,四層,一層 二層 三層 四層
RPSNMLMLMHLFFGN66CA,38,138.60,見其他登記事項,鋼筋混凝土加強磚造,67年7月14日,三層,一層 二層 三層
RPVNMLMLMHLFFGN96CA,1,260.77,住家用,鋼筋混凝土造,104年2月13日,四層,一層 二層 三層 四層
RPSNMLQLMHLFFFN96CA,37,107.60,住家用,加強磚造,67年10月23日,二層,一層 二層
RPPNMLLLMHLFFAN38DA,19,122.29,住家用,鋼筋混凝土造,85年10月12日,七層,五層
RPPNMLLLMHLFFAN38DA,19,23.30,見其他登記事項,鋼筋混凝土造,85年10月12日,七層,
RPRNMLMJNHLFFCN68CA,1,275.10,見其他登記事項,鋼筋混凝土造,104年9月9日,四層,一層 二層 三層 四層
RPVNMLPLMHLFFCN86CA,17,133.63,住家用,鋼筋混凝土造,88年1月16日,三層,一層 二層 三層
RPQNMLTKNHLFFDN86CA,23,110.45,住家用,鋼筋混凝土造,82年5月24日,七層,三層
RPQNMLTKNHLFFDN86CA,23,13.42,見其他登記事項,鋼筋混凝土造,82年5月24日,七層,
RPQNMLTKNHLFFDN86CA,23,47.81,見其他登記事項,鋼筋混凝土造,82年5月24日,七層,
RPTNMLMLMHLFFEN56CA,27,92.72,住家用,鋼筋混凝土造,78年7月28日,二層,一層 二層
RPUNMLMKNHLFFDN56CA,,248.29,見其他登記事項,鋼筋混凝土造,104年12月11日,四層,一層 二層 三層 四層 屋頂突出物
RPVNMLLLMHLFFAN88CA,28,74.02,住家用,鋼筋混凝土造,77年1月13日,七層,二層
RPPOMLQLMHLFFAN88CA,22,15.29,停車空間,鋼筋混凝土造,83年6月23日,十三層,地下層
RPQOMLQLMHLFFAN98CA,22,15.29,停車空間,鋼筋混凝土造,83年6月23日,十三層,地下層
RPOOMLPLMHLFFAN68CA,1,222.56,見其他登記事項,鋼筋混凝土造,104年8月19日,五層,一層 二層 三層 四層 五層
RPOOMLPLMHLFFAN68CA,1,.83,見其他登記事項,鋼筋混凝土造,104年8月19日,一層,一層
RPPNMLPJNHLFFBN68CA,39,188.84,見其他登記事項,加強磚造,66年8月15日,二層,一層 二層 屋頂突出物 騎樓
RPQNMLLLMHLFFBN48CA,21,88.44,住家用,鋼筋混凝土造,84年8月23日,五層,四層
RPQNMLLLMHLFFBN48CA,21,26.88,見其他登記事項,鋼筋混凝土造,84年8月23日,五層,
RPQNMLLJNHLFFBN38CA,27,149.68,住商用,鋼筋混凝土造,78年9月5日,三層,一層 二層 三層 騎樓
RPPNMLKKNHLFFBN28CA,1,148.00,見其他登記事項,鋼筋混凝土造,104年6月1日,三層,一層 二層 三層 見其他登記事項
RPQNMLKKNHLFFBN38CA,1,148.00,見其他登記事項,鋼筋混凝土造,104年6月1日,三層,一層 二層 三層 見其他登記事項
RPTNMLSLMHLFFAN76CA,,332.52,農舍,鋼骨鋼筋混凝土造,105年3月11日,二層,一層 二層
RPROMLTJNHLFFAN66CA,21,165.03,見其他登記事項,鋼筋混凝土造,84年3月30日,三層,一層 二層 三層 地下層
RPROMLRKNHLFFAN56CA,10,166.09,見其他登記事項,鋼筋混凝土造,95年3月20日,四層,一層 二層 三層 四層
RPSNMLNKNHLFFDN09CA,22,92.89,住家用,鋼筋混凝土造,83年2月1日,七層,四層
RPPNMLPKNHLFFDN98CA,33,256.51,住商用,鋼筋混凝土造,72年6月27日,四層,一層 二層 三層 四層 騎樓
RPXNMLMJNHLFFDN76CA,20,156.57,住家用,鋼筋混凝土造,85年8月24日,七層,一層 二層 三層 騎樓
RPXNMLMJNHLFFDN76CA,20,33.33,見其他登記事項,鋼筋混凝土造,85年8月24日,七層,
RPSNMLMLMHLFFDN98CA,41,86.38,住家用,鋼筋混凝土加強磚造,64年2月1日,二層,一層 二層
RPQNMLNLMHLFFDN88CA,,310.60,見其他登記事項,鋼筋混凝土造,104年11月12日,四層,一層 二層 三層 四層 地下一層
RPQNMLNLMHLFFDN88CA,,7.17,共有部分,鋼筋混凝土造,104年11月12日,四層,
RPQNMLNLMHLFFDN88CA,,17.56,共有部分,鋼筋混凝土造,104年11月12日,四層,
RPSNMLNLMHLFFDN09CA,,259.85,見其他登記事項,鋼筋混凝土造,104年11月12日,四層,一層 二層 三層 四層 地下一層
RPSNMLNLMHLFFDN09CA,,7.17,共有部分,鋼筋混凝土造,104年11月12日,四層,
RPSNMLNLMHLFFDN09CA,,17.53,共有部分,鋼筋混凝土造,104年11月12日,四層,
RPUNMLNLMHLFFDN66CA,,257.49,見其他登記事項,鋼筋混凝土造,104年11月12日,四層,一層 二層 三層 四層 地下一層
RPUNMLNLMHLFFDN66CA,,7.17,共有部分,鋼筋混凝土造,104年11月12日,四層,
RPUNMLNLMHLFFDN66CA,,17.68,共有部分,鋼筋混凝土造,104年11月12日,四層,
RPSNMLQKNHLFFCN66CA,21,271.73,見其他登記事項,鋼筋混凝土造,83年11月14日,四層,一層 二層 三層 四層 騎樓
RPTNMLMJNHLFFHN76CA,,184.90,住家用,鋼筋混凝土造,104年11月30日,四層,一層 二層 三層 四層
RPWNMLLLMHLFFHN07CA,21,114.66,住家用,鋼筋混凝土造,84年1月28日,三層,一層 二層 三層 騎樓
RPPNMLLJNHLFFHN88CA,19,44.86,住家用,鋼筋混凝土造,86年7月3日,十層,二層
RPPNMLLJNHLFFHN88CA,19,17.09,見其他登記事項,鋼筋混凝土造,86年7月3日,十層,
RPPOMLQJNHLFFAN88DA,11,184.67,住家用,鋼筋混凝土造,94年1月18日,四層,一層 二層 三層 四層
RPVNMLQLMHLFFDN17DA,16,102.49,住家用,鋼筋混凝土造,89年5月25日,十四層,五層
RPSNMLKKNHLFFCN78DA,30,75.04,住家用,鋼筋混凝土造,74年11月25日,五層,四層
RPSNMLKKNHLFFCN78DA,30,5.21,見其他登記事項,鋼筋混凝土造,74年11月25日,五層,
RPSNMLLLMHLFFFN09CA,20,140.24,住家用,鋼筋混凝土造,85年5月29日,三層,一層 二層 三層 騎樓
RPQNMLLLMHLFFFN88CA,1,239.55,見其他登記事項,鋼筋混凝土造,104年4月27日,四層,一層 二層 三層 四層
RPSOMLOJNHLFFFN86DA,26,152.99,住工用,鋼筋混凝土造,79年7月20日,三層,一層 二層 三層
RPPNMLPLMHLFFGN76DA,33,83.86,住家用,加強磚造,71年12月10日,二層,一層 二層
RPRNMLQLMHLFFGN96CA,22,172.35,住商用,鋼筋混凝土造,82年7月30日,三層,一層 二層 三層 騎樓 電梯樓梯間
RPQNMLRLMHLFFFN86CA,35,88.64,住商用,加強磚造,69年10月4日,二層,一層 二層
RPPNMLKMMHLFFDN68DA,22,66.74,住家用,鋼筋混凝土造,82年12月29日,三層,一層 二層 三層 騎樓
RPUNMLMJNHLFFHN86CA,39,77.44,住家用,鋼筋混凝土加強磚造,66年7月5日,二層,一層 二層
RPPNMLLKNHLFFCN48CA,2,270.90,見其他登記事項,鋼筋混凝土造,103年1月16日,五層,一層 二層 三層 四層 五層 騎樓 見其他登記事項
RPWNMLSLMHLFFCN27CA,,179.03,見其他登記事項,鋼筋混凝土造,104年12月8日,四層,一層 二層 三層 四層
RPOOMLSLMHLFFCN56CA,,201.62,見其他登記事項,鋼筋混凝土造,104年12月8日,四層,一層 二層 三層 四層
RPPOMLSLMHLFFCN66CA,,357.52,見其他登記事項,鋼筋混凝土造,104年12月8日,四層,一層 二層 三層 四層
RPRNMLSLMHLFFCN76CA,,184.24,見其他登記事項,鋼筋混凝土造,104年12月8日,四層,一層 二層 三層 四層
RPSNMLSLMHLFFCN86CA,,178.78,見其他登記事項,鋼筋混凝土造,104年12月8日,四層,一層 二層 三層 四層
RPTNMLSLMHLFFCN96CA,,179.19,見其他登記事項,鋼筋混凝土造,104年12月8日,四層,一層 二層 三層 四層
RPUNMLSLMHLFFCN07CA,,179.19,見其他登記事項,鋼筋混凝土造,104年12月8日,四層,一層 二層 三層 四層
RPPNMLPLMHLFFDN98CA,2,300.94,見其他登記事項,鋼筋混凝土造,102年10月3日,五層,一層 二層 三層 四層 五層 地下一層
RPPNMLPLMHLFFDN98CA,2,31.70,見其他登記事項,鋼筋混凝土造,102年10月3日,五層,
RPTNMLPLMHLFFDN76CA,22,166.61,住家用,鋼筋混凝土造,83年5月23日,三層,一層 二層 三層
RPPNMLTLMHLFFDN76CA,1,188.74,見其他登記事項,鋼筋混凝土造,104年5月20日,三層,一層 二層 三層 屋頂突出物 騎樓
RPUNMLMJNHLFFDN09CA,25,20.02,住家用,鋼筋混凝土造,80年4月13日,五層,四層
RPUNMLMJNHLFFDN09CA,25,7.16,見其他登記事項,鋼筋混凝土造,80年4月13日,五層,
RPXNMLQKNHLFFAN96CA,4,241.10,見其他登記事項,鋼筋混凝土造,101年10月4日,四層,一層 二層 三層 四層 騎樓
RPTNMLPJNHLFFAN98CA,1,300.20,見其他登記事項,鋼筋混凝土造,103年10月17日,五層,一層 二層 三層 四層 五層
RPVNMLSLMHLFFAN96CA,4,259.46,住家用,鋼筋混凝土造,101年6月6日,四層,一層 二層 三層 四層
RPRNMLSLMHLFFAN56CA,32,206.36,住家用,鋼筋混凝土造,72年12月20日,四層,一層 二層 三層 四層 騎樓
RPROMLOJNHLFFAN78CA,1,245.95,見其他登記事項,鋼筋混凝土造,103年12月9日,四層,一層 二層 三層 四層
RPQNMLNKNHLFFBN68CA,36,176.79,住商用,鋼筋混凝土加強磚造,68年12月12日,三層,一層 二層 三層
RPSNMLPJNHLFFBN98CA,,154.97,見其他登記事項,鋼筋混凝土造,104年11月30日,三層,一層 二層 三層 見其他登記事項
RPWNMLPJNHLFFBN76CA,2,175.39,住家用,鋼筋混凝土造,103年1月6日,四層,一層 二層 三層 四層
RPPNMLPLMHLFFBN78CA,23,118.61,住家用,鋼筋混凝土加強磚造,82年8月10日,二層,一層 二層
RPRNMLMJNHLFFBN58CA,2,187.66,見其他登記事項,鋼筋混凝土造,103年7月28日,三層,一層 二層 三層 見其他登記事項
RPVNMLMJNHLFFAN88CA,27,143.67,見其他登記事項,鋼筋混凝土造,78年8月28日,五層,一層 地下層
RPVNMLMJNHLFFAN88CA,27,5.64,見其他登記事項,鋼筋混凝土造,78年8月28日,五層,
RPRNMLPJNHLFFAN78CA,21,201.04,住家用,鋼筋混凝土造,83年11月30日,五層,一層 二層 三層 四層 五層
RPOOMLMKNHLFFAN38CA,27,130.67,住家用,鋼筋混凝土造,77年12月31日,五層,一層
RPRNMLQKNHLFFDN66CA,7,1090.65,見其他登記事項,見其他登記事項,98年1月21日,一層,一層
RPOOMLMJNHLFFDN58CA,1,201.01,見其他登記事項,鋼筋混凝土造,104年7月31日,三層,一層 二層 三層 見其他登記事項
RPQNMLRLMHLFFDN66CA,23,91.15,住家用,鋼筋混凝土造,82年6月8日,七層,四層
RPQNMLRLMHLFFDN66CA,23,34.09,見其他登記事項,鋼筋混凝土造,82年6月8日,七層,
RPRNMLSLMHLFFDN86CA,1,202.80,見其他登記事項,鋼筋混凝土造,104年5月15日,四層,一層 二層 三層 四層
RPRNMLQLMHLFFEN76CA,36,111.70,住商用,鋼筋混凝土加強磚造,68年11月17日,二層,一層 二層 騎樓
RPTNMLRLMHLFFCN86CA,27,167.67,住家用,鋼筋混凝土造,78年7月8日,三層,一層 二層 三層 騎樓
RPVNMLRLMHLFFCN07CA,27,165.91,住家用,鋼筋混凝土造,78年7月8日,三層,一層 二層 三層 騎樓
RPQNMLTLMHLFFCN76CA,4,318.29,見其他登記事項,鋼筋混凝土造,101年5月29日,四層,一層 二層 三層 四層
RPSNMLMJNHLFFHN66CA,1,185.25,見其他登記事項,鋼筋混凝土造,104年7月7日,三層,一層 二層 三層 屋頂突出物
RPUNMLLKNHLFFHN86CA,2,233.29,見其他登記事項,鋼筋混凝土造,103年8月12日,四層,一層 二層 三層 四層 屋頂突出物
RPVNMLPLMHLFFHN37CA,1,193.41,見其他登記事項,鋼筋混凝土造,103年12月4日,三層,一層 二層 三層 屋頂突出物
RPWNMLPLMHLFFHN47CA,3,169.99,見其他登記事項,鋼筋混凝土造,102年9月10日,四層,一層 二層 三層 四層
RPPOMLMJNHLFFHN09CA,23,160.65,住家用,鋼筋混凝土造,82年10月4日,三層,一層 二層 三層
RPTNMLQLMHLFFCN86DA,35,62.32,住家用,加強磚造,70年1月14日,二層,一層 二層 騎樓
RPSNMLRLMHLFFFN07CA,,207.77,住宅,鋼筋混凝土造,104年11月16日,三層,一層 二層 三層
RPTNMLMJNHLFFFN56CA,22,531.15,見其他登記事項,見其他登記事項,83年7月21日,一層,一層
RPQNMLPLMHLFFFN66CA,10,179.64,住家用,鋼筋混凝土造,95年2月11日,三層,一層 二層 三層 見其他登記事項
RPRNMLNJNHLFFFN09CA,,182.85,住宅,鋼筋混凝土造,105年1月13日,三層,一層 二層 三層
RPSNMLNJNHLFFFN56CA,,177.39,住宅,鋼筋混凝土造,105年1月13日,三層,一層 二層 三層
RPQNMLMJNHLFFHN56DA,1,160.51,見其他登記事項,鋼筋混凝土造,104年9月9日,三層,一層 二層 三層 屋頂突出物
RPPNMLKLNHLFFFN78CA,11,86.80,住家用,鋼筋混凝土造,94年9月13日,四層,一層 二層 三層 四層 見其他登記事項
RPPNMLKLNHLFFFN78CA,11,86.80,住家用,鋼筋混凝土造,94年9月13日,四層,一層 二層 三層 四層 見其他登記事項
RPUNMLQLMHLFFFN17CA,2,125.06,住宅,鋼筋混凝土造,103年7月17日,三層,一層 二層 三層 見其他登記事項
RPUNMLMJNHLFFFN66CA,22,155.82,住家用,鋼筋混凝土造,82年11月20日,三層,一層 二層 三層
RPQNMLRLMHLFFCN66DA,1,156.80,見其他登記事項,鋼筋混凝土造,104年8月14日,三層,一層 二層 三層 見其他登記事項
RPPNMLRLMHLFFAN98DA,45,62.40,住家用,磚造,60年8月16日,二層,一層 二層
RPUOMLRLMHLFFAN96DA,44,182.55,住商用,鋼筋混凝土加強磚造,61年7月5日,三層,一層 二層 三層 騎樓
RPQNMLRLMHLFFHN07CA,41,131.84,住家用,鋼筋混凝土加強磚造,64年7月18日,二層,一層 二層 走廊
RPPOMLMJNHLFFDN68CA,43,30.31,住家用,加強磚造,61年12月30日,一層,一層
RPPNMLNKNHLFFDN78CA,21,90.42,住家用,鋼筋混凝土造,84年3月22日,三層,一層 二層 三層
RPWNMLOJNHLFFAN56CA,23,90.04,住家用,鋼筋混凝土造,82年4月30日,八層,六層
RPWNMLOJNHLFFAN56CA,23,47.22,見其他登記事項,鋼筋混凝土造,82年4月30日,八層,
RPPNMLPJNHLFFAN58CA,9,426.58,住家用,鋼筋混凝土造,96年6月21日,五層,一層 二層 三層 四層 五層
RPPNMLQJNHLFFAN68CA,22,81.35,住家用,鋼筋混凝土造,83年6月21日,十二層,七層
RPPNMLQJNHLFFAN68CA,22,35.83,見其他登記事項,鋼筋混凝土造,83年6月21日,十四層,
RPPNMLLLNHLFFAN38CA,18,200.90,見其他登記事項,鋼筋混凝土造,86年10月20日,三層,一層 二層 三層 地下層
RPPNMLLLNHLFFAN38CA,18,12.59,見其他登記事項,鋼筋混凝土造,86年10月20日,十三層,
RPTOMLQKNHLFFAN66CA,1,257.65,見其他登記事項,鋼筋混凝土造,104年5月4日,四層,一層 二層 三層 四層 屋頂突出物 騎樓
RPUOMLQKNHLFFAN76CA,1,208.77,見其他登記事項,鋼筋混凝土造,104年5月4日,四層,一層 二層 三層 四層 屋頂突出物 騎樓
RPVOMLQKNHLFFAN86CA,23,133.94,住家用,鋼筋混凝土造,81年10月20日,三層,一層 二層 三層
RPRNMLRLMHLFFAN09CA,20,133.28,住家用,鋼筋混凝土造,85年4月25日,三層,一層 二層 三層
RPRNMLRLMHLFFAN09CA,20,39.55,停車空間,鋼筋混凝土造,85年4月25日,,
RPPNMLOJNHLFFAN48CA,,156.74,見其他登記事項,鋼筋混凝土造,104年12月29日,三層,一層 二層 三層 屋頂突出物
RPQNMLOJNHLFFAN58CA,,156.74,見其他登記事項,鋼筋混凝土造,104年12月29日,三層,一層 二層 三層 屋頂突出物
RPRNMLOJNHLFFAN68CA,,182.86,見其他登記事項,鋼筋混凝土造,104年12月29日,三層,一層 二層 三層 屋頂突出物
RPSNMLOJNHLFFAN78CA,,183.77,見其他登記事項,鋼筋混凝土造,104年12月29日,三層,一層 二層 三層 屋頂突出物
RPTNMLOJNHLFFAN88CA,,198.50,見其他登記事項,鋼筋混凝土造,104年12月29日,四層,一層 二層 三層 四層
RPUNMLOJNHLFFAN98CA,,182.86,見其他登記事項,鋼筋混凝土造,104年12月29日,三層,一層 二層 三層 屋頂突出物
RPVNMLTLMHLFFAN07CA,19,21.69,住家用,見其他登記事項,86年1月27日,一層,一層
RPXNMLSLMHLFFAN17CA,2,196.52,見其他登記事項,鋼筋混凝土造,102年11月27日,三層,一層 二層 三層 屋頂突出物 騎樓
RPQNMLSLMHLFFBN56CA,,216.52,見其他登記事項,鋼筋混凝土造,105年1月27日,三層,一層 二層 三層 見其他登記事項
RPRNMLSLMHLFFBN66CA,,219.58,見其他登記事項,鋼筋混凝土造,105年1月27日,三層,一層 二層 三層 見其他登記事項
RPSNMLSLMHLFFBN76CA,,200.13,見其他登記事項,鋼筋混凝土造,105年1月27日,三層,一層 二層 三層 見其他登記事項
RPTNMLSLMHLFFBN86CA,,175.17,見其他登記事項,鋼筋混凝土造,105年1月27日,三層,一層 二層 三層 見其他登記事項
RPUNMLSLMHLFFBN96CA,,177.64,住家用,鋼筋混凝土造,105年1月27日,四層,一層 二層 三層 四層
RPPNMLMJNHLFFBN38CA,2,173.27,住家用,鋼筋混凝土造,103年1月6日,四層,一層 二層 三層 四層
RPVNMLPJNHLFFBN66CA,20,84.28,住家用,鋼筋混凝土造,85年1月19日,五層,二層
RPVNMLPJNHLFFBN66CA,20,26.51,見其他登記事項,鋼筋混凝土造,85年1月19日,八層,
RPRNMLPKNHLFFBN98CA,,187.16,見其他登記事項,鋼筋混凝土造,104年11月5日,三層,一層 二層 三層 騎樓 見其他登記事項
RPQNMLSLMHLFFAN09CA,13,387.36,住家用,鋼筋混凝土造,92年5月16日,四層,一層 二層 三層 四層
RPQOMLTLMHLFFAN66CA,1,208.67,見其他登記事項,鋼筋混凝土造,104年8月4日,四層,一層 二層 三層 四層
RPPOMLNLNHLFFAN68CA,41,107.20,住商用,鋼筋混凝土加強磚造,64年7月18日,二層,一層 二層 騎樓
RPPOMLQKNHLFFAN88CA,22,303.72,住家用,鋼筋混凝土造,82年12月27日,五層,一層 二層 三層 四層 五層
RPOOMLOLNHLFFAN68CA,18,3.80,見其他登記事項,鋼筋混凝土造,87年2月16日,四層,地下層
RPOOMLOLNHLFFAN68CA,18,212.02,住家用,鋼筋混凝土造,87年2月16日,四層,一層 二層 三層 四層
RPOOMLOLNHLFFAN68CA,18,25.81,見其他登記事項,鋼筋混凝土造,87年2月16日,四層,
RPXNMLMKNHLFFDN86CA,,265.99,見其他登記事項,鋼筋混凝土造,104年12月11日,四層,一層 二層 三層 四層 屋頂突出物
RPPNMLPJNHLFFDN88CA,37,94.68,住家用,鋼筋混凝土加強磚造,68年1月12日,二層,一層 二層
RPTNMLSLMHLFFDN07CA,25,78.13,住家用,鋼筋混凝土造,79年11月24日,六層,一層 騎樓
RPTNMLSLMHLFFDN07CA,25,20.21,見其他登記事項,鋼筋混凝土造,79年11月24日,六層,
RPTNMLSLMHLFFDN07CA,25,12.87,見其他登記事項,鋼筋混凝土造,79年11月24日,六層,
RPTNMLSLMHLFFDN07CA,25,85.11,住家用,鋼筋混凝土造,79年11月24日,六層,二層
RPTNMLSLMHLFFDN07CA,25,20.21,見其他登記事項,鋼筋混凝土造,79年11月24日,六層,
RPTNMLSLMHLFFDN07CA,25,12.87,見其他登記事項,鋼筋混凝土造,79年11月24日,六層,
RPQNMLSLMHLFFDN76CA,35,101.06,住家用,鋼筋混凝土加強磚造,70年4月30日,二層,一層 二層
RPQNMLSLMHLFFDN76CA,35,104.58,住家用,鋼筋混凝土加強磚造,70年4月30日,二層,一層 二層
RPSNMLTLMHLFFCN96CA,8,772.63,見其他登記事項,見其他登記事項,97年5月7日,四層,一層 二層 三層 四層 見其他登記事項
RPSNMLTLMHLFFCN96CA,8,2704.14,見其他登記事項,見其他登記事項,97年5月7日,二層,一層 二層 見其他登記事項
RPQNMLQKNHLFFHN96CA,6,272.30,見其他登記事項,鋼筋混凝土造,98年12月11日,四層,一層 二層 三層 四層 騎樓
RPSNMLMJNHLFFAN68DA,39,166.05,住商用,鋼筋混凝土加強磚造,65年12月8日,三層,一層 二層 三層 騎樓
RPPNMLSLMHLFFFN96DA,27,315.12,住商用,鋼筋混凝土造,78年1月27日,四層,一層 二層 三層 四層 騎樓
RPPNMLTLMHLFFHN27DA,36,141.12,住商用,鋼筋混凝土造,69年4月25日,三層,一層 二層 三層 騎樓
RPPNMLQJNHLFFFN56CA,18,2666.61,見其他登記事項,見其他登記事項,87年3月21日,一層,一層
RPPNMLMKNHLFFGN98CA,35,111.50,住家用,加強磚造,69年12月30日,二層,一層 二層
RPPNMLLKNHLFFHN98CA,5,206.51,住家用,鋼筋混凝土造,100年6月7日,三層,一層 二層 三層
RPTNMLMJNHLFFCN88CA,23,119.60,住家用,鋼筋混凝土造,82年8月31日,七層,六層
RPUNMLTJNHLFFCN07CA,,157.17,見其他登記事項,鋼筋混凝土造,104年11月30日,三層,一層 二層 三層 見其他登記事項
RPVNMLTJNHLFFCN17CA,,152.22,見其他登記事項,鋼筋混凝土造,104年11月30日,三層,一層 二層 三層 見其他登記事項
RPWNMLTJNHLFFCN27CA,,152.22,見其他登記事項,鋼筋混凝土造,104年11月30日,三層,一層 二層 三層 見其他登記事項
RPXNMLTJNHLFFCN37CA,,152.22,見其他登記事項,鋼筋混凝土造,104年11月30日,三層,一層 二層 三層 見其他登記事項
RPPNMLTLMHLFFEN86CA,2,37.60,農舍,鋼造,103年1月17日,一層,一層
RPQNMLPLNHLFFDN56CA,,169.12,見其他登記事項,鋼筋混凝土造,105年2月18日,三層,一層 二層 三層 見其他登記事項
RPPNMLRLNHLFFDN66CA,,161.98,見其他登記事項,鋼筋混凝土造,104年10月14日,三層,一層 二層 三層 屋頂突出物
RPQNMLTLMHLFFDN86CA,18,239.52,住商用,鋼筋混凝土造,87年9月23日,四層,一層 二層 三層 四層 騎樓 夾層
RPWNMLTLMHLFFDN47CA,25,407.78,住家用,鋼筋混凝土造,79年11月26日,五層,一層 二層 三層 四層 五層
RPQNMLPLNHLFFAN88CA,17,62.02,見其他登記事項,鋼骨混凝土造,88年2月2日,二層,一層 二層
RPUNMLPLNHLFFAN66CA,4,453.79,住家用,鋼筋混凝土造,101年9月13日,五層,一層 二層 三層 四層 五層
RPPOMLRKNHLFFAN98CA,22,102.05,住家用,鋼筋混凝土造,83年4月6日,八層,八層
RPPOMLRKNHLFFAN98CA,22,41.41,見其他登記事項,鋼筋混凝土造,83年4月6日,八層,
RPQOMLRKNHLFFAN09CA,30,91.20,住家用,加強磚造,74年11月25日,二層,一層 二層
RPQNMLLJNHLFFAN28CA,36,82.68,住商用,鋼筋混凝土加強磚造,68年11月16日,二層,一層 二層
RPPNMLTLMHLFFAN09CA,26,99.22,住家用,鋼筋混凝土造,78年11月22日,七層,七層
RPQNMLTLMHLFFAN56CA,35,117.08,住商用,鋼筋混凝土加強磚造,69年12月17日,二層,一層 二層 騎樓
RPPNMLNJNHLFFAN38CA,1,214.05,見其他登記事項,鋼筋混凝土造,103年10月21日,三層,一層 二層 三層 屋頂突出物 騎樓
RPQNMLTJNHLFFBN56CA,23,132.75,住家用,鋼筋混凝土造,82年6月21日,三層,一層 二層 三層 騎樓
RPSOMLOJNHLFFAN88CA,47,84.88,住家用,加強磚造,58年2月6日,二層,一層 二層
RPXNMLMJNHLFFAN09CA,45,92.09,住家用,鋼筋混凝土加強磚造,59年12月31日,二層,一層 二層
RPRNMLMKNHLFFAN58CA,23,15.83,見其他登記事項,鋼筋混凝土造,82年1月8日,十一層,地下層
RPRNMLMKNHLFFAN58CA,23,70.53,住家用,鋼筋混凝土造,82年1月8日,十一層,十一層
RPRNMLMKNHLFFAN58CA,23,10.27,,鋼筋混凝土造,82年1月8日,十一層,
RPOPMLNLNHLFFAN68CA,1,224.79,見其他登記事項,鋼筋混凝土造,104年7月2日,四層,一層 二層 三層 四層 騎樓
RPTOMLQJNHLFFAN56CA,1,230.68,見其他登記事項,鋼筋混凝土造,103年12月9日,四層,一層 二層 三層 四層
RPQNMLRLNHLFFDN76CA,21,199.30,住商用,鋼筋混凝土造,84年2月7日,三層,一層 二層 三層 騎樓
RPRNMLRLNHLFFDN86CA,22,119.40,住家用,鋼筋混凝土造,83年9月14日,二層,一層 二層
RPSNMLRLNHLFFDN96CA,22,113.26,住家用,鋼筋混凝土造,83年9月14日,二層,一層 二層
RPROMLRLNHLFFDN96CA,10,227.58,見其他登記事項,鋼筋混凝土造,95年8月22日,四層,一層 二層 三層 四層 地下一層
RPQOMLPLNHLFFDN66CA,19,94.98,住家用,鋼筋混凝土造,86年4月11日,十五層,九層
RPOOMLTJNHLFFCN56CA,,152.22,見其他登記事項,鋼筋混凝土造,104年11月30日,三層,一層 二層 三層 見其他登記事項
RPPOMLTJNHLFFCN66CA,,155.05,見其他登記事項,鋼筋混凝土造,104年11月30日,三層,一層 二層 三層 見其他登記事項
RPQOMLTJNHLFFCN76CA,,155.05,見其他登記事項,鋼筋混凝土造,104年11月30日,三層,一層 二層 三層 見其他登記事項
RPROMLTJNHLFFCN86CA,,155.05,見其他登記事項,鋼筋混凝土造,104年11月30日,三層,一層 二層 三層 見其他登記事項
RPSOMLTJNHLFFCN96CA,,155.05,見其他登記事項,鋼筋混凝土造,104年11月30日,三層,一層 二層 三層 見其他登記事項
RPTOMLTJNHLFFCN07CA,,155.05,見其他登記事項,鋼筋混凝土造,104年11月30日,三層,一層 二層 三層 見其他登記事項
RPUOMLTJNHLFFCN17CA,,155.05,見其他登記事項,鋼筋混凝土造,104年11月30日,三層,一層 二層 三層 見其他登記事項
RPVOMLTJNHLFFCN27CA,,155.05,見其他登記事項,鋼筋混凝土造,104年11月30日,三層,一層 二層 三層 見其他登記事項
RPWOMLTJNHLFFCN37CA,,155.05,見其他登記事項,鋼筋混凝土造,104年11月30日,三層,一層 二層 三層 見其他登記事項
RPXOMLTJNHLFFCN47CA,,155.05,見其他登記事項,鋼筋混凝土造,104年11月30日,三層,一層 二層 三層 見其他登記事項
RPXNMLMJNHLFFHN17CA,37,112.00,住商用,加強磚造,68年5月12日,二層,一層 二層 騎樓
RPQNMLMJNHLFFFN88CA,9,200.36,見其他登記事項,鋼筋混凝土造,95年12月19日,四層,一層 二層 三層 四層 見其他登記事項
RPPNMLKMMHLFFGN98DA,21,46.88,住家用,鋼筋混凝土造,84年5月26日,八層,四層
RPPNMLKMMHLFFGN98DA,21,16.07,見其他登記事項,鋼筋混凝土造,84年5月26日,八層,
RPQNMLKMMHLFFGN09DA,21,61.19,見其他登記事項,鋼筋混凝土造,84年1月9日,八層,二層
RPQNMLKMMHLFFGN09DA,21,15.16,見其他登記事項,鋼筋混凝土造,84年1月9日,八層,
