絪腹,跋琿竚,簿锣縩キよそへ,ㄏノだ跋┪絪﹚
RPWOMLLJKHLFFAU96CC,チ種琿,16.70,常カ
RPOPMLOJKHLFFAU56CC,チㄉ琿,125.00,常カ坝
RPOPMLOJKHLFFAU56CC,チㄉ琿,24.00,常カ坝
RPOPMLOJKHLFFAU56CC,チㄉ琿,24.00,常カ坝
RPOPMLOJKHLFFAU56CC,チㄉ琿,125.00,常カ坝
RPVNMLPKKHLFFAU27CC,狶此琿,2.28,常カ
RPVNMLPKKHLFFAU27CC,狶此琿,4.26,常カ
RPVNMLPKKHLFFAU27CC,狶此琿,8.36,常カ
RPPNMLQKKHLFFAU76CC,竡琿,89.00,常カ坝
RPPNMLNLKHLFFAU56CC,肝チ琿,96.00,常カㄤ
RPSNMLPLKHLFFAU07CC,チ对琿,72.00,常カ
RPROMLQLKHLFFAU17CC,チ紈琿,28.45,常カ
RPSOMLQLKHLFFAU27CC,チ紈琿,27.91,常カ
RPQNMLRLKHLFFAU07CC,竡琿,8.60,常カ坝
RPQNMLRLKHLFFAU07CC,竡琿,24.20,常カ坝
RPQNMLRLKHLFFAU07CC,竡琿,4.20,常カ坝
RPQNMLRLKHLFFAU07CC,竡琿,1.20,常カ坝
RPPNMLMJLHLFFAU98CC,缠穛琿,142.00,常カ
RPRNMLMJLHLFFAU56CC,眏琿,11.25,常カ坝
RPSNMLMJLHLFFAU66CC,眏琿,11.25,常カ坝
RPTNMLNJLHLFFAU86CC,镭琿,3.84,常カ坝
RPVNMLNJLHLFFAU07CC,镭琿,3.59,常カ坝
RPWNMLNJLHLFFAU17CC,镭琿,2.53,常カ坝
RPRNMLOJLHLFFAU76CC,絖琿,19.55,常カ坝
RPRNMLOJLHLFFAU76CC,絖琿,9.05,常カ坝
RPWNMLOJLHLFFAU37DC,舦琿,241.00,常カ
RPVNMLRJLHLFFAU47CC,碔瓣琿,3.42,常カ
RPVNMLRJLHLFFAU47CC,碔瓣琿,5.12,常カ
RPXNMLTJLHLFFAU87CC,眏琿,17.00,常カ坝
RPQOMLTJLHLFFAU27CC,瓣琿,88.00,常カ
RPSPMLKKLHLFFAU76CC,稯秤琿,118.92,常カ
RPXNMLKKLHLFFAU27EC,褐砍琿,87.36,常カ
RPXNMLKKLHLFFAU27EC,褐砍琿,12.61,常カ
RPRNMLPKLHLFFAU96CC,碔瓣琿,17.02,常カ
RPQOMLMLLHLFFAU96EC,褐砍琿,102.00,常カ
RPUNMLNLLHLFFAU17CC,狶此琿,155.00,常カ
RPWNMLNLLHLFFAU37CC,く稧琿,16.87,常カ坝
RPWNMLNLLHLFFAU37CC,く稧琿,.08,常カ坝
RPTOMLPLLHLFFAU37CC,攫琿,10.22,常カ坝
RPVOMLPLLHLFFAU57CC,竡琿,8.75,常カ
RPVOMLPLLHLFFAU57CC,竡琿,29.12,常カ
RPXOMLPLLHLFFAU77CC,く琿,87.00,常カ
RPTNMLSLLHLFFAU57CC,チ種琿,17.45,常カ
RPUNMLSLLHLFFAU67CC,碔瓣琿,64.50,常カ
RPUNMLSLLHLFFAU67CC,碔瓣琿,59.00,常カ
RPVNMLSLLHLFFAU77CC,镭琿,1.29,常カ坝
RPRNMLLMLHLFFAU86DC,伦狥琿,223.81,獶常カ笰穨跋 ; 獶常カ絪﹚ヒ贺縱ノ
RPRNMLLMLHLFFAU86DC,伦狥琿,498.63,獶常カ笰穨跋 ; 獶常カ絪﹚ヒ贺縱ノ
RPRNMLLMLHLFFAU86DC,伦狥琿,3148.01,獶常カ笰穨跋 ; 獶常カ絪﹚笰ノ
RPTNMLRJMHLFFAU47DC,チネ琿,95.00,常カ坝
RPQNMLRJMHLFFAU07CC,肝チ琿,36.00,常カ
RPUNMLMKMHLFFAU07CC,紋伦琿,47.00,常カ
RPRNMLNKMHLFFAU86CC,舦琿,133.00,常カ坝
RPTNMLOKMHLFFAU27DC,缠穛琿,12.40,常カ
RPRNMLOKMHLFFAU17EC,缠穛琿,14.74,常カ
RPSNMLOKMHLFFAU27EC,玭瓾琿,73.00,獶常カ秏跋 ; 獶常カ絪﹚贺縱ノ
RPRNMLPKMHLFFAU07CC,紋伦琿,85.00,常カ
RPTNMLPKMHLFFAU27CC,瓣琿,63.00,常カ坝
RPVNMLPKMHLFFAU47CC,坝琿,4.29,常カ坝
RPWNMLPKMHLFFAU57CC,肝チ琿,5.94,常カ坝
RPXNMLPKMHLFFAU67CC,镭琿,4.09,常カ坝
RPSNMLSKMHLFFAU57DC,紈琿,77.00,常カ
RPUNMLTKMHLFFAU77CC,﹜琿,44.13,常カ
RPQOMLKLMHLFFAU66CC,镭琿,106.00,常カ坝
RPQOMLKLMHLFFAU66CC,镭琿,16.00,常カ坝
RPUNMLMLMHLFFAU17CC,碔瓣琿,9.44,常カ
RPQOMLMLMHLFFAU86CC,竡琿,3.24,常カ坝
RPQOMLMLMHLFFAU86CC,竡琿,.66,常カ坝
RPQOMLMLMHLFFAU86CC,竡琿,.17,常カㄤ
RPQOMLMLMHLFFAU86CC,竡琿,7.95,常カ坝
RPOOMLNLMHLFFAU76CC,碔瓣琿,8.51,常カ
RPOOMLPLMHLFFAU96CC,肝チ琿,143.00,常カ坝
RPRNMLSLMHLFFAU47CC,チㄉ琿,18.55,常カ
