絪腹,跋琿竚,簿锣縩キよそへ,ㄏノだ跋┪絪﹚
RPTNMLNJJIKFFCC67CC,き絬琿,115.70,常カ
RPUNMLQJJIKFFCC08CC,地琿,.00,常カㄤ
RPUNMLQJJIKFFCC08CC,地琿,.00,常カㄤ
RPUNMLLKJIKFFCC67CC,猌拉琿,.00,常カㄤ
RPUNMLLKJIKFFCC67CC,猌拉琿,.00,常カㄤ
RPUNMLLKJIKFFCC67CC,猌拉琿,.00,常カㄤ
RPUNMLLKJIKFFCC67CC,猌拉琿,.00,常カ
RPPNMLLKJIKFFBC17DC,いタ琿琿,.00,常カ坝
RPPNMLQKJIKFFBC57CC,兼琿,15.23,常カ
RPPNMLQKJIKFFBC57CC,兼琿,1.52,常カ
RPSOMLTJKIKFFBC38DC,いタ琿琿,.00,常カ
RPSOMLTJKIKFFBC38DC,いタ琿琿,.00,常カ坝
RPRQMLSKKIKFFBC38CC,狥獺琿琿,28.00,常カ
RPRQMLSKKIKFFBC38CC,狥獺琿琿,8.75,常カ
RPPNMLSKJHLFFBC77CC,いァ琿琿,.00,常カ坝
RPPNMLSKJHLFFBC77CC,いァ琿琿,.00,常カ坝
