編號,車位類別,車位價格,車位面積平方公尺
RPWNMLNJKIKFFAI48CC,坡道平面,0,48.27
RPVNMLOKKIKFFAI68DC,坡道機械,1000,
RPWOMLSKKIKFFAI56CC,坡道機械,0,
RPXOMLSLKIKFFAI86DC,坡道平面,0,
RPSNMLOKJHLFFAI28DC,坡道平面,0,
RPOPMLKLJHLFFAI77DC,坡道平面,0,
