絪腹,跋琿竚,簿锣縩キよそへ,ㄏノだ跋┪絪﹚
RPPOMLPJJIKFFAO68EB,チ碔琿,7.40,常カ坝
RPQOMLPJJIKFFAO78EB,チ碔琿,7.40,常カ坝
RPROMLPJJIKFFAO88EB,チ碔琿,8.46,常カ坝
RPSOMLPJJIKFFAO98EB,チ碔琿,7.40,常カ坝
RPTOMLPJJIKFFAO09EB,チ碔琿,7.40,常カ坝
RPUOMLPJJIKFFAO56EB,チ碔琿,8.46,常カ坝
RPVOMLPJJIKFFAO66EB,チ碔琿,7.40,常カ坝
RPWOMLPJJIKFFAO76EB,チ碔琿,8.46,常カ坝
RPXOMLPJJIKFFAO86EB,チ碔琿,8.30,常カ坝
RPOPMLPJJIKFFAO68EB,チ碔琿,8.46,常カ坝
RPPPMLPJJIKFFAO78EB,チ碔琿,8.30,常カ坝
RPQPMLPJJIKFFAO88EB,チ碔琿,8.46,常カ坝
RPRPMLPJJIKFFAO98EB,チ碔琿,8.30,常カ坝
RPSPMLPJJIKFFAO09EB,チ碔琿,8.46,常カ坝
RPTPMLPJJIKFFAO56EB,チ碔琿,8.30,常カ坝
RPUPMLPJJIKFFAO66EB,チ碔琿,8.46,常カ坝
RPVPMLPJJIKFFAO76EB,チ碔琿,8.46,常カ坝
RPWPMLPJJIKFFAO86EB,チ碔琿,8.30,常カ坝
RPXPMLPJJIKFFAO96EB,チ碔琿,8.30,常カ坝
RPOQMLPJJIKFFAO78EB,チ碔琿,29.52,常カ坝
RPPQMLPJJIKFFAO88EB,チ碔琿,8.30,常カ坝
RPQQMLPJJIKFFAO98EB,チ碔琿,11.87,常カ坝
RPRQMLPJJIKFFAO09EB,チ碔琿,8.30,常カ坝
RPSQMLPJJIKFFAO56EB,チ碔琿,11.87,常カ坝
RPTQMLPJJIKFFAO66EB,チ碔琿,8.46,常カ坝
RPUQMLPJJIKFFAO76EB,チ碔琿,11.87,常カ坝
RPVQMLPJJIKFFAO86EB,チ碔琿,7.40,常カ坝
RPWQMLPJJIKFFAO96EB,チ碔琿,7.40,常カ坝
RPXQMLPJJIKFFAO07EB,チ碔琿,7.40,常カ坝
RPORMLPJJIKFFAO88EB,チ碔琿,7.40,常カ坝
RPXUMLPKKIKFFAO67EB,猌琿,21.65,常カ
RPOVMLPKKIKFFAO86EB,猌琿,30.84,常カ
