編號,屋齡,建物移轉面積平方公尺,主要用途,主要建材,建築完成日期,總層數,建物分層
RPWNMLNJJIKFFAP88CA,42,82.11,住家用,鋼筋混凝土造,62年4月1日,三層,一層 二層 三層
RPOOMLNJJIKFFAP18CA,35,108.91,住商用,加強磚造,70年4月15日,二層,一層 二層 騎樓 電梯樓梯間
RPUNMLPJJIKFFAP88CA,36,124.53,住商用,加強磚造,68年12月31日,二層,一層 二層 騎樓 電梯樓梯間
RPUNMLTJJIKFFAP66CA,2,157.25,住家用,鋼筋混凝土造,102年10月4日,三層,一層 二層 三層
RPRNMLPLJIKFFAP78CA,17,31.42,住家用,鋼筋混凝土造,87年10月30日,十層,八層
RPPNMLTLJIKFFAP98CA,18,244.26,住商用,鋼筋混凝土造,86年7月15日,四層,一層 二層 三層 四層 騎樓 電梯樓梯間
RPPNMLQJJIKFFBP58CA,,227.07,見其他登記事項,鋼筋混凝土造,104年5月10日,三層,一層 二層 三層
RPPNMLTJJIKFFBP88CA,29,186.08,住家用,鋼筋混凝土造,75年4月25日,三層,一層 二層 三層 騎樓 電梯樓梯間
RPQOMLMLJIKFFBP58CA,,107.08,見其他登記事項,鋼筋混凝土造,104年4月20日,三層,一層 二層 三層 見其他登記事項
RPQOMLMLJIKFFBP58CA,,107.08,見其他登記事項,鋼筋混凝土造,104年4月20日,三層,一層 二層 三層 見其他登記事項
RPSOMLMLJIKFFBP78CA,,105.37,見其他登記事項,鋼筋混凝土造,104年4月20日,三層,一層 二層 三層 見其他登記事項
RPSOMLMLJIKFFBP78CA,,105.37,見其他登記事項,鋼筋混凝土造,104年4月20日,三層,一層 二層 三層 見其他登記事項
RPTOMLMLJIKFFBP88CA,,213.02,見其他登記事項,鋼筋混凝土造,104年4月20日,三層,一層 二層 三層 見其他登記事項
RPTNMLQKKIKFFBP56CA,,214.16,見其他登記事項,鋼筋混凝土造,104年4月20日,三層,一層 二層 三層 見其他登記事項
RPPNMLNJJIKFFCP48DA,20,207.65,住商用,鋼筋混凝土造,84年12月20日,八層,一層 二層 騎樓
RPPNMLNJJIKFFCP48DA,20,37.94,共有部份,鋼筋混凝土造,84年12月20日,八層,
RPPNMLNJJIKFFCP48DA,20,1.85,共有部份,鋼筋混凝土造,84年12月20日,,
RPPNMLNJJIKFFCP48DA,20,27.81,共有部份,鋼筋混凝土造,84年12月20日,,
RPPNMLOJJIKFFAP48EA,41,108.68,住家用,加強磚造,63年6月10日,二層,一層 二層 騎樓
RPSNMLOJJIKFFEP98CA,10,185.81,見其他登記事項,鋼筋混凝土造,95年1月26日,四層,一層 二層 三層 四層 騎樓 見其他登記事項
RPRNMLPJJIKFFFP09CA,21,213.66,住家用,鋼筋混凝土造,83年12月20日,四層,一層 二層 三層 四層 騎樓
RPVNMLNJJIKFFDP09CA,27,195.11,住家用,鋼筋混凝土加強磚造,78年4月25日,三層,一層 二層 三層
RPUNMLPJJIKFFDP56CA,9,20.92,見其他登記事項,鋼筋混凝土造,96年2月5日,十三層,四層
RPUNMLPJJIKFFDP56CA,9,34.63,見其他登記事項,鋼筋混凝土造,96年2月5日,十三層,
RPUNMLPJJIKFFDP56CA,9,2.33,見其他登記事項,鋼筋混凝土造,96年2月5日,十三層,
RPWNMLQJJIKFFDP86CA,34,139.22,住家用,加強磚造,70年10月10日,二層,一層 二層 電梯樓梯間
RPUNMLTJJIKFFDP96CA,7,250.05,見其他登記事項,鋼筋混凝土造,97年11月5日,四層,一層 二層 三層 四層 騎樓 見其他登記事項
RPVNMLTJJIKFFDP07CA,8,442.79,見其他登記事項,鋼筋混凝土造,96年8月28日,四層,一層 二層 三層 四層 騎樓
RPTNMLMJKIKFFDP88CA,,169.19,住家用,鋼筋混凝土造,104年5月21日,三層,一層 二層 三層
RPVNMLMJKIKFFDP09CA,,169.11,住家用,鋼筋混凝土造,104年5月21日,三層,一層 二層 三層
RPRNMLOJJIKFFAP48CA,,187.42,住家用,鋼筋混凝土造,104年4月19日,四層,一層 二層 三層 四層
RPTNMLQJJIKFFAP88CA,36,177.00,住家用,見其他登記事項,68年6月19日,三層,一層 二層 三層
RPPNMLRJJIKFFAP58CA,7,755.79,住工用,見其他登記事項,97年7月23日,二層,一層 二層
RPQNMLRJJIKFFAP68CA,12,171.63,見其他登記事項,鋼筋混凝土造,92年12月24日,四層,一層 二層 三層 四層 騎樓
RPXNMLPJJIKFFAP56CA,10,144.44,住家用,鋼筋混凝土造,94年5月10日,三層,一層 二層 三層
RPRNMLQKJIKFFAP78CA,21,99.89,住家用,鋼筋混凝土造,84年3月1日,七層,四層
RPRNMLQKJIKFFAP78CA,21,13.04,共有部份,鋼筋混凝土造,84年3月1日,七層,
RPRNMLQKJIKFFAP78CA,21,18.01,共有部份,鋼筋混凝土造,84年3月1日,七層,
RPPOMLKLJIKFFAP18CA,12,194.71,見其他登記事項,鋼筋混凝土造,92年12月24日,四層,一層 二層 三層 四層
RPRNMLNLJIKFFAP58CA,4,179.75,見其他登記事項,鋼筋混凝土造,101年4月6日,三層,一層 二層 三層 電梯樓梯間
RPWNMLQLJIKFFAP76CA,17,178.00,住家用,鋼筋混凝土造,87年10月30日,十層,四層
RPROMLMLJIKFFBP68CA,,214.16,見其他登記事項,鋼筋混凝土造,104年4月20日,三層,一層 二層 三層 見其他登記事項
RPWNMLMLJIKFFBP09CA,,213.02,見其他登記事項,鋼筋混凝土造,104年4月20日,三層,一層 二層 三層 見其他登記事項
RPQNMLQKJIKFFDP98CA,,182.83,住家用,鋼筋混凝土造,104年6月25日,四層,一層 二層 三層 四層
RPRNMLNKJIKFFCP68CA,28,145.91,住家用,鋼筋混凝土造,76年11月25日,二層,一層 二層 騎樓 電梯樓梯間
RPOQMLTKJIKFFAP56DA,20,188.06,住家用,鋼筋混凝土造,85年1月10日,三層,一層 二層 三層 電梯樓梯間
RPRNMLTJJIKFFAP09DA,34,113.75,住家用,加強磚造,70年11月11日,二層,一層 二層 騎樓
RPQOMLQJJIKFFCP98DA,,410.98,住家用,鋼筋混凝土造,104年6月16日,四層,一層 二層 三層 四層
RPPNMLTJJIKFFAP98EA,36,205.07,住家用,加強磚造,68年9月19日,三層,一層 二層 三層 騎樓
RPWNMLLJKIKFFEP56CA,4,201.37,住家用,鋼筋混凝土造,100年7月20日,三層,一層 二層 三層 見其他登記事項
RPQNMLRJKIKFFEP56CA,16,113.52,見其他登記事項,鋼筋混凝土造,88年6月3日,十層,十層
RPQNMLRJKIKFFEP56CA,16,.29,見其他登記事項,鋼筋混凝土造,88年6月3日,一層,
RPQNMLRJKIKFFEP56CA,16,57.07,見其他登記事項,鋼筋混凝土造,88年6月3日,10,
RPQNMLRJKIKFFEP56CA,16,18.41,見其他登記事項,,88年6月3日,十層,
RPPNMLSJJIKFFAP78DA,24,165.02,住家用,鋼筋混凝土造,81年4月15日,三層,一層 二層 三層 騎樓 電梯樓梯間
RPRNMLQKJIKFFDP09CA,,255.25,見其他登記事項,鋼筋混凝土造,104年6月25日,四層,一層 二層 三層 四層 騎樓
RPTNMLQKJIKFFDP66CA,,183.98,見其他登記事項,鋼筋混凝土造,104年6月25日,四層,一層 二層 三層 四層
RPVNMLQJJIKFFDP76CA,1,252.94,見其他登記事項,鋼筋混凝土造,104年3月13日,二層,一層 二層 地下一層
RPSNMLKKJIKFFDP58CA,9,69.18,見其他登記事項,鋼筋混凝土造,96年2月5日,十一層,五層
RPSNMLKKJIKFFDP58CA,9,50.46,見其他登記事項,鋼筋混凝土造,96年2月5日,十三層,
RPVNMLKKJIKFFDP88CA,26,155.44,住家用,加強磚造,78年11月26日,二層,一層 二層 電梯樓梯間
RPUNMLMJKIKFFDP98CA,,169.11,住家用,鋼筋混凝土造,104年5月21日,三層,一層 二層 三層
RPTNMLRLJIKFFBP66CA,38,206.44,住家用,鋼筋混凝土加強磚造,66年12月8日,三層,一層 二層 三層 騎樓 電梯樓梯間
RPOOMLLKJIKFFAP08CA,2,217.45,見其他登記事項,鋼筋混凝土造,104年5月11日,三層,一層 二層 三層 屋頂突出物
RPWOMLTKJIKFFAP07CA,25,158.79,住商用,,79年6月1日,四層,一層 二層 三層 四層 騎樓 電梯樓梯間
RPTNMLTJJIKFFAP56CA,10,223.38,見其他登記事項,鋼筋混凝土造,94年12月10日,四層,一層 二層 三層 四層 地下層
RPTNMLKKJIKFFDP68CA,34,209.32,住商用,加強磚造,70年10月1日,二層,一層 二層 騎樓 電梯樓梯間
RPPNMLMKJIKFFCP38CA,38,203.26,商業用,加強磚造,66年6月25日,三層,一層 二層 三層 騎樓
RPQNMLMLJIKFFCP58CA,,189.78,見其他登記事項,鋼筋混凝土造,104年8月31日,三層,一層 二層 三層 見其他登記事項
RPSNMLTJJIKFFCP66CA,25,175.56,住家用,見其他登記事項,79年11月29日,三層,一層 二層 三層 電梯樓梯間
RPQNMLKKJIKFFAP18DA,22,187.50,住家用,鋼筋混凝土造,82年5月25日,三層,一層 二層 三層 電梯樓梯間
RPPOMLLKJIKFFDP58DA,14,2407.63,見其他登記事項,見其他登記事項,90年8月3日,一層,一層
RPQNMLKKJIKFFCP28CA,35,86.16,見其他登記事項,見其他登記事項,69年8月15日,二層,一層 二層 騎樓
RPWNMLKKJIKFFDP98CA,16,95.73,住家用,鋼筋混凝土造,88年7月30日,十四層,三層
RPWNMLKKJIKFFDP98CA,16,10.94,見其他登記事項,鋼筋混凝土造,88年7月30日,十四層,
RPWNMLKKJIKFFDP98CA,16,32.74,共有部份,鋼筋混凝土造,88年7月30日,十四層,
RPWNMLKKJIKFFDP98CA,16,1.89,住家用,鋼筋混凝土造,88年7月30日,十四層,
RPOOMLTJJIKFFDP09CA,36,86.10,住商用,加強磚造,68年5月24日,二層,一層 二層 騎樓
RPROMLLKJIKFFDP68CA,2,207.10,見其他登記事項,鋼筋混凝土造,102年11月1日,三層,一層 二層 三層
RPVNMLTJJIKFFAP76CA,1,165.64,住商用,鋼筋混凝土造,103年10月17日,三層,一層 二層 三層
RPUNMLKKJIKFFAP48CA,23,95.81,住家用,鋼筋混凝土造,81年11月1日,六層,六層
RPUNMLKKJIKFFAP48CA,23,33.67,共同部份,鋼筋混凝土造,81年11月1日,六層,
RPQNMLLKJIKFFAP18CA,1,181.58,見其他登記事項,鋼筋混凝土造,103年12月30日,三層,一層 二層 三層 屋頂突出物
RPRNMLLKJIKFFAP28CA,1,144.34,見其他登記事項,鋼筋混凝土造,103年12月30日,三層,一層 二層 三層 屋頂突出物
RPWNMLKKKIKFFAP78CA,,172.06,見其他登記事項,鋼筋混凝土造,104年6月18日,三層,一層 二層 三層 電梯樓梯間
RPXNMLKKKIKFFAP88CA,,172.06,見其他登記事項,鋼筋混凝土造,104年6月18日,三層,一層 二層 三層 電梯樓梯間
RPUNMLKKKIKFFAP58CA,,174.19,見其他登記事項,鋼筋混凝土造,104年6月18日,三層,一層 二層 三層 電梯樓梯間
RPXQMLOLKIKFFAP07CA,9,191.94,住家用,鋼筋混凝土造,96年1月26日,三層,一層 二層 三層 電梯樓梯間
RPSNMLLKJIKFFAP38CA,1,141.25,見其他登記事項,鋼筋混凝土造,103年12月30日,三層,一層 二層 三層 屋頂突出物
RPUNMLLKJIKFFAP58CA,18,28.18,住家用,鋼筋混凝土造,86年5月15日,十六層,五層
RPUNMLLKJIKFFAP58CA,18,4.51,共同部份,鋼筋混凝土造,86年5月15日,十六層,
RPUNMLLKJIKFFAP58CA,18,9.27,共同部份,鋼筋混凝土造,86年5月15日,十六層,
RPXNMLLKJIKFFAP88CA,22,166.21,住家用,鋼筋混凝土造,82年8月23日,三層,一層 二層 三層 電梯樓梯間
RPTNMLQKJIKFFAP98CA,21,117.51,住家用,鋼筋混凝土造,83年9月1日,八層,八層
RPPNMLQKJIKFFAP58CA,16,99.94,住家用,鋼筋混凝土造,88年9月26日,五層,二層 三層
RPPNMLQKJIKFFAP58CA,16,19.15,停車空間,鋼筋混凝土造,88年9月26日,五層,
RPPNMLQKJIKFFAP58CA,16,19.45,共有部份,鋼筋混凝土造,88年9月26日,五層,
RPVNMLLJKIKFFAP68CA,16,177.53,住家用,鋼筋混凝土造,89年4月8日,三層,一層 二層 三層 電梯樓梯間
RPPOMLNLJIKFFBP58CA,20,24.68,住家用,鋼筋混凝土造,84年7月10日,十三層,七層
RPPOMLNLJIKFFBP58CA,20,21.15,共有部份,鋼筋混凝土造,84年7月10日,十三層,
SPPOMLNLJIKFFBP68CA,20,25.28,住家用,鋼筋混凝土造,84年7月10日,十三層,五層
SPPOMLNLJIKFFBP68CA,20,21.15,共有部份,鋼筋混凝土造,84年7月10日,十三層,
RPPNMLRKJIKFFDP09DA,31,98.11,住家用,加強磚造,73年8月1日,四層,一層
RPRNMLMKJIKFFDP68CA,,169.88,住家用,鋼筋混凝土造,104年5月21日,三層,一層 二層 三層
RPSNMLMKJIKFFDP78CA,4,243.69,見其他登記事項,鋼筋混凝土造,100年6月7日,三層,一層 二層 三層 見其他登記事項
RPSNMLNKJIKFFDP88CA,4,207.19,見其他登記事項,鋼筋混凝土造,101年3月29日,三層,一層 二層 三層 電梯樓梯間
RPPNMLMLJIKFFDP58CA,11,183.75,住家用,鋼筋混凝土造,93年12月13日,四層,一層 二層 三層 四層
RPQNMLNJKIKFFDP68CA,21,76.84,農舍,鋼造,84年4月11日,二層,一層 二層
RPQOMLOJKIKFFDP88CA,,202.60,見其他登記事項,鋼筋混凝土造,104年7月9日,三層,一層 二層 三層 屋頂突出物
RPSNMLMKJIKFFBP58CA,20,110.40,住家用,鋼筋混凝土造,85年4月28日,三層,一層 二層 三層
RPWNMLKMJIKFFAP88CA,20,30.32,商業用,鋼筋混凝土造,84年5月13日,十三層,二層
RPWNMLKMJIKFFAP88CA,20,4.96,共有部份,鋼筋混凝土造,84年5月13日,十三層,
RPWNMLKMJIKFFAP88CA,20,9.89,共有部份,鋼筋混凝土造,84年5月13日,十三層,
RPXNMLQLJIKFFAP86CA,1,263.54,見其他登記事項,鋼筋混凝土造,103年10月7日,三層,一層 二層 三層 屋頂突出物
RPPOMLNKJIKFFAP38CA,1,226.43,見其他登記事項,鋼筋混凝土造,104年3月20日,三層,一層 二層 三層 屋頂突出物
RPUNMLMKJIKFFAP68CA,33,76.90,住家用,加強磚造,71年8月2日,二層,一層 二層
RPWNMLMKJIKFFAP88CA,16,110.52,住家用,鋼筋混凝土造,88年9月26日,五層,四層 五層 屋頂突出物
RPWNMLMKJIKFFAP88CA,16,19.15,停車空間,鋼筋混凝土造,88年9月26日,五層,
RPWNMLMKJIKFFAP88CA,16,21.57,共同部份,鋼筋混凝土造,88年9月26日,五層,
RPPNMLNLKIKFFAP48CA,20,150.40,見其他登記事項,鋼筋混凝土造,84年5月13日,十三層,十層
RPPNMLNLKIKFFAP48CA,20,25.51,共同部份,鋼筋混凝土造,84年5月13日,十三層,
RPPNMLNLKIKFFAP48CA,20,71.45,共同部份,鋼筋混凝土造,84年5月13日,十三層,
RPPOMLMKJIKFFAP28CA,2,308.48,見其他登記事項,鋼筋混凝土造,102年5月10日,四層,一層 二層 三層 四層 電梯樓梯間
RPQOMLMKJIKFFAP38CA,2,285.61,見其他登記事項,鋼筋混凝土造,102年5月10日,四層,一層 二層 三層 四層 電梯樓梯間
RPTNMLNLJIKFFAP78CA,21,92.24,住家用,鋼筋混凝土造,83年8月2日,七層,五層
RPTNMLNLJIKFFAP78CA,21,22.82,共有部份,鋼筋混凝土造,83年8月2日,七層,
RPTNMLNLJIKFFAP78CA,21,20.06,共有部份,鋼筋混凝土造,83年8月2日,七層,
RPVNMLQLJIKFFAP66CA,16,110.52,住家用,鋼筋混凝土造,88年9月26日,五層,四層 五層 屋頂突出物
RPVNMLQLJIKFFAP66CA,16,21.57,共有部份,鋼筋混凝土造,88年9月26日,五層,
RPVNMLQLJIKFFAP66CA,16,19.15,停車空間,鋼筋混凝土造,88年9月26日,五層,
RPTNMLOJKIKFFDP09CA,1,190.55,見其他登記事項,鋼筋混凝土造,104年3月11日,三層,一層 二層 三層 電梯樓梯間
RPUNMLOJKIKFFDP56CA,1,191.74,見其他登記事項,鋼筋混凝土造,104年3月11日,三層,一層 二層 三層 電梯樓梯間
RPVNMLOJKIKFFDP66CA,1,193.99,見其他登記事項,鋼筋混凝土造,104年3月11日,三層,一層 二層 三層 電梯樓梯間
RPRNMLRKJIKFFDP56CA,15,147.15,商業用,見其他登記事項,90年4月16日,一層,一層 騎樓
RPQNMLKLJIKFFFP68CA,32,302.29,住家用,見其他登記事項,73年3月12日,四層,一層 二層 三層 四層
RPQNMLPLJIKFFFP56CA,17,39.14,住家用,鋼筋混凝土造,88年1月6日,七層,四層
RPQNMLPLJIKFFFP56CA,17,5.93,見其他登記事項,鋼筋混凝土造,88年1月6日,七層,
RPQNMLPLJIKFFFP56CA,17,5.18,見其他登記事項,鋼筋混凝土造,88年1月6日,七層,
RPPNMLOKJIKFFEP78CA,1,215.09,見其他登記事項,鋼筋混凝土造,103年8月22日,三層,一層 二層 三層 騎樓 見其他登記事項
RPVNMLRKJIKFFBP86DA,23,164.84,住家用,鋼筋混凝土造,81年12月2日,四層,一層 二層 三層 四層
RPWNMLOJKIKFFDP76CA,,193.32,見其他登記事項,鋼筋混凝土造,104年3月11日,三層,一層 二層 三層 電梯樓梯間
RPPNMLLJKIKFFBP18CA,19,93.14,住家用,鋼筋混凝土造,86年4月20日,十三層,八層
RPPNMLLJKIKFFBP18CA,19,31.38,共有部份,鋼筋混凝土造,86年4月20日,十三層,
RPQNMLRKJIKFFAP78CA,35,103.22,住家用,加強磚造,69年9月30日,二層,一層 二層 電梯樓梯間
RPRNMLRKJIKFFAP88CA,9,260.86,見其他登記事項,鋼筋混凝土造,95年7月4日,四層,一層 二層 三層 四層
RPRNMLRKJIKFFAP88CA,9,108.24,共有部份,鋼筋混凝土造,95年7月4日,四層,
RPVNMLRKJIKFFAP66CA,1,239.90,見其他登記事項,鋼筋混凝土造,104年1月6日,三層,一層 二層 三層 屋頂突出物
RPWNMLRKJIKFFAP76CA,22,110.53,商業用,鋼筋混凝土造,83年1月5日,十一層,一層 二層 騎樓
RPWNMLRKJIKFFAP76CA,22,15.22,共有部份,鋼筋混凝土造,83年1月5日,十一層,
RPWNMLRKJIKFFAP76CA,22,8.86,停車空間,鋼筋混凝土造,83年1月5日,十一層,地下層
RPQRMLSKJIKFFAP66CA,33,105.42,住商用,加強磚造,72年4月14日,二層,一層 二層 騎樓 電梯樓梯間
RPRRMLSKJIKFFAP76CA,24,165.02,住家用,鋼筋混凝土造,81年4月15日,三層,一層 二層 三層 騎樓 電梯樓梯間
RPPNMLTKJIKFFAP88CA,34,141.57,住商用,加強磚造,70年8月31日,二層,一層 二層 騎樓 電梯樓梯間
RPTQMLTKJIKFFAP96CA,19,221.68,住家用,鋼筋混凝土造,86年2月2日,四層,一層 二層 三層 四層 電梯樓梯間
RPQOMLKLJIKFFAP28CA,,313.21,見其他登記事項,見其他登記事項,104年9月1日,一層,一層
RPUNMLTLJIKFFAP86CA,22,77.74,住家用,鋼筋混凝土造,83年4月25日,八層,七層
RPUNMLTLJIKFFAP86CA,22,28.49,共有部份,鋼筋混凝土造,83年4月25日,八層,
RPPNMLQLJIKFFDP98CA,,265.35,見其他登記事項,鋼筋混凝土造,104年9月2日,三層,一層 二層 三層 騎樓
RPPNMLSKJIKFFEP56CA,14,192.14,農舍,鋼筋混凝土造,91年4月22日,三層,一層 二層 三層
RPPNMLSKJIKFFEP56CA,14,192.14,農舍,鋼筋混凝土造,91年4月22日,三層,一層 二層 三層
RPRNMLNJKIKFFAP68EA,21,72.24,住家用,鋼筋混凝土造,83年10月15日,七層,六層
RPRNMLNJKIKFFAP68EA,21,29.62,共同部份,鋼筋混凝土造,83年10月15日,七層,
RPSNMLSKJIKFFCP76DA,,189.29,見其他登記事項,鋼筋混凝土造,104年4月14日,三層,一層 二層 三層 見其他登記事項
RPTNMLSKJIKFFCP86DA,1,189.29,見其他登記事項,鋼筋混凝土造,104年4月14日,三層,一層 二層 三層 見其他登記事項
RPPNMLTKJIKFFCP56DA,30,122.06,住家用,加強磚造,74年5月23日,二層,一層 二層 騎樓
RPPNMLTKJIKFFEP66CA,20,128.28,住家用,鋼筋混凝土造,84年5月26日,十二層,十層
RPPNMLTKJIKFFEP66CA,20,2.75,共有部份,鋼筋混凝土造,84年5月26日,,
RPPNMLTKJIKFFEP66CA,20,26.82,共有部份,鋼筋混凝土造,84年5月26日,十二層,
RPPNMLTKJIKFFEP66CA,20,5.82,共有部份,鋼筋混凝土造,84年5月26日,,
RPXQMLSKJIKFFAP37DA,20,126.11,住商用,鋼筋混凝土造,84年6月30日,五層,一層 二層 騎樓
RPXQMLSKJIKFFAP37DA,20,3.00,共有部份,鋼筋混凝土造,84年6月30日,五層,
RPPNMLSKJIKFFDP09CA,9,49.16,住家用,鋼筋混凝土造,95年8月3日,五層,五層
RPPNMLSKJIKFFDP09CA,9,20.89,見其他登記事項,鋼筋混凝土造,95年8月3日,五層,
RPPNMLSKJIKFFDP09CA,9,15.68,見其他登記事項,鋼筋混凝土造,95年8月3日,五層,
RPWQMLTKJIKFFAP27CA,18,9.27,共有部份,鋼筋混凝土造,86年5月15日,十六層,
RPWQMLTKJIKFFAP27CA,18,28.18,住家用,鋼筋混凝土造,86年5月15日,十六層,六層
RPWQMLTKJIKFFAP27CA,18,4.51,共有部份,鋼筋混凝土造,86年5月15日,十六層,
RPPNMLKLJIKFFAP08CA,35,110.09,住家用,加強磚造,70年2月11日,二層,一層 二層 電梯樓梯間
RPSQMLTKJIKFFAP86CA,1,285.56,見其他登記事項,鋼筋混凝土造,103年6月10日,三層,一層 二層 三層 電梯樓梯間 見其他登記事項
RPQNMLKLJIKFFAP18CA,37,102.30,住商用,加強磚造,68年2月15日,二層,一層 二層 騎樓
RPUNMLOLJIKFFAP98CA,10,190.44,住家用,鋼筋混凝土造,94年5月20日,四層,一層 二層 三層 四層
RPSOMLRJKIKFFAP09CA,3,475.95,見其他登記事項,鋼筋混凝土造,101年7月12日,四層,一層 二層 三層 四層 屋頂突出物 地下一層
RPSOMLRJKIKFFAP09CA,3,50.24,見其他登記事項,鋼筋混凝土造,101年7月12日,四層,
RPUOMLMLJIKFFBP98CA,,106.51,見其他登記事項,鋼筋混凝土造,104年4月20日,三層,一層 二層 三層 見其他登記事項
RPUOMLMLJIKFFBP98CA,,106.51,見其他登記事項,鋼筋混凝土造,104年4月20日,三層,一層 二層 三層 見其他登記事項
RPPNMLTKJIKFFDP56CA,17,189.75,住家用,鋼筋混凝土造,87年11月13日,四層,一層 二層 三層 四層
RPQNMLRLJIKFFDP56CA,21,249.09,住家用,鋼筋混凝土造,83年9月13日,三層,一層 二層 三層 電梯樓梯間
RPQNMLSLJIKFFDP66CA,12,183.62,見其他登記事項,鋼筋混凝土造,93年2月6日,四層,一層 二層 三層 四層
RPRNMLSLJIKFFDP76CA,23,99.64,住家用,鋼筋混凝土造,82年2月11日,三層,一層 二層 三層 電梯樓梯間
RPVNMLKLJIKFFDP98CA,34,120.28,住家用,加強磚造,70年12月25日,二層,一層 二層
RPPOMLKLJIKFFDP48CA,10,201.21,住商用,鋼筋混凝土造,94年10月13日,四層,一層 二層 三層 四層
RPTNMLLKKIKFFDP88CA,35,121.98,住家用,加強磚造,69年7月10日,二層,一層 二層
RPXQMLTKJIKFFAP47DA,14,237.06,住商用,鋼筋混凝土造,90年5月15日,四層,一層 二層 三層 四層 騎樓
RPPNMLKLJIKFFBP38EA,39,148.92,住商用,鋼筋混凝土加強磚造,66年4月26日,二層,一層 二層 騎樓 電梯樓梯間
RPUNMLLJKIKFFEP09DA,20,313.06,農舍,鋼筋混凝土造,84年5月13日,三層,一層 二層 三層
RPSNMLNLJIKFFCP98DA,4,141.49,住家用,鋼筋混凝土造,101年1月18日,三層,一層 二層 三層
RPRNMLQLJIKFFEP66CA,16,202.13,住商用,鋼筋混凝土造,89年3月31日,三層,一層 二層 三層 電梯樓梯間
RPQNMLNLJIKFFAP58DA,27,347.29,見其他登記事項,見其他登記事項,77年7月16日,一層,一層
RPSNMLOLJIKFFAP88DA,43,82.11,住家用,鋼筋混凝土加強磚造,61年10月30日,三層,一層 二層 三層
RPQNMLOJKIKFFBP58CA,16,78.86,住家用,鋼筋混凝土造,88年7月10日,八層,四層
RPQNMLOJKIKFFBP58CA,16,8.91,共有部份,鋼筋混凝土造,88年7月10日,八層,
RPQNMLOJKIKFFBP58CA,16,12.06,共有部份,鋼筋混凝土造,88年7月10日,八層,
RPPNMLPKKIKFFCP78CA,1,194.60,住家用,鋼筋混凝土造,103年12月3日,三層,一層 二層 三層
RPRNMLKLJIKFFBP38CA,34,50.18,住家用,加強磚造,70年4月30日,二層,一層 二層 騎樓
RPRNMLKLJIKFFBP38CA,34,50.18,住家用,加強磚造,70年4月30日,二層,一層 二層 騎樓
RPVNMLTLJIKFFAP96CA,1,226.46,見其他登記事項,鋼筋混凝土造,103年12月25日,四層,一層 二層 三層 四層
RPWNMLKLJIKFFAP78CA,18,41.11,共有部份,鋼筋混凝土造,86年11月21日,七層,
RPWNMLKLJIKFFAP78CA,18,159.82,住家用,鋼筋混凝土造,86年11月21日,七層,二層
RPWNMLKLJIKFFAP78CA,18,14.31,共有部份,鋼筋混凝土造,86年11月21日,七層,
RPVNMLNLJIKFFAP98CA,4,293.72,見其他登記事項,鋼筋混凝土造,100年4月26日,四層,一層 二層 三層 四層 地下一層
RPVNMLNLJIKFFAP98CA,4,3.71,見其他登記事項,鋼筋混凝土造,100年4月26日,,
RPWNMLOLJIKFFAP56CA,18,103.53,住家用,鋼筋混凝土造,86年5月15日,十六層,十層
RPWNMLOLJIKFFAP56CA,18,25.05,共有部份,鋼筋混凝土造,86年5月15日,十六層,
RPWNMLOLJIKFFAP56CA,18,17.94,共有部份,鋼筋混凝土造,86年5月15日,十六層,
RPPNMLMJKIKFFBP28CA,2,225.01,見其他登記事項,鋼筋混凝土造,102年12月25日,三層,一層 二層 三層 見其他登記事項
RPSNMLRJKIKFFBP09CA,16,597.70,見其他登記事項,加強磚造,89年2月10日,二層,一層 二層 電梯樓梯間
RPSNMLPLJIKFFDP56CA,22,106.80,商業用,鋼筋混凝土造,82年6月14日,九層,二層
RPSNMLPLJIKFFDP56CA,22,106.71,商業用,鋼筋混凝土造,82年6月14日,九層,二層
RPSNMLPLJIKFFDP56CA,22,26.15,共有部份,鋼筋混凝土造,82年6月14日,九層,
RPSNMLPLJIKFFDP56CA,22,26.15,共有部份,鋼筋混凝土造,82年6月14日,九層,
RPTNMLPLJIKFFDP66CA,21,170.03,住商用,鋼筋混凝土造,83年9月29日,三層,一層 二層 三層 電梯樓梯間
RPSNMLSKKIKFFDP86CA,43,83.17,住家用,加強磚造,62年3月15日,二層,一層 二層
RPQNMLMLJIKFFEP78CA,1,215.09,見其他登記事項,鋼筋混凝土造,103年8月22日,三層,一層 二層 三層 騎樓 見其他登記事項
RPQNMLOLJIKFFEP09DA,15,220.74,住家用,鋼筋混凝土造,89年12月14日,三層,一層 二層 三層
RPPNMLLJKIKFFFP68DA,,212.97,見其他登記事項,鋼筋混凝土造,104年7月16日,三層,一層 二層 三層
RPQNMLOLJIKFFFP56DA,,218.37,見其他登記事項,鋼筋混凝土造,104年7月16日,三層,一層 二層 三層
RPSNMLOLJIKFFFP76DA,,212.97,見其他登記事項,鋼筋混凝土造,104年7月16日,三層,一層 二層 三層
RPTNMLOLJIKFFFP86DA,,239.04,見其他登記事項,鋼筋混凝土造,104年7月16日,三層,一層 二層 三層 見其他登記事項
RPPNMLPLJIKFFCP98EA,17,200.62,住商用,鋼筋混凝土造,87年5月14日,四層,一層 二層 三層 四層 騎樓
RPVNMLRLJIKFFAP86DA,35,158.10,住家用,加強磚造,69年12月10日,二層,一層 二層 電梯樓梯間
RPVNMLRLJIKFFAP86DA,35,147.63,住家用,加強磚造,69年12月10日,二層,一層 二層 電梯樓梯間
RPXNMLOJKIKFFDP86CA,1,191.74,見其他登記事項,鋼筋混凝土造,104年3月11日,三層,一層 二層 三層 電梯樓梯間
RPOOMLOJKIKFFDP68CA,1,193.32,見其他登記事項,鋼筋混凝土造,104年3月11日,三層,一層 二層 三層 電梯樓梯間
RPQNMLQLJIKFFDP09CA,35,107.40,住商用,加強磚造,69年8月20日,二層,一層 二層 騎樓
RPTNMLSLJIKFFDP96CA,21,100.81,住家用,鋼筋混凝土造,83年11月28日,十層,六層
RPTNMLSLJIKFFDP96CA,21,16.87,共有部份,鋼筋混凝土造,83年11月28日,十層,
RPTNMLSLJIKFFDP96CA,21,8.58,共有部份,鋼筋混凝土造,83年11月28日,十層,
RPTNMLSLJIKFFDP96CA,21,1.06,共有部份,鋼筋混凝土造,83年11月28日,十層,
RPTNMLLJKIKFFDP78CA,38,121.84,住商用,加強磚造,67年3月8日,二層,一層 二層
RPXNMLOLJIKFFAP66CA,9,240.55,住商用,鋼筋混凝土造,95年11月20日,四層,一層 二層 三層 四層
RPVOMLOLJIKFFAP56CA,35,179.44,住商用,鋼筋混凝土造,70年2月10日,三層,一層 二層 三層 騎樓 電梯樓梯間
RPSNMLQLJIKFFAP98CA,20,208.00,住商用,鋼筋混凝土造,84年9月1日,四層,一層 二層 三層 四層 騎樓 電梯樓梯間
RPWNMLTLJIKFFAP07CA,21,31.20,住家用,鋼筋混凝土造,83年9月18日,十四層,八層
RPWNMLTLJIKFFAP07CA,21,12.31,共有部份,鋼筋混凝土造,83年9月18日,十四層,
RPRNMLSJKIKFFAP98CA,21,87.24,住家用,鋼筋混凝土造,83年6月15日,十一層,十層
RPRNMLSJKIKFFAP98CA,21,10.13,共同部份,鋼筋混凝土造,83年6月15日,,
RPRNMLSJKIKFFAP98CA,21,13.48,共同部份,鋼筋混凝土造,83年6月15日,十一層,
RPWNMLRLJIKFFAP86CA,2,345.91,見其他登記事項,鋼筋混凝土造,102年10月12日,四層,一層 二層 三層 四層
RPRNMLRLJIKFFAP98CA,36,124.53,住商用,加強磚造,68年12月31日,二層,一層 二層 騎樓 電梯樓梯間
RPRNMLQLJIKFFAP88CA,36,91.34,住家用,加強磚造,68年12月24日,二層,一層 二層
RPTNMLLJKIKFFAP48CA,26,83.94,住家用,磚造,78年9月26日,一層,一層
RPSNMLRLJIKFFBP56CA,22,58.94,住家用,鋼筋混凝土造,83年1月22日,九層,六層
RPSNMLRLJIKFFBP56CA,22,7.41,見其他登記事項,鋼筋混凝土造,83年1月22日,九層,
RPSNMLRLJIKFFBP56CA,22,.57,共有部份,鋼筋混凝土造,83年1月21日,,
RPSNMLRLJIKFFBP56CA,22,.75,共有部份,鋼筋混凝土造,83年1月21日,,
RPSNMLRLJIKFFBP56CA,22,1.62,共有部份,鋼筋混凝土造,83年1月21日,,
RPSNMLRLJIKFFBP56CA,22,.49,共有部份,鋼筋混凝土造,83年1月21日,,
RPSNMLRLJIKFFBP56CA,22,5.20,共有部份,鋼筋混凝土造,83年1月21日,,
RPXNMLPLJIKFFDP07CA,35,109.99,住商用,加強磚造,69年8月18日,二層,一層 二層 騎樓
RPQNMLNJKIKFFBP68EA,22,95.66,住家用,鋼筋混凝土造,83年4月30日,十層,七層
RPQNMLNJKIKFFBP68EA,22,13.41,共有部份,鋼筋混凝土造,83年4月30日,地下二層,
RPQNMLNJKIKFFBP68EA,22,23.35,共有部份,鋼筋混凝土造,83年4月30日,十層,
RPQOMLSKKIKFFAP66EA,20,161.01,住家用,鋼筋混凝土造,85年3月2日,三層,一層 二層 三層
RPPNMLKMJIKFFFP88EA,8,224.14,見其他登記事項,見其他登記事項,96年11月16日,四層,一層 二層 三層 四層 見其他登記事項
RPXNMLOLKIKFFEP27DA,40,692.90,見其他登記事項,鐵造,65年4月22日,一層,一層 防空避難室
RPQNMLTJKIKFFDP66CA,,192.21,住家用,鋼筋混凝土造,104年9月2日,四層,一層 二層 三層 四層
RPRNMLTJKIKFFDP76CA,,176.44,見其他登記事項,鋼筋混凝土造,104年9月2日,三層,一層 二層 三層 見其他登記事項
RPSNMLTJKIKFFDP86CA,,192.60,住家用,鋼筋混凝土造,104年9月2日,四層,一層 二層 三層 四層
RPTNMLTJKIKFFDP96CA,,317.21,見其他登記事項,鋼筋混凝土造,104年9月2日,四層,一層 二層 三層 四層 騎樓
RPUNMLTJKIKFFDP07CA,,192.60,住家用,鋼筋混凝土造,104年9月2日,四層,一層 二層 三層 四層
RPPNMLKKKIKFFDP38CA,,176.44,見其他登記事項,鋼筋混凝土造,104年9月2日,三層,一層 二層 三層 見其他登記事項
RPQNMLKKKIKFFDP48CA,,176.44,見其他登記事項,鋼筋混凝土造,104年9月2日,三層,一層 二層 三層 見其他登記事項
RPRNMLKKKIKFFDP58CA,,176.44,見其他登記事項,鋼筋混凝土造,104年9月2日,三層,一層 二層 三層 見其他登記事項
RPSNMLKKKIKFFDP68CA,,176.44,見其他登記事項,鋼筋混凝土造,104年9月2日,三層,一層 二層 三層 見其他登記事項
RPQNMLKMJIKFFBP38CA,,106.51,見其他登記事項,鋼筋混凝土造,104年4月20日,三層,一層 二層 三層 見其他登記事項
RPQNMLKMJIKFFBP38CA,,106.51,見其他登記事項,鋼筋混凝土造,104年4月20日,三層,一層 二層 三層 見其他登記事項
RPRNMLRLJIKFFBP09CA,35,109.12,住商用,加強磚造,69年10月10日,二層,一層 二層 騎樓
RPRNMLMLKIKFFAP58CA,17,193.47,住家用,鋼筋混凝土造,87年5月6日,4,一層 二層 三層 四層
RPVNMLLKKIKFFAP78CA,16,99.94,住家用,鋼筋混凝土造,88年9月26日,五層,二層 三層
RPVNMLLKKIKFFAP78CA,16,19.15,停車空間,鋼筋混凝土造,88年9月26日,五層,
RPVNMLLKKIKFFAP78CA,16,19.45,共同部份,鋼筋混凝土造,88年9月26日,五層,
RPVNMLKKKIKFFAP68CA,61,69.61,商業用,鋼筋混凝土加強磚造,44年5月1日,一層,一層 騎樓
RPRNMLKMJIKFFAP38CA,24,128.72,住家用,加強磚造,80年9月20日,二層,一層 二層 電梯樓梯間
RPQNMLLJKIKFFAP18CA,1,178.50,見其他登記事項,鋼筋混凝土造,103年12月30日,三層,一層 二層 三層 屋頂突出物
RPVNMLOJKIKFFAP98CA,21,158.91,住家用,鋼筋混凝土造,83年5月5日,五層,五層
RPPNMLSLJIKFFBP98CA,20,220.29,見其他登記事項,鋼筋混凝土造,84年11月18日,三層,一層 二層 三層
RPSNMLKKKIKFFBP48CA,36,111.19,住商用,加強磚造,68年9月20日,二層,一層 二層 騎樓
RPQNMLNLKIKFFDP88CA,16,104.92,住家用,鋼筋混凝土造,88年7月30日,十四層,五層
RPQNMLNLKIKFFDP88CA,16,35.50,共有部份,鋼筋混凝土造,88年7月30日,十四層,
RPQNMLNLKIKFFDP88CA,16,2.01,住家用,鋼筋混凝土造,88年7月30日,十四層,
RPQNMLNLKIKFFDP88CA,16,15.32,見其他登記事項,鋼筋混凝土造,88年7月30日,十四層,
RPQNMLQLKIKFFDP56CA,,182.83,見其他登記事項,鋼筋混凝土造,104年6月25日,四層,一層 二層 三層 四層
RPRNMLPKKIKFFDP09CA,,177.20,見其他登記事項,鋼筋混凝土造,104年9月2日,三層,一層 二層 三層 見其他登記事項
RPSNMLPKKIKFFDP56CA,,177.20,見其他登記事項,鋼筋混凝土造,104年9月2日,三層,一層 二層 三層 見其他登記事項
RPTNMLPKKIKFFDP66CA,,177.54,見其他登記事項,鋼筋混凝土造,104年9月2日,三層,一層 二層 三層 見其他登記事項
RPUNMLPKKIKFFDP76CA,,177.20,見其他登記事項,鋼筋混凝土造,104年9月2日,三層,一層 二層 三層 見其他登記事項
RPVNMLPKKIKFFDP86CA,,177.20,見其他登記事項,鋼筋混凝土造,104年9月2日,三層,一層 二層 三層 見其他登記事項
RPWNMLPKKIKFFDP96CA,,177.20,見其他登記事項,鋼筋混凝土造,104年9月2日,三層,一層 二層 三層 見其他登記事項
RPXNMLPKKIKFFDP07CA,,176.44,見其他登記事項,鋼筋混凝土造,104年9月2日,三層,一層 二層 三層 見其他登記事項
RPOOMLPKKIKFFDP88CA,,177.54,見其他登記事項,鋼筋混凝土造,104年9月2日,三層,一層 二層 三層 見其他登記事項
RPPNMLPKKIKFFDP88CA,,177.20,見其他登記事項,鋼筋混凝土造,104年9月2日,三層,一層 二層 三層 見其他登記事項
RPUNMLTLKIKFFDP27CA,,183.98,見其他登記事項,鋼筋混凝土造,104年6月25日,四層,一層 二層 三層 四層
RPQNMLTJKIKFFAP09DA,1,188.68,見其他登記事項,鋼筋混凝土造,104年1月20日,三層,一層 二層 三層 屋頂突出物
RPPNMLLJKIKFFCP38DA,35,123.43,住商用,加強磚造,69年8月7日,二層,一層 二層 騎樓
RPQNMLLJKIKFFCP48DA,20,174.92,住家用,鋼筋混凝土造,84年11月21日,三層,一層 二層 三層 電梯樓梯間
RPPNMLRLJIKFFFP76DA,,116.60,見其他登記事項,鋼筋混凝土造,104年5月12日,三層,騎樓 見其他登記事項
RPQNMLRLJIKFFFP86DA,,116.60,見其他登記事項,鋼筋混凝土造,104年5月12日,三層,騎樓 見其他登記事項
RPXNMLKMJIKFFEP86DA,22,205.85,住家用,鋼筋混凝土造,83年3月19日,四層,一層 二層 三層 四層
RPSNMLNJKIKFFEP98CA,91,197.88,住商用,磚造,13年7月1日,三層,一層 二層 三層 騎樓
RPQPMLNJKIKFFAP68DA,35,147.01,住商用,見其他登記事項,70年2月25日,二層,一層 二層 騎樓 電梯樓梯間
RPTNMLPLKIKFFDP76CA,14,238.23,住商用,鋼筋混凝土造,91年1月9日,四層,一層 二層 三層 四層 水箱 見其他登記事項
RPTNMLPLKIKFFDP76CA,14,19.20,共有部份,鋼筋混凝土造,91年1月9日,四層,
RPPOMLPKKIKFFDP98CA,,176.84,見其他登記事項,鋼筋混凝土造,104年9月2日,三層,一層 二層 三層 見其他登記事項
RPRNMLQLKIKFFDP66CA,,206.12,見其他登記事項,鋼筋混凝土造,104年6月25日,四層,一層 二層 三層 四層
RPRNMLNJKIKFFDP78CA,13,151.04,住家用,鋼筋混凝土造,91年12月9日,四層,一層 二層 三層 四層
RPOOMLKMJIKFFAP18CA,16,109.50,住家用,鋼筋混凝土造,88年9月26日,五層,四層 五層 屋頂突出物
RPOOMLKMJIKFFAP18CA,16,21.25,共有部份,鋼筋混凝土造,88年9月26日,五層,
RPQNMLKMJIKFFAP28CA,1,165.64,住商用,鋼筋混凝土造,103年10月17日,三層,一層 二層 三層
RPUNMLLJKIKFFAP58CA,12,18.27,住家用,鋼筋混凝土造,93年3月26日,五層,四層
RPUNMLLJKIKFFAP58CA,12,12.45,共有部份,鋼筋混凝土造,93年3月26日,五層,
RPXNMLMJKIKFFAP98CA,36,72.00,住家用,鋼筋混凝土加強磚造,69年2月16日,二層,一層 二層
RPXNMLOJKIKFFAP56CA,2,260.85,見其他登記事項,鋼筋混凝土造,104年3月20日,四層,一層 二層 三層 四層
RPRNMLKLKIKFFDP68CA,21,168.77,住家用,鋼筋混凝土造,83年9月15日,三層,一層 二層 三層
RPXNMLTLKIKFFEP67CA,,201.39,住家用,鋼筋混凝土造,104年9月15日,三層,一層 二層 三層 屋頂突出物
RPPOMLTLKIKFFEP96CA,,201.39,住家用,鋼筋混凝土造,104年9月15日,三層,一層 二層 三層 屋頂突出物
RPROMLTLKIKFFEP17CA,,201.39,住家用,鋼筋混凝土造,104年9月15日,三層,一層 二層 三層 屋頂突出物
RPTNMLSKKIKFFEP17DA,21,160.85,住家用,鋼筋混凝土造,84年4月18日,三層,一層 二層 三層
RPWNMLNJKIKFFCP66DA,33,169.78,住商用,見其他登記事項,71年12月2日,三層,一層 二層 三層 騎樓 電梯樓梯間
RPQNMLNJKIKFFCP68DA,1,189.29,見其他登記事項,鋼筋混凝土造,104年4月14日,三層,一層 二層 三層 見其他登記事項
RPRNMLNJKIKFFCP78DA,1,189.29,見其他登記事項,鋼筋混凝土造,104年4月14日,三層,一層 二層 三層 見其他登記事項
RPSNMLNJKIKFFCP88DA,1,189.29,見其他登記事項,鋼筋混凝土造,104年4月14日,三層,一層 二層 三層 見其他登記事項
RPUNMLMJKIKFFAP88EA,35,167.84,住家用,加強磚造,69年5月30日,二層,一層 二層 騎樓 電梯樓梯間
RPSOMLTLKIKFFEP27CA,,201.39,住家用,鋼筋混凝土造,104年9月15日,三層,一層 二層 三層 屋頂突出物
RPTOMLTLKIKFFEP37CA,,255.54,住家用,鋼筋混凝土造,104年9月15日,三層,一層 二層 三層 屋頂突出物
RPUOMLTLKIKFFEP47CA,,175.46,住家用,鋼筋混凝土造,104年9月15日,三層,一層 二層 三層 屋頂突出物
RPWNMLTLKIKFFEP57CA,,230.78,住家用,鋼筋混凝土造,104年9月15日,三層,一層 二層 三層 屋頂突出物
RPXNMLPKKIKFFAP86DA,12,18.97,住家用,鋼筋混凝土造,93年3月26日,五層,五層
RPXNMLPKKIKFFAP86DA,12,19.30,住家用,鋼筋混凝土造,93年3月26日,五層,五層
RPXNMLPKKIKFFAP86DA,12,24.90,共同部份,鋼筋混凝土造,93年3月26日,五層,
RPQNMLMJKIKFFBP48DA,21,74.36,住家用,鋼筋混凝土造,84年3月16日,十二層,十二層
RPQNMLMJKIKFFBP48DA,21,21.00,共用部份,鋼筋混凝土造,84年3月16日,,
RPPNMLTKKIKFFFP86CA,8,184.00,見其他登記事項,見其他登記事項,97年3月18日,三層,一層 二層 三層 見其他登記事項
RPQOMLPKKIKFFDP09CA,,176.84,見其他登記事項,鋼筋混凝土造,104年9月2日,三層,一層 二層 三層 見其他登記事項
RPROMLPKKIKFFDP56CA,,176.44,見其他登記事項,鋼筋混凝土造,104年9月2日,三層,一層 二層 三層 見其他登記事項
RPWNMLMJKIKFFDP56CA,22,177.32,住家用,鋼筋混凝土造,83年1月21日,三層,一層 二層 三層
RPXNMLTLKIKFFDP57CA,,169.11,住家用,鋼筋混凝土造,104年5月21日,三層,一層 二層 三層
RPPOMLOJKIKFFAP48CA,8,233.74,住家用,鋼筋混凝土造,96年7月10日,三層,一層 二層 三層 電梯樓梯間
RPSNMLMJKIKFFAP48CA,22,170.39,住家用,鋼筋混凝土造,82年10月10日,三層,一層 二層 三層
RPTNMLMJKIKFFAP58CA,19,83.21,住家用,鋼筋混凝土造,86年5月15日,十六層,七層
RPTNMLMJKIKFFAP58CA,19,13.26,共有部份,鋼筋混凝土造,86年5月15日,十六層,
RPTNMLMJKIKFFAP58CA,19,14.44,共有部份,鋼筋混凝土造,86年5月15日,十六層,
RPWNMLMJKIKFFAP88CA,21,598.27,住家用,鋼筋混凝土造,83年9月5日,五層,一層 二層 三層 四層 五層 屋頂突出物
RPOOMLOKKIKFFAP48CA,6,9.79,見其他登記事項,鋼筋混凝土造,99年2月23日,七層,二層
RPOOMLOKKIKFFAP48CA,6,.90,見其他登記事項,鋼筋混凝土造,99年2月23日,七層,
RPOOMLOKKIKFFAP48CA,6,4.86,見其他登記事項,鋼筋混凝土造,99年2月23日,七層,
RPRQMLMLKIKFFAP88CA,22,1200.00,工業用,見其他登記事項,82年8月30日,一層,一層
RPRQMLMLKIKFFAP88CA,21,256.00,,鋼筋混凝土造,83年11月28日,二層,一層 二層
RPUNMLSKKIKFFAP76CA,19,26.25,住家用,鋼筋混凝土造,86年5月15日,十六層,三層
RPUNMLSKKIKFFAP76CA,19,4.24,共同部份,鋼筋混凝土造,86年5月15日,十六層,
RPUNMLSKKIKFFAP76CA,19,8.16,共同部份,鋼筋混凝土造,86年5月15日,十六層,
RPOOMLSLKIKFFAP98CA,7,144.98,見其他登記事項,鋼筋混凝土造,98年2月5日,三層,一層 二層 三層 電梯樓梯間
RPQNMLRJKIKFFAP78CA,38,185.90,住商用,加強磚造,66年11月29日,二層,一層 二層 騎樓
RPUOMLNLKIKFFAP09CA,21,31.20,住家用,鋼筋混凝土造,83年9月18日,十四層,十三層
RPUOMLNLKIKFFAP09CA,21,12.31,共同部份,鋼筋混凝土造,83年9月18日,十四層,
RPQNMLQJKIKFFAP68CA,22,222.34,住家用,鋼筋混凝土造,83年1月23日,三層,一層 二層 三層 電梯樓梯間
RPUNMLMJKIKFFCP88CA,1,218.96,見其他登記事項,鋼筋混凝土造,104年5月4日,三層,一層 二層 三層 見其他登記事項
RPOOMLTLKIKFFDP76CA,1,220.23,住家用,鋼筋混凝土造,104年7月9日,四層,一層 二層 三層 四層
RPTOMLTLKIKFFDP27CA,,202.60,見其他登記事項,鋼筋混凝土造,104年7月9日,三層,一層 二層 三層 屋頂突出物
RPXNMLRJKIKFFDP17CA,19,241.71,住家用,鋼筋混凝土造,85年11月15日,四層,一層 二層 三層 四層 地下層
RPXOMLPKKIKFFAP96DA,21,192.30,住家用,鋼筋混凝土造,83年8月15日,三層,一層 二層 三層 騎樓 電梯樓梯間
RPTNMLOJKIKFFEP56CA,11,318.51,住商用,鋼筋混凝土造,94年1月19日,三層,一層 二層 三層 電梯樓梯間
RPQOMLOJKIKFFAP78EA,4,450.17,住家用,鋼筋混凝土造,101年3月29日,五層,一層 二層 三層 四層 五層
RPPOMLOJKIKFFEP98DA,22,98.14,住家用,鋼筋混凝土造,83年3月23日,七層,五層
RPPOMLOJKIKFFEP98DA,22,21.79,停車空間,鋼筋混凝土造,83年3月23日,十層,地下層
RPPOMLOJKIKFFEP98DA,22,42.99,共有部份,鋼筋混凝土造,83年3月23日,十層,
RPROMLLMKIKFFEP09CA,,175.46,住家用,鋼筋混凝土造,104年9月15日,三層,一層 二層 三層 屋頂突出物
RPSOMLLMKIKFFEP56CA,,258.89,住家用,鋼筋混凝土造,104年9月15日,三層,一層 二層 三層 屋頂突出物
RPSNMLOLKIKFFFP76CA,10,3263.34,見其他登記事項,見其他登記事項,94年6月24日,一層,見其他登記事項
RPPOMLRJKIKFFDP09CA,20,97.37,住家用,鋼筋混凝土造,85年5月11日,六層,四層
RPPOMLRJKIKFFDP09CA,20,18.47,共有部份,鋼筋混凝土造,85年5月11日,六層,
RPPOMLRJKIKFFDP09CA,20,7.30,共有部份,鋼筋混凝土造,85年5月11日,六層,
RPOOMLOLKIKFFDP88CA,,197.58,見其他登記事項,鋼筋混凝土造,104年10月2日,四層,一層 二層 三層 四層 見其他登記事項
RPROMLOLKIKFFDP56CA,,204.90,見其他登記事項,鋼筋混凝土造,104年10月2日,四層,一層 二層 三層 四層 見其他登記事項
RPUNMLNJKIKFFAP78CA,7,48.60,見其他登記事項,鋼筋混凝土造,97年11月1日,十層,九層
RPUNMLNJKIKFFAP78CA,7,17.10,共有部份,鋼筋混凝土造,97年11月1日,十層,
RPUNMLNJKIKFFAP78CA,7,9.42,共有部份,鋼筋混凝土造,97年11月1日,十層,
RPUNMLNJKIKFFAP78CA,7,4.27,共有部份,鋼筋混凝土造,97年11月1日,十層,
RPQNMLLKKIKFFAP28CA,19,26.25,住家用,鋼筋混凝土造,86年5月15日,十六層,四層
RPQNMLLKKIKFFAP28CA,19,4.24,共同部份,鋼筋混凝土造,86年5月15日,十六層,
RPQNMLLKKIKFFAP28CA,19,8.63,共同部份,鋼筋混凝土造,86年5月15日,十六層,
RPWOMLLMKIKFFAP56CA,1,177.42,住家用,鋼筋混凝土造,104年4月16日,三層,一層 二層 三層
RPPNMLLJJHLFFAP97CA,32,101.04,住家用,加強磚造,72年5月18日,二層,一層 二層 電梯樓梯間
RPPNMLNJJHLFFAP18CA,42,128.34,住家用,加強磚造,62年6月15日,二層,一層 二層
RPRPMLLMKIKFFAP78CA,9,229.63,住家用,鋼筋混凝土造,96年3月23日,三層,一層 二層 三層 電梯樓梯間
RPRNMLPKKIKFFAP78CA,23,34.02,住家用,鋼筋混凝土造,82年4月24日,七層,四層
RPRNMLPKKIKFFAP78CA,23,11.98,共有部份,鋼筋混凝土造,82年4月24日,七層,
RPWNMLPKKIKFFAP66CA,1,169.41,住家用,鋼筋混凝土造,103年8月15日,三層,一層 二層 三層
RPVOMLSJKIKFFAP86CA,1,178.19,住家用,鋼筋混凝土造,103年11月30日,三層,一層 二層 三層
RPTOMLSJKIKFFAP66CA,1,234.72,見其他登記事項,鋼筋混凝土造,104年3月20日,三層,一層 二層 三層 屋頂突出物
RPQOMLSJKIKFFAP98CA,,174.82,住家用,鋼筋混凝土造,104年5月7日,四層,一層 二層 三層 四層
RPROMLSJKIKFFAP09CA,,197.68,住家用,鋼筋混凝土造,104年5月7日,四層,一層 二層 三層 四層
RPVNMLTJKIKFFAP86CA,38,118.80,住家用,加強磚造,66年6月1日,二層,一層 二層
RPVNMLOJJHLFFDP56CA,36,95.58,住家用,加強磚造,68年5月21日,二層,一層 二層
RPQNMLRJKIKFFDP09CA,21,116.57,住家用,鋼筋混凝土造,83年11月28日,十層,九層
RPQNMLRJKIKFFDP09CA,21,19.32,共有部份,鋼筋混凝土造,83年11月28日,十層,
RPQNMLRJKIKFFDP09CA,21,9.83,共有部份,鋼筋混凝土造,83年11月28日,十層,
RPQNMLRJKIKFFDP09CA,21,1.22,共有部份,鋼筋混凝土造,83年11月28日,十層,
RPPNMLTJKIKFFFP76CA,15,153.70,住商用,鋼筋混凝土造,90年4月25日,三層,一層 二層 三層 騎樓
RPPNMLPKKIKFFAP68DA,34,110.90,住家用,加強磚造,71年2月25日,二層,一層 二層 騎樓 電梯樓梯間
RPPNMLLLKIKFFEP68CA,9,204.46,住家用,鋼筋混凝土造,95年12月14日,四層,一層 二層 三層 四層
RPXNMLOJKIKFFEP96CA,31,167.06,住家用,鋼筋混凝土造,73年8月26日,三層,一層 二層 三層 電梯樓梯間
RPUNMLOKKIKFFDP76DA,39,219.15,住商用,加強磚造,65年9月18日,三層,一層 二層 三層 騎樓
RPRNMLTLKIKFFDP07DA,23,129.33,住家用,鋼筋混凝土造,81年6月1日,五層,二層
RPRNMLTLKIKFFDP07DA,23,16.83,共有部份,鋼筋混凝土造,81年6月1日,五層,
RPSNMLTJKIKFFCP86DA,34,108.88,住商用,加強磚造,71年4月17日,二層,一層 二層 騎樓
RPQNMLLLKIKFFEP78CA,9,204.46,住家用,鋼筋混凝土造,95年12月14日,四層,一層 二層 三層 四層
RPTOMLLMKIKFFEP66CA,,227.91,住家用,鋼筋混凝土造,104年9月15日,三層,一層 二層 三層 屋頂突出物
RPUOMLLMKIKFFEP76CA,,227.82,住家用,鋼筋混凝土造,104年9月15日,三層,一層 二層 三層 屋頂突出物
RPVOMLLMKIKFFEP86CA,,184.58,住家用,鋼筋混凝土造,104年9月15日,四層,一層 二層 三層 四層
RPUNMLPJJHLFFEP66CA,,198.11,住家用,鋼筋混凝土造,104年9月15日,三層,一層 二層 三層
RPVNMLPJJHLFFEP76CA,,227.91,住家用,鋼筋混凝土造,104年9月15日,三層,一層 二層 三層 屋頂突出物
RPXOMLLMKIKFFEP07CA,,352.81,住家用,鋼筋混凝土造,104年9月15日,三層,一層 二層 三層
RPVNMLTJKIKFFCP07CA,1,244.06,見其他登記事項,鋼筋混凝土造,104年2月6日,四層,見其他登記事項
RPSOMLTLKIKFFBP96CA,21,203.72,住商用,鋼筋混凝土造,84年1月14日,三層,一層 二層 三層 電梯樓梯間 地下層
RPOOMLSJKIKFFAP78CA,23,147.11,住商用,鋼筋混凝土造,81年11月4日,三層,一層 二層 三層 騎樓 電梯樓梯間
RPSNMLSJKIKFFAP09CA,33,136.86,住商用,加強磚造,71年7月28日,二層,一層 二層 騎樓 電梯樓梯間
RPTNMLPKKIKFFAP98CA,17,25.24,住家用,鋼筋混凝土造,87年10月30日,十層,七層
RPTNMLPKKIKFFAP98CA,17,8.10,共有部份,鋼筋混凝土造,87年10月30日,十層,
RPTNMLPKKIKFFAP98CA,17,5.03,共有部份,鋼筋混凝土造,87年10月30日,十層,
RPQNMLNJJHLFFAP28CA,22,107.62,住家用,鋼筋混凝土造,83年3月21日,六層,六層
RPQNMLNJJHLFFAP28CA,22,16.40,共有部份,鋼筋混凝土造,83年3月21日,六層,
RPQNMLNJJHLFFAP28CA,22,12.03,共有部份,鋼筋混凝土造,83年3月21日,六層,
RPSNMLNJJHLFFAP48CA,23,88.12,住家用,鋼筋混凝土造,82年3月20日,四層,三層
RPSNMLNJJHLFFAP48CA,23,13.09,共有部份,鋼筋混凝土造,82年3月20日,四層,
RPTNMLSLKIKFFAP76CA,1,263.54,見其他登記事項,鋼筋混凝土造,103年10月7日,三層,一層 二層 三層 屋頂突出物
RPSNMLKKKIKFFAP38CA,21,84.65,住家用,鋼筋混凝土造,83年8月7日,七層,七層
RPSNMLKKKIKFFAP38CA,21,19.20,共同部份,鋼筋混凝土造,83年8月7日,,
RPSNMLKKKIKFFAP38CA,21,15.50,共同部份,鋼筋混凝土造,83年8月7日,七層,
RPRNMLRKKIKFFAP98CA,1,264.74,見其他登記事項,鋼筋混凝土造,104年3月20日,四層,一層 二層 三層 四層
RPSNMLLKKIKFFAP48CA,36,110.88,住家用,加強磚造,69年2月24日,二層,一層 二層 騎樓
RPXOMLOLKIKFFAP86CA,1,198.52,見其他登記事項,鋼筋混凝土造,104年1月20日,三層,一層 二層 三層 屋頂突出物
RPOPMLOLKIKFFAP68CA,1,225.79,見其他登記事項,鋼筋混凝土造,104年1月20日,三層,一層 二層 三層 屋頂突出物
RPPPMLOLKIKFFAP78CA,1,223.31,見其他登記事項,鋼筋混凝土造,104年1月20日,三層,一層 二層 三層 屋頂突出物
RPUNMLTJKIKFFBP86CA,35,94.96,住家用,加強磚造,69年11月10日,二層,一層 二層 電梯樓梯間
RPRNMLPKKIKFFCP98CA,45,39.04,住家用,見其他登記事項,59年7月15日,一層,一層
RPRNMLPKKIKFFCP98CA,45,39.04,住家用,見其他登記事項,59年7月15日,一層,一層
RPPNMLKMKIKFFDP58CA,15,15.00,見其他登記事項,鋼筋混凝土造,89年5月5日,六層,一層
RPPNMLKMKIKFFDP58CA,15,147.89,見其他登記事項,鋼筋混凝土造,89年5月5日,六層,二層
RPPNMLKMKIKFFDP58CA,15,10.73,見其他登記事項,鋼筋混凝土造,89年5月5日,六層,
RPPNMLKMKIKFFDP58CA,15,21.49,見其他登記事項,鋼筋混凝土造,89年5月5日,六層,
RPTOMLPKKIKFFDP76CA,,176.44,見其他登記事項,鋼筋混凝土造,104年9月2日,三層,一層 二層 三層 見其他登記事項
RPUOMLPKKIKFFDP86CA,,176.44,見其他登記事項,鋼筋混凝土造,104年9月2日,三層,一層 二層 三層 見其他登記事項
RPVNMLOKKIKFFDP76CA,17,64.83,住家用,鋼筋混凝土造,87年8月1日,六層,五層
RPVNMLOKKIKFFDP76CA,17,25.91,共有部份,鋼筋混凝土造,87年8月1日,六層,
RPVNMLOKKIKFFDP76CA,17,7.00,共有部份,鋼筋混凝土造,87年8月1日,六層,
RPSNMLTJKIKFFAP66DA,24,190.37,住家用,鋼筋混凝土造,80年9月15日,三層,一層 二層 三層 騎樓 電梯樓梯間
RPUOMLSLKIKFFAP17EA,21,106.26,住家用,鋼筋混凝土造,83年9月1日,八層,五層
RPUOMLSLKIKFFAP17EA,21,11.08,共有部份,鋼筋混凝土造,83年9月1日,八層,
RPWNMLKMKIKFFBP56DA,1,227.35,住家用,鋼筋混凝土造,104年3月2日,三層,一層 二層 三層
RPUNMLLKKIKFFAP88EA,4,228.71,見其他登記事項,鋼筋混凝土造,100年5月10日,三層,一層 二層 三層 電梯樓梯間
RPUNMLOKKIKFFEP76CA,38,97.20,住家用,加強磚造,66年5月4日,二層,一層 二層 騎樓
RPSNMLQLKIKFFDP76CA,,221.97,見其他登記事項,鋼筋混凝土造,104年6月25日,四層,一層 二層 三層 四層 騎樓 見其他登記事項
RPPNMLLKKIKFFCP38CA,21,125.04,住家用,鋼筋混凝土造,84年3月7日,五層,四層
RPPNMLLKKIKFFCP38CA,21,8.17,見其他登記事項,鋼筋混凝土造,84年3月7日,五層,
RPPNMLLKKIKFFCP38CA,21,3.89,見其他登記事項,鋼筋混凝土造,84年3月7日,五層,
RPSNMLPKKIKFFBP98CA,35,103.88,住商用,加強磚造,69年11月25日,二層,一層 二層 騎樓 電梯樓梯間
RPQOMLNLKIKFFBP78CA,29,213.14,住商用,鋼筋混凝土造,76年1月8日,三層,一層 二層 三層 騎樓 電梯樓梯間
RPUNMLTLKIKFFBP07CA,14,220.16,住家用,鋼筋混凝土造,91年1月10日,三層,一層 二層 三層 電梯樓梯間
RPWOMLPKKIKFFAP76CA,22,80.62,住家用,鋼筋混凝土造,83年2月15日,七層,五層
RPWOMLPKKIKFFAP76CA,22,32.05,共同部份,鋼筋混凝土造,83年2月15日,七層,
RPUNMLTJKIKFFAP76CA,21,221.32,住家用,鋼筋混凝土造,83年7月12日,三層,一層 二層 三層 電梯樓梯間 夾層
RPOOMLKKKIKFFAP08CA,1,56.51,住家用,鋼筋混凝土造,103年9月4日,四層,四層
RPOOMLKKKIKFFAP08CA,1,14.52,見其他登記事項,鋼筋混凝土造,103年9月4日,四層,
RPUNMLNJJHLFFAP68CA,41,63.00,住家用,見其他登記事項,64年1月1日,一層,一層
RPROMLOJJHLFFAP58CA,35,100.39,住家用,加強磚造,69年7月30日,二層,一層 二層 電梯樓梯間
RPPNMLTJJHLFFAP78CA,1,177.42,住家用,鋼筋混凝土造,104年4月16日,三層,一層 二層 三層
RPXOMLLMKIKFFAP66CA,1,174.33,住家用,鋼筋混凝土造,104年4月16日,三層,一層 二層 三層
RPPPMLLMKIKFFAP58CA,1,174.33,住家用,鋼筋混凝土造,104年4月16日,三層,一層 二層 三層
RPPNMLPKJHLFFAP48CA,21,.20,見其他登記事項,鋼筋混凝土造,83年12月20日,十一層,一層
RPPNMLPKJHLFFAP48CA,21,7.40,共同部份,鋼筋混凝土造,83年12月20日,十一層,
RPPNMLPKJHLFFAP48CA,21,101.19,住家用,鋼筋混凝土造,83年12月20日,十一層,八層
RPPNMLPKJHLFFAP48CA,21,25.16,共同部份,鋼筋混凝土造,83年12月20日,十一層,
RPRNMLLKKIKFFAP38CA,,331.12,見其他登記事項,鋼筋混凝土造,103年8月22日,四層,一層 二層 三層 四層 屋頂突出物
RPSNMLOKKIKFFAP78CA,22,2.47,住家用,鋼筋混凝土造,83年3月18日,四層,一層 二層 三層 四層 見其他登記事項
RPSNMLOKKIKFFAP78CA,22,172.78,住家用,鋼筋混凝土造,83年2月5日,三層,一層 二層 三層 電梯樓梯間
RPTNMLOKKIKFFAP88CA,22,190.70,住商用,鋼筋混凝土造,83年2月16日,三層,一層 二層 三層 騎樓 電梯樓梯間
RPPNMLLKKIKFFAP18CA,22,93.44,住家用,鋼筋混凝土造,83年3月25日,七層,六層
RPPNMLQKKIKFFAP68CA,35,130.20,住商用,加強磚造,70年5月1日,三層,一層 二層 三層 騎樓
RPQOMLTLKIKFFBP76CA,43,45.93,住商用,鋼筋混凝土加強磚造,62年2月27日,三層,一層 二層 三層 騎樓
RPRNMLKMKIKFFBP58CA,23,170.78,住家用,鋼筋混凝土造,81年6月18日,四層,一層 二層 三層 四層 騎樓
RPRNMLKMKIKFFBP58CA,23,44.56,見其他登記事項,鋼筋混凝土造,81年6月18日,,
RPQNMLRKKIKFFDP56CA,21,363.89,住家用,鋼筋混凝土造,84年2月9日,三層,一層 二層 三層 電梯樓梯間
RPWNMLOKKIKFFDP86CA,20,182.25,住家用,鋼筋混凝土造,84年6月28日,五層,三層
RPWNMLOKKIKFFDP86CA,20,6.67,共有部份,鋼筋混凝土造,84年6月28日,五層,
RPPOMLOLKIKFFDP98CA,,197.58,見其他登記事項,鋼筋混凝土造,104年10月2日,四層,一層 二層 三層 四層 見其他登記事項
RPQNMLOKKIKFFAP68DA,34,202.84,住商用,見其他登記事項,71年2月28日,三層,一層 二層 三層 騎樓 電梯樓梯間
RPTNMLLKKIKFFEP98CA,16,18.01,見其他登記事項,,88年6月3日,十層,
RPTNMLLKKIKFFEP98CA,16,107.89,見其他登記事項,鋼筋混凝土造,88年6月3日,十層,五層
RPTNMLLKKIKFFEP98CA,16,.32,見其他登記事項,鋼筋混凝土造,88年6月3日,一層,
RPTNMLLKKIKFFEP98CA,16,55.39,見其他登記事項,鋼筋混凝土造,88年6月3日,10,
RPQOMLOLKIKFFEP56CA,25,115.70,住家用,鋼筋混凝土造,79年6月30日,四層,四層
RPQOMLOLKIKFFEP56CA,25,10.41,共有部份,鋼筋混凝土造,79年6月30日,四層,
RPTOMLSLKIKFFAP07EA,19,87.34,住家用,鋼筋混凝土造,86年3月21日,十三層,十一層
RPTOMLSLKIKFFAP07EA,19,13.43,共同部份,鋼筋混凝土造,86年3月21日,十三層,
RPTOMLSLKIKFFAP07EA,19,13.34,共同部份,鋼筋混凝土造,86年3月21日,十三層,
RPTNMLOKKIKFFDP66DA,21,156.63,住商用,鋼筋混凝土造,84年2月17日,三層,一層 二層 三層 電梯樓梯間
RPRNMLOKKIKFFDP09DA,26,153.34,住家用,鋼筋混凝土加強磚造,78年5月30日,二層,一層 二層 騎樓 電梯樓梯間
RPWNMLPJJHLFFAP66EA,33,132.01,住家用,加強磚造,72年3月26日,二層,一層 二層 電梯樓梯間
RPVNMLSKKIKFFEP27CA,9,260.88,見其他登記事項,鋼筋混凝土造,96年4月4日,五層,一層 二層 三層 四層 五層 騎樓
RPRNMLRJJHLFFEP56CA,,227.82,住家用,鋼筋混凝土造,104年9月15日,三層,一層 二層 三層 屋頂突出物
RPSNMLRJJHLFFEP66CA,,184.58,住家用,鋼筋混凝土造,104年9月15日,四層,一層 二層 三層 四層
RPQOMLOLKIKFFDP09CA,,197.58,見其他登記事項,鋼筋混凝土造,104年10月2日,四層,一層 二層 三層 四層 見其他登記事項
RPSOMLOLKIKFFDP66CA,,197.58,見其他登記事項,鋼筋混凝土造,104年10月2日,四層,一層 二層 三層 四層 見其他登記事項
RPPOMLKMKIKFFDP68CA,39,87.30,住家用,加強磚造,65年9月10日,二層,一層 二層
RPSNMLTLKIKFFDP07CA,,187.32,住家用,鋼筋混凝土造,104年6月12日,三層,一層 二層 三層
RPXNMLRJJHLFFDP07CA,25,61.94,住家用,鋼筋混凝土造,80年2月11日,二層,一層 二層 騎樓
RPPNMLRKKIKFFDP09CA,19,202.26,住家用,鋼筋混凝土造,85年9月23日,四層,一層 二層 三層 四層 地下層
RPVNMLRKKIKFFCP96CA,,182.78,見其他登記事項,鋼筋混凝土造,104年8月11日,三層,一層 二層 三層 見其他登記事項
RPRNMLNLKIKFFAP68CA,7,97.21,見其他登記事項,鋼筋混凝土造,97年11月1日,十層,三層
RPPPMLPKKIKFFAP78CA,10,152.61,住家用,鋼筋混凝土造,95年5月24日,三層,一層 二層 三層 電梯樓梯間
RPQPMLPKKIKFFAP88CA,17,186.44,住商用,鋼筋混凝土造,88年2月25日,三層,一層 二層 三層 電梯樓梯間
RPVOMLPKKIKFFAP66CA,23,26.12,住家用,鋼筋混凝土造,81年11月1日,六層,五層
RPVOMLPKKIKFFAP66CA,23,9.21,共同部份,鋼筋混凝土造,81年11月1日,六層,
RPWOMLQKKIKFFAP86CA,23,147.56,住家用,鋼筋混凝土造,82年1月7日,三層,一層 二層 三層 水箱 電梯樓梯間
RPUNMLOKKIKFFAP98CA,,177.64,見其他登記事項,鋼筋混凝土造,104年5月28日,二層,一層 二層 屋頂突出物
RPVNMLOKKIKFFAP09CA,23,94.48,住家用,鋼筋混凝土造,82年3月1日,八層,四層
RPVNMLOKKIKFFAP09CA,23,31.53,共有部份,鋼筋混凝土造,82年3月1日,八層,
RPSNMLPKKIKFFAP88CA,34,107.64,住商用,加強磚造,70年12月21日,二層,一層 二層 騎樓 電梯樓梯間
RPQNMLMKJHLFFAP28CA,23,128.33,住家用,鋼筋混凝土造,81年9月30日,八層,七層
RPQNMLMKJHLFFAP28CA,23,16.89,共同部份,鋼筋混凝土造,81年9月30日,八層,
RPQNMLMKJHLFFAP28CA,23,23.88,見其他登記事項,鋼筋混凝土造,81年9月30日,八層,地下層
RPRNMLNKJHLFFAP48CA,9,227.46,住商用,鋼筋混凝土造,95年10月21日,四層,一層 二層 三層 四層
RPTOMLPKKIKFFAP09CA,16,119.39,住家用,鋼筋混凝土造,88年9月26日,五層,二層 三層
RPWOMLOLKIKFFAP76CA,1,198.52,見其他登記事項,鋼筋混凝土造,104年1月20日,三層,一層 二層 三層 屋頂突出物
RPPNMLPLKIKFFCP88CA,21,186.27,住家用,鋼筋混凝土造,83年8月16日,三層,一層 二層 三層 騎樓 電梯樓梯間
RPQNMLMKJHLFFCP48CA,20,219.49,住家用,鋼筋混凝土造,84年8月31日,四層,一層 二層 三層 四層 騎樓
RPPNMLOLKIKFFBP68CA,,106.51,見其他登記事項,鋼筋混凝土造,104年4月20日,三層,一層 二層 三層 見其他登記事項
RPPNMLOLKIKFFBP68CA,,106.51,見其他登記事項,鋼筋混凝土造,104年4月20日,三層,一層 二層 三層 見其他登記事項
RPRNMLOLKIKFFBP88CA,1,213.02,見其他登記事項,鋼筋混凝土造,104年4月20日,三層,一層 二層 三層 見其他登記事項
RPSNMLOLKIKFFBP98CA,1,105.37,見其他登記事項,鋼筋混凝土造,104年4月20日,三層,一層 二層 三層 見其他登記事項
RPSNMLOLKIKFFBP98CA,1,105.37,見其他登記事項,鋼筋混凝土造,104年4月20日,三層,一層 二層 三層 見其他登記事項
RPSOMLPKKIKFFDP66CA,12,186.02,住家用,鋼筋混凝土造,93年2月11日,四層,一層 二層 三層 四層
RPPNMLRLKIKFFDP56CA,,219.65,見其他登記事項,鋼筋混凝土造,104年9月21日,三層,一層 二層 三層 騎樓
RPQNMLRLKIKFFDP66CA,,225.69,見其他登記事項,鋼筋混凝土造,104年9月21日,三層,一層 二層 三層 騎樓
RPRNMLRLKIKFFDP76CA,,203.38,見其他登記事項,鋼筋混凝土造,104年9月21日,三層,一層 二層 三層 騎樓
RPSNMLOJJHLFFDP88CA,1,191.74,見其他登記事項,鋼筋混凝土造,104年3月11日,三層,一層 二層 三層 電梯樓梯間
RPVPMLMKJHLFFAP56EA,23,97.73,住家用,鋼筋混凝土造,82年1月15日,六層,五層
RPVPMLMKJHLFFAP56EA,23,29.31,共同部份,鋼筋混凝土造,82年1月15日,六層,
RPVNMLPKKIKFFEP96CA,1,165.49,住家用,見其他登記事項,103年10月20日,四層,一層 二層 三層 四層
RPTNMLOJJHLFFDP98CA,,176.44,見其他登記事項,鋼筋混凝土造,104年9月2日,三層,一層 二層 三層 見其他登記事項
RPQNMLLMKIKFFDP78CA,23,142.65,住家用,加強磚造,81年9月15日,二層,一層 二層 電梯樓梯間
RPTNMLLMKIKFFDP09CA,32,140.84,住家用,加強磚造,72年8月22日,二層,一層 二層 電梯樓梯間
RPPOMLTLKIKFFDP86CA,,189.86,住家用,鋼筋混凝土造,104年10月20日,四層,一層 二層 三層 四層
RPSNMLRLKIKFFDP86CA,,79.52,住家用,鋼筋混凝土造,104年9月21日,三層,一層 二層 三層
RPSNMLRLKIKFFDP86CA,,79.52,住家用,鋼筋混凝土造,104年9月21日,三層,一層 二層 三層
RPTNMLRLKIKFFDP96CA,,156.10,住家用,鋼筋混凝土造,104年9月21日,三層,一層 二層 三層
RPUNMLRLKIKFFDP07CA,,78.05,住家用,鋼筋混凝土造,104年9月21日,三層,一層 二層 三層
RPUNMLRLKIKFFDP07CA,,78.05,住家用,鋼筋混凝土造,104年9月21日,三層,一層 二層 三層
RPVNMLRLKIKFFDP17CA,,78.05,住家用,鋼筋混凝土造,104年9月21日,三層,一層 二層 三層
RPVNMLRLKIKFFDP17CA,,78.05,住家用,鋼筋混凝土造,104年9月21日,三層,一層 二層 三層
RPWNMLRLKIKFFDP27CA,,156.10,住家用,鋼筋混凝土造,104年9月21日,三層,一層 二層 三層
RPXNMLRLKIKFFDP37CA,,78.05,住家用,鋼筋混凝土造,104年9月21日,三層,一層 二層 三層
RPXNMLRLKIKFFDP37CA,,78.05,住家用,鋼筋混凝土造,104年9月21日,三層,一層 二層 三層
RPPOMLRLKIKFFDP66CA,,171.46,住家用,鋼筋混凝土造,104年9月21日,三層,一層 二層 三層
RPQOMLRLKIKFFDP76CA,,171.46,住家用,鋼筋混凝土造,104年9月21日,三層,一層 二層 三層
RPROMLRLKIKFFDP86CA,,187.84,住家用,鋼筋混凝土造,104年9月21日,三層,一層 二層 三層
RPQNMLRKKIKFFBP98CA,3,214.20,見其他登記事項,鋼筋混凝土造,102年3月20日,三層,一層 二層 三層 電梯樓梯間
RPTNMLSLKIKFFBP86CA,2,225.01,見其他登記事項,鋼筋混凝土造,102年12月25日,三層,一層 二層 三層 見其他登記事項
RPWPMLMLKIKFFAP66CA,20,330.51,住商用,鋼筋混凝土造,84年10月20日,四層,一層 二層 三層 四層 騎樓 電梯樓梯間
RPOPMLQKKIKFFAP78CA,4,208.97,住家用,鋼筋混凝土造,101年3月5日,三層,一層 二層 三層 電梯樓梯間
RPQPMLQKKIKFFAP98CA,1,310.63,見其他登記事項,鋼筋混凝土造,103年8月22日,四層,一層 二層 三層 四層 屋頂突出物
RPOOMLPJJHLFFAP38CA,1,314.22,見其他登記事項,鋼筋混凝土造,103年10月28日,四層,一層 二層 三層 四層
RPTNMLNKJHLFFAP68CA,37,100.54,住商用,加強磚造,67年6月3日,二層,一層 二層 騎樓 電梯樓梯間
RPUNMLNKJHLFFAP78CA,22,2.47,住家用,鋼筋混凝土造,83年3月18日,四層,一層 二層 三層 四層 見其他登記事項
RPUNMLNKJHLFFAP78CA,22,177.37,住家用,鋼筋混凝土造,83年1月20日,三層,一層 二層 三層 電梯樓梯間
RPTNMLSKKIKFFAP66CA,23,273.88,住商用,鋼筋混凝土造,82年4月12日,四層,一層 二層 三層 四層 騎樓 電梯樓梯間
RPOQMLSKKIKFFAP09CA,22,97.48,住家用,鋼筋混凝土造,83年3月25日,七層,四層
RPOQMLSKKIKFFAP09CA,22,13.88,共同部份,鋼筋混凝土造,83年3月25日,七層,
RPOQMLSKKIKFFAP09CA,22,13.60,共同部份,鋼筋混凝土造,83年3月25日,七層,
RPOOMLNLKIKFFAP48CA,1,192.71,見其他登記事項,鋼筋混凝土造,104年8月10日,三層,一層 二層 三層 屋頂突出物 騎樓
RPPOMLNLKIKFFAP58CA,1,173.79,見其他登記事項,鋼筋混凝土造,104年8月10日,三層,一層 二層 三層 屋頂突出物
RPQOMLNLKIKFFAP68CA,,185.13,見其他登記事項,鋼筋混凝土造,104年8月10日,三層,一層 二層 三層 屋頂突出物
RPROMLNLKIKFFAP78CA,,185.13,見其他登記事項,鋼筋混凝土造,104年8月10日,三層,一層 二層 三層 屋頂突出物
RPRNMLRKKIKFFCP56CA,1,218.96,見其他登記事項,鋼筋混凝土造,104年5月4日,三層,一層 二層 三層 見其他登記事項
RPQNMLSKKIKFFCP56CA,22,199.18,住家用,鋼筋混凝土造,82年10月15日,四層,一層 二層 三層 四層 騎樓
RPRNMLSKKIKFFCP66CA,18,191.39,住商用,鋼筋混凝土造,87年1月12日,四層,一層 二層 三層 四層 騎樓
RPUNMLSLKIKFFBP96CA,2,225.01,見其他登記事項,鋼筋混凝土造,102年12月25日,三層,一層 二層 三層 見其他登記事項
RPTNMLOLKIKFFBP09CA,1,213.02,見其他登記事項,鋼筋混凝土造,104年4月20日,三層,一層 二層 三層 見其他登記事項
RPRNMLSKKIKFFDP76CA,23,200.98,住家用,鋼筋混凝土造,82年4月17日,三層,一層 二層 三層 電梯樓梯間
RPRNMLLLKIKFFDP78CA,3,206.80,住家用,鋼筋混凝土造,102年4月22日,三層,一層 二層 三層
RPUNMLNLKIKFFDP66CA,24,224.24,見其他登記事項,鋼筋混凝土造,80年7月27日,三層,一層 二層 三層 騎樓 電梯樓梯間
RPSOMLRLKIKFFDP96CA,,93.92,住家用,鋼筋混凝土造,104年9月21日,三層,一層 二層 三層
RPSOMLRLKIKFFDP96CA,,93.92,住家用,鋼筋混凝土造,104年9月21日,三層,一層 二層 三層
RPTOMLRLKIKFFDP07CA,,187.84,住家用,鋼筋混凝土造,104年9月21日,三層,一層 二層 三層
RPUOMLRLKIKFFDP17CA,,187.84,住家用,鋼筋混凝土造,104年9月21日,三層,一層 二層 三層
RPVOMLRLKIKFFDP27CA,,180.82,住家用,鋼筋混凝土造,104年9月21日,三層,一層 二層 三層
RPWOMLRLKIKFFDP37CA,,183.47,住家用,鋼筋混凝土造,104年9月21日,三層,一層 二層 三層
RPXNMLKMKIKFFDP76CA,16,206.56,住家用,鋼筋混凝土造,88年10月18日,四層,一層 二層 三層 四層 水箱
RPUPMLOLKIKFFAP76DA,1,201.32,見其他登記事項,鋼筋混凝土造,104年1月20日,三層,一層 二層 三層 屋頂突出物
RPPNMLPLKIKFFFP56CA,18,175.55,住家用,鋼筋混凝土造,86年11月21日,三層,一層 二層 三層 電梯樓梯間
RPPNMLRKKIKFFFP66CA,25,194.75,住商用,見其他登記事項,79年10月30日,三層,一層 二層 三層 騎樓 電梯樓梯間
RPTNMLSKKIKFFBP96EA,34,128.89,住家用,加強磚造,70年12月29日,二層,一層 二層 騎樓 電梯樓梯間
RPWNMLSKKIKFFEP47DA,2,207.16,住家用,鋼筋混凝土造,102年7月12日,三層,一層 二層 三層 屋頂突出物
RPVNMLSKKIKFFAP07EA,27,142.72,住家用,加強磚造,78年1月4日,二層,一層 二層 電梯樓梯間
RPUNMLLMKIKFFFP76CA,20,218.98,住家用,鋼筋混凝土造,84年7月19日,三層,一層 二層 三層 電梯樓梯間 地下層
RPVOMLPLJHLFFAP76DA,24,139.84,住商用,鋼筋混凝土造,80年9月5日,二層,一層 二層 騎樓 電梯樓梯間 地下層
RPQOMLKMKIKFFDP78CA,4,203.28,住家用,鋼筋混凝土造,100年8月30日,三層,一層 二層 三層
RPPOMLOJJHLFFDP68CA,,171.98,見其他登記事項,鋼筋混凝土造,104年10月7日,三層,一層 二層 三層 見其他登記事項
RPQOMLOJJHLFFDP78CA,,171.98,見其他登記事項,鋼筋混凝土造,104年10月7日,三層,一層 二層 三層 見其他登記事項
RPRNMLOJJHLFFBP58CA,18,214.26,住家用,鋼筋混凝土造,86年6月2日,三層,一層 二層 三層 電梯樓梯間
RPPNMLOKJHLFFCP58CA,,196.43,見其他登記事項,鋼筋混凝土造,104年8月31日,三層,一層 二層 三層 見其他登記事項
RPUOMLMLKIKFFCP56CA,34,123.00,住商用,加強磚造,70年12月18日,二層,一層 二層 騎樓
RPQNMLNLKIKFFAP58CA,20,25.04,住家用,鋼筋混凝土造,84年12月18日,十層,五層
RPQNMLNLKIKFFAP58CA,20,6.07,共同部份,鋼筋混凝土造,84年12月18日,十層,
RPQNMLNLKIKFFAP58CA,20,3.88,共同部份,鋼筋混凝土造,84年12月18日,十層,
RPQNMLMLKIKFFAP48CA,21,79.47,住家用,鋼筋混凝土造,83年8月10日,五層,三層
RPQNMLMLKIKFFAP48CA,21,10.20,共有部份,鋼筋混凝土造,83年8月10日,五層,
RPUOMLMLKIKFFAP98CA,23,34.02,住家用,鋼筋混凝土造,82年4月24日,七層,六層
RPUOMLMLKIKFFAP98CA,23,11.98,共同部份,鋼筋混凝土造,82年4月24日,七層,
RPPNMLTKKIKFFAP98CA,1,121.50,農舍,鋼筋混凝土造,104年9月15日,一層,一層
RPTNMLLLKIKFFAP68CA,20,30.73,住家用,鋼筋混凝土造,84年12月29日,七層,二層
RPTPMLSKKIKFFAP86CA,22,2.47,住家用,鋼筋混凝土造,83年3月18日,四層,一層 二層 三層 四層 見其他登記事項
RPTPMLSKKIKFFAP86CA,22,133.93,住家用,鋼筋混凝土造,83年1月20日,三層,一層 二層 三層 電梯樓梯間
RPROMLNKJHLFFAP58CA,2,178.95,住家用,鋼筋混凝土造,104年5月11日,三層,一層 二層 三層
RPSOMLNKJHLFFAP68CA,2,196.65,見其他登記事項,鋼筋混凝土造,104年5月11日,三層,一層 二層 三層 屋頂突出物
RPOQMLMKJHLFFAP38CA,2,227.75,見其他登記事項,鋼筋混凝土造,104年5月11日,三層,一層 二層 三層 屋頂突出物
RPQQMLMKJHLFFAP58CA,1,185.71,見其他登記事項,鋼筋混凝土造,104年5月11日,三層,一層 二層 三層 屋頂突出物
RPRQMLMKJHLFFAP68CA,,217.63,見其他登記事項,鋼筋混凝土造,104年5月11日,三層,一層 二層 三層 屋頂突出物
RPSQMLMKJHLFFAP78CA,,182.45,住家用,鋼筋混凝土造,104年5月11日,三層,一層 二層 三層
RPTQMLMKJHLFFAP88CA,1,206.65,見其他登記事項,鋼筋混凝土造,104年5月11日,三層,一層 二層 三層 屋頂突出物
RPUQMLMKJHLFFAP98CA,2,196.55,見其他登記事項,鋼筋混凝土造,104年5月11日,三層,一層 二層 三層 屋頂突出物
RPVQMLMKJHLFFAP09CA,2,189.99,見其他登記事項,鋼筋混凝土造,104年5月11日,三層,一層 二層 三層 屋頂突出物
RPWQMLMKJHLFFAP56CA,2,189.99,見其他登記事項,鋼筋混凝土造,104年5月11日,三層,一層 二層 三層 屋頂突出物
RPXQMLMKJHLFFAP66CA,2,189.99,見其他登記事項,鋼筋混凝土造,104年5月11日,三層,一層 二層 三層 屋頂突出物
RPORMLMKJHLFFAP48CA,2,185.05,住家用,鋼筋混凝土造,104年5月11日,三層,一層 二層 三層
RPSQMLPLKIKFFAP66CA,1,229.58,見其他登記事項,鋼筋混凝土造,104年3月20日,三層,一層 二層 三層 屋頂突出物
RPPPMLSKJHLFFAP98CA,2,245.23,見其他登記事項,鋼筋混凝土造,103年2月26日,四層,一層 二層 三層 四層 電梯樓梯間
RPTOMLOKJHLFFAP88CA,19,79.59,住家用,鋼筋混凝土造,86年5月15日,十六層,十四層
RPTOMLOKJHLFFAP88CA,19,8.50,共同部份,鋼筋混凝土造,86年5月15日,十六層,
RPTOMLOKJHLFFAP88CA,19,6.35,共同部份,鋼筋混凝土造,86年5月15日,十六層,
RPVNMLLLKIKFFAP88CA,2,91.86,見其他登記事項,鋼筋混凝土造,103年5月30日,三層,一層 二層 三層 屋頂突出物
RPRNMLNKJHLFFCP68CA,,216.34,見其他登記事項,鋼筋混凝土造,104年10月5日,三層,一層 二層 三層 見其他登記事項
RPTNMLNKJHLFFCP88CA,,291.12,見其他登記事項,鋼筋混凝土造,104年10月5日,四層,一層 二層 三層 四層 見其他登記事項
RPVNMLNKJHLFFCP09CA,,202.08,見其他登記事項,鋼筋混凝土造,104年10月5日,三層,一層 二層 三層 見其他登記事項
RPQNMLLLKIKFFBP48CA,43,90.23,住家用,鋼筋混凝土加強磚造,61年6月20日,二層,一層 二層 雨遮
RPUNMLOJJHLFFDP09CA,,176.44,見其他登記事項,鋼筋混凝土造,104年9月2日,三層,一層 二層 三層 見其他登記事項
RPRNMLOJJHLFFDP78CA,40,100.04,住家用,加強磚造,65年5月30日,二層,一層 二層
RPTNMLQJJHLFFDP56CA,21,190.97,住家用,鋼筋混凝土造,83年9月15日,三層,一層 二層 三層
RPSOMLSJJHLFFDP76CA,,261.64,見其他登記事項,鋼筋混凝土造,104年10月7日,四層,一層 二層 三層 四層 騎樓
RPQPMLSJJHLFFDP66CA,,238.37,見其他登記事項,鋼筋混凝土造,104年10月7日,四層,一層 二層 三層 四層 騎樓
RPSPMLSJJHLFFDP86CA,,257.70,見其他登記事項,鋼筋混凝土造,104年10月7日,四層,一層 二層 三層 四層 騎樓
RPQNMLLKJHLFFDP48CA,,225.71,見其他登記事項,鋼筋混凝土造,104年10月7日,四層,一層 二層 三層 四層 騎樓
RPXOMLSJJHLFFDP27CA,,238.60,見其他登記事項,鋼筋混凝土造,104年10月7日,四層,一層 二層 三層 四層 騎樓
RPSNMLMKJHLFFDP78CA,,230.76,見其他登記事項,鋼筋混凝土造,104年10月7日,四層,一層 二層 三層 四層 見其他登記事項
RPXNMLNKJHLFFDP76CA,,225.15,見其他登記事項,鋼筋混凝土造,104年10月7日,四層,一層 二層 三層 四層 騎樓
RPOOMLLLKIKFFAP38DA,19,200.50,住家用,鋼筋混凝土造,85年11月10日,四層,一層 二層 三層 四層
RPPNMLMLKIKFFFP88CA,30,140.08,住商用,加強磚造,74年9月5日,二層,一層 二層 騎樓
RPWNMLLLKIKFFEP76CA,23,104.53,見其他登記事項,鋼筋混凝土造,81年10月16日,五層,三層
RPWNMLLLKIKFFEP76CA,23,.83,共有部份,鋼筋混凝土加強磚造,81年10月16日,,
RPTNMLSKJHLFFBP86EA,17,81.28,住家用,鋼筋混凝土造,88年4月12日,十二層,十層
RPTNMLSKJHLFFBP86EA,17,19.57,共用部份,鋼筋混凝土造,88年4月12日,十二層,
RPTNMLSKJHLFFBP86EA,17,18.59,共用部份,鋼筋混凝土造,88年4月12日,十二層,
RPSNMLNLKIKFFCP09DA,1,187.43,見其他登記事項,鋼筋混凝土造,104年4月14日,三層,一層 二層 三層 騎樓 見其他登記事項
RPSNMLPLKIKFFDP76DA,14,53.76,商業用,鋼筋混凝土造,91年4月25日,六層,三層
RPSNMLPLKIKFFDP76DA,14,9.57,見其他登記事項,鋼筋混凝土造,91年4月25日,六層,
RPSNMLPLKIKFFDP76DA,14,3.05,見其他登記事項,鋼筋混凝土造,91年4月25日,六層,
RPSNMLPLKIKFFDP76DA,14,6.62,見其他登記事項,鋼筋混凝土造,91年4月25日,六層,
RPRNMLSJJHLFFDP66DA,,227.86,見其他登記事項,鋼筋混凝土造,104年10月7日,四層,一層 二層 三層 四層 騎樓
RPTNMLSJJHLFFDP86DA,,227.76,見其他登記事項,鋼筋混凝土造,104年10月7日,四層,一層 二層 三層 四層 騎樓
RPVNMLSJJHLFFDP07DA,,227.46,見其他登記事項,鋼筋混凝土造,104年10月7日,四層,一層 二層 三層 四層 騎樓
RPXNMLSJJHLFFDP27DA,,239.06,見其他登記事項,鋼筋混凝土造,104年10月7日,四層,一層 二層 三層 四層 騎樓
RPOOMLNLKIKFFDP88DA,18,216.73,住家用,鋼筋混凝土造,87年5月25日,四層,一層 二層 三層 四層
RPTNMLNLKIKFFBP56EA,17,81.28,住家用,鋼筋混凝土造,88年4月12日,十二層,七層
RPTNMLNLKIKFFBP56EA,17,19.57,共用部份,鋼筋混凝土造,88年4月12日,十二層,
RPTNMLNLKIKFFBP56EA,17,18.59,共用部份,鋼筋混凝土造,88年4月12日,十二層,
RPPPMLMLKIKFFAP78EA,17,30.26,住家用,鋼筋混凝土造,87年10月30日,十層,五層
RPPPMLMLKIKFFAP78EA,17,14.27,共同部份,鋼筋混凝土造,87年10月30日,十層,
RPPPMLMLKIKFFAP78EA,17,8.87,共同部份,鋼筋混凝土造,87年10月30日,十層,
RPSOMLSLKIKFFEP17CA,19,105.79,住家用,鋼筋混凝土造,86年1月3日,十層,二層
RPSOMLSLKIKFFEP17CA,19,15.69,見其他登記事項,鋼筋混凝土造,86年1月3日,十層,
RPSOMLSLKIKFFEP17CA,19,19.93,見其他登記事項,鋼筋混凝土造,86年1月3日,十層,
RPUNMLOKJHLFFEP66CA,,184.58,住家用,鋼筋混凝土造,104年9月15日,四層,一層 二層 三層 四層
RPTPMLMLKIKFFAP09DA,29,90.96,住商用,鋼筋混凝土加強磚造,75年9月14日,二層,一層 二層
RPURMLPLKIKFFAP07DA,36,99.36,住家用,加強磚造,68年12月1日,二層,一層 二層
RPRNMLNKJHLFFDP78CA,,224.13,見其他登記事項,鋼筋混凝土造,104年10月7日,四層,一層 二層 三層 四層 騎樓
RPWNMLNKJHLFFDP66CA,,231.27,見其他登記事項,鋼筋混凝土造,104年10月7日,四層,一層 二層 三層 四層 見其他登記事項
RPPOMLMKJHLFFDP58CA,,176.44,見其他登記事項,鋼筋混凝土造,104年9月2日,三層,一層 二層 三層 見其他登記事項
RPPNMLMKJHLFFDP48CA,21,171.12,住家用,鋼筋混凝土造,84年1月28日,三層,一層 二層 三層
RPQOMLOKJHLFFDP88CA,,227.75,見其他登記事項,鋼筋混凝土造,104年10月7日,四層,一層 二層 三層 四層 騎樓
RPUNMLPKJHLFFDP66CA,,280.78,住家用,鋼筋混凝土造,104年7月9日,四層,一層 二層 三層 四層
RPWNMLPKJHLFFDP86CA,,255.85,住家用,鋼筋混凝土造,104年7月9日,四層,一層 二層 三層 四層
RPOOMLPKJHLFFDP78CA,,259.36,住家用,鋼筋混凝土造,104年7月9日,四層,一層 二層 三層 四層
RPQOMLPKJHLFFDP98CA,,255.85,住家用,鋼筋混凝土造,104年7月9日,四層,一層 二層 三層 四層
RPUNMLKMKIKFFDP09CA,,274.41,住家用,鋼筋混凝土造,104年7月16日,四層,一層 二層 三層 四層
RPVNMLKMKIKFFDP56CA,,140.60,住家用,鋼筋混凝土造,104年7月16日,四層,一層 二層 三層 四層
RPVNMLKMKIKFFDP56CA,,140.60,住家用,鋼筋混凝土造,104年7月16日,四層,一層 二層 三層 四層
RPUNMLLMKIKFFDP56CA,37,120.96,住家用,加強磚造,68年5月17日,二層,一層 二層
RPWNMLNLKIKFFBP66CA,21,243.38,住家用,鋼筋混凝土造,84年3月30日,三層,一層 二層 三層 電梯樓梯間
RPPNMLNKJHLFFBP38CA,,188.01,住家用,鋼筋混凝土造,104年10月15日,四層,一層 二層 三層 四層
RPUPMLMLKIKFFAP09CA,9,174.14,住家用,鋼筋混凝土造,95年6月20日,三層,一層 二層 三層 電梯樓梯間
RPSQMLMLKIKFFAP98CA,,199.54,住家用,鋼筋混凝土造,104年6月5日,四層,一層 二層 三層 四層
RPTQMLMLKIKFFAP09CA,,174.71,住家用,鋼筋混凝土造,104年6月5日,四層,一層 二層 三層 四層
RPUQMLMLKIKFFAP56CA,,174.71,住家用,鋼筋混凝土造,104年6月5日,四層,一層 二層 三層 四層
RPWQMLMLKIKFFAP76CA,,174.71,住家用,鋼筋混凝土造,104年6月5日,四層,一層 二層 三層 四層
RPPQMLMLKIKFFAP68CA,1,200.28,住家用,鋼筋混凝土造,104年2月11日,四層,一層 二層 三層 四層
RPVOMLOKJHLFFAP09CA,21,174.71,住家用,鋼筋混凝土造,84年2月12日,四層,一層 二層 三層 四層 騎樓
RPPNMLMKJHLFFAP18CA,21,98.25,住家用,鋼筋混凝土造,83年11月20日,十四層,二層
RPPNMLMKJHLFFAP18CA,21,11.53,共同部份,鋼筋混凝土造,83年11月20日,十四層,
RPPNMLMKJHLFFAP18CA,21,29.29,共同部份,鋼筋混凝土造,83年11月20日,十四層,
RPPOMLPKJHLFFAP58CA,33,103.16,住家用,加強磚造,72年5月18日,二層,一層 二層 電梯樓梯間
RPWOMLOKJHLFFAP56CA,19,104.51,住家用,鋼筋混凝土造,86年5月15日,十六層,十六層
RPWOMLOKJHLFFAP56CA,19,25.23,共同部份,鋼筋混凝土造,86年5月15日,十六層,
RPWOMLOKJHLFFAP56CA,19,18.46,共同部份,鋼筋混凝土造,86年5月15日,十六層,
RPTPMLOLKIKFFAP56CA,21,173.63,住商用,鋼筋混凝土造,83年5月31日,三層,一層 二層 三層 電梯樓梯間
RPVNMLPLKIKFFAP66CA,1,266.60,見其他登記事項,鋼筋混凝土造,104年3月20日,四層,一層 二層 三層 四層
RPTNMLOLKIKFFCP56CA,22,206.25,住家用,鋼筋混凝土造,82年12月17日,四層,一層 二層 三層 四層
RPRNMLSJJHLFFCP09CA,,221.05,住家用,鋼筋混凝土造,104年8月13日,四層,一層 二層 三層 四層
RPTNMLSJJHLFFCP66CA,,265.85,住家用,鋼筋混凝土造,104年8月13日,四層,一層 二層 三層 四層
SPTNMLSJJHLFFCP76CA,,257.41,住家用,鋼筋混凝土造,104年8月13日,四層,一層 二層 三層 四層
TPTNMLSJJHLFFCP86CA,,257.41,住家用,鋼筋混凝土造,104年8月13日,四層,一層 二層 三層 四層
RPUNMLSJJHLFFCP76CA,,257.41,住家用,鋼筋混凝土造,104年8月13日,四層,一層 二層 三層 四層
RPVNMLSJJHLFFCP86CA,,257.37,住家用,鋼筋混凝土造,104年8月13日,四層,一層 二層 三層 四層
RPWNMLSJJHLFFCP96CA,,279.14,住家用,鋼筋混凝土造,104年8月13日,四層,一層 二層 三層 四層
RPVNMLTLKIKFFBP17CA,2,225.01,見其他登記事項,鋼筋混凝土造,102年12月25日,三層,一層 二層 三層 見其他登記事項
RPPNMLPLKIKFFDP98CA,1,294.79,住家用,鋼筋混凝土造,103年12月6日,四層,一層 二層 三層 四層
RPXOMLOKJHLFFDP96CA,,238.53,見其他登記事項,鋼筋混凝土造,104年10月7日,四層,一層 二層 三層 四層 騎樓
RPPNMLNKJHLFFDP58CA,1,199.31,見其他登記事項,鋼筋混凝土造,104年5月18日,四層,一層 二層 三層 四層 見其他登記事項
RPQNMLNKJHLFFDP68CA,1,202.52,住家用,鋼筋混凝土造,104年5月18日,四層,一層 二層 三層 四層
RPVNMLNKJHLFFDP56CA,,239.79,見其他登記事項,鋼筋混凝土造,104年10月7日,四層,一層 二層 三層 四層 騎樓
RPRNMLOKJHLFFDP88CA,,226.66,見其他登記事項,鋼筋混凝土造,104年10月7日,四層,一層 二層 三層 四層 騎樓
RPVNMLOKJHLFFDP66CA,,235.99,見其他登記事項,鋼筋混凝土造,104年10月7日,四層,一層 二層 三層 四層 騎樓
RPXNMLOKJHLFFDP86CA,,229.88,見其他登記事項,鋼筋混凝土造,104年10月7日,四層,一層 二層 三層 四層 騎樓
RPUNMLSKJHLFFAP76DA,,183.71,住家用,鋼筋混凝土造,104年9月18日,四層,一層 二層 三層 四層
RPVNMLSKJHLFFAP86DA,,182.95,住家用,鋼筋混凝土造,104年9月18日,四層,一層 二層 三層 四層
RPPOMLPKJHLFFEP98CA,,567.66,住家用,鋼筋混凝土造,104年9月15日,四層,一層 二層 三層 四層 屋頂突出物 騎樓
RPQOMLPKJHLFFEP09CA,,230.87,住家用,鋼筋混凝土造,104年9月15日,三層,一層 二層 三層 屋頂突出物
RPUNMLNLKIKFFBP66EA,17,81.28,住家用,鋼筋混凝土造,88年4月12日,十二層,七層
RPUNMLNLKIKFFBP66EA,17,19.57,共用部份,鋼筋混凝土造,88年4月12日,十二層,
RPUNMLNLKIKFFBP66EA,17,18.59,共用部份,鋼筋混凝土造,88年4月12日,十二層,
RPVNMLNLKIKFFBP76EA,17,62.29,住家用,鋼筋混凝土造,88年4月12日,十二層,七層
RPVNMLNLKIKFFBP76EA,17,15.54,共用部份,鋼筋混凝土造,88年4月12日,十二層,
RPVNMLNLKIKFFBP76EA,17,14.97,共用部份,鋼筋混凝土造,88年4月12日,十二層,
RPSNMLPJJHLFFDP09DA,37,100.01,住商用,加強磚造,67年6月18日,二層,一層 二層
SPSNMLPJJHLFFDP56DA,37,105.84,住商用,加強磚造,67年6月18日,二層,一層 二層 電梯樓梯間
RPQNMLRJJHLFFCP98DA,1,200.12,住家用,鋼筋混凝土造,104年4月30日,三層,一層 二層 三層 見其他登記事項
RPVOMLMLKIKFFCP76DA,1,189.29,見其他登記事項,鋼筋混凝土造,104年4月14日,三層,一層 二層 三層 見其他登記事項
RPUNMLSKJHLFFBP86DA,,250.40,住家用,鋼筋混凝土造,104年8月15日,四層,一層 二層 三層 四層
RPTNMLSKJHLFFEP07DA,37,109.88,住商用,加強磚造,68年4月20日,二層,一層 二層 騎樓
RPPNMLLMKIKFFBP68EA,17,81.28,住家用,鋼筋混凝土造,88年4月12日,十二層,七層
RPPNMLLMKIKFFBP68EA,17,18.59,共有部份,鋼筋混凝土造,88年4月12日,十二層,
RPPNMLLMKIKFFBP68EA,17,19.57,共有部份,鋼筋混凝土造,88年4月12日,十二層,
RPUPMLPLKIKFFAP96EA,31,160.58,住家用,鋼筋混凝土加強磚造,74年4月1日,二層,一層 二層 騎樓 電梯樓梯間
RPPOMLSLKIKFFEP86CA,21,192.61,住家用,鋼筋混凝土造,84年2月11日,三層,一層 二層 三層 電梯樓梯間
RPQNMLRJLHLFFDP56CA,,273.03,見其他登記事項,鋼筋混凝土造,104年10月21日,四層,一層 二層 三層 四層 騎樓 見其他登記事項
RPQNMLSLKIKFFBP66DA,1,243.04,見其他登記事項,鋼筋混凝土造,104年2月25日,三層,一層 二層 三層
RPPNMLOJJHLFFFP78CA,31,90.05,住家用,加強磚造,73年6月29日,二層,一層 二層 騎樓
RPSNMLSLKIKFFFP17CA,9,208.66,見其他登記事項,鋼筋混凝土造,96年2月13日,三層,一層 二層 三層 見其他登記事項
RPQOMLSKJHLFFDP66CA,,234.69,見其他登記事項,鋼筋混凝土造,104年10月21日,三層,一層 二層 三層 見其他登記事項
RPTOMLSKJHLFFDP96CA,,283.23,見其他登記事項,鋼筋混凝土造,104年10月21日,四層,一層 二層 三層 四層 騎樓 見其他登記事項
RPTOMLTKJHLFFDP07CA,,235.10,見其他登記事項,鋼筋混凝土造,104年10月21日,三層,一層 二層 三層 見其他登記事項
RPVOMLOLKIKFFDP96CA,20,45.39,住家用,鋼筋混凝土造,84年9月21日,七層,六層 電梯樓梯間
RPXNMLSJJHLFFCP07CA,,265.85,住家用,鋼筋混凝土造,104年8月13日,四層,一層 二層 三層 四層
RPOOMLSJJHLFFCP88CA,,295.80,住家用,鋼筋混凝土造,104年8月13日,四層,一層 二層 三層 四層
RPPOMLSJJHLFFCP98CA,,265.85,住家用,鋼筋混凝土造,104年8月13日,四層,一層 二層 三層 四層
RPSNMLSJJHLFFCP56CA,,220.71,住家用,鋼筋混凝土造,104年8月13日,四層,一層 二層 三層 四層
RPXNMLOLKIKFFCP96CA,1,218.96,見其他登記事項,鋼筋混凝土造,104年5月4日,三層,一層 二層 三層 見其他登記事項
RPXPMLOLKIKFFAP96CA,21,88.00,住家用,鋼筋混凝土造,83年8月2日,七層,七層
RPXPMLOLKIKFFAP96CA,21,13.89,共同部份,鋼筋混凝土造,83年8月2日,七層,
RPXPMLOLKIKFFAP96CA,21,19.40,共同部份,鋼筋混凝土造,83年8月2日,七層,
RPOOMLOLKIKFFAP58CA,10,153.59,住家用,鋼筋混凝土造,95年5月24日,三層,一層 二層 三層 電梯樓梯間
RPPOMLOLKIKFFAP68CA,10,153.59,住家用,鋼筋混凝土造,95年5月24日,三層,一層 二層 三層 電梯樓梯間
RPROMLTLKIKFFAP76CA,20,23.73,住家用,鋼筋混凝土造,84年12月18日,十層,六層
RPROMLTLKIKFFAP76CA,20,7.72,共有部份,鋼筋混凝土造,84年12月18日,十層,
RPROMLTLKIKFFAP76CA,20,4.80,共有部份,鋼筋混凝土造,84年12月18日,十層,
RPUQMLPLKIKFFAP86CA,36,109.69,住家用,加強磚造,69年4月12日,二層,一層 二層 電梯樓梯間
RPVRMLPLKIKFFAP07CA,1,165.09,住家用,鋼筋混凝土造,103年8月20日,三層,一層 二層 三層
RPPOMLTKJHLFFAP98CA,1,263.54,見其他登記事項,鋼筋混凝土造,103年10月7日,三層,一層 二層 三層 屋頂突出物
RPRNMLTKJHLFFAP09CA,17,402.78,農舍,鋼筋混凝土造,87年10月20日,三層,一層 二層 三層
RPQOMLPKJHLFFAP68CA,12,17.95,住家用,鋼筋混凝土造,92年7月7日,四層,三層
RPQOMLPKJHLFFAP68CA,12,6.01,共同部份,鋼筋混凝土造,92年7月7日,四層,
RPWOMLSKJHLFFAP96CA,9,219.41,見其他登記事項,鋼筋混凝土造,96年1月5日,四層,一層 二層 三層 四層 騎樓
RPQNMLNLJHLFFAP48CA,19,81.79,住家用,鋼筋混凝土造,86年5月15日,十六層,三層
RPQNMLNLJHLFFAP48CA,19,30.39,共有部份,鋼筋混凝土造,86年5月15日,十六層,
RPQNMLNLJHLFFAP48CA,19,15.95,共有部份,鋼筋混凝土造,86年5月15日,十六層,
RPQNMLNLJHLFFAP48CA,19,82.12,住家用,鋼筋混凝土造,86年5月15日,十六層,三層
RPQNMLNLJHLFFAP48CA,19,16.05,共有部份,鋼筋混凝土造,86年5月15日,十六層,
RPQNMLNLJHLFFAP48CA,19,13.17,共有部份,鋼筋混凝土造,86年5月15日,十六層,
RPQOMLSLKIKFFAP56CA,4,450.17,住家用,鋼筋混凝土造,101年3月29日,五層,一層 二層 三層 四層 五層
RPTOMLTLKIKFFBP07CA,26,315.60,住商用,鋼筋混凝土造,78年10月5日,三層,一層 二層 三層 騎樓 電梯樓梯間
RPXNMLSLKIKFFBP27CA,26,166.76,住商用,鋼筋混凝土造,78年10月5日,三層,一層 二層 三層 騎樓 電梯樓梯間
RPQNMLPLKIKFFBP88CA,20,110.40,住家用,鋼筋混凝土造,85年4月28日,三層,一層 二層 三層
RPTNMLSLKIKFFDP07CA,2,208.65,見其他登記事項,鋼筋混凝土造,102年11月1日,三層,一層 二層 三層
RPUNMLPLKIKFFDP86CA,21,261.26,住家用,鋼筋混凝土造,83年12月20日,五層,一層 二層 三層 四層 五層
RPUOMLTKJHLFFDP17CA,1,181.64,住家用,鋼筋混凝土造,104年5月19日,三層,一層 二層 三層
RPVOMLTKJHLFFDP27CA,,185.10,住家用,鋼筋混凝土造,104年5月19日,三層,一層 二層 三層
RPQOMLTKJHLFFDP76CA,,144.84,住家用,鋼筋混凝土造,104年10月12日,三層,一層 二層 三層
RPWPMLSKJHLFFDP37CA,,154.57,住家用,鋼筋混凝土造,104年10月12日,三層,一層 二層 三層
RPRQMLSKJHLFFDP96CA,,147.35,見其他登記事項,鋼筋混凝土造,104年10月12日,三層,一層 二層 三層
RPQNMLTKJHLFFDP66CA,,147.35,住家用,鋼筋混凝土造,104年10月12日,三層,一層 二層 三層
RPSNMLTKJHLFFDP86CA,,139.23,住家用,鋼筋混凝土造,104年10月12日,三層,一層 二層 三層
RPUNMLTKJHLFFDP07CA,,123.12,住家用,鋼筋混凝土造,104年10月12日,三層,一層 二層 三層
RPWNMLTKJHLFFDP27CA,,150.58,住家用,鋼筋混凝土造,104年10月12日,三層,一層 二層 三層
RPUOMLSKJHLFFDP07CA,,240.19,住家用,鋼筋混凝土造,104年10月21日,四層,一層 二層 三層 四層
RPVOMLSKJHLFFDP17CA,,224.08,見其他登記事項,鋼筋混凝土造,104年10月21日,三層,一層 二層 三層 見其他登記事項
RPWOMLSKJHLFFDP27CA,,221.74,見其他登記事項,鋼筋混凝土造,104年10月21日,三層,一層 二層 三層 見其他登記事項
RPXOMLSKJHLFFDP37CA,,224.08,見其他登記事項,鋼筋混凝土造,104年10月21日,三層,一層 二層 三層 見其他登記事項
RPXNMLSKJHLFFDP27CA,,310.41,住家用,鋼筋混凝土造,104年7月9日,四層,一層 二層 三層 四層
RPQNMLSLKIKFFDP76CA,21,193.61,住家用,鋼筋混凝土造,83年11月25日,四層,一層 二層 三層 四層
RPRNMLOJJHLFFFP98CA,22,160.00,住家用,鋼筋混凝土造,82年10月9日,三層,一層 二層 三層
RPQOMLKMKIKFFAP58DA,34,111.72,住商用,加強磚造,70年12月16日,二層,一層 二層 騎樓 電梯樓梯間
RPWNMLMLJHLFFAP09DA,28,128.60,住商用,加強磚造,76年6月30日,二層,一層 二層 騎樓 電梯樓梯間
RPXOMLTKJHLFFDP47CA,,180.32,住家用,鋼筋混凝土造,104年5月19日,三層,一層 二層 三層
RPXNMLMLJHLFFDP76CA,,264.41,見其他登記事項,鋼筋混凝土造,104年7月9日,三層,一層 二層 三層 屋頂突出物
RPRNMLSLKIKFFEP96CA,31,109.79,住商用,加強磚造,73年9月1日,二層,一層 二層 騎樓
RPTNMLPLKIKFFEP86CA,42,97.90,住家用,加強磚造,63年2月15日,二層,一層 二層 陽台 騎樓
RPQNMLPKJHLFFAP78EA,21,38.37,住家用,鋼筋混凝土造,83年12月10日,六層,二層
RPQNMLPKJHLFFAP78EA,21,8.64,共同部份,鋼筋混凝土造,83年12月10日,六層,
RPQNMLPKJHLFFAP78EA,21,23.04,共同部份,鋼筋混凝土造,83年12月10日,六層,
RPPNMLRJJHLFFCP88DA,,410.98,住家用,鋼筋混凝土造,104年6月16日,四層,一層 二層 三層 四層
RPVNMLSLKIKFFDP37DA,1,185.34,見其他登記事項,鋼筋混凝土造,103年7月28日,三層,一層 二層 三層 見其他登記事項
RPUPMLSKJHLFFDP27DA,,209.43,見其他登記事項,鋼筋混凝土造,104年10月2日,四層,一層 二層 三層 四層 見其他登記事項
RPRNMLRJJHLFFCP09DA,39,228.72,住商用,加強磚造,65年11月26日,三層,一層 二層 三層 騎樓
RPXPMLMKJHLFFAP76EA,35,109.93,住家用,加強磚造,69年12月27日,二層,一層 二層 電梯樓梯間
RPUNMLPLKIKFFEP96CA,21,207.49,住家用,鋼筋混凝土造,83年8月12日,四層,一層 二層 三層 四層
RPSNMLPKJHLFFDP09CA,,259.34,住家用,鋼筋混凝土造,104年7月9日,四層,一層 二層 三層 四層
RPUNMLTLKIKFFAP07DA,21,80.75,住家用,鋼筋混凝土造,83年9月18日,十四層,五層
RPUNMLTLKIKFFAP07DA,21,32.15,共同部份,鋼筋混凝土造,83年9月18日,十四層,
RPTOMLSKJHLFFAP76DA,17,28.43,住家用,鋼筋混凝土造,87年10月30日,十層,五層
RPUOMLSKJHLFFAP86DA,17,28.43,住家用,鋼筋混凝土造,87年10月30日,十層,六層
RPWOMLTKJHLFFDP37CA,1,176.94,住家用,鋼筋混凝土造,104年5月19日,三層,一層 二層 三層
RPROMLSJJHLFFDP66CA,38,140.00,住家用,加強磚造,67年3月15日,二層,一層 二層
RPWOMLSJJHLFFDP17CA,40,125.20,住商用,加強磚造,65年6月10日,二層,一層 二層 騎樓
RPRNMLKMKIKFFDP78CA,1,180.86,見其他登記事項,鋼筋混凝土造,103年12月29日,三層,一層 二層 三層 屋頂突出物 騎樓
RPPNMLTLKIKFFDP76CA,22,167.40,住家用,鋼筋混凝土造,83年2月2日,四層,一層 二層 三層 四層
RPWNMLSLKIKFFDP37CA,18,84.33,住家用,鋼筋混凝土造,86年10月3日,九層,七層
RPWNMLSLKIKFFDP37CA,18,49.14,共有部份,鋼筋混凝土造,86年10月13日,九層,
RPWNMLSLKIKFFDP37CA,18,8.61,共有部份,鋼筋混凝土造,86年10月3日,九層,
RPVNMLLMKIKFFDP66CA,,174.00,住家用,鋼筋混凝土造,104年9月23日,四層,一層 二層 三層 四層
RPRNMLSLKIKFFBP66CA,16,121.33,住家用,鋼筋混凝土造,89年5月29日,九層,五層
RPRNMLSLKIKFFBP66CA,16,33.18,共用部份,鋼筋混凝土造,89年5月29日,九層,
RPRNMLSLKIKFFBP66CA,16,38.57,共用部份,鋼筋混凝土造,89年5月29日,九層,
RPPNMLTLKIKFFCP66CA,1,229.24,見其他登記事項,鋼筋混凝土造,104年5月4日,三層,一層 二層 三層 見其他登記事項
RPRNMLSKJHLFFCP56CA,34,106.52,住家用,加強磚造,70年6月17日,二層,一層 二層
RPROMLSLKIKFFAP66CA,,174.82,住家用,鋼筋混凝土造,104年6月5日,四層,一層 二層 三層 四層
RPWNMLTLKIKFFAP17CA,,198.52,見其他登記事項,鋼筋混凝土造,104年1月20日,三層,一層 二層 三層 屋頂突出物
RPPOMLTLKIKFFAP56CA,9,175.84,住家用,鋼筋混凝土造,95年12月1日,三層,一層 二層 三層
RPPOMLLMKIKFFAP48CA,21,187.01,住家用,鋼筋混凝土造,83年7月5日,三層,一層 二層 三層 電梯樓梯間 夾層
RPPNMLSLKIKFFAP98CA,,157.56,見其他登記事項,見其他登記事項,104年9月23日,一層,一層
RPRNMLSLKIKFFAP56CA,,157.56,見其他登記事項,見其他登記事項,104年9月23日,一層,一層
RPPOMLSLKIKFFAP09CA,,174.82,住家用,鋼筋混凝土造,104年6月5日,四層,一層 二層 三層 四層
RPWOMLSLKIKFFAP17CA,18,160.25,住家用,鋼筋混凝土造,86年12月12日,三層,一層 二層 三層 電梯樓梯間
RPTNMLTLKIKFFAP86CA,1,181.37,住家用,鋼筋混凝土造,104年2月11日,四層,一層 二層 三層 四層
RPVNMLRJJHLFFAP56CA,40,88.94,住家用,加強磚造,65年1月7日,二層,一層 二層
RPPNMLNLJHLFFAP38CA,36,89.22,住家用,加強磚造,69年5月7日,二層,一層 二層 電梯樓梯間
RPTNMLTKJHLFFAP66CA,23,148.16,住家用,鋼筋混凝土加強磚造,81年10月7日,三層,一層 二層 三層
RPRPMLMKJHLFFAP58CA,,178.47,見其他登記事項,鋼筋混凝土造,104年8月25日,三層,一層 二層 三層 屋頂突出物
RPSPMLMKJHLFFAP68CA,,185.13,見其他登記事項,鋼筋混凝土造,104年8月25日,三層,一層 二層 三層 屋頂突出物
RPUNMLKMKIKFFAP78CA,21,34.59,住家用,鋼筋混凝土造,83年7月1日,九層,八層
RPUNMLKMKIKFFAP78CA,21,14.84,共有部份,鋼筋混凝土造,83年7月1日,九層,
RPUNMLKMKIKFFAP78CA,21,12.95,共有部份,鋼筋混凝土造,83年7月1日,九層,
RPSOMLTLKIKFFAP86CA,13,143.35,見其他登記事項,鋼筋混凝土造,91年6月8日,二層,一層 二層 屋頂突出物 騎樓
RPPNMLKMKIKFFAP28CA,21,143.73,住商用,鋼筋混凝土造,83年11月20日,十四層,一層 二層 三層 騎樓
RPPNMLKMKIKFFAP28CA,21,32.00,共有部份,鋼筋混凝土造,83年11月20日,十四層,
RPRNMLKMKIKFFAP48CA,1,286.97,見其他登記事項,鋼筋混凝土造,103年8月22日,四層,一層 二層 三層 四層 屋頂突出物
RPQNMLPJJHLFFCP68CA,14,517.11,見其他登記事項,見其他登記事項,91年5月20日,一層,見其他登記事項
RPQNMLPJJHLFFCP68CA,27,271.69,農舍,加強磚造,78年1月16日,二層,一層 二層 電梯樓梯間
RPQNMLOJJHLFFBP48CA,18,16.15,住家用,見其他登記事項,86年6月16日,一層,一層
RPQNMLMKJHLFFBP38CA,,181.22,見其他登記事項,鋼筋混凝土造,104年10月15日,三層,一層 二層 三層 見其他登記事項
RPRNMLMKJHLFFBP48CA,,194.51,見其他登記事項,鋼筋混凝土造,104年10月15日,三層,一層 二層 三層 見其他登記事項
RPSNMLMKJHLFFBP58CA,,165.02,住家用,鋼筋混凝土造,104年10月15日,三層,一層 二層 三層
RPTNMLMKJHLFFBP68CA,,158.89,住家用,鋼筋混凝土造,104年10月15日,三層,一層 二層 三層
RPUNMLMKJHLFFBP78CA,,186.84,見其他登記事項,鋼筋混凝土造,104年10月15日,三層,一層 二層 三層 見其他登記事項
RPVNMLSKJHLFFBP86CA,33,116.87,住商用,加強磚造,71年9月20日,二層,一層 二層 騎樓
RPQNMLSJJHLFFFP66CA,23,190.93,住商用,鋼筋混凝土造,81年12月31日,三層,一層 二層 三層 騎樓 電梯樓梯間
RPQNMLQLJHLFFDP09CA,,192.96,見其他登記事項,鋼筋混凝土造,104年9月17日,三層,一層 二層 三層 見其他登記事項
RPRNMLQLJHLFFDP56CA,,192.96,見其他登記事項,鋼筋混凝土造,104年9月17日,三層,一層 二層 三層 見其他登記事項
RPSNMLQLJHLFFDP66CA,,263.20,見其他登記事項,鋼筋混凝土造,104年9月17日,四層,一層 二層 三層 四層 騎樓
RPXNMLRLJHLFFDP27CA,,124.38,見其他登記事項,鋼筋混凝土造,104年9月17日,二層,一層 二層
RPXNMLRLJHLFFDP27CA,,124.38,見其他登記事項,鋼筋混凝土造,104年9月17日,二層,一層 二層
RPOOMLRLJHLFFDP09CA,,250.88,見其他登記事項,鋼筋混凝土造,104年9月17日,二層,一層 二層
RPPOMLRLJHLFFDP56CA,,248.76,見其他登記事項,鋼筋混凝土造,104年9月17日,二層,一層 二層
RPQOMLRLJHLFFDP66CA,,248.76,見其他登記事項,鋼筋混凝土造,104年9月17日,二層,一層 二層
RPROMLRLJHLFFDP76CA,,248.76,見其他登記事項,鋼筋混凝土造,104年9月17日,二層,一層 二層
RPSOMLRLJHLFFDP86CA,,248.76,見其他登記事項,鋼筋混凝土造,104年9月17日,二層,一層 二層
RPTOMLRLJHLFFDP96CA,,248.76,見其他登記事項,鋼筋混凝土造,104年9月17日,二層,一層 二層
RPUOMLRLJHLFFDP07CA,,299.54,見其他登記事項,鋼筋混凝土造,104年9月17日,二層,一層 二層
RPQNMLNJKHLFFDP68CA,17,38.67,住家用,鋼筋混凝土造,87年8月1日,六層,四層
RPQNMLNJKHLFFDP68CA,17,9.52,共有部份,鋼筋混凝土造,87年8月1日,六層,
RPQNMLNJKHLFFDP68CA,17,4.11,共有部份,鋼筋混凝土造,87年8月1日,六層,
RPOOMLLKJHLFFEP48CA,2,395.69,住家用,鋼筋混凝土造,103年6月13日,五層,一層 二層 三層 四層 五層 見其他登記事項
RPXNMLPKJHLFFAP86EA,7,533.87,見其他登記事項,鋼筋混凝土造,98年3月18日,五層,一層 二層 三層 四層 五層 騎樓 電梯樓梯間
RPVNMLSLKIKFFBP27EA,17,62.29,住家用,鋼筋混凝土造,88年4月12日,十二層,五層
RPVNMLSLKIKFFBP27EA,17,14.97,共用部份,鋼筋混凝土造,88年4月12日,十二層,
RPVNMLSLKIKFFBP27EA,17,15.54,共用部份,鋼筋混凝土造,88年4月12日,十二層,
RPPNMLLMKIKFFCP68DA,24,151.33,住家用,鋼筋混凝土造,81年4月3日,四層,一層 二層 三層 四層
RPTNMLTLKIKFFDP27DA,21,95.96,住家用,鋼筋混凝土造,84年4月6日,十二層,六層
RPTNMLTLKIKFFDP27DA,21,4.22,共有部份,鋼筋混凝土造,84年4月6日,十二層,
RPTNMLTLKIKFFDP27DA,21,12.72,共有部份,鋼筋混凝土造,84年4月6日,十二層,
RPUNMLLKJHLFFDP98DA,22,201.03,住家用,鋼筋混凝土造,83年5月3日,三層,一層 二層 三層 騎樓 電梯樓梯間
RPPNMLKMKIKFFCP58DA,1,191.99,見其他登記事項,鋼筋混凝土造,104年4月14日,三層,一層 二層 三層 騎樓 見其他登記事項
RPQNMLKMKIKFFCP68DA,1,189.29,見其他登記事項,鋼筋混凝土造,104年4月14日,三層,一層 二層 三層 見其他登記事項
RPPNMLKMKIKFFBP48DA,36,91.90,住商用,鋼筋混凝土加強磚造,69年1月26日,三層,一層 二層 三層 騎樓 電梯樓梯間
RPPNMLPLJHLFFBP78DA,30,186.08,住家用,鋼筋混凝土造,75年4月25日,三層,一層 二層 三層 騎樓 電梯樓梯間
RPRNMLPJJHLFFBP88EA,17,62.29,住家用,鋼筋混凝土造,88年4月12日,十二層,六層
RPRNMLPJJHLFFBP88EA,17,14.97,共用部份,鋼筋混凝土造,88年4月12日,十二層,
RPRNMLPJJHLFFBP88EA,17,15.54,共用部份,鋼筋混凝土造,88年4月12日,十二層,
RPVNMLLLJHLFFEP56CA,,283.99,住家用,鋼筋混凝土造,104年9月15日,三層,一層 二層 三層
RPPOMLKMKIKFFEP78CA,19,171.77,住家用,鋼筋混凝土造,85年7月5日,三層,一層 二層 三層
RPVNMLRLJHLFFDP07CA,,248.76,見其他登記事項,鋼筋混凝土造,104年9月17日,二層,一層 二層
RPWNMLRLJHLFFDP17CA,,248.76,見其他登記事項,鋼筋混凝土造,104年9月17日,二層,一層 二層
RPXOMLRLJHLFFDP37CA,27,234.43,住商用,鋼筋混凝土造,78年6月5日,三層,一層 二層 三層 騎樓 電梯樓梯間 地下層
RPPNMLQLJHLFFDP98CA,23,237.56,住家用,鋼筋混凝土造,82年6月1日,三層,一層 二層 三層 騎樓 電梯樓梯間
RPXOMLQLJHLFFDP27CA,9,237.41,住家用,鋼筋混凝土造,96年5月29日,四層,一層 二層 三層 四層
RPOOMLLLJHLFFDP48CA,,147.35,住家用,鋼筋混凝土造,104年10月12日,三層,一層 二層 三層
RPRNMLLLJHLFFDP68CA,,147.35,住家用,鋼筋混凝土造,104年10月12日,三層,一層 二層 三層
RPTNMLLLJHLFFDP88CA,,161.80,住家用,鋼筋混凝土造,104年10月12日,三層,一層 二層 三層
RPVNMLLLJHLFFDP09CA,,147.35,住家用,鋼筋混凝土造,104年10月12日,三層,一層 二層 三層
RPSNMLOJJHLFFFP09CA,17,81.14,住家用,鋼筋混凝土造,88年1月13日,八層,四層
RPSNMLOJJHLFFFP09CA,17,19.42,見其他登記事項,鋼筋混凝土造,88年1月13日,八層,
RPSNMLOJJHLFFFP09CA,17,11.53,見其他登記事項,鋼筋混凝土造,88年1月13日,八層,
RPTNMLKMKIKFFFP56CA,1,158.46,見其他登記事項,鋼筋混凝土造,103年12月3日,二層,一層 二層
RPUNMLKMKIKFFFP66CA,1,160.34,見其他登記事項,鋼筋混凝土造,103年12月3日,二層,一層 二層
RPVOMLLMKIKFFAP56DA,1,188.82,見其他登記事項,鋼筋混凝土造,104年1月20日,三層,一層 二層 三層 屋頂突出物
RPXNMLPJJHLFFAP66DA,21,195.90,住家用,鋼筋混凝土造,83年11月15日,四層,一層 二層 三層 四層 騎樓 電梯樓梯間
RPWNMLMKJHLFFDP56CA,32,185.41,住家用,加強磚造,72年9月17日,二層,一層 二層
RPWNMLMKJHLFFDP56CA,26,135.99,工業用,鋼造,78年7月15日,一層,一層
RPPPMLSKJHLFFDP66CA,,175.13,見其他登記事項,鋼筋混凝土造,104年10月7日,三層,一層 二層 三層 見其他登記事項
RPQPMLSKJHLFFDP76CA,,171.98,見其他登記事項,鋼筋混凝土造,104年10月7日,三層,一層 二層 三層 見其他登記事項
RPRPMLSKJHLFFDP86CA,,198.42,見其他登記事項,鋼筋混凝土造,104年10月7日,三層,一層 二層 三層 見其他登記事項
RPSPMLSKJHLFFDP96CA,1,199.31,住家用,鋼筋混凝土造,104年5月18日,四層,一層 二層 三層 四層
RPSNMLKMKIKFFDP88CA,17,218.32,住家用,鋼筋混凝土造,87年10月14日,四層,一層 二層 三層 四層 地下層
RPVNMLPJJHLFFDP66CA,34,120.75,住商用,加強磚造,70年7月21日,二層,一層 二層 騎樓
RPWNMLLMKIKFFDP76CA,32,227.11,住商用,加強磚造,73年2月23日,三層,一層 二層 三層 騎樓
RPRNMLPKJHLFFBP78CA,17,112.05,住家用,鋼筋混凝土造,88年4月12日,十二層,八層
RPRNMLPKJHLFFBP78CA,17,28.20,共用部份,鋼筋混凝土造,88年4月12日,十二層,
RPRNMLPKJHLFFBP78CA,17,26.85,共用部份,鋼筋混凝土造,88年4月12日,十二層,
RPSNMLLKJHLFFBP48CA,17,112.05,住家用,鋼筋混凝土造,88年4月12日,十二層,七層
RPSNMLLKJHLFFBP48CA,17,28.20,共有部份,鋼筋混凝土造,88年4月12日,十二層,
RPSNMLLKJHLFFBP48CA,17,26.85,共有部份,鋼筋混凝土造,88年4月12日,十二層,
RPTNMLKMKIKFFAP68CA,41,97.51,住家用,鋼筋混凝土加強磚造,63年7月9日,二層,一層 二層
RPROMLKMKIKFFAP58CA,1,199.77,見其他登記事項,鋼筋混凝土造,104年1月1日,三層,一層 二層 三層 屋頂突出物
RPQNMLLMKIKFFAP48CA,20,179.62,住家用,鋼筋混凝土造,84年7月30日,四層,一層 二層 三層 四層
RPPRMLMKJHLFFAP58CA,17,29.23,住家用,鋼筋混凝土造,88年2月2日,十層,三層
RPPRMLMKJHLFFAP58CA,17,1.84,共同部份,鋼筋混凝土造,88年2月2日,十層,
RPPRMLMKJHLFFAP58CA,17,5.68,共同部份,鋼筋混凝土造,88年2月2日,十層,
RPPRMLMKJHLFFAP58CA,17,4.56,共同部份,鋼筋混凝土造,88年2月2日,十層,
RPXNMLOJJHLFFAP09CA,74,192.09,住商用,見其他登記事項,30年7月1日,二層,一層 二層 騎樓
RPQNMLPJJHLFFAP48CA,24,104.53,住家用,加強磚造,81年2月27日,二層,一層 二層 騎樓 電梯樓梯間
RPSNMLPJJHLFFAP68CA,15,167.46,住家用,鋼筋混凝土造,90年3月15日,三層,一層 二層 三層 電梯樓梯間
RPUNMLPJJHLFFAP88CA,1,200.77,住家用,鋼筋混凝土造,104年1月30日,四層,一層 二層 三層 四層
RPXOMLQLJHLFFAP96CA,25,129.03,住家用,鋼筋混凝土造,80年2月5日,二層,一層 二層 騎樓 電梯樓梯間
RPPNMLRLJHLFFAP78CA,44,157.97,住家用,磚造,60年12月13日,一層,一層 騎樓
RPRNMLLKJHLFFAP28CA,17,28.12,住家用,鋼筋混凝土造,87年10月30日,十層,六層
RPRNMLLKJHLFFAP28CA,17,10.41,共同部份,鋼筋混凝土造,87年10月30日,十層,
RPRNMLLKJHLFFAP28CA,17,6.65,共同部份,鋼筋混凝土造,87年10月30日,十層,
RPQOMLLMKIKFFAP58CA,21,169.23,住家用,鋼筋混凝土造,83年11月20日,三層,一層 二層 三層 屋頂突出物
RPVNMLLMKIKFFAP98CA,1,328.79,見其他登記事項,鋼筋混凝土造,103年8月22日,四層,一層 二層 三層 四層 屋頂突出物
RPXNMLNKJHLFFCP66CA,,198.97,見其他登記事項,鋼筋混凝土造,104年8月31日,三層,一層 二層 三層 見其他登記事項
RPQNMLLMKIKFFCP68CA,34,114.78,住商用,見其他登記事項,70年12月22日,二層,一層 二層 騎樓
RPTNMLLKJHLFFBP58CA,17,112.05,住家用,鋼筋混凝土造,88年4月12日,十二層,七層
RPTNMLLKJHLFFBP58CA,17,28.20,共有部份,鋼筋混凝土造,88年4月12日,十二層,
RPTNMLLKJHLFFBP58CA,17,26.85,共有部份,鋼筋混凝土造,88年4月12日,十二層,
RPPNMLRLJHLFFBP88CA,36,114.66,住家用,加強磚造,69年3月1日,二層,一層 二層 騎樓
RPUNMLPJJHLFFDP56CA,38,104.58,住商用,鋼筋混凝土造,67年2月28日,二層,一層 二層 騎樓
RPTOMLQLJHLFFAP66DA,1,221.47,住家用,鋼筋混凝土造,104年4月20日,四層,一層 二層 三層 四層
RPWOMLRLJHLFFAP07DA,1,63.90,見其他登記事項,鋼筋混凝土造,104年5月12日,五層,二層
RPWOMLRLJHLFFAP07DA,1,6.25,見其他登記事項,鋼筋混凝土造,104年5月12日,五層,
RPWOMLRLJHLFFAP07DA,1,10.65,見其他登記事項,鋼筋混凝土造,104年5月12日,五層,
RPOPMLRLJHLFFAP98DA,1,66.17,見其他登記事項,鋼筋混凝土造,104年5月12日,五層,二層
RPOPMLRLJHLFFAP98DA,1,6.46,見其他登記事項,鋼筋混凝土造,104年5月12日,五層,
RPOPMLRLJHLFFAP98DA,1,10.04,見其他登記事項,鋼筋混凝土造,104年5月12日,五層,
RPPPMLRLJHLFFAP09DA,1,71.56,見其他登記事項,鋼筋混凝土造,104年5月12日,五層,二層
RPPPMLRLJHLFFAP09DA,1,17.01,見其他登記事項,鋼筋混凝土造,104年5月12日,五層,
RPPPMLRLJHLFFAP09DA,1,10.90,見其他登記事項,鋼筋混凝土造,104年5月12日,五層,
RPQPMLRLJHLFFAP56DA,1,64.51,見其他登記事項,鋼筋混凝土造,104年5月12日,五層,三層
RPQPMLRLJHLFFAP56DA,1,16.33,見其他登記事項,鋼筋混凝土造,104年5月12日,五層,
RPQPMLRLJHLFFAP56DA,1,10.83,見其他登記事項,鋼筋混凝土造,104年5月12日,五層,
RPRPMLRLJHLFFAP66DA,1,63.08,見其他登記事項,鋼筋混凝土造,104年5月12日,五層,三層
RPRPMLRLJHLFFAP66DA,1,6.15,見其他登記事項,鋼筋混凝土造,104年5月12日,五層,
RPRPMLRLJHLFFAP66DA,1,10.46,見其他登記事項,鋼筋混凝土造,104年5月12日,五層,
RPSPMLRLJHLFFAP76DA,1,62.91,見其他登記事項,鋼筋混凝土造,104年5月12日,五層,三層
RPSPMLRLJHLFFAP76DA,1,6.15,見其他登記事項,鋼筋混凝土造,104年5月12日,五層,
RPSPMLRLJHLFFAP76DA,1,9.55,見其他登記事項,鋼筋混凝土造,104年5月12日,五層,
RPTPMLRLJHLFFAP86DA,1,63.59,見其他登記事項,鋼筋混凝土造,104年5月12日,五層,二層
RPTPMLRLJHLFFAP86DA,1,16.23,見其他登記事項,鋼筋混凝土造,104年5月12日,五層,
RPTPMLRLJHLFFAP86DA,1,9.67,見其他登記事項,鋼筋混凝土造,104年5月12日,五層,
RPQNMLSLJHLFFAP09DA,1,66.91,見其他登記事項,鋼筋混凝土造,104年5月12日,五層,三層
RPQNMLSLJHLFFAP09DA,1,6.56,見其他登記事項,鋼筋混凝土造,104年5月12日,五層,
RPQNMLSLJHLFFAP09DA,1,10.16,見其他登記事項,鋼筋混凝土造,104年5月12日,五層,
RPRNMLSLJHLFFAP56DA,1,63.59,見其他登記事項,鋼筋混凝土造,104年5月12日,五層,四層
RPRNMLSLJHLFFAP56DA,1,16.23,見其他登記事項,鋼筋混凝土造,104年5月12日,五層,
RPRNMLSLJHLFFAP56DA,1,9.67,見其他登記事項,鋼筋混凝土造,104年5月12日,五層,
RPSNMLSLJHLFFAP66DA,1,71.56,見其他登記事項,鋼筋混凝土造,104年5月12日,五層,四層
RPSNMLSLJHLFFAP66DA,1,17.01,見其他登記事項,鋼筋混凝土造,104年5月12日,五層,
RPSNMLSLJHLFFAP66DA,1,10.90,見其他登記事項,鋼筋混凝土造,104年5月12日,五層,
RPUNMLSLJHLFFAP86DA,1,64.51,見其他登記事項,鋼筋混凝土造,104年5月12日,五層,五層
RPUNMLSLJHLFFAP86DA,1,16.33,見其他登記事項,鋼筋混凝土造,104年5月12日,五層,
RPUNMLSLJHLFFAP86DA,1,10.83,見其他登記事項,鋼筋混凝土造,104年5月12日,五層,
RPVNMLSLJHLFFAP96DA,1,65.78,見其他登記事項,鋼筋混凝土造,104年5月12日,五層,五層
RPVNMLSLJHLFFAP96DA,1,16.17,見其他登記事項,鋼筋混凝土造,104年5月12日,五層,
RPVNMLSLJHLFFAP96DA,1,10.46,見其他登記事項,鋼筋混凝土造,104年5月12日,五層,
RPOOMLSLJHLFFAP98DA,1,72.53,見其他登記事項,鋼筋混凝土造,104年5月12日,五層,五層
RPOOMLSLJHLFFAP98DA,1,17.10,見其他登記事項,鋼筋混凝土造,104年5月12日,五層,
RPOOMLSLJHLFFAP98DA,1,12.11,見其他登記事項,鋼筋混凝土造,104年5月12日,五層,
RPUOMLLMKIKFFAP09DA,1,190.08,見其他登記事項,鋼筋混凝土造,104年1月20日,三層,一層 二層 三層 屋頂突出物
RPSNMLKMKIKFFFP09CA,1,166.17,見其他登記事項,鋼筋混凝土造,103年12月3日,二層,一層 二層
RPUNMLLMKIKFFEP66CA,31,117.22,住家用,鋼筋混凝土造,73年9月15日,二層,一層 二層 電梯樓梯間
RPPNMLMJJHLFFEP48CA,35,91.92,住商用,鋼筋混凝土造,69年8月16日,二層,一層 二層 騎樓
RPQNMLPJJHLFFBP78EA,17,62.29,住家用,鋼筋混凝土造,88年4月12日,十二層,九層
RPQNMLPJJHLFFBP78EA,17,14.97,共用部份,鋼筋混凝土造,88年4月12日,十二層,
RPQNMLPJJHLFFBP78EA,17,15.54,共用部份,鋼筋混凝土造,88年4月12日,十二層,
SPQNMLPJJHLFFBP88EA,17,62.29,住家用,鋼筋混凝土造,88年4月12日,十二層,八層
SPQNMLPJJHLFFBP88EA,17,15.54,共用部份,鋼筋混凝土造,88年4月12日,十二層,
SPQNMLPJJHLFFBP88EA,17,14.97,共用部份,鋼筋混凝土造,88年4月12日,十二層,
TPQNMLPJJHLFFBP98EA,17,62.29,住家用,鋼筋混凝土造,88年4月12日,十二層,十層
TPQNMLPJJHLFFBP98EA,17,15.54,共用部份,鋼筋混凝土造,88年4月12日,十二層,
TPQNMLPJJHLFFBP98EA,17,14.97,共用部份,鋼筋混凝土造,88年4月12日,十二層,
RPQNMLPJJHLFFAP68EA,15,256.64,住家用,鋼筋混凝土造,89年3月30日,四層,一層 二層 三層 四層 地下層
RPPOMLPJJHLFFEP98DA,42,108.96,住家用,加強磚造,62年7月30日,二層,一層 二層
RPSNMLOJJHLFFCP88DA,,196.35,見其他登記事項,鋼筋混凝土造,104年11月18日,三層,一層 二層 三層 屋頂突出物
RPSNMLRJJHLFFDP66DA,9,93.39,見其他登記事項,鋼筋混凝土造,95年12月5日,十二層,九層
RPSNMLRJJHLFFDP66DA,9,.64,見其他登記事項,鋼筋混凝土造,95年12月5日,十二層,一層
RPSNMLRJJHLFFDP66DA,9,9.92,見其他登記事項,鋼筋混凝土造,95年12月5日,十二層,
RPSNMLRJJHLFFDP66DA,9,18.05,見其他登記事項,鋼筋混凝土造,95年12月5日,十二層,
RPTNMLRJJHLFFDP76DA,9,93.39,見其他登記事項,鋼筋混凝土造,95年12月5日,十二層,八層
RPTNMLRJJHLFFDP76DA,9,.64,見其他登記事項,鋼筋混凝土造,95年12月5日,十二層,一層
RPTNMLRJJHLFFDP76DA,9,9.92,見其他登記事項,鋼筋混凝土造,95年12月5日,十二層,
RPTNMLRJJHLFFDP76DA,9,18.05,見其他登記事項,鋼筋混凝土造,95年12月5日,十二層,
RPWNMLKLJHLFFDP56DA,5,233.93,住家用,鋼筋混凝土造,100年5月20日,四層,一層 二層 三層 四層
RPSNMLMLJHLFFEP09DA,36,202.21,住商用,見其他登記事項,68年12月12日,三層,一層 二層 三層 騎樓 電梯樓梯間
RPVNMLNKJHLFFAP09EA,23,84.06,住家用,鋼筋混凝土造,82年2月18日,七層,七層
RPPNMLQJJHLFFFP98CA,19,67.58,見其他登記事項,見其他登記事項,85年11月2日,一層,一層
RPPNMLPLJHLFFAP68DA,1,202.88,見其他登記事項,鋼筋混凝土造,104年4月20日,四層,一層 二層 三層 四層 見其他登記事項
RPRNMLPLJHLFFAP88DA,1,202.88,見其他登記事項,鋼筋混凝土造,104年4月20日,四層,一層 二層 三層 四層 見其他登記事項
RPSNMLPLJHLFFAP98DA,1,200.89,見其他登記事項,鋼筋混凝土造,104年4月20日,四層,一層 二層 三層 四層 見其他登記事項
RPUNMLPLJHLFFAP56DA,1,200.89,見其他登記事項,鋼筋混凝土造,104年4月20日,四層,一層 二層 三層 四層 見其他登記事項
RPVNMLPLJHLFFAP66DA,1,200.89,見其他登記事項,鋼筋混凝土造,104年4月20日,四層,一層 二層 三層 四層 見其他登記事項
RPWNMLPLJHLFFAP76DA,1,200.89,見其他登記事項,鋼筋混凝土造,104年4月20日,四層,一層 二層 三層 四層 見其他登記事項
RPQNMLQLJHLFFAP88DA,1,193.86,住家用,鋼筋混凝土造,104年4月20日,四層,一層 二層 三層 四層
RPRNMLQLJHLFFAP98DA,1,202.88,見其他登記事項,鋼筋混凝土造,104年4月20日,四層,一層 二層 三層 四層 見其他登記事項
RPSNMLQLJHLFFAP09DA,1,202.88,住家用,鋼筋混凝土造,104年4月20日,四層,一層 二層 三層 四層
RPTNMLQLJHLFFAP56DA,1,205.47,見其他登記事項,鋼筋混凝土造,104年4月20日,四層,一層 二層 三層 四層 見其他登記事項
RPUNMLQLJHLFFAP66DA,1,200.89,見其他登記事項,鋼筋混凝土造,104年4月20日,四層,一層 二層 三層 四層 見其他登記事項
RPVNMLQLJHLFFAP76DA,1,198.41,住家用,鋼筋混凝土造,104年4月20日,四層,一層 二層 三層 四層
RPOOMLQLJHLFFAP78DA,1,209.22,住家用,鋼筋混凝土造,104年4月20日,四層,一層 二層 三層 四層
RPQOMLQLJHLFFAP98DA,1,209.02,見其他登記事項,鋼筋混凝土造,104年4月20日,四層,一層 二層 三層 四層 見其他登記事項
RPROMLQLJHLFFAP09DA,1,202.88,見其他登記事項,鋼筋混凝土造,104年4月20日,四層,一層 二層 三層 四層 見其他登記事項
RPSOMLQLJHLFFAP56DA,1,203.68,住家用,鋼筋混凝土造,104年4月20日,四層,一層 二層 三層 四層
RPUOMLQLJHLFFAP76DA,1,219.06,住家用,鋼筋混凝土造,104年4月20日,四層,一層 二層 三層 四層
RPQNMLPKJHLFFBP68CA,35,119.55,住家用,加強磚造,70年2月12日,二層,一層 二層 騎樓 電梯樓梯間
RPTOMLLKJHLFFAP58CA,4,156.39,住家用,鋼筋混凝土造,100年9月28日,三層,一層 二層 三層
RPRNMLPJJHLFFAP58CA,1,312.32,住家用,鋼筋混凝土造,104年3月20日,四層,一層 二層 三層 四層 騎樓
RPSNMLTLJHLFFAP66CA,47,848.04,見其他登記事項,見其他登記事項,57年10月1日,三層,一層 二層 三層 騎樓
RPSNMLTLJHLFFAP66CA,47,848.04,見其他登記事項,見其他登記事項,57年10月1日,三層,一層 二層 三層 騎樓
RPSNMLTLJHLFFAP66CA,39,159.32,見其他登記事項,見其他登記事項,66年4月21日,二層,一層 二層
RPSNMLTLJHLFFAP66CA,39,179.40,見其他登記事項,見其他登記事項,66年4月21日,二層,一層 二層
RPSNMLTLJHLFFAP66CA,39,927.62,見其他登記事項,見其他登記事項,66年4月21日,一層,一層
RPSNMLTLJHLFFAP66CA,39,473.48,工業用,見其他登記事項,66年4月21日,四層,一層 二層 三層 四層 地下層
RPSNMLMJKHLFFDP78CA,,228.68,見其他登記事項,鋼筋混凝土造,104年7月9日,三層,一層 二層 三層 屋頂突出物
RPOOMLQJJHLFFAP48CA,16,110.52,住家用,鋼筋混凝土造,88年9月26日,五層,四層 五層 屋頂突出物
RPOOMLQJJHLFFAP48CA,16,19.15,停車空間,鋼筋混凝土造,88年9月26日,五層,
RPOOMLQJJHLFFAP48CA,16,21.57,共同部份,鋼筋混凝土造,88年9月26日,五層,
RPTNMLMKJHLFFAP58CA,9,248.76,農舍,加強磚造,95年12月26日,二層,一層 二層
RPVNMLMKJHLFFCP98CA,10,166.15,住家用,鋼筋混凝土造,95年4月25日,三層,一層 二層 三層 電梯樓梯間
RPVNMLRJJHLFFDP86CA,38,81.32,住商用,加強磚造,66年8月20日,三層,一層 二層 三層 騎樓
RPWOMLPLJHLFFAP86DA,19,73.73,住家用,鋼筋混凝土造,86年5月15日,十六層,五層
RPWOMLPLJHLFFAP86DA,19,11.79,共有部份,鋼筋混凝土造,86年5月15日,十六層,
RPWOMLPLJHLFFAP86DA,19,14.39,共有部份,鋼筋混凝土造,86年5月15日,十六層,
RPPNMLLKJHLFFBP38EA,17,81.28,住家用,鋼筋混凝土造,88年4月12日,十二層,十層
RPPNMLLKJHLFFBP38EA,17,19.57,共用部份,鋼筋混凝土造,88年4月12日,十二層,
RPPNMLLKJHLFFBP38EA,17,18.59,共用部份,鋼筋混凝土造,88年4月12日,十二層,
RPQNMLLKJHLFFFP68CA,21,188.96,住商用,鋼筋混凝土造,84年5月2日,四層,一層 二層 三層 四層 騎樓
RPRNMLKLJHLFFFP78CA,20,217.09,見其他登記事項,鋼筋混凝土造,85年4月10日,四層,一層 二層 三層 四層
RPQNMLOKJHLFFBP58CA,17,81.28,住家用,鋼筋混凝土造,88年4月12日,十二層,七層
RPQNMLOKJHLFFBP58CA,17,19.57,共用部份,鋼筋混凝土造,88年4月12日,十二層,
RPQNMLOKJHLFFBP58CA,17,18.59,共用部份,鋼筋混凝土造,88年4月12日,十二層,
RPQNMLLKJHLFFBP28CA,11,197.22,住家用,鋼筋混凝土造,93年12月20日,三層,一層 二層 三層 電梯樓梯間
RPRNMLTKJHLFFBP56CA,19,99.61,住家用,鋼筋混凝土造,85年10月20日,十一層,五層
RPRNMLTKJHLFFBP56CA,19,4.36,見其他登記事項,鋼筋混凝土造,85年10月20日,十一層,
RPRNMLTKJHLFFBP56CA,19,30.50,共用部份,鋼筋混凝土造,85年10月20日,十一層,
RPPNMLLKJHLFFCP28CA,35,115.00,住商用,見其他登記事項,70年4月15日,二層,一層 二層 屋頂突出物 騎樓
RPRNMLMKJHLFFAP38CA,1,56.51,住家用,鋼筋混凝土造,103年9月4日,四層,三層
RPRNMLMKJHLFFAP38CA,1,13.83,見其他登記事項,鋼筋混凝土造,103年9月4日,四層,
RPSOMLSJJHLFFAP09CA,20,174.60,住家用,鋼筋混凝土造,84年7月1日,四層,一層 二層 三層 四層 夾層
RPQPMLSKJHLFFAP09CA,2,280.65,見其他登記事項,鋼筋混凝土造,103年1月27日,四層,一層 二層 三層 四層
RPOOMLNKJHLFFCP48CA,,196.43,見其他登記事項,鋼筋混凝土造,104年8月31日,三層,一層 二層 三層 見其他登記事項
RPTNMLPJKHLFFCP09CA,34,117.23,住商用,加強磚造,70年5月5日,二層,一層 二層 騎樓
RPSNMLLKJHLFFFP88CA,1,158.46,見其他登記事項,鋼筋混凝土造,103年12月3日,二層,一層 二層
RPQNMLNJKHLFFEP78CA,,175.46,住家用,鋼筋混凝土造,104年9月15日,三層,一層 二層 三層 屋頂突出物
RPPPMLRLJHLFFDP66CA,25,130.03,住家用,加強磚造,80年2月11日,二層,一層 二層 騎樓 電梯樓梯間
RPUNMLRLJHLFFDP96CA,13,148.20,見其他登記事項,鋼筋混凝土造,91年11月28日,三層,一層 二層 三層 電梯樓梯間
RPPNMLOLJHLFFBP58CA,1,213.02,見其他登記事項,鋼筋混凝土造,104年4月20日,三層,一層 二層 三層 見其他登記事項
RPQNMLOLJHLFFBP68CA,1,213.02,見其他登記事項,鋼筋混凝土造,104年4月20日,三層,一層 二層 三層 見其他登記事項
RPROMLMKJHLFFDP78CA,18,117.01,住商用,鋼筋混凝土造,86年10月3日,九層,二層 三層
RPROMLMKJHLFFDP78CA,18,56.09,共有部份,鋼筋混凝土造,86年10月13日,九層,
RPROMLMKJHLFFDP78CA,18,16.45,共有部份,鋼筋混凝土造,86年10月3日,二層,
RPWOMLQLJHLFFAP86CA,25,254.58,住家用,鋼筋混凝土造,79年12月26日,二層,一層 二層 騎樓 電梯樓梯間 夾層 地下層
RPROMLMJKHLFFAP48CA,4,388.63,見其他登記事項,鋼筋混凝土造,101年5月7日,五層,一層 二層 三層 四層 五層 屋頂突出物
RPUOMLNKJHLFFAP88CA,27,170.14,住家用,鋼筋混凝土造,77年9月20日,三層,一層 二層 三層
RPOPMLSLJHLFFAP98CA,23,25.79,住家用,鋼筋混凝土造,81年8月29日,八層,七層
RPOPMLSLJHLFFAP98CA,23,6.09,共有部份,鋼筋混凝土造,81年8月29日,八層,
RPUNMLTLJHLFFAP86CA,1,237.30,見其他登記事項,鋼筋混凝土造,104年2月24日,三層,一層 二層 三層 屋頂突出物
RPOOMLRLJHLFFAP78CA,17,31.89,住家用,鋼筋混凝土造,87年10月30日,十層,九層
RPOOMLRLJHLFFAP78CA,17,21.60,共有部份,鋼筋混凝土造,87年10月30日,十層,
RPOOMLRLJHLFFAP78CA,17,8.28,共有部份,鋼筋混凝土造,87年10月30日,十層,
RPSNMLPJKHLFFCP98CA,4,181.89,住家用,鋼筋混凝土造,100年12月1日,三層,一層 二層 三層
RPXOMLSKJHLFFAP17DA,19,39.90,停車空間,鋼筋混凝土造,85年7月20日,九層,地下一層
RPXOMLSKJHLFFAP17DA,19,156.09,住家用,鋼筋混凝土造,85年7月20日,九層,九層 夾層
RPXOMLSKJHLFFAP17DA,19,6.73,共同部份,鋼筋混凝土造,85年7月20日,九層,
RPXOMLSKJHLFFAP17DA,19,24.80,共同部份,鋼筋混凝土造,85年7月20日,九層,
RPWNMLPJKHLFFDP86CA,,264.41,見其他登記事項,鋼筋混凝土造,104年7月9日,三層,一層 二層 三層 屋頂突出物
RPSNMLSKJHLFFCP76DA,38,101.50,住商用,加強磚造,67年1月1日,二層,一層 二層 騎樓
RPPPMLOKJHLFFAP68DA,28,259.72,住家用,鋼筋混凝土造,77年1月15日,三層,一層 二層 三層 騎樓
RPUNMLOKJHLFFAP98DA,34,126.84,住家用,加強磚造,70年11月16日,二層,一層 二層 騎樓 電梯樓梯間
RPSNMLKLJHLFFCP58CA,18,239.41,農舍,鋼筋混凝土造,86年10月22日,三層,一層 二層 三層
RPTNMLPJKHLFFBP98CA,,177.68,見其他登記事項,鋼筋混凝土造,104年9月17日,三層,一層 二層 三層 見其他登記事項
RPUNMLPJKHLFFBP09CA,,174.99,見其他登記事項,鋼筋混凝土造,104年9月17日,三層,一層 二層 三層 見其他登記事項
RPPNMLPJKHLFFBP58CA,,233.73,見其他登記事項,鋼筋混凝土造,104年9月17日,三層,一層 二層 三層
RPQNMLPJKHLFFBP68CA,,234.44,見其他登記事項,鋼筋混凝土造,104年9月17日,三層,一層 二層 三層
RPPQMLSKJHLFFDP76CA,1,199.31,見其他登記事項,鋼筋混凝土造,104年5月18日,四層,一層 二層 三層 四層 見其他登記事項
RPQQMLSKJHLFFDP86CA,1,199.31,住家用,鋼筋混凝土造,104年5月18日,四層,一層 二層 三層 四層
RPVNMLOKJHLFFAP98CA,12,17.95,住家用,鋼筋混凝土造,92年7月7日,四層,二層
RPVNMLOKJHLFFAP98CA,12,6.29,共同部份,鋼筋混凝土造,92年7月7日,四層,
RPUOMLOKJHLFFAP98CA,29,187.15,住商用,鋼筋混凝土加強磚造,75年8月15日,三層,一層 二層 三層 電梯樓梯間
RPWNMLTLJHLFFAP07CA,22,3.17,住家用,鋼筋混凝土造,82年7月25日,二層,一層 二層 電梯樓梯間
RPWNMLTLJHLFFAP07CA,22,171.72,住家用,鋼筋混凝土造,82年7月21日,四層,一層 二層 三層 四層 電梯樓梯間
RPQNMLNJKHLFFAP38CA,11,176.08,住家用,鋼筋混凝土造,94年6月7日,三層,一層 二層 三層
RPRNMLPJKHLFFBP78CA,,174.99,見其他登記事項,鋼筋混凝土造,104年9月17日,三層,一層 二層 三層 見其他登記事項
RPSNMLPJKHLFFBP88CA,,182.81,見其他登記事項,鋼筋混凝土造,104年9月17日,三層,一層 二層 三層 見其他登記事項
RPVNMLPJKHLFFBP56CA,,174.99,見其他登記事項,鋼筋混凝土造,104年9月17日,三層,一層 二層 三層 見其他登記事項
RPWNMLPJKHLFFBP66CA,,174.99,見其他登記事項,鋼筋混凝土造,104年9月17日,三層,一層 二層 三層 見其他登記事項
RPXNMLMJKHLFFEP76CA,29,158.27,住商用,鋼筋混凝土造,75年10月20日,三層,一層 二層 三層 電梯樓梯間
RPVNMLPKJHLFFAP56DA,35,116.64,住家用,加強磚造,70年1月30日,二層,一層 二層 騎樓
RPQNMLSKJHLFFAP98DA,28,318.89,住商用,鋼筋混凝土造,77年1月22日,四層,一層 二層 三層 四層 騎樓 電梯樓梯間
RPQNMLPKJHLFFEP98CA,32,119.29,住商用,加強磚造,72年7月1日,二層,一層 二層 騎樓
RPQNMLRLJHLFFBP09DA,35,137.06,住商用,加強磚造,69年8月14日,二層,一層 二層 騎樓 電梯樓梯間
RPPNMLMJKHLFFAP28DA,45,297.36,見其他登記事項,鋼筋混凝土加強磚造,59年6月22日,一層,一層 騎樓
RPSNMLSKJHLFFAP66EA,34,104.00,住家用,加強磚造,71年2月27日,二層,一層 二層
RPXNMLQLJHLFFAP07EA,22,241.66,住商用,鋼筋混凝土造,82年10月18日,四層,一層 二層 三層 四層 騎樓
RPROMLPJKHLFFDP56DA,45,114.71,住家用,鋼筋混凝土加強磚造,59年8月27日,二層,一層 二層 騎樓
RPWOMLQLJHLFFDP17CA,16,118.67,住家用,鋼筋混凝土造,88年7月30日,十四層,八層
RPWOMLQLJHLFFDP17CA,16,38.27,共有部份,鋼筋混凝土造,88年7月30日,十四層,
RPWOMLQLJHLFFDP17CA,16,2.26,住家用,鋼筋混凝土造,88年7月30日,十四層,
RPWOMLQLJHLFFDP17CA,16,17.29,見其他登記事項,鋼筋混凝土造,88年7月30日,十四層,
RPQNMLSKJHLFFFP76CA,3,194.22,見其他登記事項,鋼筋混凝土造,101年11月8日,二層,一層 二層 見其他登記事項
RPXNMLKLJHLFFDP56CA,4,179.61,見其他登記事項,鋼筋混凝土造,101年4月26日,三層,一層 二層 三層 屋頂突出物
RPTPMLSKJHLFFDP07CA,1,291.19,見其他登記事項,鋼筋混凝土造,104年3月13日,三層,一層 二層 三層
RPWNMLSKJHLFFAP86CA,15,10.38,共同部份,見其他登記事項,90年1月17日,四層,
RPWNMLSKJHLFFAP86CA,15,31.52,住家用,見其他登記事項,90年1月17日,四層,四層
RPWNMLTKJHLFFAP96CA,2,613.44,見其他登記事項,鋼筋混凝土造,102年10月18日,四層,一層 二層 三層 四層 騎樓 電梯樓梯間
RPPNMLKLJHLFFAP08CA,7,71.48,見其他登記事項,鋼筋混凝土造,97年11月1日,9,九層
RPPNMLKLJHLFFAP08CA,7,13.94,共有部份,鋼筋混凝土造,97年11月1日,十層,
RPPNMLKLJHLFFAP08CA,7,6.32,共有部份,鋼筋混凝土造,97年11月1日,十層,
RPPOMLKLJHLFFDP48CA,18,28.55,住家用,鋼筋混凝土造,86年11月6日,八層,五層
RPPOMLKLJHLFFDP48CA,18,2.07,共有部份,鋼筋混凝土造,86年11月6日,八層,
RPPOMLKLJHLFFDP48CA,18,1.81,共有部份,鋼筋混凝土造,86年11月6日,八層,
RPPOMLKLJHLFFDP48CA,18,4.11,共有部份,鋼筋混凝土造,86年11月6日,八層,
RPPOMLKLJHLFFDP48CA,18,.20,共有部份,鋼筋混凝土造,86年11月6日,八層,
RPPOMLKLJHLFFDP48CA,18,3.24,共有部份,鋼筋混凝土造,86年11月6日,八層,
RPSNMLLJKHLFFCP58CA,22,172.66,住家用,鋼筋混凝土造,82年12月10日,三層,一層 二層 三層
RPSNMLSKJHLFFFP96CA,3,194.22,見其他登記事項,鋼筋混凝土造,101年11月8日,二層,一層 二層 見其他登記事項
RPWNMLOJKHLFFEP86CA,9,208.92,住家用,鋼筋混凝土造,95年12月14日,四層,一層 二層 三層 四層
RPQNMLKLJHLFFDP48CA,10,249.04,住家用,鋼筋混凝土造,94年10月13日,四層,一層 二層 三層 四層
RPPNMLKLJHLFFEP58DA,21,244.39,住家用,鋼筋混凝土造,83年12月22日,四層,一層 二層 三層 四層
RPQNMLKLJHLFFEP68DA,22,183.54,住商用,鋼筋混凝土造,83年3月3日,三層,一層 二層 三層 騎樓 電梯樓梯間
RPRNMLKLJHLFFCP58DA,37,54.03,住商用,加強磚造,67年11月20日,二層,一層 二層 騎樓
RPQOMLLLJHLFFDP68CA,,157.05,住家用,鋼筋混凝土造,104年10月12日,三層,一層 二層 三層
RPWNMLRKLHLFFDP27CA,,264.41,見其他登記事項,鋼筋混凝土造,104年7月9日,三層,一層 二層 三層 屋頂突出物
RPPNMLLLJHLFFFP68CA,1,158.46,見其他登記事項,鋼筋混凝土造,103年12月3日,二層,一層 二層
RPPNMLOLJHLFFCP68CA,,196.43,見其他登記事項,鋼筋混凝土造,104年8月31日,三層,一層 二層 三層 見其他登記事項
RPQNMLPLJHLFFCP88CA,,218.67,見其他登記事項,鋼筋混凝土造,104年8月31日,三層,見其他登記事項
RPSOMLMLJHLFFAP68CA,34,123.53,住商用,加強磚造,70年6月22日,二層,一層 二層 騎樓 電梯樓梯間
RPPNMLQLJHLFFAP68CA,38,62.88,住家用,加強磚造,67年3月4日,二層,一層 二層
RPPNMLRKKHLFFAP78CA,22,171.72,住家用,鋼筋混凝土造,82年7月21日,四層,一層 二層 三層 四層 電梯樓梯間
RPUNMLMJKHLFFAP68CA,21,227.02,住家用,鋼筋混凝土造,83年9月12日,四層,一層 二層 三層 四層
RPWOMLSLJHLFFAP07CA,22,86.62,住家用,鋼筋混凝土造,83年6月15日,十二層,十一層
RPWOMLSLJHLFFAP07CA,22,10.46,共有部份,鋼筋混凝土造,83年6月15日,,
RPWOMLSLJHLFFAP07CA,22,11.36,共有部份,鋼筋混凝土造,83年6月15日,十二層,
RPPNMLTLJHLFFAP98CA,15,199.00,住商用,鋼筋混凝土造,90年5月10日,四層,一層 二層 三層 四層 地下層
RPPNMLTLJHLFFAP98CA,15,20.50,共有部份,鋼筋混凝土造,90年5月10日,五層,
RPQOMLMLJHLFFAP48CA,22,60.24,住家用,鋼筋混凝土造,83年6月15日,十層,一層
RPTNMLLLJHLFFAP58CA,1,256.58,見其他登記事項,鋼筋混凝土造,104年1月6日,三層,一層 二層 三層 屋頂突出物
RPQNMLPKKHLFFBP78CA,,174.99,見其他登記事項,鋼筋混凝土造,104年9月17日,三層,一層 二層 三層 見其他登記事項
RPSNMLPKKHLFFBP98CA,,177.38,見其他登記事項,鋼筋混凝土造,104年9月17日,三層,一層 二層 三層 見其他登記事項
RPSNMLMLJHLFFBP68CA,1,252.52,見其他登記事項,鋼筋混凝土造,103年9月6日,三層,一層 二層 三層 見其他登記事項
RPQNMLLLJHLFFDP58CA,,274.08,住家用,鋼筋混凝土造,104年7月16日,四層,一層 二層 三層 四層
RPTNMLMLJHLFFAP78DA,8,679.38,見其他登記事項,鋼筋混凝土造,97年3月12日,五層,一層 二層 三層 四層 五層 騎樓 水塔 電梯樓梯間
RPTNMLMLJHLFFAP78DA,8,270.56,見其他登記事項,鋼筋混凝土造,97年3月12日,二層,一層 二層 騎樓
RPPNMLPKKHLFFEP98CA,20,23.38,住家用,鋼筋混凝土造,84年7月20日,十二層,十一層
RPPNMLPKKHLFFEP98CA,20,7.00,見其他登記事項,鋼筋混凝土造,84年7月20日,一層,
RPPNMLPKKHLFFEP98CA,20,2.23,見其他登記事項,鋼筋混凝土造,84年7月20日,十二層,
RPSNMLNJKHLFFDP88CA,1,177.80,住家用,鋼筋混凝土造,104年5月4日,三層,一層 二層 三層
RPXNMLLLJHLFFDP66CA,21,197.19,住家用,鋼筋混凝土造,83年12月28日,四層,一層 二層 三層 四層
RPWNMLMLJHLFFDP66CA,21,198.02,住家用,鋼筋混凝土造,83年11月1日,四層,一層 二層 三層 四層
RPPNMLPLJHLFFDP88CA,1,191.74,見其他登記事項,鋼筋混凝土造,104年3月11日,三層,一層 二層 三層 電梯樓梯間
RPQNMLKMJHLFFBP48DA,16,62.79,住家用,鋼筋混凝土造,89年5月29日,九層,九層
RPQNMLKMJHLFFBP48DA,16,15.91,共有部份,鋼筋混凝土造,89年5月29日,九層,
RPQNMLKMJHLFFBP48DA,16,9.04,共有部份,鋼筋混凝土造,89年5月29日,九層,
RPTNMLLJKHLFFDP88DA,31,119.24,住家用,加強磚造,73年8月1日,四層,四層
RPRNMLPLJHLFFDP56DA,18,168.62,住家用,鋼筋混凝土造,86年8月6日,三層,一層 二層 三層
RPOOMLMLJHLFFDP58CA,19,102.11,住家用,鋼筋混凝土造,85年9月26日,八層,四層
RPOOMLMLJHLFFDP58CA,19,20.08,共有部份,鋼筋混凝土造,85年9月26日,八層,
RPOOMLMLJHLFFDP58CA,19,14.70,共有部份,鋼筋混凝土造,85年9月26日,八層,
RPOOMLMLJHLFFDP58CA,19,1.85,共有部份,鋼筋混凝土造,85年9月26日,八層,
RPTNMLPKKHLFFBP09CA,,174.99,見其他登記事項,鋼筋混凝土造,104年9月17日,三層,一層 二層 三層 見其他登記事項
RPUNMLPKKHLFFBP56CA,,174.99,見其他登記事項,鋼筋混凝土造,104年9月17日,三層,一層 二層 三層 見其他登記事項
RPVNMLPKKHLFFBP66CA,,174.99,見其他登記事項,鋼筋混凝土造,104年9月17日,三層,一層 二層 三層 見其他登記事項
RPUOMLPLJHLFFAP56CA,10,179.18,住家用,鋼筋混凝土造,95年4月6日,三層,一層 二層 三層 電梯樓梯間
RPQNMLPLJHLFFAP68CA,3,308.48,見其他登記事項,鋼筋混凝土造,102年5月10日,四層,一層 二層 三層 四層 電梯樓梯間
RPTNMLPLJHLFFAP98CA,21,174.71,住家用,鋼筋混凝土造,84年2月12日,四層,一層 二層 三層 四層 騎樓
RPROMLPLJHLFFAP88CA,49,73.31,住家用,見其他登記事項,55年9月9日,二層,一層 二層 見其他登記事項
RPPNMLQLJHLFFBP78CA,22,168.60,住家用,鋼筋混凝土造,82年10月18日,三層,一層 二層 三層
RPPOMLMLJHLFFDP68CA,42,111.88,住家用,加強磚造,63年3月11日,二層,一層 二層 騎樓
RPQNMLPLJHLFFDP98CA,34,115.87,住家用,加強磚造,71年2月25日,二層,一層 二層 騎樓 電梯樓梯間
RPPNMLQLJHLFFEP56DA,42,194.96,住家用,加強磚造,63年6月10日,二層,一層 二層 騎樓
SPPNMLQLJHLFFEP66DA,42,179.20,住家用,加強磚造,63年6月10日,二層,一層 二層 騎樓
RPVOMLSLJHLFFAP17EA,24,139.61,住家用,鋼筋混凝土造,81年5月26日,十層,六層
RPQNMLQKKHLFFAP98EA,38,92.04,住家用,加強磚造,67年6月22日,二層,一層 二層
RPVOMLRLJHLFFDP17CA,21,147.52,住家用,鋼筋混凝土造,83年11月17日,七層,七層
RPVOMLRLJHLFFDP17CA,21,15.16,見其他登記事項,鋼筋混凝土造,83年11月17日,七層,
RPVOMLRLJHLFFDP17CA,21,7.04,見其他登記事項,鋼筋混凝土造,83年11月17日,七層,
RPVOMLRLJHLFFDP17CA,21,22.27,見其他登記事項,鋼筋混凝土造,83年11月17日,七層,
RPSNMLRLJHLFFDP76CA,21,87.00,農舍,鐵造,83年10月15日,一層,一層
RPTNMLSLJHLFFDP96CA,34,84.00,住家用,加強磚造,70年8月25日,一層,一層
RPQNMLPKKHLFFDP98CA,1,260.49,見其他登記事項,鋼筋混凝土造,103年12月29日,三層,一層 二層 三層 見其他登記事項
RPRNMLSLJHLFFEP86CA,8,828.00,見其他登記事項,見其他登記事項,97年1月21日,一層,見其他登記事項
RPQNMLTLJHLFFBP56CA,19,104.29,住家用,鋼筋混凝土造,86年4月20日,十三層,五層
RPQNMLTLJHLFFBP56CA,19,32.27,共有部份,鋼筋混凝土造,86年4月20日,十三層,
RPSNMLRKKHLFFBP56CA,,174.99,見其他登記事項,鋼筋混凝土造,104年9月17日,三層,一層 二層 三層 見其他登記事項
RPTNMLRKKHLFFBP66CA,,174.99,見其他登記事項,鋼筋混凝土造,104年9月17日,三層,一層 二層 三層 見其他登記事項
RPUNMLRKKHLFFBP76CA,,174.99,見其他登記事項,鋼筋混凝土造,104年9月17日,三層,一層 二層 三層 見其他登記事項
RPROMLRLJHLFFAP09CA,10,175.52,見其他登記事項,鋼筋混凝土造,94年7月29日,四層,一層 二層 三層 四層
RPSOMLRLJHLFFAP56CA,1,165.64,住商用,鋼筋混凝土造,103年10月17日,三層,一層 二層 三層
RPOOMLTLJHLFFAP98CA,21,84.93,住家用,鋼筋混凝土造,83年7月28日,六層,四層
RPOOMLTLJHLFFAP98CA,21,35.72,共有部份,鋼筋混凝土造,83年7月28日,六層,
RPPNMLSLJHLFFAP88CA,33,157.69,工業用,見其他登記事項,72年6月6日,一層,一層
RPPNMLSLJHLFFAP88CA,33,50.59,工業用,見其他登記事項,72年6月6日,一層,一層
RPPNMLSLJHLFFAP88CA,33,47.70,工業用,見其他登記事項,72年6月6日,一層,一層
RPPNMLSLJHLFFAP88CA,33,148.44,工業用,見其他登記事項,72年6月6日,一層,一層
RPUOMLRLJHLFFAP76CA,21,32.41,住家用,鋼筋混凝土造,83年12月10日,六層,五層
RPUOMLRLJHLFFAP76CA,21,6.00,共有部份,鋼筋混凝土造,83年12月10日,六層,
RPUOMLRLJHLFFAP76CA,21,7.12,共有部份,鋼筋混凝土造,83年12月10日,六層,
RPTNMLOJKHLFFFP66CA,17,127.51,住商用,鋼筋混凝土造,88年1月6日,七層,一層 二層
RPTNMLOJKHLFFFP66CA,17,27.08,見其他登記事項,鋼筋混凝土造,88年1月6日,七層,
RPTNMLOJKHLFFFP66CA,17,18.20,見其他登記事項,鋼筋混凝土造,88年1月6日,七層,
RPPOMLRLJHLFFAP98DA,36,113.40,住家用,加強磚造,68年8月1日,二層,一層 二層 騎樓
RPTNMLQKKHLFFDP76CA,1,255.85,住家用,鋼筋混凝土造,104年7月9日,四層,一層 二層 三層 四層
RPQPMLRLJHLFFDP76CA,21,212.03,住家用,鋼筋混凝土造,83年10月1日,四層,一層 二層 三層 四層 騎樓
RPRNMLLJKHLFFDP58CA,21,198.02,住家用,鋼筋混凝土造,83年11月1日,四層,一層 二層 三層 四層
RPRNMLRLJHLFFDP66CA,25,183.12,住家用,加強磚造,80年6月20日,二層,一層 二層 電梯樓梯間
RPQOMLSLJHLFFBP66DA,37,88.66,住家用,鋼筋混凝土加強磚造,67年10月2日,二層,一層 二層
RPPNMLSLJHLFFBP56EA,22,95.66,住家用,鋼筋混凝土造,83年4月30日,十層,九層
RPPNMLSLJHLFFBP56EA,22,13.68,共有部份,鋼筋混凝土造,83年4月30日,地下二層,
RPPNMLSLJHLFFBP56EA,22,23.82,共有部份,鋼筋混凝土造,83年4月30日,十層,
RPXOMLSLJHLFFAP37EA,22,84.26,住家用,鋼筋混凝土造,83年3月30日,七層,二層
RPXOMLSLJHLFFAP37EA,22,24.07,共有部份,鋼筋混凝土造,83年3月30日,七層,
RPUNMLRLJHLFFEP17DA,1,165.44,住家用,見其他登記事項,103年10月20日,四層,一層 二層 三層 四層
RPXNMLPJKHLFFDP96CA,21,232.73,住家用,鋼筋混凝土造,84年3月23日,四層,一層 二層 三層 四層 騎樓 電梯樓梯間
RPUNMLQKKHLFFDP86CA,23,167.09,住家用,鋼筋混凝土造,82年5月12日,三層,一層 二層 三層
RPVNMLTLJHLFFEP37CA,18,216.10,住商用,鋼筋混凝土造,87年1月5日,四層,一層 二層 三層 四層
RPXNMLTLJHLFFBP27CA,3,257.70,見其他登記事項,鋼筋混凝土造,101年8月20日,二層,一層 二層
RPQNMLLJKHLFFCP38CA,19,185.29,住家用,鋼筋混凝土造,86年1月18日,四層,一層 二層 三層 四層 水塔
RPXNMLSLJHLFFAP07CA,1,190.08,見其他登記事項,鋼筋混凝土造,104年1月20日,三層,一層 二層 三層 屋頂突出物
RPQOMLTLJHLFFAP56CA,19,247.35,住家用,鋼筋混凝土造,85年11月26日,四層,一層 二層 三層 四層 地下層
RPOOMLPKKHLFFAP58CA,10,153.59,住家用,鋼筋混凝土造,95年5月24日,三層,一層 二層 三層 電梯樓梯間
RPUNMLTLJHLFFBP96CA,1,104.64,見其他登記事項,鋼筋混凝土造,104年4月20日,三層,一層 二層 三層 見其他登記事項
RPUNMLTLJHLFFBP96CA,1,104.64,見其他登記事項,鋼筋混凝土造,104年4月20日,三層,一層 二層 三層 見其他登記事項
RPUNMLKMJHLFFAP78DA,21,84.65,住家用,鋼筋混凝土造,83年8月7日,七層,四層
RPUNMLKMJHLFFAP78DA,21,19.20,共同部份,鋼筋混凝土造,83年8月7日,,
RPUNMLKMJHLFFAP78DA,21,15.50,共同部份,鋼筋混凝土造,83年8月7日,七層,
RPTNMLTLJHLFFDP07CA,20,198.74,住家用,鋼筋混凝土造,84年12月26日,三層,一層 二層 三層 電梯樓梯間
RPSNMLQKKHLFFEP86DA,43,90.32,住家用,加強磚造,62年2月28日,二層,一層 二層 騎樓
RPQNMLTLJHLFFAP66EA,19,94.02,住家用,鋼筋混凝土造,85年7月22日,八層,七層
RPQNMLTLJHLFFAP66EA,19,2.14,共有部份,鋼筋混凝土造,85年7月22日,,
RPQNMLTLJHLFFAP66EA,19,21.17,共有部份,鋼筋混凝土造,85年7月22日,,
RPUNMLPJKHLFFDP66CA,4,215.74,見其他登記事項,鋼筋混凝土造,101年6月29日,三層,一層 二層 三層 電梯樓梯間 見其他登記事項
RPTNMLKMJHLFFEP98CA,26,292.68,住家用,鋼筋混凝土造,78年8月12日,四層,一層 二層 三層 四層 騎樓
RPQOMLMLKHLFFAP68DA,34,122.70,住商用,見其他登記事項,71年2月26日,二層,一層 二層 騎樓 地下層
RPSNMLPKKHLFFCP09CA,,196.43,見其他登記事項,鋼筋混凝土造,104年8月31日,三層,一層 二層 三層 見其他登記事項
RPRNMLKMJHLFFAP38CA,3,285.61,見其他登記事項,鋼筋混凝土造,102年5月10日,四層,一層 二層 三層 四層 電梯樓梯間
RPWNMLMJKHLFFAP88CA,32,332.51,工業用,見其他登記事項,72年12月8日,一層,一層
RPUNMLTKKHLFFAP86CA,5,209.89,住家用,鋼筋混凝土造,100年4月6日,三層,一層 二層 三層
RPUNMLPLKHLFFAP56CA,2,304.87,見其他登記事項,鋼筋混凝土造,102年8月30日,四層,一層 二層 三層 四層
RPVNMLPLKHLFFAP66CA,35,142.39,住商用,加強磚造,69年8月2日,二層,一層 二層
RPQNMLLJKHLFFFP68CA,31,112.34,住家用,加強磚造,74年5月1日,二層,一層 二層
RPRNMLNJKHLFFAP58DA,16,96.59,住家用,鋼筋混凝土造,88年9月26日,五層,四層 五層 屋頂突出物
RPRNMLNJKHLFFAP58DA,16,19.15,停車空間,鋼筋混凝土造,88年9月26日,五層,
RPRNMLNJKHLFFAP58DA,16,21.57,共同部份,鋼筋混凝土造,88年9月26日,五層,
RPPNMLMJKHLFFDP48CA,8,173.42,住家用,鋼筋混凝土造,97年3月18日,四層,一層 二層 三層 四層
RPRNMLMJKHLFFAP58EA,21,88.31,住家用,鋼筋混凝土造,83年7月23日,五層,三層
RPRNMLMJKHLFFAP58EA,21,8.77,共同部份,鋼筋混凝土造,83年7月23日,五層,
RPRNMLMJKHLFFAP58EA,21,17.80,共同部份,鋼筋混凝土造,83年7月23日,五層,
