絪腹,ó摸,ó基,ó縩キよそへ
RPWNMLQKJIKFFAU17CA,℡笵キ,0,
RPPNMLTKJIKFFCU96CA,℡笵キ,0,
RPWNMLKMJIKFFAU76CA,℡笵キ,0,
RPPOMLKMJIKFFAU78CA,℡笵キ,0,
RPQOMLKMJIKFFAU88CA,℡笵キ,0,
RPRNMLOJKIKFFAU09CA,℡笵キ,0,
RPSNMLOJKIKFFAU56CA,℡笵キ,0,
RPVOMLMJKIKFFAU76CA,加キ,0,
RPRNMLKMJHLFFAU88CA,℡笵キ,0,15.02
RPXOMLMLKIKFFAU17CA,加キ,0,13.39
RPOOMLPLKIKFFAU56CA,℡笵キ,0,
RPOPMLOLKIKFFAU56CA,℡笵キ,0,
RPROMLLLKIKFFAU09CA,℡笵キ,1500000,19.17
RPROMLLLKIKFFAU09CA,℡笵キ,1500000,19.18
RPSOMLLLKIKFFAU56CA,℡笵キ,1500000,19.18
RPSOMLLLKIKFFAU56CA,℡笵キ,1500000,19.17
RPTOMLLLKIKFFAU66CA,℡笵キ,1500000,19.18
RPTOMLLLKIKFFAU66CA,℡笵キ,1500000,19.17
RPUNMLSKKIKFFAU27CA,℡笵キ,0,.28
RPWOMLPLKIKFFAU37CA,加キ,0,13.39
RPXOMLTKJHLFFAU87EA,加キ,0,12.67
RPSOMLNKJHLFFAU56CA,加キ,0,
RPQNMLNKJHLFFAU88CA,加キ,0,
RPPOMLKLJHLFFAU68CA,℡笵キ,0,13.40
RPWNMLRJJHLFFAU17CA,加キ,0,13.40
RPPOMLLJKHLFFAU68CA,加キ,0,
RPQOMLKMJHLFFAU88CA,加キ,0,13.51
RPSNMLTKJHLFFAU07CA,℡笵キ,0,
RPQOMLPJKHLFFAU56CA,℡笵キ,0,13.39
RPSNMLPKKHLFFAU76CA,加キ,0,13.39
