編號,屋齡,建物移轉面積平方公尺,主要用途,主要建材,建築完成日期,總層數,建物分層
RPRQMLMJJIKFFAU09CA,31,112.10,住家用,鋼筋混凝土加強磚造,73年8月10日,二層,一層 二層 騎樓
RPSQMLMJJIKFFAU56CA,17,225.43,住家用,鋼筋混凝土造,87年3月9日,五層,一層 二層 三層 四層 五層
RPSQMLMJJIKFFAU56CA,17,17.59,共有部份,鋼筋混凝土造,87年3月9日,五層,
RPSQMLMJJIKFFAU56CA,17,15.10,共有部份,鋼筋混凝土造,87年3月9日,五層,
RPUQMLMJJIKFFAU76CA,18,152.79,住家用,鋼筋混凝土造,87年3月9日,五層,三層 四層 五層
RPUQMLMJJIKFFAU76CA,18,12.12,共有部份,鋼筋混凝土造,87年3月9日,五層,
RPUQMLMJJIKFFAU76CA,18,8.44,共有部份,鋼筋混凝土造,87年3月9日,五層,
RPPNMLPJJIKFFAU88CA,37,86.72,住家用,鋼筋混凝土加強磚造,68年1月15日,二層,一層 二層
RPROMLPJJIKFFAU56CA,,221.67,住家用,鋼筋混凝土造,104年7月15日,三層,一層 二層 三層 屋頂突出物 見其他登記事項
RPTOMLTJJIKFFAU17CA,20,31.31,住家用,鋼筋混凝土造,84年8月19日,十一層,五層
RPTOMLTJJIKFFAU17CA,20,8.60,共有部份,鋼筋混凝土造,84年8月19日,十一層,
RPVNMLLKJIKFFAU76EA,16,163.77,住家用,鋼筋混凝土造,88年8月30日,三層,一層 二層 三層
RPSNMLOJJIKFFBU76EA,20,187.14,住家用,鋼筋混凝土造,84年9月15日,三層,一層 二層 三層 屋頂突出物
RPOOMLPJJIKFFAU09EA,21,7.51,見其他登記事項,鋼筋混凝土造,83年6月11日,九層,地下二層
RPOOMLPJJIKFFAU09EA,21,64.61,住家用,鋼筋混凝土造,83年6月11日,九層,一層
RPOOMLPJJIKFFAU09EA,21,5.93,共有部份,鋼筋混凝土造,83年6月11日,九層,
RPOOMLPJJIKFFAU09EA,21,8.94,共有部份,鋼筋混凝土造,83年6月11日,九層,
RPSOMLPJJIKFFAU86EA,,231.35,住家用,鋼筋混凝土造,104年8月19日,四層,一層 二層 三層 四層
RPQNMLOJJIKFFCU56DA,18,121.41,住家用,鋼筋混凝土造,86年10月20日,三層,一層 二層 三層
RPSPMLNKJIKFFAU66CA,31,103.38,住家用,鋼筋混凝土造,74年4月16日,二層,一層 二層
RPUOMLTJJIKFFAU27CA,36,228.52,住商用,鋼筋混凝土造,68年5月4日,四層,一層 二層 三層 四層 屋頂突出物 騎樓
RPTNMLKKJIKFFAU88CA,32,65.64,住家用,鋼筋混凝土造,72年11月17日,五層,三層
RPTNMLKKJIKFFAU88CA,32,5.48,共有部份,鋼筋混凝土造,72年11月17日,五層,
RPRNMLPJJIKFFAU09CA,,107.16,住家用,鋼筋混凝土造,104年5月28日,四層,一層 二層 三層 四層
RPSNMLPJJIKFFAU56CA,38,81.50,住商用,鋼筋混凝土加強磚造,66年4月1日,二層,一層 二層 騎樓
RPUPMLTKJIKFFAU47CA,19,142.82,住家用,鋼筋混凝土造,85年6月3日,三層,一層 二層 三層
RPPNMLMJKIKFFAU68CA,,209.98,農舍,鋼筋混凝土造,104年7月31日,三層,一層 二層 三層
RPRNMLNJKIKFFAU98CA,22,31.93,住家用,鋼筋混凝土造,83年4月21日,五層,五層
RPTNMLNJKIKFFAU56CA,15,126.16,見其他登記事項,鋼筋混凝土造,89年6月9日,七層,一層 騎樓
RPTNMLNJKIKFFAU56CA,15,70.69,共有部份,鋼筋混凝土造,89年6月9日,七層,
RPTNMLNJKIKFFAU56CA,15,27.21,共有部份,鋼筋混凝土造,89年6月9日,七層,
RPQNMLKLJIKFFAU68CA,,228.69,住家用,鋼筋混凝土造,104年8月19日,四層,一層 二層 三層 四層
RPPNMLQJJIKFFAU98CA,,213.35,住家用,鋼筋混凝土造,104年8月19日,四層,四層 一層 二層 三層
RPRNMLTJJIKFFAU86CA,30,78.12,住家用,鋼筋混凝土加強磚造,75年2月24日,二層,一層 二層 屋頂突出物
RPROMLMKJIKFFAU98CA,34,122.80,住家用,鋼筋混凝土加強磚造,70年12月29日,二層,一層 二層
RPSOMLMKJIKFFAU09CA,34,94.96,住商用,鋼筋混凝土加強磚造,70年6月12日,二層,一層 二層 騎樓
RPWPMLNKJIKFFAU07CA,22,171.21,住商用,鋼筋混凝土造,83年4月9日,三層,一層 二層 三層 騎樓
RPUPMLNKJIKFFAU86CA,17,95.45,住家用,鋼筋混凝土造,88年4月14日,五層,五層
RPUPMLNKJIKFFAU86CA,17,10.45,共有部份,鋼筋混凝土造,88年4月14日,五層,
RPUPMLNKJIKFFAU86CA,17,6.75,共有部份,鋼筋混凝土造,88年4月14日,五層,
RPVNMLSKJIKFFAU27CA,,211.06,住家用,鋼筋混凝土造,104年8月19日,四層,一層 二層 三層 四層
RPXNMLSKJIKFFAU47CA,,211.07,住家用,鋼筋混凝土造,104年8月19日,四層,一層 二層 三層 四層
RPQOMLRKJIKFFAU76CA,34,72.60,住家用,鋼筋混凝土加強磚造,70年12月30日,二層,一層 二層
RPTNMLRLJIKFFBU17CA,25,86.87,住家用,鋼筋混凝土加強磚造,79年9月26日,一層,一層 騎樓
RPQNMLLKJIKFFCU98DA,,80.54,,,,,
RPOPMLKKJIKFFAU68DA,35,245.45,住商用,鋼筋混凝土造,69年9月10日,三層,騎樓 一層 二層 三層 防空避難室 屋頂突出物
RPQOMLTJJIKFFAU07EA,43,69.75,住家用,木造,61年5月1日,一層,一層 見其他登記事項
RPSNMLQJJIKFFCU86CA,29,102.26,住家用,鋼筋混凝土加強磚造,75年7月30日,二層,一層 二層 騎樓
RPPOMLNKJIKFFAU88CA,22,54.16,住家用,鋼筋混凝土造,82年10月29日,五層,五層
RPPOMLNKJIKFFAU88CA,22,10.75,共有部份,鋼筋混凝土造,82年10月29日,五層,
RPPPMLNKJIKFFAU98CA,23,73.51,見其他登記事項,鋼筋混凝土造,81年9月30日,八層,六層
RPPPMLNKJIKFFAU98CA,23,16.85,共有部份,鋼筋混凝土造,81年9月30日,八層,
RPQPMLNKJIKFFAU09CA,45,85.78,住家用,鋼筋混凝土加強磚造,59年11月25日,二層,一層 二層 騎樓
RPOOMLMKJIKFFAU68CA,20,162.45,住家用,鋼筋混凝土造,84年3月23日,三層,一層 二層 三層 屋頂突出物
RPUOMLMKJIKFFAU66CA,20,14.18,停車空間,鋼筋混凝土造,84年9月19日,六層,防空避難室
RPUOMLMKJIKFFAU66CA,20,25.85,共有部份,鋼筋混凝土造,84年9月19日,六層,
RPUOMLMKJIKFFAU66CA,20,57.10,住商用,鋼筋混凝土造,84年9月19日,六層,一層 二層
RPUOMLMKJIKFFAU66CA,20,.69,共有部份,鋼筋混凝土造,84年9月19日,六層,
RPQNMLLKJIKFFAU68CA,38,99.90,住家用,鋼筋混凝土加強磚造,66年4月19日,二層,一層 二層
RPUNMLKKJIKFFAU98CA,30,135.48,住家用,鋼筋混凝土造,75年4月19日,五層,四層 五層
RPUNMLKKJIKFFAU98CA,30,34.69,共有部份,鋼筋混凝土造,75年4月19日,五層,
RPSNMLTJJIKFFAU96CA,28,141.44,商業用,鋼筋混凝土造,76年8月24日,二層,一層 二層 屋頂突出物
RPQNMLTJJIKFFAU76CA,36,155.91,住商用,鋼筋混凝土造,68年9月3日,三層,一層 二層 三層 防空避難室 騎樓
RPWNMLTJJIKFFAU37CA,4,273.72,農舍,鋼筋混凝土造,100年10月7日,三層,一層 二層 三層 見其他登記事項
RPOOMLQJJIKFFAU98CA,20,20.55,住家用,鋼筋混凝土造,84年8月19日,十一層,六層
RPOOMLQJJIKFFAU98CA,20,6.53,共有部份,鋼筋混凝土造,84年8月19日,十一層,
RPQOMLQJJIKFFAU56CA,29,34.13,商業用,鋼筋混凝土造,75年5月31日,九層,二層
RPQOMLQJJIKFFAU56CA,29,11.66,共有部份,鋼筋混凝土造,75年5月31日,九層,
RPXOMLTKJIKFFAU67CA,2,220.62,農舍,鋼筋混凝土造,104年9月8日,二層,一層 二層 屋頂突出物
RPSNMLMJKIKFFAU98CA,,630.83,住家用,鋼筋混凝土造,104年8月26日,四層,屋頂突出物 見其他登記事項 一層 二層 三層 四層
RPTNMLMJKIKFFAU09CA,1,209.56,住家用,鋼筋混凝土造,104年2月10日,三層,一層 二層 三層 屋頂突出物
RPWNMLRLJIKFFAU37CA,19,59.13,住家用,鋼筋混凝土造,85年10月29日,十六層,十三層
RPWNMLRLJIKFFAU37CA,19,10.93,共有部份,鋼筋混凝土造,85年10月29日,十六層,
RPWNMLRLJIKFFAU37CA,19,17.36,共有部份,鋼筋混凝土造,85年10月29日,十六層,
RPPNMLTJJIKFFAU66CA,22,75.51,住家用,鋼筋混凝土造,83年3月15日,十二層,十一層
RPPNMLTJJIKFFAU66CA,22,19.53,共有部份,鋼筋混凝土造,83年3月15日,十二層,
RPUNMLTJJIKFFAU17CA,36,79.76,住家用,鋼筋混凝土加強磚造,68年5月7日,二層,一層 二層
RPUOMLKKJIKFFAU09CA,45,71.12,住家用,木造,59年12月1日,一層,一層
RPWNMLLKJIKFFAU66CA,37,41.63,住家用,鋼筋混凝土加強磚造,67年5月22日,一層,一層
RPTNMLQKJIKFFAU86CA,21,117.41,住商用,鋼筋混凝土造,83年11月15日,十二層,一層 二層 騎樓
RPTNMLQKJIKFFAU86CA,21,20.99,共有部份,鋼筋混凝土造,83年11月15日,十二層,
RPTNMLQKJIKFFAU86CA,21,19.50,共有部份,鋼筋混凝土造,83年11月15日,十二層,
RPPOMLMKJIKFFAU78CA,20,45.16,住家用,鋼筋混凝土造,85年2月8日,十二層,十層
RPPOMLMKJIKFFAU78CA,20,10.36,共有部份,鋼筋混凝土造,85年2月8日,十二層,
RPUNMLLKJIKFFAU66EA,16,20.04,住家用,鋼筋混凝土造,88年11月25日,六層,六層
RPUNMLLKJIKFFAU66EA,16,14.25,共有部份,鋼筋混凝土造,88年11月25日,六層,
RPOOMLLKJIKFFAU58CA,17,176.02,住家用,鋼筋混凝土造,87年11月20日,四層,一層 二層 三層 四層 車庫
RPOPMLTKJIKFFAU86CA,17,113.16,住家用,鋼筋混凝土造,87年3月9日,四層,三層 四層
RPOPMLTKJIKFFAU86CA,17,8.97,共有部份,鋼筋混凝土造,87年3月9日,五層,
RPOPMLTKJIKFFAU86CA,17,13.26,共有部份,鋼筋混凝土造,87年3月9日,四層,
RPQOMLOLJIKFFAU56CA,22,44.65,住家用,鋼筋混凝土造,83年1月10日,九層,四層
RPQOMLOLJIKFFAU56CA,22,11.89,共有部份,鋼筋混凝土造,83年1月10日,九層,
RPSNMLPJKIKFFAU66CA,22,161.89,住商用,鋼筋混凝土造,82年6月1日,四層,一層 二層 三層 四層
RPQNMLSJKIKFFAU76CA,,3150.98,見其他登記事項,見其他登記事項,,一層,一層
RPVOMLRJKIKFFAU27CA,,407.59,農舍,鋼筋混凝土造,104年10月5日,四層,一層 二層 三層 四層 屋頂突出物
RPROMLTKJIKFFAU07CA,15,100.45,住家用,鋼筋混凝土造,89年5月9日,六層,三層
RPROMLTKJIKFFAU07CA,15,36.92,共有部份,鋼筋混凝土造,89年5月9日,六層,
RPVNMLQLJIKFFAU17CA,17,144.64,農舍,鋼筋混凝土造,87年2月17日,一層,一層
RPPNMLQKJIKFFAU09CA,34,51.61,住商用,鋼筋混凝土造,70年9月3日,十層,七層
RPUOMLQKJIKFFAU07CA,31,144.22,住家用,鋼筋混凝土加強磚造,73年12月17日,二層,一層 二層 屋頂突出物
RPOOMLNKJIKFFAU78CA,20,66.93,住家用,鋼筋混凝土造,85年2月9日,五層,五層
RPOOMLNKJIKFFAU78CA,20,14.27,共有部份,鋼筋混凝土造,85年2月9日,五層,
RPPNMLRLJIKFFAU76DA,18,67.23,住家用,鋼筋混凝土造,86年8月27日,九層,二層 三層
RPPNMLRLJIKFFAU76DA,18,11.34,共有部份,鋼筋混凝土造,86年8月27日,九層,
RPPNMLRLJIKFFAU76DA,18,8.81,共有部份,鋼筋混凝土造,86年8月27日,九層,
RPPNMLRLJIKFFAU76DA,18,3.04,共有部份,鋼筋混凝土造,86年8月27日,九層,
RPPNMLRKJIKFFCU96EA,16,208.65,住家用,鋼筋混凝土造,89年1月20日,三層,一層 二層 三層
RPROMLQKJIKFFAU76CA,21,207.82,住商用,鋼筋混凝土造,84年3月22日,三層,一層 二層 三層 屋頂突出物 騎樓
RPWNMLQKJIKFFAU17CA,16,113.78,住家用,鋼筋混凝土造,88年5月20日,五層,四層 五層 見其他登記事項
RPWNMLQKJIKFFAU17CA,16,13.40,停車空間,鋼筋混凝土造,88年5月20日,五層,
RPWNMLQKJIKFFAU17CA,16,25.67,共有部份,鋼筋混凝土造,88年5月20日,五層,
RPUNMLNKJIKFFAU66CA,19,25.11,住家用,鋼筋混凝土造,86年1月13日,七層,五層
RPUNMLNKJIKFFAU66CA,19,10.52,共有部份,鋼筋混凝土造,86年1月13日,七層,
RPUNMLNKJIKFFAU66CA,19,46.36,共有部份,鋼筋混凝土造,86年1月13日,七層,
RPVPMLNKJIKFFAU96CA,21,55.75,住家用,鋼筋混凝土造,83年7月5日,五層,四層
RPVPMLNKJIKFFAU96CA,21,11.97,共有部份,鋼筋混凝土造,83年7月5日,五層,
RPWNMLMKJIKFFAU76CA,44,83.85,住家用,鋼筋混凝土加強磚造,60年10月5日,二層,一層 二層
RPRNMLQLJIKFFAU76CA,56,35.36,住家用,見其他登記事項,49年1月1日,一層,一層
RPQOMLSKJIKFFAU86CA,27,111.81,住商用,鋼筋混凝土造,77年9月14日,二層,一層 二層 屋頂突出物 騎樓
RPTOMLTKJIKFFAU27CA,22,191.01,住商用,鋼筋混凝土造,83年4月1日,四層,一層 二層 三層 四層 屋頂突出物 見其他登記事項
RPPPMLOLJIKFFAU56CA,23,80.14,住家用,鋼筋混凝土造,82年1月11日,九層,四層
RPPPMLOLJIKFFAU56CA,23,8.08,共有部份,鋼筋混凝土造,82年1月11日,九層,
RPTNMLPJKIKFFAU76CA,27,148.61,住工用,鋼筋混凝土造,77年10月22日,二層,騎樓 一層 二層 屋頂突出物
RPUOMLLJKIKFFAU56CA,21,48.02,住家用,鋼筋混凝土造,83年8月11日,八層,七層
RPUOMLLJKIKFFAU56CA,21,20.41,共有部份,鋼筋混凝土造,83年8月11日,八層,
RPROMLLJKIKFFAU88CA,69,47.99,住家用,木造,36年4月11日,一層,一層
RPVPMLKMJIKFFAU86CA,30,82.49,住家用,鋼筋混凝土加強磚造,75年3月21日,一層,一層
RPUNMLPJKIKFFAU86CA,27,150.50,住工用,鋼筋混凝土造,77年10月22日,二層,一層 二層 屋頂突出物 騎樓
RPQNMLPJKIKFFAU09CA,22,65.04,住家用,鋼筋混凝土造,83年1月22日,十二層,九層
RPQNMLPJKIKFFAU09CA,22,35.04,共有部份,鋼筋混凝土造,83年1月22日,十二層,
RPRNMLTJKIKFFAU96CA,,230.42,住家用,鋼筋混凝土造,104年5月22日,四層,一層 二層 三層 四層
RPUOMLOLJIKFFAU96CA,,207.85,住家用,鋼筋混凝土造,104年8月10日,三層,一層 二層 三層 屋頂突出物
RPTOMLKMJIKFFAU56CA,30,110.74,住家用,鋼筋混凝土造,74年5月28日,二層,一層 二層
RPRNMLKMJIKFFAU88CA,36,140.45,住商用,鋼筋混凝土加強磚造,68年5月19日,二層,一層 二層 屋頂突出物 騎樓
RPSNMLQLJIKFFAU86CA,5,175.89,住家用,鋼筋混凝土造,99年9月20日,三層,一層 二層 三層 屋頂突出物
RPPOMLPLJIKFFAU56CA,17,120.96,住家用,鋼筋混凝土造,88年4月14日,五層,五層
RPPOMLPLJIKFFAU56CA,17,13.06,共有部份,鋼筋混凝土造,88年4月14日,五層,
RPPOMLPLJIKFFAU56CA,17,8.38,共有部份,鋼筋混凝土造,88年4月14日,五層,
RPPNMLNKJIKFFAU78CA,1,390.56,住家用,鋼筋混凝土造,103年10月15日,四層,一層 二層 三層 四層 屋頂突出物 騎樓
RPTNMLNKJIKFFAU56CA,21,98.01,住家用,鋼筋混凝土造,84年3月2日,十七層,四層
RPTNMLNKJIKFFAU56CA,21,29.29,共有部份,鋼筋混凝土造,84年3月2日,十七層,
RPOOMLSKJIKFFAU66CA,,211.07,住家用,鋼筋混凝土造,104年8月19日,四層,一層 二層 三層 四層
RPPNMLTKJIKFFCU96CA,28,74.76,住家用,見其他登記事項,76年10月23日,一層,一層
SPPNMLTKJIKFFCU07CA,28,74.76,住家用,見其他登記事項,76年10月23日,一層,一層
RPWOMLNKJIKFFAU17EA,13,111.42,住家用,鋼筋混凝土造,91年12月2日,十三層,五層
RPWOMLNKJIKFFAU17EA,13,63.77,共有部份,鋼筋混凝土造,91年12月2日,十三層,
RPQOMLQKJIKFFAU86EA,33,90.04,住家用,鋼筋混凝土加強磚造,71年8月2日,二層,一層 二層
RPSOMLSKJIKFFAU17DA,44,57.51,住家用,見其他登記事項,60年7月23日,一層,一層 騎樓
RPROMLOLJIKFFAU66CA,21,24.58,住家用,鋼筋混凝土造,83年11月15日,十二層,六層
RPROMLOLJIKFFAU66CA,21,7.74,共有部份,鋼筋混凝土造,83年11月15日,十二層,
RPROMLOLJIKFFAU66CA,21,3.98,共有部份,鋼筋混凝土造,83年11月15日,十二層,
RPSOMLOLJIKFFAU76CA,42,92.63,住家用,鋼筋混凝土加強磚造,63年4月22日,二層,一層 二層
RPPNMLKLJIKFFAU58CA,21,199.08,住家用,鋼筋混凝土造,83年4月11日,三層,一層 二層 三層
RPOPMLTJKIKFFAU86CA,36,117.10,住家用,鋼筋混凝土加強磚造,68年9月26日,二層,一層 二層
RPVNMLLKKIKFFAU66CA,20,22.23,住家用,鋼筋混凝土造,85年1月30日,五層,五層
RPVNMLLKKIKFFAU66CA,20,7.87,共有部份,鋼筋混凝土造,85年1月30日,五層,
RPPNMLMKKIKFFAU78CA,,297.54,住家用,鋼筋混凝土造,104年9月18日,三層,一層 二層 三層 屋頂突出物 見其他登記事項
RPQNMLMKKIKFFAU88CA,,292.75,住家用,鋼筋混凝土造,104年9月18日,三層,見其他登記事項 一層 二層 三層 屋頂突出物
RPVNMLPJKIKFFAU96CA,22,51.31,住家用,鋼筋混凝土造,82年12月16日,五層,二層
RPVNMLPJKIKFFAU96CA,22,7.89,共有部份,鋼筋混凝土造,82年12月16日,五層,
RPRNMLPJKIKFFAU56CA,20,26.86,住家用,鋼筋混凝土造,85年2月2日,十層,七層
RPRNMLPJKIKFFAU56CA,20,3.99,共有部份,鋼筋混凝土造,85年2月2日,十層,
RPRNMLPJKIKFFAU56CA,20,11.91,共有部份,鋼筋混凝土造,85年2月2日,十層,
RPRNMLPJKIKFFAU56CA,20,.74,共有部份,鋼筋混凝土造,85年2月2日,十層,
RPUNMLKMJIKFFAU56CA,,166.37,住家用,鋼筋混凝土造,104年6月11日,三層,一層 二層 三層
RPWNMLKMJIKFFAU76CA,13,112.10,住家用,鋼筋混凝土造,91年12月2日,十三層,十層
RPWNMLKMJIKFFAU76CA,13,64.29,共有部份,鋼筋混凝土造,91年12月2日,十三層,
RPPNMLNLJIKFFAU88CA,20,28.83,住家用,鋼筋混凝土造,84年8月19日,十一層,五層
RPPNMLNLJIKFFAU88CA,20,7.71,共有部份,鋼筋混凝土造,84年8月19日,十一層,
RPVOMLOLJIKFFAU07CA,37,108.18,住家用,鋼筋混凝土加強磚造,67年5月31日,二層,一層 二層
RPPOMLSKJIKFFAU76CA,22,113.33,住商用,鋼筋混凝土造,82年5月25日,二層,一層 二層 騎樓
RPPNMLSKJIKFFAU66CA,38,105.34,住家用,鋼筋混凝土加強磚造,67年3月8日,二層,一層 二層
RPRNMLSKJIKFFAU86CA,8,455.38,農舍,鋼筋混凝土造,97年2月25日,三層,一層 二層 三層 屋頂突出物
RPUOMLRKJIKFFAU17CA,18,80.88,住家用,鋼筋混凝土造,87年4月3日,十層,十層
RPUOMLRKJIKFFAU17CA,18,9.78,共有部份,鋼筋混凝土造,87年4月3日,十層,
RPUOMLRKJIKFFAU17CA,18,11.50,共有部份,鋼筋混凝土造,87年4月3日,十層,
RPQNMLRKJIKFFCU07EA,,161.77,住商用,鋼筋混凝土加強磚造,,二層,一層 二層 騎樓
RPQNMLKMJIKFFBU88CA,37,115.43,住商用,鋼筋混凝土加強磚造,68年3月27日,二層,一層 二層 騎樓
RPQOMLLLKIKFFAU98CA,22,94.47,住家用,鋼筋混凝土造,82年10月15日,六層,六層
RPQOMLLLKIKFFAU98CA,22,39.36,共有部份,鋼筋混凝土造,82年10月15日,六層,
RPWOMLRKJIKFFAU37CA,21,32.51,住家用,鋼筋混凝土造,83年6月30日,十二層,八層
RPWOMLRKJIKFFAU37CA,21,4.68,共有部份,鋼筋混凝土造,83年6月30日,十二層,
RPWOMLRKJIKFFAU37CA,21,8.37,共有部份,鋼筋混凝土造,83年6月30日,十二層,
RPUOMLKMJIKFFAU66CA,33,120.33,住家用,鋼筋混凝土造,72年3月4日,二層,一層 二層 屋頂突出物 夾層
RPQNMLKMJIKFFAU78CA,37,202.35,住家用,鋼筋混凝土加強磚造,67年12月22日,二層,一層 二層 陽台
RPQNMLKMJIKFFAU78CA,19,303.04,商業用,鋼骨混凝土造,85年5月15日,一層,一層
RPWNMLMJKIKFFAU76CA,21,125.21,住家用,鋼筋混凝土造,83年8月22日,五層,二層
RPWNMLMJKIKFFAU76CA,21,26.05,共有部份,鋼筋混凝土造,83年8月22日,五層,
RPUOMLTJKIKFFAU37CA,21,19.33,住家用,鋼筋混凝土造,83年11月15日,十二層,六層
RPUOMLTJKIKFFAU37CA,21,6.12,共有部份,鋼筋混凝土造,83年11月15日,十二層,
RPUOMLTJKIKFFAU37CA,21,3.18,共有部份,鋼筋混凝土造,83年11月15日,十二層,
RPRNMLLKKIKFFAU88CA,37,118.87,住商用,鋼筋混凝土加強磚造,67年11月20日,二層,一層 二層 騎樓
RPTNMLLJKIKFFAU98CA,,333.45,農舍,鋼筋混凝土造,104年7月9日,三層,一層 二層 三層
RPVNMLNJKIKFFAU76CA,30,82.66,住家用,鋼筋混凝土造,74年9月16日,五層,四層
RPVNMLNJKIKFFAU76CA,30,6.50,共有部份,鋼筋混凝土造,74年9月16日,五層,
RPTNMLQLJIKFFAU96CA,,138.90,住家用,鋼筋混凝土造,104年8月24日,三層,一層 二層 三層
RPPOMLKLJIKFFAU68CA,8,99.18,住商用,鋼筋混凝土造,96年9月26日,三層,一層 二層 三層
RPPOMLKLJIKFFAU68CA,8,99.18,住商用,鋼筋混凝土造,96年9月26日,三層,一層 二層 三層
RPUNMLOLJIKFFAU86CA,20,113.02,住家用,鋼筋混凝土造,84年8月16日,五層,四層
RPUNMLOLJIKFFAU86CA,20,12.74,共有部份,鋼筋混凝土造,84年8月16日,五層,
RPQNMLNLJIKFFAU98CA,37,118.67,住商用,鋼筋混凝土加強磚造,68年1月9日,二層,一層 二層 騎樓
RPTOMLPKKIKFFAU96CA,18,109.99,住家用,鋼筋混凝土造,86年8月27日,九層,七層 六層
RPTOMLPKKIKFFAU96CA,18,18.06,共有部份,鋼筋混凝土造,86年8月27日,九層,
RPTOMLPKKIKFFAU96CA,18,15.47,共有部份,鋼筋混凝土造,86年8月27日,九層,
RPTOMLPKKIKFFAU96CA,18,5.25,共有部份,鋼筋混凝土造,86年8月27日,九層,
RPQNMLPJKIKFFBU56CA,,297.80,農舍,鋼筋混凝土造,104年9月25日,三層,一層 二層 三層 見其他登記事項
RPPNMLPLJIKFFCU66CA,21,175.19,住家用,鋼筋混凝土造,83年11月28日,三層,一層 二層 三層
RPVOMLPLJIKFFAU27DA,19,203.04,住家用,鋼筋混凝土造,86年4月28日,四層,一層 二層 三層 四層 防空避難室
RPTOMLPLJIKFFAU17EA,51,138.21,住家用,鋼筋混凝土加強磚造,54年1月1日,二層,一層 二層 騎樓
RPUOMLPLJIKFFAU27EA,35,96.88,住家用,鋼筋混凝土加強磚造,69年7月1日,二層,一層 二層
RPWNMLKLJIKFFAU86EA,35,154.54,住家用,鋼筋混凝土造,69年9月5日,三層,一層 二層 三層 防空避難室 屋頂突出物 騎樓
RPUNMLRLJIKFFAU37EA,21,19.78,住家用,鋼筋混凝土造,83年7月8日,六層,二層
RPUNMLRLJIKFFAU37EA,21,8.59,共有部份,鋼筋混凝土造,83年7月8日,六層,
RPRNMLKLJIKFFCU98CA,36,161.26,住家用,鋼筋混凝土加強磚造,69年4月1日,二層,一層 二層
RPTNMLLJKIKFFCU56CA,,96.86,住商用,木造,,一層,一層 騎樓
RPXNMLOKKIKFFAU17CA,1,261.65,住家用,鋼筋混凝土造,103年7月9日,三層,一層 二層 三層 屋頂突出物 見其他登記事項
RPSNMLNLJIKFFAU56CA,,239.16,住家用,鋼筋混凝土造,104年9月23日,三層,一層 二層 三層 屋頂突出物
RPUNMLKLJIKFFAU09CA,37,143.26,住商用,鋼筋混凝土造,68年2月12日,四層,一層 二層 三層 四層 屋頂突出物 騎樓
RPROMLPLJIKFFAU76CA,21,127.30,住家用,鋼筋混凝土造,83年9月29日,三層,一層 二層 三層 屋頂突出物
RPOOMLPLJIKFFAU09CA,41,151.99,商業用,鋼筋混凝土造,63年12月3日,三層,一層 二層 三層 騎樓 地下層
RPWNMLTJKIKFFAU47CA,,132.45,住家用,鋼筋混凝土造,104年8月24日,三層,一層 二層 三層
RPQOMLKKKIKFFAU78CA,34,91.32,住家用,鋼筋混凝土加強磚造,71年2月27日,一層,一層 夾層
RPROMLKKKIKFFAU88CA,19,61.49,商業用,鋼筋混凝土造,85年3月6日,五層,一層
RPROMLKKKIKFFAU88CA,19,13.97,共有部份,鋼筋混凝土造,85年3月6日,五層,
RPTNMLLKKIKFFAU09CA,3,226.54,農舍,鋼筋混凝土造,102年4月17日,三層,一層 二層 三層
RPUNMLLKKIKFFAU56CA,39,107.52,住家用,鋼筋混凝土加強磚造,66年2月24日,二層,二層 騎樓 一層
RPPNMLOJKIKFFAU88CA,5,352.51,住家用,鋼筋混凝土造,100年1月27日,四層,一層 二層 三層 四層 屋頂突出物 騎樓
RPWNMLPJKIKFFAU07CA,22,51.25,住家用,鋼筋混凝土造,82年12月16日,五層,二層
RPWNMLPJKIKFFAU07CA,22,8.20,共有部份,鋼筋混凝土造,82年12月16日,五層,
RPXNMLPJKIKFFAU17CA,31,66.45,住商用,鋼筋混凝土造,73年6月25日,五層,一層 騎樓
RPXNMLPJKIKFFAU17CA,31,5.70,共有部份,鋼筋混凝土造,73年6月25日,五層,
RPXNMLPJKIKFFAU17CA,31,6.97,共有部份,鋼筋混凝土造,73年6月25日,五層,
RPSNMLRLJIKFFAU96CA,,195.91,住家用,鋼筋混凝土造,104年8月6日,三層,一層 二層 三層 屋頂突出物
RPPOMLKMJIKFFAU78CA,18,214.92,住家用,鋼筋混凝土造,87年3月9日,五層,一層 二層 三層 四層 五層
RPPOMLKMJIKFFAU78CA,18,16.56,共有部份,鋼筋混凝土造,87年3月9日,五層,
RPPOMLKMJIKFFAU78CA,18,12.97,共有部份,鋼筋混凝土造,87年3月9日,五層,
RPQNMLPLJIKFFAU56CA,38,91.08,住家用,鋼筋混凝土加強磚造,66年5月17日,二層,一層 二層
RPQOMLPLJIKFFAU66CA,28,48.41,見其他登記事項,鋼筋混凝土造,77年2月8日,六層,六層
RPQOMLPLJIKFFAU66CA,28,14.15,共有部份,鋼筋混凝土造,77年2月8日,六層,
RPOPMLOLJIKFFAU09CA,37,116.91,住商用,鋼筋混凝土加強磚造,67年9月11日,二層,一層 二層 騎樓
RPPNMLKMJIKFFCU88CA,,293.82,住家用,鋼筋混凝土造,104年10月6日,四層,一層 二層 三層 四層
RPQNMLKMJIKFFCU98CA,,311.69,住家用,鋼筋混凝土造,104年10月6日,四層,一層 二層 三層 四層
RPRNMLKMJIKFFCU09CA,,151.44,住家用,鋼筋混凝土造,104年10月6日,四層,一層 二層 三層 四層
RPRNMLKMJIKFFCU09CA,,151.44,住家用,鋼筋混凝土造,104年10月6日,四層,一層 二層 三層 四層
RPSNMLKMJIKFFCU56CA,,353.30,住家用,鋼筋混凝土造,104年10月6日,四層,一層 二層 三層 四層
RPQNMLPKKIKFFBU66CA,42,92.69,住商用,鋼筋混凝土造,62年9月22日,三層,一層 二層 三層
RPTNMLOLJIKFFAU76CA,1,203.61,住家用,鋼筋混凝土造,103年11月27日,四層,一層 二層 三層 四層
RPXNMLQLJIKFFAU37CA,54,63.04,住家用,見其他登記事項,,一層,一層
RPQOMLKMJIKFFAU88CA,17,213.45,住家用,鋼筋混凝土造,87年3月9日,五層,一層 二層 三層 四層 五層
RPQOMLKMJIKFFAU88CA,17,16.56,共有部份,鋼筋混凝土造,87年3月9日,五層,
RPQOMLKMJIKFFAU88CA,17,12.97,共有部份,鋼筋混凝土造,87年3月9日,五層,
RPRNMLOJKIKFFAU09CA,25,37.23,見其他登記事項,鋼筋混凝土造,79年9月1日,五層,地下層
RPRNMLOJKIKFFAU09CA,25,225.01,商業用,鋼筋混凝土造,79年9月1日,五層,一層 三層 五層 騎樓 四層 二層
RPPNMLPJKIKFFAU98CA,24,22.29,住家用,鋼筋混凝土造,81年1月28日,四層,二層
RPROMLMJKIKFFAU98CA,32,89.40,住家用,鋼筋混凝土造,72年9月10日,四層,四層
RPROMLMJKIKFFAU98CA,32,11.09,共有部份,鋼筋混凝土造,72年9月10日,四層,
RPWOMLTJKIKFFAU57CA,38,126.81,住商用,鋼筋混凝土加強磚造,66年12月13日,二層,一層 二層 屋頂突出物 騎樓
RPQOMLMLKIKFFAU56DA,31,108.24,住家用,鋼筋混凝土加強磚造,74年3月21日,二層,一層 二層
RPQNMLLJKIKFFBU98EA,24,120.00,住家用,鋼筋混凝土加強磚造,80年4月13日,二層,一層 二層
RPSNMLLJKIKFFBU56EA,32,272.15,見其他登記事項,見其他登記事項,73年3月1日,二層,一層 二層
RPSNMLLJKIKFFBU56EA,29,38.66,見其他登記事項,見其他登記事項,76年3月1日,一層,一層
RPSNMLLJKIKFFBU56EA,29,256.00,見其他登記事項,見使用執照,76年3月1日,一層,一層
RPSNMLLJKIKFFBU56EA,29,18.14,見其他登記事項,鋼筋混凝土造,76年3月1日,一層,一層
RPSNMLLJKIKFFBU56EA,29,92.06,見其他登記事項,見使用執照,76年3月1日,一層,一層
RPTNMLLJKIKFFBU66EA,18,360.00,見其他登記事項,鋼筋混凝土造,86年10月6日,一層,一層
RPTNMLLJKIKFFBU66EA,18,56.26,見其他登記事項,見其他登記事項,86年10月6日,一層,一層
RPTNMLLJKIKFFBU66EA,18,41.15,見其他登記事項,見其他登記事項,86年10月6日,一層,一層
RPPOMLTJKIKFFAU86CA,19,73.01,住家用,鋼筋混凝土造,85年8月15日,三層,二層
RPPOMLTJKIKFFAU86CA,19,19.42,共有部份,鋼筋混凝土造,85年8月15日,三層,
RPVOMLTJKIKFFAU47CA,33,60.18,住家用,鋼筋混凝土造,72年1月7日,四層,四層
RPVOMLTJKIKFFAU47CA,33,13.20,共有部份,鋼筋混凝土造,72年1月7日,四層,
RPQNMLOKKIKFFAU09CA,,296.04,住家用,鋼筋混凝土造,104年8月3日,四層,一層 二層 三層 四層 見其他登記事項
RPVOMLLKKIKFFAU76CA,19,32.30,住家用,見其他登記事項,85年11月1日,五層,五層 夾層
RPVOMLLKKIKFFAU76CA,19,18.40,共有部份,鋼筋混凝土造,85年11月1日,五層,
RPSOMLNJKIKFFAU56CA,,198.58,住家用,鋼筋混凝土造,104年8月6日,三層,三層 屋頂突出物 一層 二層
RPUNMLOJKIKFFAU76CA,26,195.66,住商用,鋼筋混凝土造,78年6月30日,三層,一層 二層 三層 屋頂突出物 騎樓
RPTNMLSJKIKFFAU07CA,23,267.43,住商用,鋼筋混凝土造,81年7月31日,三層,三層 屋頂突出物 一層 二層 騎樓
RPQNMLOJKIKFFAU98CA,21,24.91,住家用,鋼筋混凝土造,83年8月31日,七層,六層
RPQNMLOJKIKFFAU98CA,21,11.60,共有部份,鋼筋混凝土造,83年8月31日,七層,
RPWNMLNJKIKFFAU86CA,,268.54,住家用,鋼筋混凝土造,104年8月3日,四層,一層 二層 三層 四層 見其他登記事項
RPXNMLPLJIKFFAU27CA,34,149.94,住家用,鋼筋混凝土加強磚造,70年4月9日,二層,一層 二層
RPPNMLTKKIKFFAU86CA,19,34.83,住商用,鋼筋混凝土造,86年2月24日,十層,八層
RPPNMLTKKIKFFAU86CA,19,10.35,共有部份,鋼筋混凝土造,86年2月24日,十層,
RPQNMLTKKIKFFAU96CA,19,35.03,住商用,鋼筋混凝土造,86年2月24日,十層,八層
RPQNMLTKKIKFFAU96CA,19,10.35,共有部份,鋼筋混凝土造,86年2月24日,十層,
RPSNMLNLKIKFFAU66CA,21,20.09,住家用,鋼筋混凝土造,83年10月7日,九層,七層
RPSNMLNLKIKFFAU66CA,21,9.17,共有部份,鋼筋混凝土造,83年10月7日,九層,
RPTNMLPLJIKFFCU07CA,31,97.36,住家用,鋼筋混凝土加強磚造,73年9月20日,二層,一層 二層 騎樓
RPPNMLLJKIKFFCU78CA,,311.69,住家用,鋼筋混凝土造,104年10月6日,四層,一層 二層 三層 四層
RPQNMLNJKIKFFCU09CA,3,173.69,住家用,鋼筋混凝土造,101年8月10日,三層,二層 三層 一層 見其他登記事項
RPSNMLTKKIKFFAU17CA,7,155.87,住家用,鋼筋混凝土造,98年2月13日,三層,一層 二層 三層
RPQOMLQLJIKFFAU76CA,22,54.25,住家用,鋼筋混凝土造,82年6月22日,五層,五層
RPQOMLQLJIKFFAU76CA,22,19.66,共有部份,鋼筋混凝土造,82年6月22日,五層,
RPRNMLRLJIKFFAU86CA,,202.14,住家用,鋼筋混凝土造,104年8月6日,三層,屋頂突出物 一層 二層 三層
RPWNMLQLJIKFFAU27CA,19,279.70,住商用,鋼筋混凝土造,85年6月6日,五層,一層 二層 三層 四層 五層 騎樓
RPTNMLRLJIKFFAU07CA,22,89.66,住家用,鋼筋混凝土造,82年12月15日,六層,三層
RPTNMLRLJIKFFAU07CA,22,14.66,共有部份,鋼筋混凝土造,82年12月15日,六層,
RPTNMLRLJIKFFAU07CA,22,14.20,共有部份,鋼筋混凝土造,82年12月15日,七層,
RPSNMLOJKIKFFAU56CA,13,112.10,住家用,鋼筋混凝土造,91年12月2日,十三層,十二層
RPSNMLOJKIKFFAU56CA,13,64.29,共有部份,鋼筋混凝土造,91年12月2日,十三層,
RPRPMLNJKIKFFAU56CA,38,52.65,住家用,鋼筋混凝土加強磚造,66年6月29日,一層,一層
RPTOMLNJKIKFFAU66CA,22,208.73,住家用,鋼筋混凝土造,83年1月27日,三層,一層 二層 三層 屋頂突出物
RPVOMLLJKIKFFAU66CA,24,165.36,住家用,鋼筋混凝土造,80年12月23日,二層,一層 二層 屋頂突出物
RPQNMLMJKIKFFAU78CA,22,168.23,住家用,鋼筋混凝土造,82年10月18日,四層,一層 二層 三層 四層
RPRNMLMJKIKFFAU88CA,31,74.34,住家用,鋼筋混凝土造,73年12月20日,五層,五層
RPRNMLMJKIKFFAU88CA,31,3.93,共有部份,鋼筋混凝土造,73年12月20日,五層,
RPRNMLMJKIKFFAU88CA,31,13.11,共有部份,鋼筋混凝土造,73年12月20日,五層,
RPQOMLTJKIKFFAU96CA,1,279.65,農舍,鋼筋混凝土造,104年4月1日,三層,一層 二層 三層 地下一層
RPTNMLTJKIKFFAU17CA,,257.07,住家用,鋼筋混凝土造,104年5月22日,四層,一層 二層 三層 四層
RPUNMLTJKIKFFAU27CA,21,124.47,住家用,鋼筋混凝土造,83年9月29日,三層,一層 二層 三層 屋頂突出物
RPVNMLTJKIKFFAU37CA,,139.44,住家用,鋼筋混凝土造,104年8月24日,三層,一層 二層 三層
RPQPMLTJKIKFFAU07CA,21,73.90,住家用,鋼筋混凝土造,83年10月28日,十四層,四層
RPQPMLTJKIKFFAU07CA,21,21.16,共有部份,鋼筋混凝土造,83年10月28日,十四層,
RPPNMLKKKIKFFAU58CA,38,93.49,住家用,鋼筋混凝土加強磚造,67年1月23日,二層,一層 二層
RPRNMLLJKIKFFAU98EA,37,48.42,住家用,鋼筋混凝土加強磚造,68年4月27日,一層,一層
RPQNMLNJKIKFFAU09EA,32,78.48,住家用,鋼筋混凝土造,72年9月10日,四層,四層
RPQNMLNJKIKFFAU09EA,32,8.32,共有部份,鋼筋混凝土造,72年9月10日,四層,
RPPNMLRKKIKFFAU86EA,22,162.58,住家用,鋼筋混凝土造,82年6月18日,三層,一層 二層 三層
RPVOMLMJKIKFFAU76CA,16,113.78,住家用,鋼筋混凝土造,88年5月20日,五層,四層 五層 見其他登記事項
RPVOMLMJKIKFFAU76CA,16,13.40,停車空間,鋼筋混凝土造,88年5月20日,五層,
RPVOMLMJKIKFFAU76CA,16,25.67,共有部份,鋼筋混凝土造,88年5月20日,五層,
RPPNMLNJKIKFFAU78CA,,166.37,住家用,鋼筋混凝土造,104年6月12日,三層,一層 二層 三層
RPOOMLRJKIKFFAU56CA,38,113.56,住家用,鋼筋混凝土加強磚造,67年1月1日,二層,一層 二層
RPPNMLKMJIKFFAU68CA,,236.50,農舍,鋼筋混凝土造,104年4月22日,三層,一層 二層 三層
RPTNMLTKKIKFFAU27CA,19,125.57,住商用,鋼筋混凝土造,85年7月16日,七層,一層 二層 騎樓
RPTNMLTKKIKFFAU27CA,19,36.93,共有部份,鋼筋混凝土造,85年7月16日,七層,
RPUNMLTKKIKFFAU37CA,45,43.81,住家用,鋼筋混凝土加強磚造,59年12月26日,二層,一層 二層 騎樓
RPVNMLTKKIKFFAU47CA,,183.46,住家用,鋼筋混凝土造,104年6月12日,三層,一層 二層 三層 屋頂突出物
RPQPMLOLKIKFFAU76CA,22,119.50,住商用,鋼筋混凝土造,82年11月9日,八層,一層 騎樓 夾層
RPQPMLOLKIKFFAU76CA,22,21.12,共有部份,鋼筋混凝土造,82年11月9日,八層,
RPTPMLLLKIKFFAU76CA,8,234.85,住家用,鋼筋混凝土造,96年4月25日,四層,一層 二層 三層 四層
RPUPMLLLKIKFFAU86CA,8,234.85,住家用,鋼筋混凝土造,96年4月25日,四層,一層 二層 三層 四層
RPPNMLRLJIKFFCU86CA,31,109.51,住商用,鋼筋混凝土加強磚造,73年11月5日,二層,一層 二層 騎樓
RPTNMLLLKIKFFCU76CA,1,390.91,住家用,鋼筋混凝土造,104年4月29日,三層,一層 二層 三層 屋頂突出物
RPRNMLTKKIKFFAU07CA,19,320.26,住商用,鋼筋混凝土造,86年2月9日,四層,一層 二層 三層 四層 騎樓
RPUPMLKMJIKFFAU76CA,9,169.05,住家用,鋼筋混凝土造,96年4月16日,三層,一層 二層 三層
RPQPMLNJKIKFFAU09CA,21,174.47,見其他登記事項,鋼筋混凝土造,83年9月29日,四層,一層 二層 三層 四層 屋頂突出物
RPSOMLKKKIKFFAU98CA,26,30.82,住家用,鋼筋混凝土造,78年11月4日,六層,五層
RPSOMLKKKIKFFAU98CA,26,9.05,共有部份,鋼筋混凝土造,78年11月4日,六層,
RPXNMLSJKIKFFAU47CA,15,80.61,住家用,鋼筋混凝土造,90年3月15日,十四層,八層
RPXNMLSJKIKFFAU47CA,15,23.79,見其他登記事項,鋼筋混凝土造,90年3月15日,十四層,
RPXNMLSJKIKFFAU47CA,15,8.83,見其他登記事項,鋼筋混凝土造,90年3月15日,十四層,
RPXNMLSJKIKFFAU47CA,15,1.79,住家用,鋼筋混凝土造,90年3月15日,十四層,一層
RPPNMLMJKIKFFCU09EA,18,151.00,住家用,鋼筋混凝土造,87年1月14日,三層,一層 二層 三層 屋頂突出物
RPXNMLRJKIKFFAU37CA,20,155.05,住家用,鋼筋混凝土造,85年5月7日,三層,屋頂突出物 一層 二層 三層
RPSOMLTJKIKFFAU17CA,32,101.29,住商用,鋼筋混凝土加強磚造,72年7月28日,二層,一層 二層 屋頂突出物 騎樓
RPTOMLTJKIKFFAU27CA,39,105.82,住商用,鋼筋混凝土加強磚造,66年4月4日,二層,一層 二層 騎樓
RPTOMLKKKIKFFAU09CA,24,52.15,住家用,鋼筋混凝土造,81年4月22日,五層,五層
RPTOMLKKKIKFFAU09CA,24,7.65,共有部份,鋼筋混凝土造,81年4月22日,五層,
RPQOMLLJKIKFFAU78CA,21,243.55,住商用,鋼筋混凝土造,83年11月15日,五層,一層 二層 三層 四層 五層 騎樓
RPWOMLNJKIKFFAU96CA,44,59.06,住家用,磚造,60年6月1日,一層,一層
RPPNMLRJKIKFFAU56CA,22,42.39,住家用,鋼筋混凝土造,82年11月5日,九層,八層
RPPNMLRJKIKFFAU56CA,22,18.65,共有部份,鋼筋混凝土造,82年11月5日,九層,
RPVOMLMLKIKFFAU96CA,21,21.00,住家用,鋼筋混凝土造,83年11月15日,十二層,十一層
RPVOMLMLKIKFFAU96CA,21,7.22,共有部份,鋼筋混凝土造,83年11月15日,十二層,
RPVOMLMLKIKFFAU96CA,21,5.09,共有部份,鋼筋混凝土造,83年11月15日,十二層,
RPRPMLSLKIKFFAU27CA,30,84.17,商業用,鋼筋混凝土造,74年7月20日,七層,三層
RPRPMLSLKIKFFAU27CA,,22.93,共有部份,鋼筋混凝土造,,七層,
RPTPMLSLKIKFFAU47CA,37,219.99,住商用,鋼筋混凝土造,67年12月13日,三層,一層 二層 三層 屋頂突出物 騎樓 地下層
RPSNMLLLKIKFFCU66CA,1,263.36,住家用,鋼筋混凝土造,104年4月29日,三層,一層 二層 三層 屋頂突出物
RPOOMLTLJHLFFAU86CA,21,24.12,住家用,鋼筋混凝土造,83年11月15日,十二層,五層
RPOOMLTLJHLFFAU86CA,21,7.56,共有部份,鋼筋混凝土造,83年11月15日,十二層,
RPOOMLTLJHLFFAU86CA,21,23.76,住家用,鋼筋混凝土造,83年11月15日,十二層,五層
RPOOMLTLJHLFFAU86CA,21,3.98,共有部份,鋼筋混凝土造,83年11月15日,十二層,
RPOOMLTLJHLFFAU86CA,21,7.56,共有部份,鋼筋混凝土造,83年11月15日,十二層,
RPOOMLTLJHLFFAU86CA,21,3.98,共有部份,鋼筋混凝土造,83年11月15日,十二層,
RPRNMLKMJHLFFAU88CA,23,88.71,住家用,鋼筋混凝土造,82年1月9日,七層,五層
RPRNMLKMJHLFFAU88CA,23,9.81,共有部份,鋼筋混凝土造,82年1月9日,七層,
RPRNMLKMJHLFFAU88CA,23,10.03,共有部份,鋼筋混凝土造,82年1月9日,七層,
RPRNMLKMJHLFFAU88CA,23,15.02,共有部份,鋼筋混凝土造,82年1月9日,七層,
RPRNMLKMJHLFFAU88CA,23,.28,商業用,鋼筋混凝土造,82年1月9日,七層,地下層
RPPNMLTLKIKFFAU96CA,34,67.58,住家用,鋼筋混凝土造,70年12月4日,五層,二層
RPPNMLTLKIKFFAU96CA,34,13.69,共有部份,鋼筋混凝土造,70年12月4日,五層,
RPPNMLTLKIKFFAU96CA,34,1.64,共有部份,鋼筋混凝土造,70年12月4日,,
RPQNMLQLKIKFFAU76CA,27,91.80,住家用,鋼筋混凝土造,77年11月25日,五層,四層
RPQNMLQLKIKFFAU76CA,27,6.14,共有部份,鋼筋混凝土造,77年11月25日,五層,
RPXOMLTLKIKFFAU87CA,22,60.37,住家用,鋼筋混凝土造,82年10月29日,十層,八層
RPXOMLTLKIKFFAU87CA,22,21.48,共有部份,鋼筋混凝土造,82年10月29日,十層,
RPRNMLPLKIKFFAU76CA,31,101.45,住家用,鋼筋混凝土加強磚造,73年12月11日,二層,一層 二層
RPVOMLLLKIKFFAU86CA,22,89.62,住家用,鋼筋混凝土造,82年12月15日,七層,四層
RPVOMLLLKIKFFAU86CA,22,14.90,共有部份,鋼筋混凝土造,82年12月15日,七層,
RPVOMLLLKIKFFAU86CA,22,14.20,共有部份,鋼筋混凝土造,82年12月15日,七層,
RPPOMLLKKIKFFAU78CA,10,221.76,住家用,鋼筋混凝土造,95年1月9日,三層,一層 二層 三層 屋頂突出物
RPVNMLOJKIKFFAU86CA,22,21.88,住家用,鋼筋混凝土造,82年6月22日,七層,三層
RPVNMLOJKIKFFAU86CA,22,8.90,共有部份,鋼筋混凝土造,82年6月22日,七層,
RPOOMLPJKIKFFAU98CA,,185.70,住家用,鋼筋混凝土造,104年9月15日,三層,一層 二層 三層 屋頂突出物
RPPOMLPJKIKFFAU09CA,,182.82,住家用,鋼筋混凝土造,104年9月15日,三層,一層 二層 三層 屋頂突出物
RPQOMLPJKIKFFAU56CA,,182.82,住家用,鋼筋混凝土造,104年9月16日,三層,一層 二層 三層 屋頂突出物
RPROMLPJKIKFFAU66CA,,182.82,住家用,鋼筋混凝土造,104年9月16日,三層,一層 二層 三層 屋頂突出物
RPSOMLPJKIKFFAU76CA,,260.06,住家用,鋼筋混凝土造,104年9月16日,三層,一層 二層 三層 屋頂突出物
RPTOMLPJKIKFFAU86CA,,185.86,住家用,鋼筋混凝土造,104年9月16日,三層,一層 二層 三層 屋頂突出物
RPUOMLPJKIKFFAU96CA,,182.82,住家用,鋼筋混凝土造,104年9月16日,三層,一層 二層 三層 屋頂突出物
RPSNMLNJKIKFFAU09CA,47,112.35,住家用,見其他登記事項,57年6月13日,一層,一層
RPROMLSJKIKFFAU96CA,19,107.87,住家用,鋼筋混凝土造,85年6月25日,八層,六層
RPROMLSJKIKFFAU96CA,19,24.54,共有部份,鋼筋混凝土造,85年6月25日,八層,
RPROMLSJKIKFFAU96CA,19,30.48,共有部份,鋼筋混凝土造,85年6月25日,八層,
RPROMLSJKIKFFAU96CA,19,14.13,見其他登記事項,鋼筋混凝土造,85年6月25日,八層,地下一層
RPXNMLTJKIKFFAU57CA,29,188.68,住家用,鋼筋混凝土造,76年1月20日,二層,一層 二層 屋頂突出物
RPPNMLLLKIKFFAU98EA,28,342.06,住商用,鋼筋混凝土造,77年5月6日,四層,屋頂突出物 騎樓 一層 二層 三層 四層 防空避難室
RPOOMLNLKIKFFAU56EA,41,60.44,住商用,鋼筋混凝土加強磚造,63年4月22日,二層,一層 二層
RPSOMLRJKIKFFAU17EA,32,338.53,住商用,鋼筋混凝土造,72年7月1日,四層,一層 二層 三層 四層 屋頂突出物 騎樓 地下層
RPTNMLKKKIKFFAU98CA,23,72.04,商業用,鋼筋混凝土造,81年12月17日,六層,三層
RPTNMLKKKIKFFAU98CA,23,29.48,共有部份,鋼筋混凝土造,81年12月17日,六層,
RPUNMLNJKIKFFAU66CA,,349.21,農舍,鋼筋混凝土造,104年10月8日,三層,一層 二層 三層 走廊
RPOPMLNJKIKFFAU88CA,21,111.38,住家用,鋼筋混凝土造,84年1月14日,七層,七層
RPOPMLNJKIKFFAU88CA,21,127.26,共有部份,鋼筋混凝土造,84年1月14日,七層,
RPPOMLNJKIKFFAU88CA,41,104.32,商業用,鋼筋混凝土造,63年12月3日,三層,一層 二層 三層 地下層
RPWNMLMLKIKFFAU96CA,29,28.34,住家用,鋼筋混凝土造,75年5月31日,九層,五層
RPWNMLMLKIKFFAU96CA,29,6.78,共有部份,鋼筋混凝土造,75年5月31日,九層,
RPPOMLTLKIKFFAU07CA,44,99.20,住家用,鋼筋混凝土加強磚造,61年3月6日,二層,一層 二層 騎樓
RPVNMLTLKIKFFAU57CA,35,109.66,住商用,鋼筋混凝土加強磚造,70年1月29日,二層,一層 二層 騎樓
RPRNMLSJKIKFFCU07CA,21,183.44,住商用,鋼筋混凝土造,84年1月27日,三層,一層 二層 三層 屋頂突出物 騎樓
RPSNMLTJKIKFFCU27CA,37,78.20,住家用,鋼筋混凝土造,68年2月1日,二層,一層 二層
RPSNMLPKKIKFFAU76CA,31,120.61,住商用,鋼筋混凝土加強磚造,73年5月18日,二層,一層 二層 屋頂突出物 騎樓
RPOOMLPKKIKFFAU09CA,17,95.48,住家用,鋼筋混凝土造,88年4月14日,五層,五層
RPOOMLPKKIKFFAU09CA,17,9.87,共有部份,鋼筋混凝土造,88年4月14日,五層,
RPOOMLPKKIKFFAU09CA,17,6.40,共有部份,鋼筋混凝土造,88年4月14日,五層,
RPQOMLPKKIKFFAU66CA,23,438.70,住家用,鋼筋混凝土造,81年9月18日,四層,一層 二層 三層 四層 見其他登記事項
RPUOMLRJKIKFFAU17CA,18,46.53,住家用,鋼筋混凝土造,86年8月27日,九層,六層 七層
RPUOMLRJKIKFFAU17CA,18,7.93,共有部份,鋼筋混凝土造,86年8月27日,九層,
RPUOMLRJKIKFFAU17CA,18,6.49,共有部份,鋼筋混凝土造,86年8月27日,九層,
RPUOMLRJKIKFFAU17CA,18,2.21,共有部份,鋼筋混凝土造,86年8月27日,九層,
RPUNMLRJKIKFFAU07CA,,192.43,農舍,鋼筋混凝土造,104年8月28日,三層,三層 屋頂突出物 一層 二層
RPSNMLOKKIKFFAU66CA,29,129.22,商業用,鋼筋混凝土造,76年2月26日,二層,一層 二層
RPVNMLPKKIKFFAU17DA,21,160.30,住家用,鋼筋混凝土造,83年7月19日,四層,二層
RPVNMLPKKIKFFAU17DA,21,23.50,共有部份,鋼筋混凝土造,83年7月19日,四層,
RPVNMLPKKIKFFAU17DA,21,48.12,共有部份,鋼筋混凝土造,83年7月19日,四層,
RPWNMLPKKIKFFAU27DA,20,208.55,住家用,鋼筋混凝土造,85年1月4日,三層,一層 二層 三層 屋頂突出物
RPQNMLLMKIKFFBU66EA,35,95.20,住家用,鋼筋混凝土加強磚造,69年7月8日,二層,一層 二層
RPQOMLOKKIKFFAU56CA,23,148.10,農舍,見其他登記事項,81年7月27日,一層,一層
RPSOMLLKKIKFFAU09CA,22,66.09,住家用,鋼筋混凝土造,82年9月25日,八層,八層
RPSOMLLKKIKFFAU09CA,22,17.09,共有部份,鋼筋混凝土造,82年9月25日,八層,
RPPNMLPKKIKFFAU09CA,21,58.29,住家用,鋼筋混凝土造,83年8月11日,八層,六層
RPPNMLPKKIKFFAU09CA,21,27.51,共有部份,鋼筋混凝土造,83年8月11日,八層,
RPOPMLLLKIKFFAU88CA,39,96.47,住家用,鋼筋混凝土造,65年7月24日,二層,一層 二層 騎樓
RPPOMLLMKIKFFAU98CA,37,136.40,住商用,鋼筋混凝土造,67年7月25日,四層,一層 二層 三層 四層 屋頂突出物 騎樓
RPOQMLOJJHLFFAU98CA,15,109.36,住家用,鋼筋混凝土造,89年6月9日,七層,四層
RPOQMLOJJHLFFAU98CA,15,22.10,共有部份,鋼筋混凝土造,89年6月9日,七層,
RPOQMLOJJHLFFAU98CA,15,56.21,共有部份,鋼筋混凝土造,89年6月9日,七層,
RPPNMLPJJHLFFAU88CA,20,39.61,住家用,鋼筋混凝土造,85年3月9日,七層,二層
RPPNMLPJJHLFFAU88CA,20,15.94,共有部份,鋼筋混凝土造,85年3月9日,七層,
RPPQMLLMKIKFFAU56CA,31,73.18,住家用,鋼筋混凝土造,73年12月3日,七層,一層
RPPQMLLMKIKFFAU56CA,31,.82,共有部份,鋼筋混凝土造,73年12月3日,七層,
RPPQMLLMKIKFFAU56CA,31,24.29,共有部份,鋼筋混凝土造,73年12月3日,七層,
RPORMLLMKIKFFAU56CA,,755.07,住家用,鋼筋混凝土造,104年9月4日,五層,屋頂突出物 夾層 一層 二層 三層 四層 五層
RPQRMLLMKIKFFAU76CA,15,1133.00,見其他登記事項,見其他登記事項,90年3月12日,二層,一層 二層 地下層 見其他登記事項
RPQNMLLKKIKFFCU98CA,29,179.58,住商用,鋼筋混凝土加強磚造,75年12月19日,二層,一層 二層 屋頂突出物 騎樓
RPPNMLMKJHLFFCU88CA,17,103.20,住家用,鋼筋混凝土造,87年7月10日,九層,二層
RPRNMLSKKIKFFCU17CA,30,131.64,住家用,鋼筋混凝土加強磚造,74年12月7日,二層,一層 二層
RPUPMLKMKIKFFAU86CA,12,195.28,住家用,鋼筋混凝土造,92年12月9日,三層,一層 二層 三層 見其他登記事項
RPVPMLKMKIKFFAU96CA,43,87.41,住家用,鋼筋混凝土加強磚造,61年6月12日,二層,一層 二層
RPRNMLQLKIKFFAU86CA,15,94.87,住家用,鋼筋混凝土造,89年8月7日,十五層,三層
RPRNMLQLKIKFFAU86CA,15,24.70,共有部份,鋼筋混凝土造,89年8月7日,十五層,
RPRNMLQLKIKFFAU86CA,15,.82,共有部份,鋼筋混凝土造,89年8月7日,十五層,
RPRNMLQLKIKFFAU86CA,15,18.28,共有部份,鋼筋混凝土造,89年8月7日,十五層,
RPRPMLLLKIKFFAU56CA,31,83.25,住家用,鋼筋混凝土造,73年9月19日,五層,三層
RPRPMLLLKIKFFAU56CA,31,5.35,共有部份,鋼筋混凝土造,73年9月19日,五層,
RPRPMLLLKIKFFAU56CA,31,13.88,共有部份,鋼筋混凝土造,73年9月19日,五層,
RPSPMLLLKIKFFAU66CA,37,70.84,住家用,鋼筋混凝土加強磚造,68年2月12日,二層,一層 二層
RPUOMLMLKIKFFAU86CA,33,97.14,住家用,鋼筋混凝土造,72年1月20日,二層,一層 二層
RPPOMLPKKIKFFAU56CA,21,47.62,住家用,鋼筋混凝土造,83年11月15日,十二層,八層
RPPOMLPKKIKFFAU56CA,21,10.00,共有部份,鋼筋混凝土造,83年11月15日,十二層,
RPPOMLPKKIKFFAU56CA,21,5.37,共有部份,鋼筋混凝土造,83年11月15日,十二層,
RPUOMLPKKIKFFAU07CA,38,102.08,住商用,鋼筋混凝土加強磚造,67年3月22日,二層,一層 二層
RPQNMLKKKIKFFAU68CA,2,236.60,住家用,鋼筋混凝土造,102年11月14日,四層,一層 二層 三層 四層
RPSPMLTJKIKFFAU27CA,22,48.65,住家用,鋼筋混凝土造,83年3月26日,六層,二層
RPSPMLTJKIKFFAU27CA,22,10.42,共有部份,鋼筋混凝土造,83年3月26日,六層,
RPTPMLTJKIKFFAU37CA,18,44.26,住家用,鋼筋混凝土造,86年8月27日,九層,四層 五層
RPTPMLTJKIKFFAU37CA,18,8.48,共有部份,鋼筋混凝土造,86年8月27日,九層,
RPTPMLTJKIKFFAU37CA,18,6.66,共有部份,鋼筋混凝土造,86年8月27日,九層,
RPTPMLTJKIKFFAU37CA,18,2.21,共有部份,鋼筋混凝土造,86年8月27日,九層,
RPXOMLTJKIKFFAU67CA,,218.37,住家用,鋼筋混凝土造,104年8月10日,三層,一層 二層 三層 屋頂突出物 見其他登記事項
RPROMLTJKIKFFAU07CA,23,45.58,住家用,鋼筋混凝土造,81年6月13日,五層,二層
RPROMLTJKIKFFAU07CA,23,12.20,共有部份,鋼筋混凝土造,81年6月13日,五層,
RPPOMLSJKIKFFAU76CA,,238.03,住家用,鋼筋混凝土造,104年9月23日,三層,一層 二層 三層 屋頂突出物
RPUNMLSJKIKFFAU17CA,36,104.41,住家用,鋼筋混凝土加強磚造,69年2月5日,二層,一層 二層 屋頂突出物
RPVNMLSJKIKFFAU27CA,,196.26,住家用,鋼筋混凝土造,104年6月25日,三層,一層 二層 三層 屋頂突出物
RPPPMLTJKIKFFAU96CA,38,98.44,住家用,鋼筋混凝土加強磚造,66年8月30日,二層,一層 二層
RPPOMLKKKIKFFAU68CA,,230.42,住家用,鋼筋混凝土造,104年5月22日,四層,一層 二層 三層 四層
RPWOMLQKKIKFFAU37CA,26,42.66,住家用,鋼筋混凝土造,78年6月3日,五層,三層
RPWOMLQKKIKFFAU37CA,26,4.06,共有部份,鋼筋混凝土造,78年6月3日,五層,
RPWOMLQKKIKFFAU37CA,26,4.49,共有部份,鋼筋混凝土造,78年6月3日,五層,
RPSPMLOKKIKFFAU86CA,29,1.42,共有部份,鋼筋混凝土造,76年1月13日,五層,
RPSPMLOKKIKFFAU86CA,29,25.38,住家用,鋼筋混凝土造,76年1月13日,五層,五層
RPSPMLOKKIKFFAU86CA,29,2.61,共有部份,鋼筋混凝土造,76年1月13日,五層,
RPTPMLOKKIKFFAU96CA,32,8.32,共有部份,鋼筋混凝土造,72年9月10日,四層,
RPTPMLOKKIKFFAU96CA,32,91.27,住家用,鋼筋混凝土造,72年9月10日,四層,三層
RPXNMLLLKIKFFAU96CA,20,70.37,住家用,鋼筋混凝土造,84年11月4日,十一層,十層
RPXNMLLLKIKFFAU96CA,20,10.30,共有部份,鋼筋混凝土造,84年11月4日,十一層,
RPXNMLLLKIKFFAU96CA,20,15.52,共有部份,鋼筋混凝土造,84年11月4日,十層,
RPTOMLMLKIKFFAU76CA,33,109.25,住家用,鋼筋混凝土加強磚造,71年11月5日,二層,一層 二層
RPXOMLMLKIKFFAU17CA,17,102.98,住家用,鋼筋混凝土造,88年5月20日,五層,二層 三層
RPXOMLMLKIKFFAU17CA,17,13.40,停車空間,鋼筋混凝土造,88年5月20日,五層,
RPXOMLMLKIKFFAU17CA,17,22.58,共有部份,鋼筋混凝土造,88年5月20日,五層,
RPPOMLLLKIKFFAU88CA,21,28.37,住家用,鋼筋混凝土造,84年4月14日,五層,二層
RPPOMLLLKIKFFAU88CA,21,14.52,共有部份,鋼筋混凝土造,84年4月14日,五層,
RPTNMLNLKIKFFAU76CA,43,117.61,住家用,鋼筋混凝土加強磚造,61年7月3日,二層,一層 二層
RPRNMLOLKIKFFAU66CA,9,228.38,住家用,鋼筋混凝土造,95年10月5日,四層,一層 二層 三層 四層
RPSNMLOKKIKFFCU86CA,,145.86,住商用,鋼筋混凝土造,,三層,一層 二層 三層 騎樓
RPTNMLOKKIKFFCU96CA,34,84.89,住家用,鋼筋混凝土加強磚造,70年9月30日,一層,一層 騎樓
RPPNMLPJJHLFFBU98CA,19,257.06,住商用,鋼筋混凝土造,85年8月16日,四層,一層 二層 三層 四層 屋頂突出物 騎樓
RPPNMLOJJHLFFAU78CA,26,16.98,住家用,鋼筋混凝土造,78年11月4日,六層,六層
RPPNMLOJJHLFFAU78CA,26,5.31,共有部份,鋼筋混凝土造,78年11月4日,六層,
SPPNMLOJJHLFFAU88CA,26,16.97,住家用,鋼筋混凝土造,78年11月4日,六層,六層
SPPNMLOJJHLFFAU88CA,26,5.31,共有部份,鋼筋混凝土造,78年11月4日,六層,
RPOOMLPJJHLFFAU88CA,1,231.06,住家用,鋼筋混凝土造,104年10月8日,四層,一層 二層 三層 四層
RPQOMLPJJHLFFAU09CA,1,231.06,住家用,鋼筋混凝土造,104年10月7日,四層,一層 二層 三層 四層
RPROMLQJJHLFFAU66CA,1,231.06,住家用,鋼筋混凝土造,104年10月7日,四層,一層 二層 三層 四層
RPSOMLMLKIKFFAU66CA,33,79.90,住家用,鋼筋混凝土造,72年1月7日,四層,二層
RPSOMLMLKIKFFAU66CA,33,15.72,共有部份,鋼筋混凝土造,72年1月7日,四層,
RPRNMLMLKIKFFAU09CA,31,88.50,住家用,鋼筋混凝土加強磚造,73年8月31日,二層,一層 二層
RPPPMLMLKIKFFAU09CA,20,26.69,住家用,鋼筋混凝土造,85年2月2日,十層,九層
RPPPMLMLKIKFFAU09CA,20,3.61,共有部份,鋼筋混凝土造,85年2月2日,十層,
RPPPMLMLKIKFFAU09CA,20,7.42,共有部份,鋼筋混凝土造,85年2月2日,十層,
RPQPMLMLKIKFFAU56CA,31,111.46,住家用,鋼筋混凝土加強磚造,74年3月21日,二層,一層 二層
RPPNMLSKKIKFFAU76CA,20,67.61,住家用,鋼筋混凝土造,85年3月6日,五層,五層
RPPNMLSKKIKFFAU76CA,20,15.38,共有部份,鋼筋混凝土造,85年3月6日,五層,
RPQNMLSKKIKFFAU86CA,38,126.26,住商用,鋼筋混凝土加強磚造,66年8月9日,二層,一層 二層 騎樓
RPTNMLSKKIKFFAU17CA,21,19.85,住家用,鋼筋混凝土造,83年11月15日,十二層,五層
RPTNMLSKKIKFFAU17CA,21,6.23,共有部份,鋼筋混凝土造,83年11月15日,十二層,
RPTNMLSKKIKFFAU17CA,21,3.38,共有部份,鋼筋混凝土造,83年11月15日,十二層,
RPUOMLOKKIKFFAU96CA,13,111.98,住家用,鋼筋混凝土造,91年12月2日,14,九層
RPUOMLOKKIKFFAU96CA,13,65.19,共有部份,鋼筋混凝土造,91年12月2日,十四層,
RPVOMLOKKIKFFAU07CA,37,82.75,住家用,鋼筋混凝土加強磚造,67年10月19日,二層,一層 二層
RPQNMLPKKIKFFAU56CA,20,146.83,住家用,鋼筋混凝土造,84年12月22日,三層,一層 二層 三層
RPOOMLPLKIKFFAU56CA,16,113.78,住家用,鋼筋混凝土造,88年5月20日,五層,四層 五層 見其他登記事項
RPOOMLPLKIKFFAU56CA,16,13.40,停車空間,鋼筋混凝土造,88年5月20日,五層,
RPOOMLPLKIKFFAU56CA,16,25.67,共有部份,鋼筋混凝土造,88年5月20日,五層,
RPPQMLKMKIKFFAU09CA,29,108.81,住家用,鋼筋混凝土造,76年4月1日,二層,一層 二層
RPVOMLKKKIKFFAU66CA,40,700.78,商業用,見其他登記事項,64年12月10日,二層,一層 二層 騎樓
RPWNMLLKKIKFFAU76CA,37,55.47,住家用,鋼筋混凝土加強磚造,67年9月1日,一層,一層 陽台
RPTOMLLKKIKFFAU56CA,21,103.77,住家用,鋼筋混凝土造,84年4月22日,六層,三層
RPTOMLLKKIKFFAU56CA,21,36.10,共有部份,鋼筋混凝土造,84年4月22日,六層,
RPSNMLKKKIKFFAU88CA,1,350.32,農舍,鋼筋混凝土造,103年10月22日,四層,二層 三層 一層 四層 屋頂突出物
RPRNMLPKKIKFFAU76DA,23,44.12,見其他登記事項,鋼筋混凝土造,81年9月30日,八層,八層
RPRNMLPKKIKFFAU76DA,23,11.77,共有部份,鋼筋混凝土造,81年9月30日,八層,
RPTNMLPJJHLFFAU86EA,21,21.17,住家用,鋼筋混凝土造,83年11月15日,十二層,九層
RPTNMLPJJHLFFAU86EA,21,4.25,共有部份,鋼筋混凝土造,83年11月15日,十二層,
RPTNMLPJJHLFFAU86EA,21,6.39,共有部份,鋼筋混凝土造,83年11月15日,十二層,
RPWNMLOKKIKFFAU07CA,31,98.14,住家用,鋼筋混凝土造,74年5月22日,二層,一層 二層
RPWOMLKKKIKFFAU76CA,30,96.80,住家用,鋼筋混凝土造,74年10月14日,二層,一層 二層
RPPPMLKMKIKFFAU98CA,19,87.18,住家用,鋼筋混凝土造,86年1月6日,七層,七層
RPPPMLKMKIKFFAU98CA,19,13.50,共有部份,鋼筋混凝土造,86年1月16日,七層,
RPPPMLKMKIKFFAU98CA,19,20.30,共有部份,鋼筋混凝土造,86年1月6日,七層,
RPSPMLKMKIKFFAU66CA,20,45.99,住家用,鋼筋混凝土造,84年9月19日,六層,三層
RPSPMLKMKIKFFAU66CA,20,19.43,共有部份,鋼筋混凝土造,84年9月19日,六層,
RPTPMLKMKIKFFAU76CA,20,47.27,住家用,鋼筋混凝土造,84年8月31日,六層,四層
RPTPMLKMKIKFFAU76CA,20,25.92,共有部份,鋼筋混凝土造,84年8月31日,六層,
RPQQMLSLKIKFFAU27CA,34,75.76,住家用,鋼筋混凝土造,70年8月1日,四層,一層
RPQQMLSLKIKFFAU27CA,34,16.37,共有部份,鋼筋混凝土造,70年8月1日,四層,
RPUNMLQLKIKFFAU17CA,38,56.75,住家用,鋼筋混凝土加強磚造,66年11月2日,一層,一層
RPTNMLPKKIKFFAU86CA,22,64.82,住家用,鋼筋混凝土造,82年10月29日,十層,七層
RPTNMLPKKIKFFAU86CA,22,20.46,共有部份,鋼筋混凝土造,82年10月29日,十層,
RPSNMLSKKIKFFAU07CA,21,60.24,住商用,鋼筋混凝土造,83年5月25日,六層,一層
RPSNMLSKKIKFFAU07CA,21,28.14,共有部份,鋼筋混凝土造,83年5月25日,六層,
RPRNMLRKKIKFFAU86CA,,80.55,住家用,鋼筋混凝土加強磚造,,一層,一層
RPTNMLRKKIKFFAU07CA,11,530.22,住商用,鋼筋混凝土造,94年3月25日,四層,一層 二層 三層 四層 屋頂突出物 騎樓
RPTNMLLLKIKFFAU56CA,32,75.23,住家用,鋼筋混凝土造,72年12月15日,八層,六層
RPTNMLLLKIKFFAU56CA,32,8.05,共有部份,鋼筋混凝土造,72年12月15日,八層,
RPOOMLLLKIKFFAU78CA,22,76.98,住家用,鋼筋混凝土造,83年3月26日,六層,二層
RPOOMLLLKIKFFAU78CA,22,43.38,共有部份,鋼筋混凝土造,83年3月26日,六層,
RPOPMLMLKIKFFAU98CA,21,88.28,住家用,鋼筋混凝土造,84年2月22日,八層,六層
RPOPMLMLKIKFFAU98CA,21,18.01,共有部份,鋼筋混凝土造,84年2月22日,八層,
RPOPMLMLKIKFFAU98CA,21,17.59,共有部份,鋼筋混凝土造,84年2月22日,八層,
RPSOMLNLKIKFFAU76CA,39,92.76,住家用,鋼筋混凝土加強磚造,65年11月25日,二層,一層 二層 騎樓
RPTOMLNLKIKFFAU86CA,11,177.41,住家用,鋼筋混凝土造,94年1月13日,四層,一層 二層 三層 四層
RPOPMLOLKIKFFAU56CA,22,83.96,住家用,鋼筋混凝土造,82年10月29日,十層,四層
RPOPMLOLKIKFFAU56CA,22,31.31,共有部份,鋼筋混凝土造,82年10月29日,十層,
RPXOMLOJJHLFFAU07CA,35,125.48,住家用,鋼筋混凝土造,69年12月10日,五層,四層
RPXOMLOJJHLFFAU07CA,35,21.12,共有部份,鋼筋混凝土造,69年12月10日,五層,
RPPPMLOJJHLFFAU98CA,,252.15,農舍,鋼筋混凝土造,104年10月30日,三層,一層 二層 三層
RPQPMLOJJHLFFAU09CA,1,375.41,住家用,鋼筋混凝土造,103年10月17日,四層,二層 三層 一層 四層 屋頂突出物 騎樓
RPSPMLOJJHLFFAU66CA,23,73.51,見其他登記事項,鋼筋混凝土造,81年9月30日,八層,八層
RPSPMLOJJHLFFAU66CA,23,16.85,共有部份,鋼筋混凝土造,81年9月30日,八層,
RPRNMLRKKIKFFBU96CA,21,202.49,住商用,鋼筋混凝土造,83年8月1日,三層,一層 二層 三層 屋頂突出物 騎樓
RPQPMLRJJHLFFAU76CA,18,98.40,住家用,鋼筋混凝土造,86年7月18日,十二層,十層
RPQPMLRJJHLFFAU76CA,18,27.65,共有部份,鋼筋混凝土造,86年7月18日,十二層,
RPQPMLRJJHLFFAU76CA,18,43.92,共有部份,鋼筋混凝土造,86年7月18日,十二層,
RPXOMLOLKIKFFAU37CA,21,269.15,住家用,鋼筋混凝土造,83年11月24日,五層,一層 二層 三層 四層 五層 屋頂突出物
RPWNMLNLKIKFFAU07CA,21,144.71,住家用,鋼筋混凝土造,83年8月1日,八層,七層 八層
RPWNMLNLKIKFFAU07CA,21,28.69,共有部份,鋼筋混凝土造,83年8月1日,八層,
RPROMLSKKIKFFAU07CA,19,23.59,住家用,鋼筋混凝土造,85年11月4日,六層,二層
RPROMLSKKIKFFAU07CA,19,9.81,共有部份,鋼筋混凝土造,85年11月4日,六層,
RPROMLLLKIKFFAU09CA,1,266.71,見其他登記事項,鋼筋混凝土造,103年5月6日,九層,四層
RPROMLLLKIKFFAU09CA,1,149.71,共有部份,鋼筋混凝土造,103年5月6日,九層,
RPROMLLLKIKFFAU09CA,1,38.35,共有部份,鋼筋混凝土造,103年5月6日,九層,
RPUPMLOKKIKFFAU07CA,21,8.42,共有部份,鋼筋混凝土造,84年3月21日,十三層,
RPUPMLOKKIKFFAU07CA,21,76.72,住家用,鋼筋混凝土造,84年3月21日,十三層,三層
RPUPMLOKKIKFFAU07CA,21,9.15,共有部份,鋼筋混凝土造,84年3月21日,十三層,
RPUPMLOKKIKFFAU07CA,21,.18,商業用,鋼筋混凝土造,84年3月21日,十三層,防空避難室
RPUPMLOKKIKFFAU07CA,21,7.50,共有部份,鋼筋混凝土造,84年3月21日,十三層,
RPVOMLQKKIKFFAU27CA,29,119.57,住家用,鋼筋混凝土造,76年3月11日,二層,一層 二層
RPWNMLQKKIKFFAU27CA,19,58.13,住家用,鋼筋混凝土造,85年10月29日,十六層,三層
RPWNMLQKKIKFFAU27CA,19,10.82,共有部份,鋼筋混凝土造,85年10月29日,十六層,
RPWNMLQKKIKFFAU27CA,19,16.99,共有部份,鋼筋混凝土造,85年10月29日,十六層,
RPWNMLQKKIKFFAU27CA,19,14.47,停車空間,鋼筋混凝土造,85年10月29日,十六層,
RPSNMLQLKIKFFAU96CA,20,67.42,住家用,鋼筋混凝土造,84年11月4日,十層,七層
RPSNMLQLKIKFFAU96CA,20,10.36,共有部份,鋼筋混凝土造,84年11月4日,十層,
RPSNMLQLKIKFFAU96CA,20,15.11,共有部份,鋼筋混凝土造,84年11月4日,十層,
RPWOMLKMKIKFFAU96CA,,558.19,農舍,鋼筋混凝土造,104年10月6日,三層,一層 二層 三層 屋頂突出物 見其他登記事項
RPROMLOKKIKFFAU66CA,20,89.96,住家用,鋼筋混凝土造,85年1月19日,九層,七層
RPROMLOKKIKFFAU66CA,20,23.55,共有部份,鋼筋混凝土造,85年1月19日,九層,
RPOPMLKMKIKFFAU88CA,18,72.12,住家用,鋼筋混凝土造,87年4月3日,十層,七層
RPOPMLKMKIKFFAU88CA,18,14.72,共有部份,鋼筋混凝土造,87年4月3日,十層,
RPOPMLKMKIKFFAU88CA,18,6.21,共有部份,鋼筋混凝土造,87年4月3日,十層,
RPPOMLQKKIKFFAU66CA,34,95.72,住家用,鋼筋混凝土加強磚造,71年2月28日,二層,一層 二層
RPPPMLLLKIKFFAU98CA,,166.37,住家用,鋼筋混凝土造,104年6月11日,三層,一層 二層 三層
RPPNMLMLKIKFFAU88CA,22,85.77,住家用,鋼筋混凝土造,83年4月1日,十層,一層
RPPNMLMLKIKFFAU88CA,22,24.34,共有部份,鋼筋混凝土造,83年4月1日,十層,
RPTPMLLKJHLFFAU56CA,21,86.12,住家用,鋼筋混凝土造,84年5月16日,八層,八層
RPTPMLLKJHLFFAU56CA,21,44.11,共有部份,鋼筋混凝土造,84年5月16日,八層,
RPUOMLOJJHLFFAU76CA,34,95.16,住家用,鋼筋混凝土造,70年10月5日,五層,四層
RPUOMLOJJHLFFAU76CA,34,13.85,共有部份,鋼筋混凝土造,70年10月5日,五層,
RPPNMLQKKIKFFCU76CA,,24.00,住家用,鋼筋混凝土加強磚造,,一層,一層
RPQNMLQKKIKFFCU86CA,32,103.70,住商用,加強磚造,72年12月21日,二層,一層 二層 騎樓
RPROMLPKKIKFFBU07EA,37,123.03,住商用,鋼筋混凝土加強磚造,68年3月2日,二層,一層 二層 騎樓
RPOOMLRJJHLFFAU66EA,40,1274.92,商業用,鋼筋混凝土造,64年6月27日,四層,一層 二層 三層 四層 騎樓 地下層
RPQNMLNJJHLFFAU78CA,35,83.06,住商用,鋼筋混凝土加強磚造,69年5月16日,二層,一層 二層 騎樓
RPWRMLLMKIKFFAU37CA,,119.96,住商用,鋼筋混凝土加強磚造,,二層,一層 二層 屋頂突出物 騎樓
RPRRMLLMKIKFFAU86CA,,233.55,住家用,鋼筋混凝土造,104年8月24日,四層,一層 二層 三層 四層
RPSRMLLMKIKFFAU96CA,38,89.70,住家用,鋼筋混凝土加強磚造,66年4月8日,二層,一層 二層
RPUOMLRJJHLFFAU07CA,23,205.83,住家用,鋼筋混凝土造,81年9月26日,四層,一層 二層 三層 四層
RPTPMLMLKIKFFAU86CA,23,147.93,住家用,鋼筋混凝土造,82年1月6日,三層,一層 二層 三層
RPRPMLMLKIKFFAU66CA,21,23.90,住家用,鋼筋混凝土造,83年11月15日,十二層,六層
RPRPMLMLKIKFFAU66CA,21,5.95,共有部份,鋼筋混凝土造,83年11月15日,十二層,
RPRPMLMLKIKFFAU66CA,21,7.54,共有部份,鋼筋混凝土造,83年11月15日,十二層,
RPXNMLNLKIKFFAU17CA,35,166.48,住工用,鋼筋混凝土造,70年1月14日,二層,二層 防空避難室 騎樓 一層
RPUOMLNLKIKFFAU96CA,17,214.01,住家用,鋼筋混凝土造,88年2月1日,四層,一層 二層 三層 四層 屋頂突出物
RPSOMLLLKIKFFAU56CA,2,266.71,見其他登記事項,鋼筋混凝土造,103年5月6日,九層,二層
RPSOMLLLKIKFFAU56CA,2,149.71,共有部份,鋼筋混凝土造,103年5月6日,九層,
RPSOMLLLKIKFFAU56CA,2,38.35,共有部份,鋼筋混凝土造,103年5月6日,九層,
RPTOMLLLKIKFFAU66CA,2,266.71,見其他登記事項,鋼筋混凝土造,103年5月6日,九層,四層
RPTOMLLLKIKFFAU66CA,2,149.71,共有部份,鋼筋混凝土造,103年5月6日,九層,
RPTOMLLLKIKFFAU66CA,2,38.35,共有部份,鋼筋混凝土造,103年5月6日,九層,
RPTNMLQKKIKFFAU96CA,,109.45,住家用,木造,,二層,一層 二層
RPROMLQKKIKFFAU86CA,18,192.57,住家用,鋼筋混凝土造,87年5月15日,四層,四層 一層 二層 三層
RPPPMLQKKIKFFAU76CA,27,218.44,住家用,鋼筋混凝土造,77年12月28日,四層,一層 二層 三層 四層 見其他登記事項
RPTNMLQLKIKFFAU07CA,24,33.67,住家用,鋼筋混凝土造,81年1月28日,四層,二層
RPTNMLQLKIKFFAU07CA,24,5.59,共有部份,鋼筋混凝土造,81年1月28日,四層,
RPWPMLPLKIKFFAU47CA,,218.14,住家用,鋼筋混凝土造,104年6月17日,三層,一層 二層 三層 屋頂突出物
RPRNMLTLKIKFFAU17CA,32,110.48,住商用,鋼筋混凝土造,72年6月28日,二層,一層 二層 騎樓
RPQPMLSLKIKFFAU17CA,11,163.59,住家用,鋼筋混凝土造,94年4月21日,四層,一層 二層 三層 四層
RPRPMLKMKIKFFAU56CA,22,47.79,住家用,鋼筋混凝土造,83年5月18日,六層,四層
RPRPMLKMKIKFFAU56CA,22,22.04,共有部份,鋼筋混凝土造,83年5月18日,六層,
RPOQMLTLKIKFFAU17CA,35,100.05,住家用,鋼筋混凝土加強磚造,70年2月2日,二層,一層 二層
RPRNMLKMKIKFFAU98CA,5,202.11,住家用,鋼筋混凝土造,100年4月29日,四層,一層 二層 三層 四層
RPUNMLSKKIKFFAU27CA,23,10.21,共有部份,鋼筋混凝土造,82年1月9日,七層,
RPUNMLSKKIKFFAU27CA,23,96.19,住家用,鋼筋混凝土造,82年1月9日,七層,三層
RPUNMLSKKIKFFAU27CA,23,10.94,共有部份,鋼筋混凝土造,82年1月9日,七層,
RPUNMLSKKIKFFAU27CA,23,.28,商業用,鋼筋混凝土造,82年1月9日,七層,地下層
RPUNMLSKKIKFFAU27CA,23,15.02,共有部份,鋼筋混凝土造,82年1月9日,七層,
RPROMLRKKIKFFAU96CA,,292.75,住家用,鋼筋混凝土造,104年9月18日,三層,一層 二層 三層 屋頂突出物 見其他登記事項
RPUNMLLLKIKFFAU66CA,19,24.37,住家用,鋼筋混凝土造,85年11月4日,六層,四層
RPUNMLLLKIKFFAU66CA,19,10.52,共有部份,鋼筋混凝土造,85年11月4日,六層,
RPVNMLNLKIKFFAU96CA,17,185.64,住家用,鋼筋混凝土造,87年12月31日,三層,一層 二層 三層
RPWNMLOLKIKFFAU17CA,11,168.41,住家用,鋼筋混凝土造,94年4月21日,四層,一層 二層 三層 四層
RPUPMLMLKIKFFAU96CA,21,23.46,住家用,鋼筋混凝土造,83年11月15日,十二層,十層
RPUPMLMLKIKFFAU96CA,21,5.95,共有部份,鋼筋混凝土造,83年11月15日,十二層,
RPUPMLMLKIKFFAU96CA,21,6.14,共有部份,鋼筋混凝土造,83年11月15日,十二層,
RPPQMLMLKIKFFAU56CA,20,151.32,住商用,鋼筋混凝土造,85年2月8日,十二層,一層 二層
RPPQMLMLKIKFFAU56CA,20,9.91,共有部份,鋼筋混凝土造,85年2月8日,十二層,
RPPQMLMLKIKFFAU56CA,20,4.96,停車空間,鋼筋混凝土造,85年2月8日,十二層,
RPVPMLLKJHLFFAU76CA,22,104.65,住家用,鋼筋混凝土造,83年4月1日,十層,八層
RPVPMLLKJHLFFAU76CA,22,29.26,共有部份,鋼筋混凝土造,83年4月1日,十層,
RPUPMLRJJHLFFAU17CA,21,86.90,住家用,鋼筋混凝土造,84年3月28日,七層,七層
RPUPMLRJJHLFFAU17CA,21,24.59,共有部份,鋼筋混凝土造,84年3月28日,七層,
RPUPMLRJJHLFFAU17CA,21,7.65,共有部份,鋼筋混凝土造,84年3月28日,七層,
RPSNMLSJJHLFFAU86CA,1,405.19,住家用,鋼筋混凝土造,102年5月24日,四層,二層 三層 四層 屋頂突出物 一層
RPQOMLMKJHLFFAU88CA,30,70.12,住家用,鋼筋混凝土造,75年3月18日,五層,二層
RPQOMLMKJHLFFAU88CA,30,10.55,共有部份,鋼筋混凝土造,75年3月18日,五層,
RPQOMLNKJHLFFAU98CA,26,15.90,住家用,鋼筋混凝土造,78年11月4日,六層,六層
RPQOMLNKJHLFFAU98CA,26,4.96,共有部份,鋼筋混凝土造,78年11月4日,六層,
SPQOMLNKJHLFFAU09CA,26,22.52,住家用,鋼筋混凝土造,78年11月4日,六層,六層
SPQOMLNKJHLFFAU09CA,26,6.61,共有部份,鋼筋混凝土造,78年11月4日,六層,
TPQOMLNKJHLFFAU56CA,26,18.94,住家用,鋼筋混凝土造,78年11月4日,六層,六層
TPQOMLNKJHLFFAU56CA,26,5.74,共有部份,鋼筋混凝土造,78年11月4日,六層,
UPQOMLNKJHLFFAU66CA,26,20.12,住家用,鋼筋混凝土造,78年11月4日,六層,六層
UPQOMLNKJHLFFAU66CA,26,5.92,共有部份,鋼筋混凝土造,78年11月4日,六層,
VPQOMLNKJHLFFAU76CA,26,14.49,住家用,鋼筋混凝土造,78年11月4日,六層,六層
VPQOMLNKJHLFFAU76CA,26,4.70,共有部份,鋼筋混凝土造,78年11月4日,六層,
WPQOMLNKJHLFFAU86CA,26,15.00,住家用,鋼筋混凝土造,78年11月4日,六層,六層
WPQOMLNKJHLFFAU86CA,26,4.87,共有部份,鋼筋混凝土造,78年11月4日,六層,
XPQOMLNKJHLFFAU96CA,26,21.16,住家用,鋼筋混凝土造,78年11月4日,六層,六層
XPQOMLNKJHLFFAU96CA,26,6.35,共有部份,鋼筋混凝土造,78年11月4日,六層,
RPUNMLNKJHLFFAU66CA,26,15.97,住家用,鋼筋混凝土造,78年11月4日,六層,六層
RPUNMLNKJHLFFAU66CA,26,5.05,共有部份,鋼筋混凝土造,78年11月4日,六層,
RPOOMLNKJHLFFAU78CA,26,22.82,住家用,鋼筋混凝土造,78年11月4日,六層,六層
RPOOMLNKJHLFFAU78CA,26,6.70,共有部份,鋼筋混凝土造,78年11月4日,六層,
RPXRMLLMKIKFFAU47CA,,287.66,住家用,鋼筋混凝土造,104年6月8日,四層,一層 二層 三層 四層
RPXNMLOKJHLFFAU07CA,,253.37,住家用,鋼筋混凝土造,104年10月21日,三層,一層 二層 三層 騎樓 見其他登記事項
RPVNMLOKJHLFFAU86CA,32,81.38,住家用,鋼筋混凝土造,72年9月10日,四層,四層
RPVNMLOKJHLFFAU86CA,32,7.03,共有部份,鋼筋混凝土造,72年9月10日,四層,
RPQNMLPLKIKFFCU86CA,,505.80,農舍,鋼筋混凝土造,104年9月21日,二層,一層 二層 見其他登記事項
RPPOMLRKKIKFFAU96EA,22,96.59,住家用,鋼筋混凝土造,82年5月28日,五層,五層
RPPOMLRKKIKFFAU96EA,22,10.44,共有部份,鋼筋混凝土造,82年5月28日,五層,
RPPOMLRKKIKFFAU96EA,22,17.32,共有部份,鋼筋混凝土造,82年5月28日,五層,
RPSNMLKMKIKFFBU56CA,36,87.22,住商用,鋼筋混凝土加強磚造,68年9月10日,二層,一層 二層
RPVPMLSKJHLFFAU47CA,44,90.66,住家用,鋼筋混凝土加強磚造,61年4月21日,二層,一層 二層
RPVPMLOJJHLFFAU96CA,20,18.02,住家用,鋼筋混凝土造,84年8月19日,十一層,七層
RPVPMLOJJHLFFAU96CA,20,6.23,共有部份,鋼筋混凝土造,84年8月19日,十一層,
RPTNMLRJJHLFFAU86CA,23,204.26,住商用,鋼筋混凝土造,81年12月7日,四層,一層 二層 三層 四層 騎樓
RPROMLPJJHLFFAU56CA,1,231.06,住家用,鋼筋混凝土造,104年10月7日,四層,一層 二層 三層 四層
RPSOMLPJJHLFFAU66CA,37,117.02,見其他登記事項,鋼筋混凝土加強磚造,67年10月24日,二層,一層 二層 騎樓
RPRPMLLKJHLFFAU98CA,15,108.80,住家用,鋼筋混凝土造,89年6月9日,七層,七層
RPRPMLLKJHLFFAU98CA,15,55.74,共有部份,鋼筋混凝土造,89年6月9日,七層,
RPRPMLLKJHLFFAU98CA,15,21.86,共有部份,鋼筋混凝土造,89年6月9日,七層,
RPVOMLLKJHLFFAU66CA,15,95.45,住家用,鋼筋混凝土造,88年4月14日,五層,二層
RPVOMLLKJHLFFAU66CA,15,10.45,共有部份,鋼筋混凝土造,88年4月14日,五層,
RPVOMLLKJHLFFAU66CA,15,6.75,共有部份,鋼筋混凝土造,88年4月14日,五層,
RPWOMLLKJHLFFAU76CA,22,129.23,住家用,鋼筋混凝土造,83年1月22日,十二層,十層
RPWOMLLKJHLFFAU76CA,22,38.08,共有部份,鋼筋混凝土造,83年1月22日,十二層,
RPVNMLPLKIKFFAU17CA,43,93.12,住家用,見其他登記事項,62年5月12日,一層,一層
RPUOMLOLKIKFFAU07CA,21,88.28,住家用,鋼筋混凝土造,84年2月22日,八層,三層
RPUOMLOLKIKFFAU07CA,21,18.82,共有部份,鋼筋混凝土造,84年2月22日,八層,
RPUOMLOLKIKFFAU07CA,21,6.12,停車空間,鋼筋混凝土造,84年2月22日,八層,
RPUOMLOLKIKFFAU07CA,21,17.59,共有部份,鋼筋混凝土造,84年2月22日,八層,
RPQPMLLLKIKFFAU09CA,44,19.88,住家用,見其他登記事項,,一層,一層
RPVOMLSKKIKFFAU47CA,,269.05,住家用,鋼筋混凝土造,104年8月3日,四層,一層 二層 三層 四層 見其他登記事項
RPXOMLSKKIKFFAU67CA,34,81.13,住家用,鋼筋混凝土造,70年12月4日,五層,三層
RPXOMLSKKIKFFAU67CA,34,16.82,共有部份,鋼筋混凝土造,70年12月4日,五層,
RPXOMLSKKIKFFAU67CA,34,2.04,共有部份,鋼筋混凝土造,70年12月4日,,
RPORMLTLKIKFFAU27CA,30,95.84,住家用,鋼筋混凝土造,75年4月2日,五層,一層
RPORMLTLKIKFFAU27CA,30,8.28,共有部份,鋼筋混凝土造,75年4月2日,五層,
RPORMLTLKIKFFAU27CA,30,6.86,共有部份,鋼筋混凝土造,75年4月2日,五層,
RPTNMLKMKIKFFAU56CA,26,27.45,住家用,鋼筋混凝土造,78年11月4日,六層,五層
RPTNMLKMKIKFFAU56CA,26,8.26,共有部份,鋼筋混凝土造,78年11月4日,六層,
RPOQMLKMKIKFFAU98CA,,265.14,住家用,鋼筋混凝土造,104年9月16日,三層,一層 二層 三層 屋頂突出物 見其他登記事項
RPTQMLKMKIKFFAU86CA,20,72.79,住家用,鋼筋混凝土造,84年11月4日,十層,八層
RPTQMLKMKIKFFAU86CA,20,10.65,共有部份,鋼筋混凝土造,84年11月4日,十層,
RPTQMLKMKIKFFAU86CA,20,15.52,共有部份,鋼筋混凝土造,84年11月4日,十層,
RPSQMLSLKIKFFAU47CA,18,152.79,住家用,鋼筋混凝土造,87年3月9日,五層,三層 四層 五層
RPSQMLSLKIKFFAU47CA,18,12.12,共有部份,鋼筋混凝土造,87年3月9日,五層,
RPSQMLSLKIKFFAU47CA,18,8.44,共有部份,鋼筋混凝土造,87年3月9日,五層,
RPUOMLPLKIKFFAU17CA,30,125.60,住家用,鋼筋混凝土造,74年12月20日,二層,一層 二層 屋頂突出物
RPVOMLPLKIKFFAU27CA,10,296.48,農舍,鋼筋混凝土造,95年3月21日,二層,一層 二層 門廳
RPOPMLPLKIKFFAU66CA,19,35.03,住商用,鋼筋混凝土造,86年2月24日,十層,六層
RPOPMLPLKIKFFAU66CA,19,.21,共有部份,鋼筋混凝土造,86年2月24日,十層,
RPOPMLPLKIKFFAU66CA,19,35.03,住商用,鋼筋混凝土造,86年2月24日,十層,六層
RPOPMLPLKIKFFAU66CA,19,10.35,共有部份,鋼筋混凝土造,86年2月24日,十層,
RPPPMLPLKIKFFAU76CA,19,35.03,住商用,鋼筋混凝土造,86年2月24日,十層,四層
RPPPMLPLKIKFFAU76CA,19,10.35,共有部份,鋼筋混凝土造,86年2月24日,十層,
RPSPMLPLKIKFFAU07CA,19,67.87,住商用,鋼筋混凝土造,86年2月24日,十層,六層
RPSPMLPLKIKFFAU07CA,19,17.43,共有部份,鋼筋混凝土造,86年2月24日,十層,
RPTPMLPLKIKFFAU17CA,19,35.03,住商用,鋼筋混凝土造,86年2月24日,十層,三層
RPTPMLPLKIKFFAU17CA,19,10.35,共有部份,鋼筋混凝土造,86年2月24日,十層,
RPUPMLPLKIKFFAU27CA,19,35.03,住商用,鋼筋混凝土造,86年2月24日,十層,十層
RPUPMLPLKIKFFAU27CA,19,10.35,共有部份,鋼筋混凝土造,86年2月24日,十層,
RPUPMLPLKIKFFAU27CA,19,35.03,住商用,鋼筋混凝土造,86年2月24日,十層,十層
RPUPMLPLKIKFFAU27CA,19,10.35,共有部份,鋼筋混凝土造,86年2月24日,十層,
RPTNMLSLKIKFFAU27CA,38,122.52,住商用,鋼筋混凝土加強磚造,66年10月17日,二層,一層 二層 騎樓
RPROMLKMKIKFFAU09CA,31,123.84,住家用,鋼筋混凝土造,74年1月8日,二層,一層 二層 屋頂突出物
RPVOMLOLKIKFFAU17CA,29,106.02,住家用,鋼筋混凝土造,75年10月27日,九層,六層
RPVOMLOLKIKFFAU17CA,29,22.25,共有部份,鋼筋混凝土造,75年10月27日,九層,
RPSOMLOLKIKFFAU86CA,21,24.92,住家用,鋼筋混凝土造,83年11月29日,五層,一層
RPSOMLOLKIKFFAU86CA,21,7.01,共有部份,鋼筋混凝土造,83年11月29日,五層,
RPROMLMLKIKFFAU56CA,21,174.47,見其他登記事項,鋼筋混凝土造,83年9月29日,四層,一層 二層 三層 四層 屋頂突出物
RPQNMLMLKIKFFAU98CA,,179.23,住家用,鋼筋混凝土造,104年6月12日,三層,一層 二層 三層 屋頂突出物
RPWOMLMLKIKFFAU07CA,26,233.36,住商用,鋼筋混凝土造,78年11月30日,四層,一層 二層 三層 四層 防空避難室 屋頂突出物 騎樓
RPSOMLMKJHLFFAU09CA,19,74.09,商業用,鋼筋混凝土造,85年6月25日,五層,一層
RPSOMLMKJHLFFAU09CA,19,11.46,共有部份,鋼筋混凝土造,85年6月25日,五層,
RPUNMLPJJHLFFAU76CA,20,166.26,住家用,鋼筋混凝土造,85年1月11日,五層,一層 夾層
RPUNMLPJJHLFFAU76CA,20,32.10,共有部份,鋼筋混凝土造,85年1月11日,五層,
RPQOMLQJJHLFFAU56CA,31,82.31,住家用,鋼筋混凝土造,73年9月19日,五層,四層
RPQOMLQJJHLFFAU56CA,31,13.88,共有部份,鋼筋混凝土造,73年9月19日,五層,
RPQOMLQJJHLFFAU56CA,31,10.28,共有部份,鋼筋混凝土造,73年9月19日,五層,
RPOSMLLMKIKFFAU66CA,41,151.39,住商用,鋼筋混凝土造,63年10月26日,三層,一層 二層 三層 騎樓 地下層
RPUOMLNKJHLFFAU76CA,31,124.17,住家用,鋼筋混凝土造,74年5月6日,三層,一層 二層 三層
RPQNMLOKJHLFFCU56CA,28,135.84,住商用,鋼筋混凝土造,76年6月20日,二層,屋頂突出物 騎樓 一層 二層
RPTNMLLLKIKFFAU76EA,20,82.82,住家用,鋼筋混凝土造,85年3月25日,七層,七層
RPTNMLLLKIKFFAU76EA,20,28.02,共有部份,鋼筋混凝土造,85年3月25日,七層,
RPTNMLOLKIKFFAU96DA,22,105.94,住家用,鋼筋混凝土造,82年12月21日,三層,一層 二層 三層
RPUNMLQJJHLFFAU96DA,29,155.92,住商用,鋼筋混凝土造,75年9月30日,二層,騎樓 一層 二層 屋頂突出物
RPOQMLSLKIKFFAU17DA,35,74.80,住家用,鋼筋混凝土加強磚造,69年7月19日,二層,一層 二層
RPUPMLOJJHLFFAU86CA,22,153.47,住家用,鋼筋混凝土造,82年6月29日,三層,一層 二層 三層 見其他登記事項
RPWNMLSJJHLFFAU27CA,21,79.54,住家用,鋼筋混凝土造,84年3月20日,六層,六層
RPWNMLSJJHLFFAU27CA,21,32.08,共有部份,鋼筋混凝土造,84年3月20日,六層,
RPQNMLNLKIKFFAU09CA,39,106.56,住家用,加強磚造,66年4月1日,二層,一層 二層
RPRNMLNLKIKFFAU56CA,22,73.93,住家用,鋼筋混凝土造,83年3月15日,十二層,十層
RPRNMLNLKIKFFAU56CA,22,18.66,共有部份,鋼筋混凝土造,83年3月15日,十二層,
RPTNMLMLKIKFFAU66CA,10,187.57,農舍,鋼筋混凝土造,94年6月2日,三層,一層 二層 三層 見其他登記事項
RPUNMLMLKIKFFAU76CA,35,112.00,住家用,鋼筋混凝土加強磚造,69年6月10日,二層,一層 二層
RPTNMLPLKIKFFAU96CA,13,112.10,住家用,鋼筋混凝土造,91年12月2日,14,十層
RPTNMLPLKIKFFAU96CA,13,65.30,共有部份,鋼筋混凝土造,91年12月2日,十四層,
RPQNMLPLKIKFFAU66CA,21,268.73,住商用,鋼筋混凝土造,83年8月31日,四層,一層 二層 三層 四層 騎樓
RPSNMLOLKIKFFAU76CA,34,94.84,住商用,鋼筋混凝土加強磚造,70年6月29日,二層,騎樓 一層 二層
RPUNMLOLKIKFFAU96CA,24,49.14,住家用,鋼筋混凝土造,81年4月22日,五層,五層
RPUNMLOLKIKFFAU96CA,24,7.65,共有部份,鋼筋混凝土造,81年4月22日,五層,
RPUOMLKMKIKFFAU76CA,39,95.55,住家用,鋼筋混凝土造,65年11月1日,二層,一層 二層 見其他登記事項
RPVNMLKMKIKFFAU76CA,21,76.72,住家用,鋼筋混凝土造,84年3月21日,十三層,五層
RPVNMLKMKIKFFAU76CA,21,8.42,共有部份,鋼筋混凝土造,84年3月21日,十三層,
RPVNMLKMKIKFFAU76CA,21,9.15,共有部份,鋼筋混凝土造,84年3月21日,十三層,
RPWNMLKMKIKFFAU86CA,29,115.62,住商用,鋼筋混凝土造,76年1月16日,二層,一層 二層 騎樓
RPTOMLLMKIKFFAU76CA,17,47.32,住家用,鋼筋混凝土造,87年11月30日,八層,六層
RPTOMLLMKIKFFAU76CA,17,18.71,見其他登記事項,鋼筋混凝土造,87年11月30日,八層,
RPTOMLLMKIKFFAU76CA,17,2.83,停車空間,鋼筋混凝土造,87年11月30日,八層,
RPXPMLKMKIKFFAU17CA,26,196.75,住家用,鋼筋混凝土造,79年2月22日,二層,一層 二層 屋頂突出物
RPQOMLKMKIKFFAU98CA,31,99.23,住家用,鋼筋混凝土加強磚造,73年12月11日,二層,一層 二層
RPXOMLSLKIKFFAU77CA,16,123.86,住家用,鋼筋混凝土造,88年6月21日,三層,一層 二層 三層
RPQOMLPLKIKFFAU76CA,47,66.82,住家用,見其他登記事項,57年9月30日,二層,一層 二層
RPPNMLSLKIKFFAU86CA,21,156.33,住家用,鋼筋混凝土造,84年3月13日,三層,一層 二層 三層
RPVPMLPLKIKFFAU37CA,42,114.39,住家用,鋼筋混凝土加強磚造,63年5月21日,二層,一層 二層 騎樓
RPWOMLPLKIKFFAU37CA,17,113.78,住家用,鋼筋混凝土造,88年5月20日,五層,四層 五層 見其他登記事項
RPWOMLPLKIKFFAU37CA,17,13.40,停車空間,鋼筋混凝土造,88年5月20日,五層,
RPWOMLPLKIKFFAU37CA,17,25.67,共有部份,鋼筋混凝土造,88年5月20日,五層,
RPPPMLSLKIKFFAU07CA,31,74.57,住家用,鋼筋混凝土造,73年12月20日,五層,五層
RPPPMLSLKIKFFAU07CA,31,3.94,共有部份,鋼筋混凝土造,73年12月20日,五層,
RPPPMLSLKIKFFAU07CA,31,13.16,共有部份,鋼筋混凝土造,73年12月20日,五層,
RPTQMLSLKIKFFAU57CA,36,119.09,住商用,鋼筋混凝土造,69年2月9日,二層,屋頂突出物 騎樓 一層 二層 三層
RPWNMLTLKIKFFAU67CA,38,149.47,住商用,鋼筋混凝土加強磚造,66年12月15日,二層,一層 二層 騎樓
RPPOMLKMKIKFFAU88CA,21,21.38,住家用,鋼筋混凝土造,84年3月3日,五層,二層
RPPOMLKMKIKFFAU88CA,21,5.65,共有部份,鋼筋混凝土造,84年3月3日,五層,
RPVOMLTLKIKFFAU67CA,1,222.31,住家用,鋼筋混凝土造,103年11月19日,四層,一層 二層 三層 四層
RPQOMLNLKIKFFAU56CA,25,218.58,住工用,鋼筋混凝土造,80年2月11日,三層,一層 二層 三層 防空避難室 屋頂突出物 見其他登記事項
RPWOMLOLKIKFFAU27CA,38,34.30,住家用,鋼筋混凝土加強磚造,66年8月1日,一層,一層
RPRPMLRJJHLFFAU86CA,37,114.44,住商用,鋼筋混凝土加強磚造,67年10月3日,二層,一層 二層 騎樓
RPOPMLLKJHLFFAU68CA,21,83.38,住家用,鋼筋混凝土造,84年2月22日,八層,三層
RPOPMLLKJHLFFAU68CA,21,15.99,共有部份,鋼筋混凝土造,84年2月22日,八層,
RPOPMLLKJHLFFAU68CA,21,6.12,停車空間,鋼筋混凝土造,84年2月22日,八層,
RPOPMLLKJHLFFAU68CA,21,13.19,共有部份,鋼筋混凝土造,84年2月22日,八層,
RPPOMLNKJHLFFAU88CA,17,95.45,住家用,鋼筋混凝土造,88年4月14日,五層,五層
RPPOMLNKJHLFFAU88CA,17,10.45,共有部份,鋼筋混凝土造,88年4月14日,五層,
RPPOMLNKJHLFFAU88CA,17,6.75,共有部份,鋼筋混凝土造,88年4月14日,五層,
RPRNMLNKJHLFFAU98CA,1,301.61,住家用,鋼筋混凝土造,103年10月22日,四層,一層 二層 三層 四層
RPSNMLNKJHLFFAU09CA,1,287.91,住家用,鋼筋混凝土造,104年3月23日,四層,三層 四層 一層 二層
RPWNMLPJJHLFFAU96CA,,344.23,住家用,鋼筋混凝土造,104年9月24日,四層,一層 二層 三層 四層 屋頂突出物
RPVOMLPJJHLFFAU96CA,18,225.43,住家用,鋼筋混凝土造,87年3月9日,五層,一層 二層 三層 四層 五層
RPVOMLPJJHLFFAU96CA,18,17.59,共有部份,鋼筋混凝土造,87年3月9日,五層,
RPVOMLPJJHLFFAU96CA,18,15.10,共有部份,鋼筋混凝土造,87年3月9日,五層,
RPWOMLPJJHLFFAU07CA,30,89.77,住家用,鋼筋混凝土造,74年11月23日,二層,一層 二層
RPWNMLQJJHLFFAU07CA,36,349.00,住商用,鋼筋混凝土造,68年7月9日,三層,一層 二層 三層 屋頂突出物 騎樓 地下層
RPPSMLLMKIKFFAU76CA,21,19.33,住家用,鋼筋混凝土造,83年11月15日,十二層,三層
RPPSMLLMKIKFFAU76CA,21,6.12,共有部份,鋼筋混凝土造,83年11月15日,十二層,
RPPSMLLMKIKFFAU76CA,21,3.18,共有部份,鋼筋混凝土造,83年11月15日,十二層,
RPXQMLLMKIKFFAU37CA,20,28.18,住家用,鋼筋混凝土造,85年2月2日,十層,七層
RPXQMLLMKIKFFAU37CA,20,2.80,共有部份,鋼筋混凝土造,85年2月2日,十層,
RPXQMLLMKIKFFAU37CA,20,5.79,共有部份,鋼筋混凝土造,85年2月2日,十層,
RPVOMLNKJHLFFAU86CA,,182.82,住家用,鋼筋混凝土造,104年9月16日,三層,一層 二層 三層 屋頂突出物
RPRNMLOLKIKFFBU76CA,33,118.78,住商用,鋼筋混凝土造,71年11月17日,二層,一層 二層 騎樓
RPQPMLLMKIKFFAU76EA,47,50.67,住商用,木造,57年7月10日,一層,一層 騎樓
RPPNMLOJJHLFFCU98CA,49,95.48,住家用,鋼筋混凝土加強磚造,56年2月1日,二層,一層 二層
RPQOMLPKJHLFFAU56CA,,228.44,住家用,鋼筋混凝土造,104年10月20日,三層,一層 二層 三層 騎樓 見其他登記事項
RPSOMLOKJHLFFAU66CA,20,61.49,商業用,鋼筋混凝土造,85年3月6日,五層,一層
RPSOMLOKJHLFFAU66CA,20,13.97,共有部份,鋼筋混凝土造,85年3月6日,五層,
RPWOMLNKJHLFFAU96CA,22,89.70,住家用,鋼筋混凝土造,83年1月12日,六層,四層
RPWOMLNKJHLFFAU96CA,22,35.87,共有部份,鋼筋混凝土造,83年1月12日,六層,
RPRNMLOKJHLFFAU09CA,42,102.99,住家用,鋼筋混凝土造,63年1月1日,一層,一層
RPUNMLTKJHLFFAU27CA,27,184.40,住商用,鋼筋混凝土造,78年5月6日,五層,一層 二層 三層 四層 五層 屋頂突出物 騎樓
RPVNMLTKJHLFFAU37CA,19,142.22,住家用,鋼筋混凝土造,85年11月26日,三層,一層 二層 三層 屋頂突出物
RPPOMLTKJHLFFAU86CA,46,66.24,住家用,鋼筋混凝土加強磚造,59年1月16日,二層,一層 二層
RPTQMLSKJHLFFAU37CA,,256.54,住家用,鋼筋混凝土造,104年8月20日,四層,一層 二層 三層 四層
RPXNMLKLJHLFFAU76CA,19,42.56,住家用,見其他登記事項,85年10月12日,五層,一層 夾層
RPXNMLKLJHLFFAU76CA,19,18.17,共有部份,鋼筋混凝土造,85年10月12日,五層,
RPTQMLOJJHLFFAU86CA,34,89.82,住家用,鋼筋混凝土加強磚造,70年12月4日,二層,一層 二層
RPSNMLPJJHLFFAU56CA,20,77.68,住家用,鋼筋混凝土造,84年6月30日,七層,四層
RPSNMLPJJHLFFAU56CA,20,11.95,共有部份,鋼筋混凝土造,84年6月30日,七層,
RPSNMLPJJHLFFAU56CA,20,9.85,共有部份,鋼筋混凝土造,84年6月30日,七層,
RPWOMLRJJHLFFAU27CA,31,78.98,住家用,鋼筋混凝土加強磚造,73年6月18日,二層,一層 二層
RPRNMLLKJHLFFAU78CA,37,131.58,住家用,鋼筋混凝土造,68年4月11日,四層,三層
RPOOMLSJJHLFFAU56CA,23,74.85,住家用,鋼筋混凝土造,82年3月5日,六層,二層
RPOOMLSJJHLFFAU56CA,23,25.30,共有部份,鋼筋混凝土造,82年3月5日,六層,
RPPNMLPLKIKFFAU56CA,22,123.67,住商用,鋼筋混凝土造,82年7月15日,二層,一層 二層 屋頂突出物 騎樓
RPPNMLOLKIKFFAU09CA,37,100.10,住家用,鋼筋混凝土加強磚造,68年3月16日,二層,一層 二層
RPQOMLTLKIKFFAU17CA,,189.01,住家用,鋼筋混凝土造,104年11月10日,三層,一層 二層 三層 屋頂突出物
RPUNMLKMKIKFFAU66CA,21,23.32,住家用,鋼筋混凝土造,83年10月7日,九層,三層
RPUNMLKMKIKFFAU66CA,21,11.28,共有部份,鋼筋混凝土造,83年10月7日,九層,
RPTQMLTLKIKFFAU67CA,22,324.23,住家用,鋼筋混凝土造,82年7月24日,五層,一層 二層 三層 四層 五層 騎樓
RPXQMLTLKIKFFAU08CA,30,97.07,住家用,鋼筋混凝土造,74年7月13日,四層,四層
RPXQMLTLKIKFFAU08CA,30,14.88,共有部份,鋼筋混凝土造,74年7月13日,四層,
RPQNMLLMKIKFFAU98CA,18,98.40,住家用,鋼筋混凝土造,86年7月18日,十二層,三層
RPQNMLLMKIKFFAU98CA,18,27.65,共有部份,鋼筋混凝土造,86年7月18日,十二層,
RPOOMLLMKIKFFAU88CA,,213.35,住家用,鋼筋混凝土造,104年8月19日,四層,一層 二層 三層 四層
RPOOMLTLKIKFFAU96CA,,189.01,住家用,鋼筋混凝土造,104年11月10日,三層,一層 二層 三層 屋頂突出物
RPSOMLTLKIKFFAU37CA,,189.01,住家用,鋼筋混凝土造,104年11月10日,三層,一層 二層 三層 屋頂突出物
RPTOMLTLKIKFFAU47CA,,191.87,住家用,鋼筋混凝土造,104年11月10日,三層,一層 二層 三層 屋頂突出物
RPWQMLSLKIKFFAU87CA,18,213.45,住家用,鋼筋混凝土造,87年3月9日,五層,一層 二層 三層 四層 五層
RPWQMLSLKIKFFAU87CA,18,16.56,共有部份,鋼筋混凝土造,87年3月9日,五層,
RPWQMLSLKIKFFAU87CA,18,12.97,共有部份,鋼筋混凝土造,87年3月9日,五層,
RPOPMLSLKIKFFAU96CA,11,177.41,住家用,鋼筋混凝土造,94年1月13日,四層,一層 二層 三層 四層
RPXOMLPLKIKFFAU47CA,36,100.70,住家用,鋼筋混凝土加強磚造,69年1月1日,二層,一層 二層
RPRPMLPLKIKFFAU96CA,31,87.40,住家用,鋼筋混凝土造,73年9月19日,五層,四層
RPRPMLPLKIKFFAU96CA,31,7.13,共有部份,鋼筋混凝土造,73年9月19日,五層,
RPRPMLPLKIKFFAU96CA,31,15.06,共有部份,鋼筋混凝土造,73年9月19日,五層,
RPRNMLSLKIKFFAU07CA,20,89.22,住家用,鋼筋混凝土造,85年1月23日,七層,三層
RPRNMLSLKIKFFAU07CA,20,29.28,共有部份,鋼筋混凝土造,85年1月23日,七層,
RPWNMLSLKIKFFAU57CA,31,141.78,住家用,鋼筋混凝土造,73年9月19日,五層,三層
RPOOMLSLKIKFFAU86CA,18,62.81,見其他登記事項,鋼筋混凝土造,86年8月1日,七層,六層
RPTOMLPLKIKFFAU07CA,27,135.71,住家用,鋼筋混凝土造,77年10月11日,二層,一層 二層 屋頂突出物
RPPNMLRLKIKFFAU76CA,19,44.47,住家用,鋼筋混凝土造,85年10月15日,五層,二層
RPPNMLRLKIKFFAU76CA,19,12.85,共有部份,鋼筋混凝土造,85年10月15日,五層,
RPSOMLPLKIKFFAU96CA,41,100.04,住家用,鋼筋混凝土造,63年6月22日,四層,三層
RPSOMLPLKIKFFAU96CA,41,19.13,共有部份,鋼筋混凝土造,63年6月22日,四層,
RPPOMLPLKIKFFAU66CA,3,212.56,見其他登記事項,鋼筋混凝土造,101年11月28日,三層,一層 二層 三層 見其他登記事項
RPXQMLSLKIKFFAU97CA,22,27.32,住家用,鋼筋混凝土造,82年8月2日,七層,三層
RPXQMLSLKIKFFAU97CA,22,8.46,共有部份,鋼筋混凝土造,82年8月2日,七層,
RPRQMLSLKIKFFAU37CA,20,44.27,住家用,鋼筋混凝土造,84年12月28日,六層,四層
RPRQMLSLKIKFFAU37CA,20,26.71,共有部份,鋼筋混凝土造,84年12月28日,六層,
RPUOMLTLKIKFFAU57CA,38,56.24,住家用,鋼筋混凝土加強磚造,67年1月1日,一層,一層
RPVOMLLMKIKFFAU96CA,22,151.47,住商用,鋼筋混凝土造,82年12月23日,三層,一層 二層 三層 屋頂突出物 騎樓
RPSNMLKMKIKFFAU09CA,22,50.67,住家用,鋼筋混凝土造,83年1月22日,十二層,十層
RPSNMLKMKIKFFAU09CA,22,15.18,共有部份,鋼筋混凝土造,83年1月22日,十二層,
RPWOMLTLKIKFFAU77CA,19,171.36,住商用,鋼筋混凝土造,86年5月22日,四層,一層 二層 三層 四層 屋頂突出物 見其他登記事項
RPOPMLTLKIKFFAU07CA,38,76.20,住家用,鋼筋混凝土加強磚造,66年8月31日,一層,一層
RPPPMLTLKIKFFAU17CA,33,98.25,住家用,鋼筋混凝土造,71年12月16日,五層,三層
RPPPMLTLKIKFFAU17CA,33,435.62,共有部份,鋼筋混凝土造,71年12月16日,五層,
RPRPMLTLKIKFFAU37CA,19,83.70,住家用,鋼筋混凝土造,85年10月29日,十六層,十二層
RPRPMLTLKIKFFAU37CA,19,14.93,共有部份,鋼筋混凝土造,85年10月29日,十六層,
RPRPMLTLKIKFFAU37CA,19,23.40,共有部份,鋼筋混凝土造,85年10月29日,十六層,
RPSPMLTLKIKFFAU47CA,43,87.41,住家用,鋼筋混凝土加強磚造,61年8月23日,二層,一層 二層
RPTPMLTLKIKFFAU57CA,25,146.89,農舍,鋼造,80年1月7日,一層,一層
RPPPMLLKJHLFFAU78CA,36,118.19,住商用,鋼筋混凝土造,68年11月14日,二層,一層 二層 騎樓
RPQPMLNKJHLFFAU09CA,45,43.87,住家用,鋼筋混凝土加強磚造,59年9月4日,一層,一層
RPUOMLQJJHLFFAU96CA,23,315.38,見其他登記事項,鋼筋混凝土造,81年9月14日,四層,一層 二層 三層 四層 見其他登記事項
RPOOMLKLJHLFFAU58CA,19,43.35,住家用,見其他登記事項,85年10月12日,五層,一層 夾層
RPOOMLKLJHLFFAU58CA,19,18.45,共有部份,鋼筋混凝土造,85年10月12日,五層,
RPQOMLKLJHLFFAU78CA,35,263.00,住商用,鋼筋混凝土造,69年8月26日,四層,一層 二層 三層 四層 防空避難室 屋頂突出物 騎樓
RPXNMLLLJHLFFAU86CA,30,85.34,住家用,鋼筋混凝土造,74年6月27日,五層,五層
RPXNMLLLJHLFFAU86CA,30,14.20,共有部份,鋼筋混凝土造,74年6月27日,五層,
RPQNMLMLJHLFFAU88CA,14,179.10,住家用,鋼筋混凝土造,91年5月22日,三層,一層 二層 三層 屋頂突出物
RPTNMLSKJHLFFAU07CA,34,97.97,住家用,鋼筋混凝土加強磚造,71年2月27日,一層,一層 夾層
RPXNMLSKJHLFFAU47CA,21,248.82,住家用,鋼筋混凝土造,84年5月10日,四層,一層 二層 三層 四層
RPOOMLSKJHLFFAU66CA,40,88.42,住家用,鋼筋混凝土加強磚造,64年7月28日,二層,一層 二層
RPOPMLNKJHLFFAU88CA,28,90.19,住家用,鋼筋混凝土造,76年11月11日,二層,一層 二層
RPTNMLPKJHLFFAU76CA,22,395.22,見其他登記事項,見其他登記事項,83年4月14日,一層,一層
RPVNMLSLKIKFFCU67CA,31,103.40,住家用,鋼筋混凝土加強磚造,74年1月1日,二層,一層 二層
RPUOMLOLKIKFFAU27EA,34,116.88,住家用,鋼筋混凝土加強磚造,70年10月12日,二層,一層 二層 屋頂突出物
RPUOMLSLKIKFFAU67EA,13,126.24,住家用,鋼筋混凝土造,91年12月2日,十三層,三層
RPUOMLSLKIKFFAU67EA,13,72.36,共有部份,鋼筋混凝土造,91年12月2日,十三層,
RPXNMLTKJHLFFAU67DA,38,52.44,住家用,鋼筋混凝土加強磚造,66年9月9日,一層,一層
RPWPMLSLKIKFFAU97EA,36,93.20,住商用,鋼筋混凝土加強磚造,68年12月29日,二層,一層 二層 騎樓
RPXOMLTKJHLFFAU87EA,6,236.53,商業用,鋼筋混凝土造,99年5月20日,十四層,一層
RPXOMLTKJHLFFAU87EA,6,59.37,共有部份,鋼筋混凝土造,99年5月20日,十四層,
RPXOMLTKJHLFFAU87EA,6,12.67,停車空間,鋼筋混凝土造,99年5月20日,十四層,
RPPOMLPKJHLFFAU09CA,,234.11,住家用,鋼筋混凝土造,104年10月20日,三層,一層 二層 三層 騎樓 見其他登記事項
RPSNMLSKJHLFFAU96CA,,512.21,農舍,鋼筋混凝土造,104年11月17日,四層,一層 二層 三層 四層 屋頂突出物
RPTOMLOKJHLFFAU76CA,86,103.90,住家用,見其他登記事項,,一層,一層
RPPPMLNKJHLFFAU98CA,9,228.04,住家用,鋼筋混凝土造,96年4月25日,四層,一層 二層 三層 四層
RPXOMLNKJHLFFAU07CA,34,67.58,住家用,鋼筋混凝土造,70年12月4日,五層,三層
RPXOMLNKJHLFFAU07CA,34,13.69,共有部份,鋼筋混凝土造,70年12月4日,五層,
RPXOMLNKJHLFFAU07CA,34,1.64,共有部份,鋼筋混凝土造,70年12月4日,,
RPVNMLSKJHLFFAU27CA,42,97.32,住家用,鋼筋混凝土加強磚造,62年11月5日,二層,一層 二層
RPUQMLSKJHLFFAU47CA,20,59.00,住家用,鋼筋混凝土造,84年11月9日,五層,二層
RPUQMLSKJHLFFAU47CA,20,12.21,共有部份,鋼筋混凝土造,84年11月9日,五層,
RPQQMLSKJHLFFAU07CA,3,267.24,住家用,鋼筋混凝土造,101年12月24日,三層,一層 二層 三層 屋頂突出物
RPWOMLLLJHLFFAU86CA,38,94.50,住家用,鋼筋混凝土加強磚造,66年9月14日,二層,一層 二層 騎樓
RPXOMLLLJHLFFAU96CA,36,104.93,住商用,鋼筋混凝土加強磚造,68年8月6日,二層,一層 二層 騎樓
RPUPMLTKJHLFFAU47CA,25,90.33,住家用,鋼筋混凝土造,80年5月31日,二層,一層 二層
RPWNMLOJJHLFFAU86CA,34,107.05,住家用,鋼筋混凝土造,70年12月14日,五層,四層
RPWNMLOJJHLFFAU86CA,34,14.82,共有部份,鋼筋混凝土造,70年12月14日,五層,
RPRNMLOJJHLFFAU98CA,27,162.53,住商用,鋼筋混凝土造,78年5月23日,三層,一層 二層 三層 屋頂突出物 見其他登記事項
RPPNMLNJJHLFFAU68CA,21,73.10,國民住宅,鋼筋混凝土造,83年10月28日,十四層,五層
RPPNMLNJJHLFFAU68CA,21,19.98,共有部份,鋼筋混凝土造,83年10月28日,十四層,
RPSQMLLMKIKFFAU86CA,22,31.24,住家用,鋼筋混凝土造,83年4月21日,五層,五層
RPSQMLLMKIKFFAU86CA,22,5.82,共有部份,鋼筋混凝土造,83年4月21日,五層,
RPSOMLNKJHLFFAU56CA,22,125.04,住家用,鋼筋混凝土造,82年10月15日,七層,二層
RPSOMLNKJHLFFAU56CA,22,29.13,共有部份,鋼筋混凝土造,82年10月15日,七層,
RPSOMLNKJHLFFAU56CA,22,15.00,見其他登記事項,鋼筋混凝土造,82年10月15日,七層,地下層
RPSOMLNKJHLFFAU56CA,22,3.81,共有部份,鋼筋混凝土造,82年10月15日,七層,
RPQNMLNKJHLFFAU88CA,22,127.92,住家用,鋼筋混凝土造,82年10月15日,七層,二層
RPQNMLNKJHLFFAU88CA,22,29.90,共有部份,鋼筋混凝土造,82年10月15日,七層,
RPQNMLNKJHLFFAU88CA,22,15.00,見其他登記事項,鋼筋混凝土造,82年10月15日,七層,地下層
RPQNMLNKJHLFFAU88CA,22,3.81,共有部份,鋼筋混凝土造,82年10月15日,七層,
RPQPMLLKJHLFFAU88CA,28,240.47,住家用,鋼筋混凝土造,77年1月18日,二層,一層 二層 屋頂突出物 見其他登記事項
RPSNMLLKJHLFFAU88CA,26,30.82,住家用,鋼筋混凝土造,78年11月4日,六層,五層
RPSNMLLKJHLFFAU88CA,26,9.05,共有部份,鋼筋混凝土造,78年11月4日,六層,
RPQOMLSJJHLFFAU76CA,31,134.75,住家用,鋼筋混凝土造,73年12月28日,二層,一層 二層 屋頂突出物
RPTPMLRJJHLFFAU07CA,37,125.76,住家用,鋼筋混凝土加強磚造,68年4月2日,二層,一層 二層 陽台
RPUPMLTLKIKFFAU67CA,15,91.30,住家用,鋼筋混凝土造,89年8月7日,十二層,五層
RPUPMLTLKIKFFAU67CA,15,23.59,共有部份,鋼筋混凝土造,89年8月7日,十五層,
RPUPMLTLKIKFFAU67CA,15,.78,共有部份,鋼筋混凝土造,89年8月7日,十五層,
RPUPMLTLKIKFFAU67CA,15,15.85,共有部份,鋼筋混凝土造,89年8月7日,十二層,
RPQPMLTLKIKFFAU27CA,,510.48,住家用,鋼筋混凝土造,104年7月1日,三層,一層 二層 三層 屋頂突出物 騎樓 見其他登記事項
RPPNMLKMKIKFFAU78CA,26,131.64,住家用,鋼筋混凝土造,79年3月31日,四層,四層
RPPNMLKMKIKFFAU78CA,26,8.83,共有部份,鋼筋混凝土造,79年3月31日,四層,
RPPPMLLMKIKFFAU09CA,44,144.50,住商用,見其他登記事項,60年12月8日,二層,一層 二層
RPUOMLLMKIKFFAU86CA,39,46.93,住家用,鋼筋混凝土加強磚造,66年4月23日,一層,一層
RPWQMLKMKIKFFAU17CA,22,106.74,住商用,鋼筋混凝土造,82年11月25日,二層,一層 二層
RPXOMLKMKIKFFAU07CA,22,257.78,住家用,鋼筋混凝土造,82年12月14日,四層,一層 二層 三層 四層
RPUQMLSLKIKFFAU67CA,3,199.40,住家用,鋼筋混凝土造,101年8月1日,三層,一層 二層 三層 屋頂突出物
RPVQMLSLKIKFFAU77CA,37,166.47,住工用,鋼筋混凝土造,67年10月11日,二層,一層 二層 防空避難室 騎樓
RPXPMLSLKIKFFAU87CA,24,182.46,住家用,鋼筋混凝土造,80年12月31日,三層,一層 二層 三層
RPPQMLSLKIKFFAU17CA,18,167.86,農舍,鋼筋混凝土造,87年3月21日,一層,一層
RPROMLSLKIKFFAU17CA,34,108.84,住家用,鋼筋混凝土造,70年12月14日,五層,五層
RPVOMLSLKIKFFAU57CA,20,57.27,住家用,鋼筋混凝土造,85年3月25日,五層,三層
RPVOMLSLKIKFFAU57CA,20,24.79,共有部份,鋼筋混凝土造,85年3月25日,五層,
RPVOMLSLKIKFFAU57CA,20,57.27,住家用,鋼筋混凝土造,85年3月25日,五層,三層
RPVOMLSLKIKFFAU57CA,20,24.79,共有部份,鋼筋混凝土造,85年3月25日,五層,
RPQNMLSLKIKFFAU96CA,20,95.97,住家用,鋼筋混凝土造,85年3月25日,五層,一層
RPQNMLSLKIKFFAU96CA,20,41.00,共有部份,鋼筋混凝土造,85年3月25日,五層,
RPUNMLTLKIKFFAU47CA,21,52.61,農舍,鋼筋混凝土造,83年7月7日,二層,一層 二層 屋頂突出物
RPUNMLTLKIKFFAU47CA,21,52.61,農舍,鋼筋混凝土造,83年7月7日,二層,一層 二層 屋頂突出物
RPUNMLTLKIKFFAU47CA,21,52.61,農舍,鋼筋混凝土造,83年7月7日,二層,一層 二層 屋頂突出物
RPQOMLLMKIKFFAU09CA,28,33.90,住家用,鋼筋混凝土造,76年12月31日,五層,三層
RPQOMLLMKIKFFAU09CA,28,9.37,共有部份,鋼筋混凝土造,76年12月31日,五層,
RPWOMLLMKIKFFAU07CA,28,69.46,住家用,鋼筋混凝土造,77年2月13日,二層,一層 二層
RPPRMLTLKIKFFAU37CA,15,109.36,住家用,鋼筋混凝土造,89年6月9日,七層,五層
RPPRMLTLKIKFFAU37CA,15,22.07,共有部份,鋼筋混凝土造,89年6月9日,七層,
RPPRMLTLKIKFFAU37CA,15,56.21,共有部份,鋼筋混凝土造,89年6月9日,七層,
RPVPMLTLKIKFFAU77CA,32,90.74,住家用,鋼筋混凝土加強磚造,72年12月23日,二層,一層 二層
RPRQMLTLKIKFFAU47CA,1,287.66,住家用,鋼筋混凝土造,104年6月8日,四層,一層 二層 三層 四層
RPROMLSJJHLFFAU86CA,23,232.87,住家用,鋼筋混凝土造,82年3月13日,三層,一層 二層 三層
RPTOMLLKJHLFFAU09CA,28,190.77,住家用,鋼筋混凝土造,76年8月10日,二層,一層 二層 屋頂突出物 夾層
RPRPMLNKJHLFFAU56CA,21,11.63,商業用,鋼筋混凝土造,83年6月30日,十二層,二層
RPRPMLNKJHLFFAU56CA,21,2.42,共有部份,鋼筋混凝土造,83年6月30日,十二層,
RPRPMLNKJHLFFAU56CA,21,6.09,共有部份,鋼筋混凝土造,83年6月30日,十二層,
SPRPMLNKJHLFFAU66CA,21,50.15,商業用,鋼筋混凝土造,83年6月30日,十二層,二層
SPRPMLNKJHLFFAU66CA,21,11.21,共有部份,鋼筋混凝土造,83年6月30日,十二層,
SPRPMLNKJHLFFAU66CA,21,26.96,共有部份,鋼筋混凝土造,83年6月30日,十二層,
TPRPMLNKJHLFFAU76CA,21,18.22,商業用,鋼筋混凝土造,83年6月30日,十二層,二層
TPRPMLNKJHLFFAU76CA,21,5.46,共有部份,鋼筋混凝土造,83年6月30日,十二層,
TPRPMLNKJHLFFAU76CA,21,13.05,共有部份,鋼筋混凝土造,83年6月30日,十二層,
UPRPMLNKJHLFFAU86CA,21,17.17,商業用,鋼筋混凝土造,83年6月30日,十二層,二層
UPRPMLNKJHLFFAU86CA,21,5.13,共有部份,鋼筋混凝土造,83年6月30日,十二層,
UPRPMLNKJHLFFAU86CA,21,12.61,共有部份,鋼筋混凝土造,83年6月30日,十二層,
VPRPMLNKJHLFFAU96CA,21,18.79,商業用,鋼筋混凝土造,83年6月30日,十二層,二層
VPRPMLNKJHLFFAU96CA,21,5.62,共有部份,鋼筋混凝土造,83年6月30日,十二層,
VPRPMLNKJHLFFAU96CA,21,13.48,共有部份,鋼筋混凝土造,83年6月30日,十二層,
WPRPMLNKJHLFFAU07CA,21,47.17,商業用,鋼筋混凝土造,83年6月30日,十二層,二層
WPRPMLNKJHLFFAU07CA,21,11.51,共有部份,鋼筋混凝土造,83年6月30日,十二層,
WPRPMLNKJHLFFAU07CA,21,27.83,共有部份,鋼筋混凝土造,83年6月30日,十二層,
XPRPMLNKJHLFFAU17CA,21,16.01,商業用,鋼筋混凝土造,83年6月30日,十二層,二層
XPRPMLNKJHLFFAU17CA,21,4.79,共有部份,鋼筋混凝土造,83年6月30日,十二層,
XPRPMLNKJHLFFAU17CA,21,11.74,共有部份,鋼筋混凝土造,83年6月30日,十二層,
YPRPMLNKJHLFFAU27CA,21,16.31,商業用,鋼筋混凝土造,83年6月30日,十二層,二層
YPRPMLNKJHLFFAU27CA,21,4.88,共有部份,鋼筋混凝土造,83年6月30日,十二層,
YPRPMLNKJHLFFAU27CA,21,11.74,共有部份,鋼筋混凝土造,83年6月30日,十二層,
ZPRPMLNKJHLFFAU37CA,21,25.07,商業用,鋼筋混凝土造,83年6月30日,十二層,二層
ZPRPMLNKJHLFFAU37CA,21,5.69,共有部份,鋼筋混凝土造,83年6月30日,十二層,
ZPRPMLNKJHLFFAU37CA,21,13.92,共有部份,鋼筋混凝土造,83年6月30日,十二層,
QQRPMLNKJHLFFAU56CA,21,27.80,商業用,鋼筋混凝土造,83年6月30日,十二層,二層
QQRPMLNKJHLFFAU56CA,21,6.29,共有部份,鋼筋混凝土造,83年6月30日,十二層,
QQRPMLNKJHLFFAU56CA,21,15.22,共有部份,鋼筋混凝土造,83年6月30日,十二層,
RQRPMLNKJHLFFAU66CA,21,8.23,商業用,鋼筋混凝土造,83年6月30日,十二層,二層
RQRPMLNKJHLFFAU66CA,21,1.37,共有部份,鋼筋混凝土造,83年6月30日,十二層,
RQRPMLNKJHLFFAU66CA,21,3.48,共有部份,鋼筋混凝土造,83年6月30日,十二層,
RPXNMLOJJHLFFAU96CA,38,140.67,住商用,鋼筋混凝土造,67年4月1日,三層,一層 二層 三層 騎樓 地下層
RPPNMLRJJHLFFAU09CA,22,107.56,住家用,鋼筋混凝土造,82年12月15日,六層,六層
RPPNMLRJJHLFFAU09CA,22,37.26,共有部份,鋼筋混凝土造,82年12月15日,六層,
RPTOMLKLJHLFFAU09CA,21,28.96,住家用,鋼筋混凝土造,84年4月14日,五層,二層
RPTOMLKLJHLFFAU09CA,21,14.82,共有部份,鋼筋混凝土造,84年4月14日,五層,
RPUOMLKLJHLFFAU56CA,21,122.36,住家用,鋼筋混凝土造,83年9月22日,二層,一層 二層
RPRNMLLLJHLFFAU88CA,22,83.96,住家用,鋼筋混凝土造,82年10月29日,十層,六層
RPRNMLLLJHLFFAU88CA,22,26.19,共有部份,鋼筋混凝土造,82年10月29日,十層,
RPVOMLLLJHLFFAU76CA,19,82.70,住家用,鋼筋混凝土造,85年10月29日,十六層,二層
RPVOMLLLJHLFFAU76CA,19,14.81,共有部份,鋼筋混凝土造,85年10月29日,十六層,
RPVOMLLLJHLFFAU76CA,19,7.23,停車空間,鋼筋混凝土造,85年10月29日,十六層,
RPVOMLLLJHLFFAU76CA,19,23.03,共有部份,鋼筋混凝土造,85年10月29日,十六層,
RPUPMLLLJHLFFAU76CA,,98.28,住商用,見其他登記事項,,一層,一層
RPPOMLLLJHLFFAU78CA,28,34.24,住家用,鋼筋混凝土造,76年11月4日,七層,七層
RPPOMLLLJHLFFAU78CA,28,11.36,共有部份,鋼筋混凝土造,76年11月4日,七層,
RPTNMLLLJHLFFAU09CA,22,80.56,住家用,鋼筋混凝土造,82年9月18日,四層,三層 四層
RPTNMLLLJHLFFAU09CA,22,3.50,見其他登記事項,鋼筋混凝土造,82年9月18日,四層,
RPWNMLLLJHLFFAU76CA,13,106.23,住家用,鋼筋混凝土造,91年11月21日,十一層,二層
RPWNMLLLJHLFFAU76CA,13,70.69,共有部份,鋼筋混凝土造,91年11月21日,十一層,
RPROMLMLJHLFFAU09CA,49,34.16,住家用,見其他登記事項,56年1月1日,一層,一層
RPUOMLSKJHLFFAU27CA,23,84.42,住家用,鋼筋混凝土造,82年4月12日,六層,五層
RPUOMLSKJHLFFAU27CA,23,16.74,停車空間,鋼筋混凝土造,82年4月12日,六層,
RPUOMLSKJHLFFAU27CA,23,16.52,共有部份,鋼筋混凝土造,82年4月12日,六層,
RPQPMLTKJHLFFAU07CA,,192.06,住家用,鋼筋混凝土造,104年10月19日,三層,一層 二層 三層
RPSPMLTKJHLFFAU27CA,,192.05,住家用,鋼筋混凝土造,104年10月19日,三層,一層 二層 三層
RPVOMLOKJHLFFAU96CA,46,88.37,住家用,鋼筋混凝土造,58年7月5日,二層,一層 二層
RPOOMLKMKIKFFCU98CA,25,117.60,住家用,鋼筋混凝土造,79年7月12日,二層,一層 二層 騎樓
RPVNMLMLJHLFFAU96EA,15,104.12,住家用,鋼筋混凝土造,89年8月7日,十層,四層
RPVNMLMLJHLFFAU96EA,15,26.91,共有部份,鋼筋混凝土造,89年8月7日,十五層,
RPVNMLMLJHLFFAU96EA,15,.89,共有部份,鋼筋混凝土造,89年8月7日,十五層,
RPVNMLMLJHLFFAU96EA,15,12.84,共有部份,鋼筋混凝土造,89年8月7日,十層,
RPTQMLKMKIKFFAU07EA,36,68.67,住家用,鋼筋混凝土造,69年5月3日,五層,四層
RPTQMLKMKIKFFAU07EA,36,10.39,共有部份,鋼筋混凝土造,69年5月3日,,
RPTQMLKMKIKFFAU07EA,36,6.67,共有部份,鋼筋混凝土造,69年5月3日,五層,
RPVPMLSLKIKFFAU87EA,35,74.80,住家用,鋼筋混凝土加強磚造,69年7月19日,二層,一層 二層
RPVNMLOJJHLFFAU96EA,18,46.53,住家用,鋼筋混凝土造,86年8月27日,九層,六層 七層
RPVNMLOJJHLFFAU96EA,18,8.22,共有部份,鋼筋混凝土造,86年8月27日,九層,
RPVNMLOJJHLFFAU96EA,18,6.49,共有部份,鋼筋混凝土造,86年8月27日,九層,
RPVNMLOJJHLFFAU96EA,18,2.21,共有部份,鋼筋混凝土造,86年8月27日,九層,
RPVNMLOJJHLFFAU96EA,18,40.54,共有部份,鋼筋混凝土造,86年8月27日,九層,
RPQQMLOJJHLFFAU76EA,20,42.33,住家用,鋼筋混凝土造,84年8月31日,六層,二層
RPQQMLOJJHLFFAU76EA,20,24.03,共有部份,鋼筋混凝土造,84年8月31日,六層,
RPRQMLOJJHLFFAU86EA,20,22.82,住家用,鋼筋混凝土造,84年8月31日,六層,二層
RPRQMLOJJHLFFAU86EA,20,11.89,共有部份,鋼筋混凝土造,84年8月31日,六層,
RPRPMLSKJHLFFAU27EA,8,1390.58,見其他登記事項,鋼筋混凝土造,96年7月4日,二層,一層 二層 屋頂突出物 見其他登記事項
RPWPMLSKJHLFFAU77EA,11,206.37,農舍,木造,94年2月2日,二層,一層 二層 見其他登記事項
RPRNMLOKJHLFFCU66CA,1,263.36,住家用,鋼筋混凝土造,104年4月29日,三層,一層 二層 三層 屋頂突出物
RPSNMLOKJHLFFCU76CA,1,265.38,住家用,鋼筋混凝土造,104年4月29日,三層,一層 二層 三層 屋頂突出物
RPTNMLOKJHLFFCU86CA,1,263.36,住家用,鋼筋混凝土造,104年4月29日,三層,一層 二層 三層 屋頂突出物
RPVQMLSKJHLFFAU57CA,15,45.39,住家用,鋼筋混凝土造,89年8月7日,十二層,五層
RPVQMLSKJHLFFAU57CA,15,11.80,共有部份,鋼筋混凝土造,89年8月7日,十五層,
RPVQMLSKJHLFFAU57CA,15,.39,共有部份,鋼筋混凝土造,89年8月7日,十五層,
RPVQMLSKJHLFFAU57CA,15,7.65,共有部份,鋼筋混凝土造,89年8月7日,十二層,
RPSOMLMLJHLFFAU56CA,,106.72,住家用,鋼筋混凝土加強磚造,,二層,一層 二層
RPOOMLLLJHLFFAU68CA,34,102.12,住家用,鋼筋混凝土加強磚造,70年8月29日,二層,一層 二層
RPUNMLKLJHLFFAU09CA,32,122.06,住商用,鋼筋混凝土加強磚造,72年6月23日,二層,一層 二層 屋頂突出物 騎樓
RPXOMLRJJHLFFAU37CA,21,174.09,見其他登記事項,鋼筋混凝土造,83年9月29日,四層,一層 二層 三層 四層 屋頂突出物
RPVOMLOJJHLFFAU86CA,13,103.96,住家用,見其他登記事項,92年2月21日,十二層,九層
RPVOMLOJJHLFFAU86CA,13,14.74,共有部份,見其他登記事項,92年2月21日,十二層,
RPVOMLOJJHLFFAU86CA,13,20.04,共有部份,見其他登記事項,92年2月21日,十二層,
RPVOMLOJJHLFFAU86CA,13,.43,住家用,見其他登記事項,92年2月21日,十二層,一層 二層
RPVOMLOJJHLFFAU86CA,13,.43,住家用,見其他登記事項,92年2月21日,十二層,一層 二層
RPQNMLOJJHLFFAU88CA,19,220.39,住家用,鋼筋混凝土造,86年2月25日,四層,一層 二層 三層 四層
RPXOMLLKJHLFFAU86CA,31,78.80,住家用,鋼筋混凝土造,73年8月27日,五層,一層 騎樓
RPXOMLLKJHLFFAU86CA,31,13.25,共有部份,鋼筋混凝土造,73年8月21日,五層,
RPXOMLLKJHLFFAU86CA,31,1.35,停車空間,鋼筋混凝土造,73年8月27日,五層,
RPRNMLMKJHLFFAU88CA,21,7.20,共有部份,鋼筋混凝土造,83年11月15日,十二層,
RPRNMLMKJHLFFAU88CA,21,22.56,住家用,鋼筋混凝土造,83年11月15日,十二層,十層
RPRNMLMKJHLFFAU88CA,21,3.78,共有部份,鋼筋混凝土造,83年11月15日,十二層,
RPPOMLSJJHLFFAU66CA,,189.01,住家用,鋼筋混凝土造,104年11月10日,三層,一層 二層 三層 屋頂突出物
RPXNMLLKJHLFFAU76CA,23,26.14,住家用,鋼筋混凝土造,81年12月9日,五層,五層
RPXNMLLKJHLFFAU76CA,23,6.34,共有部份,鋼筋混凝土造,81年12月9日,五層,
RPSQMLTLKIKFFAU57CA,,233.55,住家用,鋼筋混凝土造,104年8月24日,四層,一層 二層 三層 四層
RPTPMLLMKIKFFAU86CA,2,261.87,住家用,鋼筋混凝土造,102年11月14日,四層,一層 二層 三層 四層
RPSOMLLMKIKFFAU66CA,3,211.19,住家用,鋼筋混凝土造,102年2月6日,三層,一層 二層 三層
RPPNMLNKJHLFFAU78CA,,227.43,住家用,鋼筋混凝土造,104年8月10日,三層,一層 二層 三層 屋頂突出物
RPUOMLMKJHLFFAU66CA,19,23.34,住家用,鋼筋混凝土造,85年11月4日,六層,二層
RPUOMLMKJHLFFAU66CA,19,9.93,共有部份,鋼筋混凝土造,85年11月4日,六層,
RPROMLNKJHLFFAU09CA,31,96.98,住商用,鋼筋混凝土加強磚造,74年3月9日,二層,一層 二層 騎樓
RPPNMLMJJHLFFAU58CA,36,107.51,住家用,加強磚造,69年1月1日,一層,一層
RPVQMLLMKIKFFAU17CA,25,136.09,住家用,鋼筋混凝土加強磚造,79年12月24日,一層,一層
RPSOMLOJJHLFFAU56CA,,345.25,住家用,鋼筋混凝土造,104年9月18日,三層,一層 二層 三層
RPXOMLPJJHLFFAU17CA,21,32.29,住家用,鋼筋混凝土造,83年11月15日,十二層,十二層
RPXOMLPJJHLFFAU17CA,21,8.28,共有部份,鋼筋混凝土造,83年11月15日,十二層,
RPXOMLPJJHLFFAU17CA,21,9.08,共有部份,鋼筋混凝土造,83年11月15日,十二層,
RPVNMLKLJHLFFAU56CA,26,175.26,住家用,鋼筋混凝土加強磚造,78年7月25日,二層,一層 二層 屋頂突出物
RPPNMLLLJHLFFAU68CA,33,105.87,住家用,鋼筋混凝土造,71年12月16日,五層,三層
RPPNMLLLJHLFFAU68CA,33,435.62,共有部份,鋼筋混凝土造,71年12月16日,五層,
RPQOMLLLJHLFFAU88CA,22,87.13,住家用,鋼筋混凝土造,82年8月19日,五層,三層
RPQOMLLLJHLFFAU88CA,22,16.10,共有部份,鋼筋混凝土造,82年8月19日,五層,
RPTNMLKLJHLFFAU98CA,18,69.71,住家用,鋼筋混凝土造,87年2月18日,十四層,二層
RPTNMLKLJHLFFAU98CA,18,11.16,共有部份,鋼筋混凝土造,87年2月18日,十四層,
RPTNMLKLJHLFFAU98CA,18,13.04,共有部份,鋼筋混凝土造,87年2月18日,十四層,
RPTNMLKLJHLFFAU98CA,18,88.08,住家用,鋼筋混凝土造,87年2月18日,十四層,二層
RPTNMLKLJHLFFAU98CA,18,14.04,共有部份,鋼筋混凝土造,87年2月18日,十四層,
RPTNMLKLJHLFFAU98CA,18,16.39,共有部份,鋼筋混凝土造,87年2月18日,十四層,
RPPPMLLLJHLFFAU88CA,31,60.70,住商用,鋼筋混凝土造,73年6月25日,五層,一層 騎樓
RPPNMLPLJHLFFAU09CA,42,80.60,住家用,鋼筋混凝土加強磚造,62年8月8日,二層,一層 二層
RPQOMLMLJHLFFAU98CA,,426.03,農舍,鋼筋混凝土造,104年11月5日,三層,一層 二層 三層
RPUNMLPLJHLFFAU96CA,,60.90,住家用,鋼筋混凝土造,,二層,一層 二層
RPSOMLTKJHLFFAU17CA,17,89.21,住家用,鋼筋混凝土造,87年10月9日,五層,三層
RPSOMLTKJHLFFAU17CA,17,13.45,共有部份,鋼筋混凝土造,87年10月9日,五層,
RPSOMLTKJHLFFAU17CA,17,28.90,共有部份,鋼筋混凝土造,87年10月9日,五層,
RPSOMLTKJHLFFAU17CA,17,.44,住家用,鋼筋混凝土造,87年10月9日,五層,一層
RPSOMLTKJHLFFAU17CA,17,14.21,共有部份,鋼筋混凝土造,87年10月9日,五層,
RPSOMLTKJHLFFAU17CA,17,26.59,共有部份,鋼筋混凝土造,87年10月9日,五層,
RPQNMLLMKIKFFCU56CA,48,92.95,住商用,鋼筋混凝土加強磚造,57年1月1日,一層,一層 騎樓
RPTNMLLMKIKFFAU86EA,35,103.11,住家用,鋼筋混凝土加強磚造,69年6月26日,二層,一層 二層
RPPNMLLMKIKFFCU66EA,37,70.84,住家用,磚造,67年6月19日,一層,一層 騎樓
RPRNMLOKJHLFFBU76EA,29,109.48,住商用,鋼筋混凝土加強磚造,75年12月15日,二層,一層 二層 騎樓
RPRQMLSKJHLFFAU37EA,19,24.37,住家用,鋼筋混凝土造,85年11月4日,六層,三層
RPRQMLSKJHLFFAU37EA,19,10.76,共有部份,鋼筋混凝土造,85年11月4日,六層,
RPSPMLSKJHLFFAU17CA,43,58.68,住商用,鋼筋混凝土加強磚造,61年12月1日,三層,一層 二層 三層 地下層
RPPNMLPKJHLFFAU98CA,,60.53,住家用,木造,,一層,一層
RPXNMLQJJHLFFAU17CA,45,62.24,住商用,土磚石混合造,59年10月1日,一層,一層
RPSOMLRJJHLFFAU86CA,31,211.28,住商用,鋼筋混凝土造,74年4月24日,三層,一層 二層 三層 屋頂突出物 騎樓 地下層
RPQNMLRJJHLFFAU56CA,34,94.78,住家用,鋼筋混凝土加強磚造,71年5月10日,二層,一層 二層
RPSOMLQJJHLFFAU76CA,17,8.26,共有部份,鋼筋混凝土造,88年4月14日,五層,
RPSOMLQJJHLFFAU76CA,17,120.96,住家用,鋼筋混凝土造,88年4月14日,五層,五層
RPSOMLQJJHLFFAU76CA,17,12.91,共有部份,鋼筋混凝土造,88年4月14日,五層,
RPTPMLOJJHLFFAU76CA,20,57.17,住家用,鋼筋混凝土造,84年7月25日,三層,一層 二層 三層
RPRNMLMJJHLFFAU78CA,33,83.67,住家用,鋼筋混凝土加強磚造,71年10月1日,二層,一層 二層
RPTNMLSJJHLFFAU96CA,,287.64,住家用,鋼筋混凝土造,104年9月18日,四層,一層 二層 三層 四層
RPPOMLKLJHLFFAU68CA,17,113.78,住家用,鋼筋混凝土造,88年5月20日,五層,四層 五層 見其他登記事項
RPPOMLKLJHLFFAU68CA,17,25.67,共有部份,鋼筋混凝土造,88年5月20日,五層,
RPPOMLKLJHLFFAU68CA,17,13.40,停車空間,鋼筋混凝土造,88年5月20日,五層,
RPSNMLRJJHLFFAU76CA,,226.19,住家用,鋼筋混凝土造,104年7月15日,三層,一層 二層 三層 屋頂突出物 見其他登記事項
RPPNMLRJJHLFFBU56CA,35,119.14,住商用,鋼筋混凝土加強磚造,69年9月5日,二層,一層 二層 騎樓
RPQNMLNJNHLFFCU96EA,40,114.95,住商用,鋼筋混凝土加強磚造,64年7月25日,二層,一層 二層 騎樓
RPPNMLSJJHLFFAU56CA,30,111.00,住家用,鋼筋混凝土加強磚造,74年8月6日,一層,一層
RPXNMLMKJHLFFAU86CA,22,118.10,住家用,鋼筋混凝土造,82年10月6日,六層,六層
RPXNMLMKJHLFFAU86CA,22,47.29,共有部份,鋼筋混凝土造,82年10月6日,六層,
RPROMLOKJHLFFAU56CA,38,41.63,住家用,鋼筋混凝土加強磚造,67年5月22日,一層,一層
RPRNMLPKJHLFFAU56CA,21,28.96,住家用,鋼筋混凝土造,84年4月14日,五層,三層
RPRNMLPKJHLFFAU56CA,21,14.82,共有部份,鋼筋混凝土造,84年4月14日,五層,
RPWNMLTKJHLFFAU47CA,42,31.28,住家用,見其他登記事項,62年7月1日,一層,一層
RPRQMLSKJHLFFAU17CA,17,187.14,住家用,鋼筋混凝土造,87年11月20日,四層,一層 二層 三層 四層 車庫
RPUOMLSJJHLFFAU17CA,1,203.61,住家用,鋼筋混凝土造,103年11月27日,四層,一層 二層 三層 四層
RPWNMLRJJHLFFAU17CA,17,102.98,住家用,鋼筋混凝土造,88年5月20日,五層,二層 三層
RPWNMLRJJHLFFAU17CA,17,13.40,停車空間,鋼筋混凝土造,88年5月20日,五層,
RPWNMLRJJHLFFAU17CA,17,22.58,共有部份,鋼筋混凝土造,88年5月20日,五層,
RPXNMLNKJHLFFAU96CA,21,96.97,住家用,鋼筋混凝土造,84年1月14日,七層,六層
RPXNMLNKJHLFFAU96CA,21,22.73,共有部份,鋼筋混凝土造,84年1月14日,七層,
RPVNMLNKJHLFFAU76CA,34,111.11,住商用,鋼筋混凝土加強磚造,71年2月9日,二層,一層 二層 騎樓
RPSNMLOKJHLFFAU56CA,23,69.14,住家用,鋼筋混凝土造,82年4月12日,六層,四層
RPPOMLOKJHLFFAU98CA,44,83.85,住家用,鋼筋混凝土加強磚造,60年8月18日,二層,一層 二層
RPXOMLSKJHLFFAU57CA,,362.09,住家用,鋼筋混凝土造,104年11月11日,四層,一層 二層 三層 四層 屋頂突出物 見其他登記事項
RPQNMLOKJHLFFAU98CA,22,105.06,住家用,鋼筋混凝土造,83年3月2日,七層,五層
RPUNMLMKJHLFFAU56CA,21,98.01,住家用,鋼筋混凝土造,84年3月2日,十七層,十三層
RPUNMLMKJHLFFAU56CA,21,84.34,共有部份,鋼筋混凝土造,84年3月2日,十七層,
RPPNMLLKJHLFFBU88EA,35,139.44,住商用,鋼筋混凝土造,70年3月17日,二層,一層 二層 騎樓
RPUOMLNKJHLFFAU96EA,,226.10,住家用,鋼筋混凝土造,104年11月20日,三層,一層 二層 三層 見其他登記事項
RPQNMLNKJHLFFCU66EA,19,167.15,住商用,鋼筋混凝土造,86年3月10日,三層,一層 二層 三層 屋頂突出物 水箱
RPTNMLNKJHLFFAU56CA,26,100.30,住家用,鋼筋混凝土造,78年11月4日,六層,四層
RPTNMLNKJHLFFAU56CA,26,25.75,共有部份,鋼筋混凝土造,78年11月4日,六層,
RPWOMLTKJHLFFAU57CA,20,45.87,住家用,鋼筋混凝土造,85年3月1日,六層,四層
RPWOMLTKJHLFFAU57CA,20,5.74,共有部份,鋼筋混凝土造,85年3月1日,六層,
RPWOMLTKJHLFFAU57CA,20,8.47,共有部份,鋼筋混凝土造,85年3月1日,六層,
RPOOMLLJKHLFFAU58CA,23,150.62,住商用,鋼筋混凝土造,82年2月22日,二層,一層 二層 騎樓
RPRNMLPKKHLFFAU66CA,36,134.37,住商用,鋼筋混凝土加強磚造,68年10月15日,二層,一層 二層 屋頂突出物 騎樓
RPPOMLLJKHLFFAU68CA,20,76.74,住家用,鋼筋混凝土造,84年12月28日,六層,五層
RPPOMLLJKHLFFAU68CA,20,24.36,共有部份,鋼筋混凝土造,84年12月28日,六層,
RPPOMLLJKHLFFAU68CA,20,12.60,停車空間,鋼筋混凝土造,84年12月28日,六層,
RPWOMLMJKHLFFAU86CA,21,92.66,住家用,鋼筋混凝土造,83年10月26日,九層,三層
RPWOMLMJKHLFFAU86CA,21,7.47,共有部份,鋼筋混凝土造,83年10月26日,九層,
RPWOMLMJKHLFFAU86CA,21,24.34,共有部份,鋼筋混凝土造,83年10月26日,九層,
RPXOMLOKJHLFFAU17CA,30,71.37,住家用,鋼筋混凝土造,74年7月30日,五層,四層
RPXOMLOKJHLFFAU17CA,30,10.65,共有部份,鋼筋混凝土造,74年7月30日,五層,
RPQOMLTKJHLFFAU96CA,1,225.95,住家用,鋼筋混凝土造,104年6月1日,四層,一層 二層 三層 四層
RPWNMLSKJHLFFAU37CA,38,108.72,住商用,鋼筋混凝土加強磚造,67年3月6日,二層,一層 二層 屋頂突出物 騎樓
RPWQMLSKJHLFFAU67CA,30,84.48,住家用,鋼筋混凝土造,74年7月30日,五層,三層
RPWQMLSKJHLFFAU67CA,30,10.65,共有部份,鋼筋混凝土造,74年7月30日,五層,
RPSNMLPLJHLFFAU76CA,23,94.63,住家用,鋼筋混凝土造,82年5月28日,五層,三層
RPSNMLPLJHLFFAU76CA,23,6.77,共有部份,鋼筋混凝土造,82年5月28日,五層,
RPSNMLLLJHLFFAU98CA,30,221.00,住商用,鋼筋混凝土造,74年11月18日,三層,三層 防空避難室 屋頂突出物 騎樓 一層 二層
RPUNMLLLJHLFFAU56CA,38,82.78,住家用,鋼筋混凝土加強磚造,67年1月25日,二層,一層 二層
RPPOMLSKJHLFFAU96EA,40,88.49,住家用,鋼筋混凝土加強磚造,65年6月3日,二層,一層 二層
RPSOMLKLJHLFFAU98CA,19,83.70,住家用,鋼筋混凝土造,85年10月29日,十六層,四層
RPSOMLKLJHLFFAU98CA,19,14.81,共有部份,鋼筋混凝土造,85年10月29日,十六層,
RPSOMLKLJHLFFAU98CA,19,23.03,共有部份,鋼筋混凝土造,85年10月29日,十六層,
RPRNMLKLJHLFFAU78CA,,94.50,住家用,鋼筋混凝土造,,七層,四層
RPRNMLKLJHLFFAU78CA,22,24.63,共有部份,鋼筋混凝土造,83年5月18日,七層,
RPRNMLKLJHLFFAU78CA,22,24.63,見其他登記事項,鋼筋混凝土造,83年5月18日,七層,防空避難室
RPPOMLMJKHLFFAU78CA,20,67.42,住家用,鋼筋混凝土造,84年11月4日,十層,六層
RPPOMLMJKHLFFAU78CA,20,11.70,共有部份,鋼筋混凝土造,84年11月4日,十層,
RPPOMLMJKHLFFAU78CA,20,15.11,共有部份,鋼筋混凝土造,84年11月4日,十層,
RPQOMLKMJHLFFAU88CA,17,102.98,住家用,鋼筋混凝土造,88年5月20日,五層,二層 三層
RPQOMLKMJHLFFAU88CA,17,13.50,停車空間,鋼筋混凝土造,88年5月20日,五層,
RPQOMLKMJHLFFAU88CA,17,22.26,共有部份,鋼筋混凝土造,88年5月20日,五層,
RPTOMLTLJHLFFAU37CA,27,232.42,住工用,鋼筋混凝土造,78年6月5日,三層,一層 二層 三層 防空避難室 屋頂突出物 見其他登記事項
RPPNMLNJKHLFFAU78CA,21,27.46,住家用,鋼筋混凝土造,83年11月15日,十二層,六層
RPPNMLPJKHLFFAU98CA,,191.87,住家用,鋼筋混凝土造,104年11月10日,三層,一層 二層 三層 屋頂突出物
RPPNMLTKJHLFFAU76CA,23,204.63,住家用,鋼筋混凝土造,82年6月26日,三層,一層 二層 三層 屋頂突出物 見其他登記事項
RPSNMLTKJHLFFAU07CA,18,44.26,住家用,鋼筋混凝土造,86年8月27日,九層,六層 七層
RPSNMLTKJHLFFAU07CA,18,8.48,共有部份,鋼筋混凝土造,86年8月27日,九層,
RPSNMLTKJHLFFAU07CA,18,6.66,共有部份,鋼筋混凝土造,86年8月27日,九層,
RPSNMLTKJHLFFAU07CA,18,50.03,共有部份,鋼筋混凝土造,86年8月27日,九層,
RPTNMLTKJHLFFAU17CA,30,84.90,住家用,鋼筋混凝土造,74年8月3日,五層,二層
RPTNMLTKJHLFFAU17CA,30,7.29,共有部份,鋼筋混凝土造,74年8月3日,五層,
RPTNMLTKJHLFFAU17CA,30,7.76,共有部份,鋼筋混凝土造,74年8月3日,五層,
RPPNMLMLJHLFFAU78CA,30,307.08,住家用,鋼筋混凝土造,75年4月25日,二層,一層 二層 屋頂突出物
RPWOMLTKJHLFFAU77EA,21,24.58,住家用,鋼筋混凝土造,83年11月15日,十二層,七層
RPWOMLTKJHLFFAU77EA,21,7.74,共有部份,鋼筋混凝土造,83年11月15日,十二層,
RPWOMLTKJHLFFAU77EA,21,3.98,共有部份,鋼筋混凝土造,83年11月15日,十二層,
RPVNMLPJKHLFFAU07DA,21,91.68,住家用,鋼筋混凝土造,84年2月22日,八層,四層
RPVNMLPJKHLFFAU07DA,21,17.50,共有部份,鋼筋混凝土造,84年2月22日,八層,
RPVNMLPJKHLFFAU07DA,21,125.24,停車空間,鋼筋混凝土造,84年2月22日,八層,
RPVNMLPJKHLFFAU07DA,21,17.26,共有部份,鋼筋混凝土造,84年2月22日,八層,
RPTPMLSKJHLFFAU37DA,22,188.41,住商用,鋼筋混凝土造,83年3月26日,四層,一層 二層 三層 四層 騎樓
RPPNMLTKJHLFFBU07EA,22,166.99,住家用,鋼筋混凝土造,83年5月9日,三層,一層 二層 三層
RPQOMLPLJHLFFAU66CA,22,106.74,住商用,鋼筋混凝土造,82年11月25日,二層,一層 二層
RPWNMLKLJHLFFAU66CA,21,97.60,住家用,鋼筋混凝土造,84年3月13日,九層,三層
RPWNMLKLJHLFFAU66CA,21,31.71,共有部份,鋼筋混凝土造,84年3月13日,九層,
RPPPMLTKJHLFFAU96CA,30,29.54,住家用,鋼筋混凝土造,75年5月31日,九層,五層
RPTOMLTKJHLFFAU27CA,41,75.08,住商用,鋼筋混凝土造,64年1月27日,二層,一層 二層 騎樓
RPUOMLTKJHLFFAU37CA,55,107.69,住家用,鋼筋混凝土加強磚造,50年1月1日,二層,一層 二層
RPQNMLMJKHLFFAU78CA,38,147.17,住商用,鋼筋混凝土加強磚造,67年4月12日,二層,一層 二層 屋頂突出物 騎樓
RPQNMLSLJHLFFAU86CA,22,98.64,住商用,鋼筋混凝土造,82年11月9日,六層,二層
RPQNMLSLJHLFFAU86CA,22,34.57,共有部份,鋼筋混凝土造,82年11月9日,六層,
RPUNMLSLJHLFFAU27CA,18,152.79,住家用,鋼筋混凝土造,87年3月9日,五層,三層 四層 五層
RPUNMLSLJHLFFAU27CA,18,12.12,共有部份,鋼筋混凝土造,87年3月9日,五層,
RPUNMLSLJHLFFAU27CA,18,8.44,共有部份,鋼筋混凝土造,87年3月9日,五層,
RPRNMLTLJHLFFAU07CA,9,192.73,住家用,鋼筋混凝土造,95年8月11日,三層,一層 二層 三層 見其他登記事項
RPTOMLPJKHLFFAU86CA,16,269.89,住家用,鋼筋混凝土造,89年1月27日,二層,一層 二層 屋頂突出物 見其他登記事項
RPUOMLPJKHLFFAU96CA,21,32.29,住家用,鋼筋混凝土造,83年11月15日,十二層,十二層
RPUOMLPJKHLFFAU96CA,21,8.28,共有部份,鋼筋混凝土造,83年11月15日,十二層,
RPUOMLPJKHLFFAU96CA,21,9.08,共有部份,鋼筋混凝土造,83年11月15日,十二層,
RPQOMLPJKHLFFAU56CA,17,113.78,住家用,鋼筋混凝土造,88年5月20日,五層,四層 五層 見其他登記事項
RPQOMLPJKHLFFAU56CA,17,13.40,停車空間,鋼筋混凝土造,88年5月20日,五層,
RPQOMLPJKHLFFAU56CA,17,25.67,共有部份,鋼筋混凝土造,88年5月20日,五層,
RPXPMLLLJHLFFAU07CA,10,196.47,住商用,鋼筋混凝土造,95年5月15日,三層,一層 二層 三層 屋頂突出物
RPXNMLPLJHLFFAU27CA,24,5.59,共有部份,鋼筋混凝土造,81年1月28日,四層,
RPXNMLPLJHLFFAU27CA,24,33.67,住家用,鋼筋混凝土造,81年1月28日,四層,二層
RPTPMLLLJHLFFAU66CA,30,96.06,住家用,鋼筋混凝土加強磚造,74年8月12日,二層,一層 二層
RPRNMLMLJHLFFAU98CA,,491.60,農舍,鋼筋混凝土造,104年12月11日,三層,一層 二層 三層 屋頂突出物 見其他登記事項
RPWNMLMLJHLFFAU86CA,44,19.88,住家用,見其他登記事項,,一層,一層
RPQNMLPLJHLFFAU56CA,1,203.61,住家用,鋼筋混凝土造,103年11月27日,四層,一層 二層 三層 四層
RPPNMLNLJHLFFAU88CA,1,225.95,住家用,鋼筋混凝土造,104年5月29日,四層,四層 一層 二層 三層
RPTNMLRLJHLFFAU07CA,23,88.71,住家用,鋼筋混凝土造,82年1月9日,七層,五層
RPTNMLRLJHLFFAU07CA,23,9.81,共有部份,鋼筋混凝土造,82年1月9日,七層,
RPTNMLRLJHLFFAU07CA,23,10.03,共有部份,鋼筋混凝土造,82年1月9日,七層,
RPTNMLRLJHLFFAU07CA,23,.28,商業用,鋼筋混凝土造,82年1月9日,七層,地下層
RPTNMLRLJHLFFAU07CA,23,15.02,共有部份,鋼筋混凝土造,82年1月9日,七層,
RPQNMLRLJHLFFAU76CA,21,48.89,住家用,鋼筋混凝土造,84年5月18日,五層,五層
RPQNMLRLJHLFFAU76CA,21,13.32,共有部份,鋼筋混凝土造,84年5月18日,五層,
RPTNMLQLJHLFFAU96CA,24,206.86,住商用,鋼筋混凝土造,81年1月16日,四層,一層 二層 三層 四層 騎樓
RPUNMLQLJHLFFAU07CA,24,208.65,住商用,鋼筋混凝土造,81年1月16日,四層,一層 二層 三層 四層 騎樓
RPROMLLJKHLFFAU88CA,22,142.22,住商用,鋼筋混凝土造,83年1月12日,六層,一層 二層 騎樓
RPROMLLJKHLFFAU88CA,22,58.47,共有部份,鋼筋混凝土造,83年1月12日,六層,
RPSNMLSKKHLFFBU17CA,32,128.65,住商用,鋼筋混凝土造,72年11月26日,二層,一層 二層 騎樓
RPSNMLLLJHLFFBU09CA,32,74.87,住家用,鋼筋混凝土造,73年1月14日,四層,二層
RPSNMLLLJHLFFBU09CA,32,7.47,見其他登記事項,鋼筋混凝土造,73年1月14日,四層,
RPPNMLRKKHLFFAU66CA,13,112.10,住家用,鋼筋混凝土造,91年12月2日,十三層,十二層
RPPNMLRKKHLFFAU66CA,13,64.29,共有部份,鋼筋混凝土造,91年12月2日,十三層,
RPOPMLPJKHLFFAU09CA,3,233.50,見其他登記事項,鋼筋混凝土造,102年4月18日,三層,一層 二層 三層 屋頂突出物 見其他登記事項
RPWOMLPJKHLFFAU17CA,,188.62,農舍,鋼筋混凝土造,104年11月11日,二層,一層 二層 屋頂突出物
RPSNMLTLJHLFFAU17CA,23,152.11,住家用,鋼筋混凝土造,81年7月16日,三層,一層 二層 三層
RPSNMLKMJHLFFAU98CA,34,102.20,住商用,鋼筋混凝土造,70年12月31日,四層,三層 四層 屋頂突出物
RPSNMLKMJHLFFAU98CA,34,16.86,共有部份,鋼筋混凝土造,70年12月31日,四層,
RPPNMLQLJHLFFAU56CA,21,156.33,住家用,鋼筋混凝土造,84年3月10日,三層,一層 二層 三層
RPVNMLMLJHLFFAU76CA,,398.54,農舍,鋼筋混凝土造,104年11月20日,三層,一層 二層 三層 屋頂突出物 見其他登記事項
RPUNMLPLJHLFFAU17EA,24,52.15,住家用,鋼筋混凝土造,81年4月22日,五層,四層
RPUNMLPLJHLFFAU17EA,24,7.65,共有部份,鋼筋混凝土造,81年4月22日,五層,
RPOOMLSLJHLFFAU86DA,11,184.11,住家用,鋼筋混凝土造,93年10月4日,三層,一層 二層 三層
RPSNMLQLJHLFFAU07EA,23,25.30,共有部份,鋼筋混凝土造,82年3月5日,六層,
RPSNMLQLJHLFFAU07EA,23,73.83,住家用,鋼筋混凝土造,82年3月5日,六層,四層
RPQNMLKMJHLFFAU78CA,15,39.78,住家用,鋼筋混凝土造,89年11月9日,五層,二層
RPQNMLKMJHLFFAU78CA,15,10.78,共有部份,鋼筋混凝土造,89年11月9日,五層,
RPXNMLLJKHLFFAU76CA,,396.66,農舍,鋼筋混凝土造,104年11月9日,三層,一層 二層 三層 屋頂突出物 見其他登記事項
RPXNMLPJKHLFFAU17CA,2,313.98,農舍,鋼筋混凝土造,103年6月4日,三層,一層 二層 三層 屋頂突出物
RPSNMLPKKHLFFAU76CA,17,113.78,住家用,鋼筋混凝土造,88年5月20日,五層,四層 五層 見其他登記事項
RPSNMLPKKHLFFAU76CA,17,13.40,停車空間,鋼筋混凝土造,88年5月20日,五層,
RPSNMLPKKHLFFAU76CA,17,25.67,共有部份,鋼筋混凝土造,88年5月20日,五層,
RPRNMLSKKHLFFAU96CA,32,69.80,住家用,鋼筋混凝土造,72年12月15日,八層,七層
RPRNMLSKKHLFFAU96CA,32,7.18,共有部份,鋼筋混凝土造,72年12月15日,八層,
RPOOMLMLKHLFFAU88CA,22,65.28,住家用,鋼筋混凝土造,83年1月12日,六層,三層
RPOOMLMLKHLFFAU88CA,22,26.55,共有部份,鋼筋混凝土造,83年1月12日,六層,
RPXOMLPJKHLFFAU27CA,13,192.43,住家用,鋼筋混凝土造,92年2月18日,三層,二層 三層 一層
RPTPMLOJKHLFFAU86CA,20,71.23,見其他登記事項,鋼筋混凝土造,84年11月4日,十層,三層
RPTPMLOJKHLFFAU86CA,20,10.74,共有部份,鋼筋混凝土造,84年11月4日,十層,
RPTPMLOJKHLFFAU86CA,20,16.33,共有部份,鋼筋混凝土造,84年11月4日,十層,
RPUNMLLJKHLFFAU09CA,37,91.25,住家用,鋼筋混凝土加強磚造,67年10月10日,二層,一層 二層 屋頂突出物 騎樓
RPTNMLTLJHLFFAU27CA,17,120.96,住家用,鋼筋混凝土造,88年4月14日,五層,三層
RPTNMLTLJHLFFAU27CA,17,12.91,共有部份,鋼筋混凝土造,88年4月14日,五層,
RPTNMLTLJHLFFAU27CA,17,8.26,共有部份,鋼筋混凝土造,88年4月14日,五層,
RPOOMLKMJHLFFAU68CA,34,133.16,住家用,鋼筋混凝土加強磚造,70年10月15日,二層,一層 二層
RPROMLPLJHLFFAU76CA,53,98.41,住商用,見其他登記事項,52年1月5日,一層,一層 騎樓
RPUNMLRLJHLFFAU17CA,11,214.59,住家用,鋼筋混凝土造,94年1月26日,三層,一層 二層 三層 屋頂突出物
RPSNMLLJKHLFFAU88CA,22,136.73,住家用,鋼筋混凝土造,82年12月29日,三層,二層 三層 一層
RPUOMLKMJHLFFAU66CA,45,131.00,住家用,鋼筋混凝土加強磚造,59年7月4日,二層,一層 二層 騎樓
RPTNMLSLJHLFFAU17CA,10,184.02,住家用,鋼筋混凝土造,94年12月1日,三層,一層 二層 三層 屋頂突出物
RPVNMLLJKHLFFAU56CA,21,74.44,住家用,鋼筋混凝土造,83年10月26日,九層,二層
RPVNMLLJKHLFFAU56CA,21,9.60,共有部份,鋼筋混凝土造,83年10月26日,九層,
RPVNMLLJKHLFFAU56CA,21,18.81,共有部份,鋼筋混凝土造,83年10月26日,九層,
RPUOMLOJKHLFFAU86CA,25,5127.80,工業用,見其他登記事項,79年7月19日,一層,一層
RPUOMLOJKHLFFAU86CA,21,1583.37,見其他登記事項,鋼筋混凝土造,83年8月19日,二層,一層 二層 防空避難室 屋頂突出物
RPUOMLOJKHLFFAU86CA,22,2443.59,見其他登記事項,見其他登記事項,82年8月24日,二層,一層 二層 屋頂突出物 見其他登記事項
RPWNMLNLKHLFFAU07CA,,341.52,住家用,鋼筋混凝土造,104年12月15日,五層,一層 二層 三層 四層 五層
RPXNMLNLKHLFFAU17CA,21,83.38,住家用,鋼筋混凝土造,84年2月22日,八層,三層
RPXNMLNLKHLFFAU17CA,21,15.99,共有部份,鋼筋混凝土造,84年2月22日,八層,
RPXNMLNLKHLFFAU17CA,21,6.12,停車空間,鋼筋混凝土造,84年2月22日,八層,
RPXNMLNLKHLFFAU17CA,21,13.19,共有部份,鋼筋混凝土造,84年2月22日,八層,
RPPNMLPKLHLFFAU56CA,22,67.55,住家用,鋼筋混凝土造,83年3月15日,十二層,十二層
RPPNMLPKLHLFFAU56CA,22,15.05,共有部份,鋼筋混凝土造,83年3月15日,十二層,
RPTNMLSKKHLFFAU17CA,10,254.37,見其他登記事項,鋼筋混凝土造,94年10月11日,三層,一層 二層 三層 屋頂突出物
RPWNMLTKKHLFFAU57CA,22,82.54,住家用,鋼筋混凝土造,82年9月25日,八層,三層
RPWNMLTKKHLFFAU57CA,22,21.27,共有部份,鋼筋混凝土造,82年9月25日,八層,
RPQPMLPJKHLFFAU66CA,43,31.28,住家用,見其他登記事項,62年7月1日,一層,一層
RPTNMLPJKHLFFAU76CA,9,158.59,住家用,鋼筋混凝土造,96年2月13日,三層,一層 二層 三層
RPPNMLOJKHLFFAU88CA,35,115.22,住商用,鋼筋混凝土加強磚造,70年6月12日,二層,一層 二層 騎樓
RPQNMLOJKHLFFAU98CA,35,103.17,住商用,鋼筋混凝土加強磚造,70年6月12日,二層,一層 二層 騎樓
RPTNMLMJKHLFFAU09CA,28,89.70,住家用,鋼筋混凝土造,77年5月3日,九層,五層
RPSOMLMJKHLFFAU09CA,10,243.90,住商用,鋼筋混凝土造,95年4月21日,四層,一層 二層 三層 四層 騎樓
RPUOMLMJKHLFFAU66CA,3,143.51,農舍,鋼筋混凝土造,102年6月27日,二層,一層 二層
RPWNMLKMJHLFFAU76CA,9,157.93,見其他登記事項,鋼筋混凝土造,95年10月16日,三層,一層 二層 三層
RPXNMLOLKHLFFAU37DA,29,80.67,住家用,鋼筋混凝土造,75年9月20日,四層,四層
RPXNMLOLKHLFFAU37DA,29,9.09,共有部份,鋼筋混凝土造,75年9月20日,四層,
RPQNMLTLJHLFFCU17CA,24,96.38,住家用,鋼筋混凝土加強磚造,80年7月9日,二層,一層 二層
RPXOMLPKKHLFFAU57EA,22,87.13,住家用,鋼筋混凝土造,82年8月19日,五層,四層
RPXOMLPKKHLFFAU57EA,22,16.10,共有部份,鋼筋混凝土造,82年8月19日,五層,
RPVOMLTLJHLFFAU57CA,5,193.43,住家用,見其他登記事項,99年7月30日,三層,一層 二層 三層 屋頂突出物
RPXOMLTLJHLFFAU77CA,35,123.74,住家用,鋼筋混凝土加強磚造,69年10月8日,二層,一層 二層
RPPPMLTLJHLFFAU07CA,31,95.65,住家用,鋼筋混凝土造,74年2月4日,二層,一層 二層
RPOOMLMJKHLFFAU68CA,23,99.35,住家用,鋼筋混凝土造,81年8月26日,五層,四層
RPOOMLMJKHLFFAU68CA,23,13.32,共有部份,鋼筋混凝土造,81年8月26日,五層,
RPVNMLOJKHLFFAU86CA,37,65.07,住家用,鋼筋混凝土加強磚造,67年8月1日,一層,一層
RPQPMLMJKHLFFAU98CA,24,231.27,住商用,鋼筋混凝土造,81年1月22日,三層,一層 二層 三層 屋頂突出物 騎樓
RPRPMLPJKHLFFAU76CA,19,187.08,住家用,鋼筋混凝土造,86年4月29日,四層,一層 二層 三層 四層 停車場
RPQNMLPKKHLFFAU56CA,31,96.98,住商用,鋼筋混凝土加強磚造,74年3月9日,二層,一層 二層 騎樓
RPQOMLQLKHLFFAU86CA,1,225.95,住家用,鋼筋混凝土造,104年5月29日,四層,一層 二層 三層 四層
RPSNMLTKKHLFFBU27CA,31,196.13,住家用,鋼筋混凝土加強磚造,73年12月4日,二層,一層 二層 屋頂突出物
RPWNMLLJLHLFFAU76CA,29,112.76,住家用,鋼筋混凝土加強磚造,75年9月25日,二層,一層 二層
RPTNMLQLKHLFFAU07CA,16,198.02,住家用,鋼筋混凝土造,89年5月31日,三層,一層 二層 三層
RPXNMLTKKHLFFAU67CA,19,82.70,住家用,鋼筋混凝土造,85年10月29日,十六層,二層
RPXNMLTKKHLFFAU67CA,19,14.81,共有部份,鋼筋混凝土造,85年10月29日,十六層,
RPXNMLTKKHLFFAU67CA,19,7.23,停車空間,鋼筋混凝土造,85年10月29日,十六層,
RPXNMLTKKHLFFAU67CA,19,23.03,共有部份,鋼筋混凝土造,85年10月29日,十六層,
RPUOMLTKKHLFFAU47CA,21,23.52,住家用,鋼筋混凝土造,83年11月17日,七層,三層
RPUOMLTKKHLFFAU47CA,21,7.69,共有部份,鋼筋混凝土造,83年11月17日,七層,
RPXNMLPKKHLFFAU27CA,38,41.96,住家用,鋼筋混凝土加強磚造,67年4月11日,一層,一層 陽台
RPQNMLSKKHLFFAU86CA,39,104.07,住商用,鋼筋混凝土加強磚造,66年5月6日,二層,一層 二層 騎樓
RPSNMLPJKHLFFAU66CA,42,97.28,住家用,鋼筋混凝土加強磚造,62年10月20日,二層,一層 二層 騎樓
RPWNMLOJKHLFFAU96CA,1,236.50,農舍,鋼筋混凝土造,104年4月22日,三層,一層 二層 三層
RPXNMLOJKHLFFAU07CA,19,41.44,住家用,見其他登記事項,85年10月12日,五層,二層 夾層
RPXNMLOJKHLFFAU07CA,19,17.62,共有部份,鋼筋混凝土造,85年10月12日,五層,
RPUNMLMJKHLFFAU56CA,21,61.09,住家用,鋼筋混凝土造,84年3月2日,十七層,三層
RPUNMLMJKHLFFAU56CA,21,16.23,共有部份,鋼筋混凝土造,84年3月2日,十七層,
RPTNMLLJKHLFFAU98CA,24,93.56,農舍,鋼筋混凝土加強磚造,80年7月4日,二層,一層 二層 騎樓
RPSOMLKMJHLFFAU09CA,15,273.88,住家用,鋼筋混凝土造,90年6月12日,四層,一層 二層 三層 四層 屋頂突出物
RPTOMLKMJHLFFAU76EA,20,143.11,住家用,鋼筋混凝土造,84年12月13日,三層,一層 二層 三層
RPSPMLLJKHLFFAU09CA,37,118.87,住商用,鋼筋混凝土加強磚造,68年2月1日,二層,一層 二層 騎樓
RPOOMLOJKHLFFAU88CA,,236.75,住家用,鋼筋混凝土造,104年8月24日,四層,一層 二層 三層 四層
RPPPMLMJKHLFFAU88CA,15,28.42,商業用,鋼筋混凝土造,89年8月7日,十二層,一層
RPPPMLMJKHLFFAU88CA,15,7.37,共有部份,鋼筋混凝土造,89年8月7日,十五層,
RPPPMLMJKHLFFAU88CA,15,.24,共有部份,鋼筋混凝土造,89年8月7日,十五層,
RPPPMLMJKHLFFAU88CA,15,4.93,共有部份,鋼筋混凝土造,89年8月7日,十二層,
RPXOMLOJKHLFFAU17CA,38,94.86,住家用,鋼筋混凝土加強磚造,67年1月24日,二層,一層 二層
RPRPMLOJKHLFFAU66CA,37,137.33,住家用,鋼筋混凝土加強磚造,67年12月7日,二層,一層 二層
RPQNMLMLKHLFFAU98CA,56,51.68,住家用,木造,48年8月1日,一層,一層 騎樓
RPQOMLPLKHLFFAU76CA,17,170.85,見其他登記事項,鋼筋混凝土造,87年7月10日,一層,一層
RPQNMLLJLHLFFAU78CA,40,93.73,住家用,鋼筋混凝土造,64年7月22日,二層,一層 二層
RPQNMLLJLHLFFAU78CA,42,95.46,住家用,鋼筋混凝土造,63年6月3日,二層,一層 二層
