編號,屋齡,建物移轉面積平方公尺,主要用途,主要建材,建築完成日期,總層數,建物分層
RPROMLLJQHLFFBB87CC,8,18.50,住家用,鋼筋混凝土造,97年11月28日,十七層,
RPROMLLJQHLFFBB87CC,8,3.86,共有部份,鋼筋混凝土造,97年11月28日,十七層,
RPROMLLJQHLFFBB87CC,8,7.76,共有部份,鋼筋混凝土造,97年11月28日,十七層,
RPUPMLLJQHLFFBB28CC,27,222.61,住商用,鋼筋混凝土造,78年6月1日,四層,
RPROMLLJQHLFFCB97CC,23,158.05,住商用,鋼筋混凝土造,82年12月13日,七層,
RPUOMLLJQHLFFCB28CC,34,4628.10,工業用,鋼筋混凝土造,71年4月7日,二層,
RPPPMLLJQHLFFCB87CC,23,313.82,住商用,鋼筋混凝土造,82年4月1日,四層,
RPWNMLLJQHLFFAB18CC,24,392.86,商業用,鋼筋混凝土造,81年7月1日,十四層,
RPWNMLLJQHLFFAB18CC,24,234.18,見其他登記事項,鋼筋混凝土造,81年7月1日,十四層,
RPTOMLLJQHLFFAL98CC,37,239.80,住商用,鋼筋混凝土造,68年11月10日,五層,
RPUNMLMJQHLFFAB08CC,10,90.35,見其他登記事項,鋼筋混凝土造,95年6月22日,三十二層,
RPUNMLMJQHLFFAB08CC,10,14.61,見其他登記事項,鋼筋混凝土造,95年6月22日,三十二層,
RPUNMLMJQHLFFAB08CC,10,17.27,見其他登記事項,鋼筋混凝土造,95年6月22日,三十二層,
RPROMLMJQHLFFAB87CC,9,38.89,見其他登記事項,鋼筋混凝土造,96年7月5日,十五層,
RPROMLMJQHLFFAB87CC,9,8.80,見其他登記事項,鋼筋混凝土造,96年7月5日,十五層,
RPROMLMJQHLFFAB87CC,9,63.25,見其他登記事項,鋼筋混凝土造,96年7月5日,十四層,
RPTOMLMJQHLFFAB08CC,19,24.38,住家用,見其他登記事項,86年1月31日,二十八層,
RPTOMLMJQHLFFAB08CC,19,1.17,見其他登記事項,見其他登記事項,86年1月31日,二十八層,
RPTOMLMJQHLFFAB08CC,19,7.45,見其他登記事項,見其他登記事項,86年1月31日,二十八層,
RPTOMLMJQHLFFAB08CC,19,4.55,共有部份,見其他登記事項,86年1月31日,二十八層,
RPUOMLMJQHLFFCB38CC,19,107.88,住家用,鋼筋混凝土造,86年10月20日,十四層,
RPUOMLMJQHLFFCB38CC,19,47.76,共有部分,鋼筋混凝土造,86年10月20日,十四層,
RPXOMLMJQHLFFCB68CC,2,54.40,住家用,鋼筋混凝土造,103年7月4日,十二層,
RPXOMLMJQHLFFCB68CC,2,58.12,見其他登記事項,鋼筋混凝土造,103年7月4日,十二層,
RPXOMLMJQHLFFCB68CC,2,19.29,見其他登記事項,鋼筋混凝土造,103年7月4日,十二層,
RPPPMLMJQHLFFCB97CC,4,94.16,住家用,鋼筋混凝土造,101年4月27日,九層,
RPPPMLMJQHLFFCB97CC,4,47.83,見其他登記事項,鋼筋混凝土造,101年4月27日,九層,
RPPPMLMJQHLFFCB97CC,4,20.89,見其他登記事項,鋼筋混凝土造,101年4月27日,九層,
RPVPMLMJQHLFFCB58CC,11,82.23,住家用,見其他登記事項,94年1月17日,十四層,
RPVPMLMJQHLFFCB58CC,11,55.37,見其他登記事項,見其他登記事項,94年1月17日,十四層,
RPPQMLMJQHLFFCB08CC,21,157.39,住家用,鋼筋混凝土造,84年11月28日,十六層,
RPPQMLMJQHLFFCB08CC,21,70.21,共有部分,鋼筋混凝土造,84年11月28日,十六層,
RPRNMLNJQHLFFCB08CC,65,83.19,住家用,鋼筋混凝土造,40年5月2日,五層,
RPTNMLNJQHLFFCB28CC,21,335.88,住商用,鋼筋混凝土造,84年5月5日,四層,
RPPPMLNJQHLFFCB08CC,7,37.23,住家用,鋼筋混凝土造,98年8月13日,二十六層,
RPPPMLNJQHLFFCB08CC,7,3.11,見其他登記事項,鋼筋混凝土造,98年8月13日,二十六層,
RPPPMLNJQHLFFCB08CC,7,14.66,見其他登記事項,鋼筋混凝土造,98年8月13日,二十六層,
RPRPMLNJQHLFFCB28CC,7,41.83,住家用,鋼筋混凝土造,98年8月13日,二十六層,
RPRPMLNJQHLFFCB28CC,7,3.45,見其他登記事項,鋼筋混凝土造,98年8月13日,二十六層,
RPRPMLNJQHLFFCB28CC,7,16.44,見其他登記事項,鋼筋混凝土造,98年8月13日,二十六層,
RPSPMLNJQHLFFCB38CC,6,57.71,住家用,鋼筋混凝土造,99年2月1日,十二層,
RPSPMLNJQHLFFCB38CC,6,21.29,見其他登記事項,鋼筋混凝土造,99年2月1日,十二層,
RPSPMLNJQHLFFCB38CC,6,40.37,見其他登記事項,鋼筋混凝土造,99年2月1日,十二層,
RPTPMLNJQHLFFCB48CC,7,39.93,住家用,鋼筋混凝土造,98年8月13日,二十六層,
RPTPMLNJQHLFFCB48CC,7,22.27,見其他登記事項,鋼筋混凝土造,98年8月13日,二十六層,
RPTPMLNJQHLFFCB48CC,7,15.71,見其他登記事項,鋼筋混凝土造,98年8月13日,二十六層,
RPRQMLNJQHLFFCB38CC,27,155.88,住商用,鋼筋混凝土造,78年10月26日,三層,
RPRPMLNJQHLFFBB18CC,3,62.26,住家用,鋼筋混凝土造,102年7月25日,二十二層,
RPRPMLNJQHLFFBB18CC,3,16.70,見其它登記事項,鋼筋混凝土造,102年7月25日,二十二層,
RPRPMLNJQHLFFBB18CC,3,13.35,見其它登記事項,鋼筋混凝土造,102年7月25日,二十二層,
RPTPMLNJQHLFFBB38CC,3,67.17,住家用,鋼筋混凝土造,102年7月25日,二十二層,
RPTPMLNJQHLFFBB38CC,3,18.00,見其它登記事項,鋼筋混凝土造,102年7月25日,二十二層,
RPTPMLNJQHLFFBB38CC,3,28.03,見其它登記事項,鋼筋混凝土造,102年7月25日,二十二層,
RPPQMLNJQHLFFBB08CC,3,172.71,見其它登記事項,鋼筋混凝土造,102年7月25日,二十二層,
RPPQMLNJQHLFFBB08CC,3,37.45,見其它登記事項,鋼筋混凝土造,102年7月25日,二十二層,
RPPQMLNJQHLFFBB08CC,3,64.87,見其它登記事項,鋼筋混凝土造,102年7月25日,二十二層,
RPQQMLNJQHLFFBB18CC,11,64.97,住家用,鋼筋混凝土造,94年12月8日,十八層,
RPQQMLNJQHLFFBB18CC,11,57.92,共有部份,鋼筋混凝土造,94年12月8日,十八層,
RPRQMLNJQHLFFBB28CC,11,47.39,住家用,鋼筋混凝土造,94年12月8日,十八層,
RPRQMLNJQHLFFBB28CC,11,50.88,共有部份,鋼筋混凝土造,94年12月8日,十八層,
RPWQMLNJQHLFFBB78CC,11,47.70,住家用,鋼筋混凝土造,94年12月8日,十八層,
RPWQMLNJQHLFFBB78CC,11,35.07,共有部份,鋼筋混凝土造,94年12月8日,十八層,
RPXQMLNJQHLFFBB88CC,11,47.70,住家用,鋼筋混凝土造,94年12月8日,十八層,
RPXQMLNJQHLFFBB88CC,11,35.07,共有部份,鋼筋混凝土造,94年12月8日,十八層,
RPQNMLNJQHLFFHL86CC,4,251.65,見其他登記事項,鋼筋混凝土造,101年8月16日,五層,
RPQNMLNJQHLFFHL86CC,4,.86,見其他登記事項,鋼筋混凝土造,101年8月16日,一層,
RPSNMLNJQHLFFHL07CC,23,196.07,見其他登記事項,鋼筋混凝土造,82年12月29日,四層,
RPUOMLOJQHLFFCL96CC,11,178.39,住家用,鋼筋混凝土造,94年9月27日,十四層,
RPVOMLOJQHLFFCB78DC,23,68.42,住家用,鋼筋混凝土造,82年11月20日,八層,
RPPNMLOJQHLFFAL88DC,38,115.06,住家用,加強磚造,67年12月15日,二層,
RPQPMLOJQHLFFBB18CC,21,29.12,住家用,鋼筋混凝土造,84年6月7日,二十一層,
RPUPMLOJQHLFFBB58CC,8,244.91,見其它登記事項,鋼筋混凝土造,98年1月20日,十二層,
RPWPMLOJQHLFFBB78CC,32,66.35,住商用,鋼筋混凝土造,73年11月23日,五層,
RPUQMLOJQHLFFBB68CC,19,130.75,住家用,鋼筋混凝土造,86年10月1日,二十五層,
RPUQMLOJQHLFFBB68CC,19,25.47,共有部份,鋼筋混凝土造,86年10月1日,二十五層,
RPUQMLOJQHLFFBB68CC,19,32.20,共有部份,鋼筋混凝土造,86年10月1日,二十五層,
RPUQMLOJQHLFFBB68CC,19,16.32,見其它登記事項,鋼筋混凝土造,86年10月1日,二十五層,
RPROMLOJQHLFFCB28CC,2,214.57,見其他登記事項,鋼筋混凝土造,103年5月28日,十四層,
RPVPMLOJQHLFFCB78CC,10,114.21,住家用,鋼筋混凝土造,95年8月25日,十五層,
RPOQMLPJQHLFFCB28CC,22,32.00,住商用,鋼筋混凝土造,83年9月6日,十二層,
RPQOMLPJQHLFFBB28DC,31,237.93,住商用,鋼筋混凝土造,74年7月26日,三層,
RPPNMLPJQHLFFAB87CC,21,56.16,見其他登記事項,鋼筋混凝土造,84年6月28日,十三層,
RPWOMLPJQHLFFAB68CC,20,40.99,見其他登記事項,鋼筋混凝土造,85年5月6日,十八層,
RPWOMLPJQHLFFAB68CC,20,8.07,見其他登記事項,鋼筋混凝土造,85年5月6日,十八層,
RPWOMLPJQHLFFAB68CC,20,9.09,見其他登記事項,鋼筋混凝土造,85年5月6日,十八層,
RPWOMLPJQHLFFAB68CC,20,2.17,見其他登記事項,鋼筋混凝土造,85年5月6日,十八層,
RPWOMLPJQHLFFAB68CC,20,3.21,見其他登記事項,鋼筋混凝土造,85年5月6日,十八層,
RPXOMLPJQHLFFAB78CC,20,20.04,見其他登記事項,鋼筋混凝土造,85年5月6日,十八層,
RPXOMLPJQHLFFAB78CC,20,3.72,見其他登記事項,鋼筋混凝土造,85年5月6日,十八層,
RPXOMLPJQHLFFAB78CC,20,4.19,見其他登記事項,鋼筋混凝土造,85年5月6日,十八層,
RPXOMLPJQHLFFAB78CC,20,1.00,見其他登記事項,鋼筋混凝土造,85年5月6日,十八層,
RPXOMLPJQHLFFAB78CC,20,1.52,見其他登記事項,鋼筋混凝土造,85年5月6日,十八層,
RPOPMLPJQHLFFAB97CC,20,19.17,見其他登記事項,鋼筋混凝土造,85年5月6日,十八層,
RPOPMLPJQHLFFAB97CC,20,3.30,見其他登記事項,鋼筋混凝土造,85年5月6日,十八層,
RPOPMLPJQHLFFAB97CC,20,3.72,見其他登記事項,鋼筋混凝土造,85年5月6日,十八層,
RPOPMLPJQHLFFAB97CC,20,.89,見其他登記事項,鋼筋混凝土造,85年5月6日,十八層,
RPOPMLPJQHLFFAB97CC,20,1.46,見其他登記事項,鋼筋混凝土造,85年5月6日,十八層,
RPQNMLQJQHLFFBB28DC,38,22.00,住家用,鋼筋混凝土造,68年1月9日,八層,
RPSNMLQJQHLFFCB48CC,36,84.03,住商用,鋼筋混凝土造,69年8月22日,三層,
RPTNMLQJQHLFFCB58CC,36,134.83,住商用,鋼筋混凝土造,69年8月22日,三層,
RPSOMLSJQHLFFCB78CC,11,258.55,見其他登記事項,鋼筋混凝土造,94年7月8日,四層,
RPSOMLSJQHLFFCB78CC,11,22.48,見其他登記事項,鋼筋混凝土造,94年7月8日,四層,
RPUOMLSJQHLFFCB98CC,24,90.50,住家用,鋼筋混凝土造,81年11月5日,十層,
RPUOMLSJQHLFFCB98CC,24,27.61,共有部分,鋼筋混凝土造,81年11月5日,十層,
RPPPMLSJQHLFFCB58CC,9,53.60,住家用,鋼筋混凝土造,96年3月13日,十五層,
RPPPMLSJQHLFFCB58CC,9,56.88,見其他登記事項,鋼筋混凝土造,96年3月13日,十五層,
RPOQMLSJQHLFFCB58CC,10,27.89,住家用,鋼筋混凝土造,95年11月24日,十四層,
RPOQMLSJQHLFFCB58CC,10,12.56,見其他登記事項,鋼筋混凝土造,95年11月24日,十四層,
RPQQMLSJQHLFFCB78CC,1,87.33,見其他登記事項,鋼筋混凝土造,104年12月22日,十二層,
RPQQMLSJQHLFFCB78CC,1,92.28,見其他登記事項,鋼筋混凝土造,104年12月22日,十二層,
RPRPMLSJQHLFFBB68CC,3,32.39,見其它登記事項,鋼筋混凝土造,103年1月10日,五層,
RPVPMLSJQHLFFBB09CC,22,267.00,住家用,鋼筋混凝土造,83年9月16日,三層,
RPVNMLSJQHLFFAB88DC,,147.37,住家用,見其他登記事項,,二層,
RPVOMLSJQHLFFAB88CC,10,93.35,見其他登記事項,鋼筋混凝土造,95年6月22日,三十二層,
RPVOMLSJQHLFFAB88CC,10,15.09,見其他登記事項,鋼筋混凝土造,95年6月22日,三十二層,
RPVOMLSJQHLFFAB88CC,10,24.17,見其他登記事項,鋼筋混凝土造,95年6月22日,三十二層,
RPOOMLSJQHLFFCL76CC,17,165.87,見其他登記事項,鋼筋混凝土造,88年2月9日,四層,
RPTNMLSJQHLFFFL47CC,21,112.23,住家用,鋼筋混凝土造,83年12月15日,十一層,
RPUNMLSJQHLFFFL57CC,24,187.46,見其他登記事項,鋼筋混凝土造,81年9月23日,四層,
RPROMLSJQHLFFHL57CC,37,93.73,住家用,加強磚造,68年2月20日,二層,
RPSNMLTJQHLFFAB58CC,36,378.56,工業用,鋼筋混凝土造,69年7月26日,四層,
RPWPMLTJQHLFFBB66CC,2,121.37,住家用,鋼筋混凝土造,103年10月22日,十二層,
RPRQMLTJQHLFFBB88CC,16,137.54,住家用,鋼筋混凝土造,88年4月19日,十四層,
RPPQMLTJQHLFFCB78CC,,303.27,見其他登記事項,見其他登記事項,105年4月22日,二層,
RPSPMLKKQHLFFCB18CC,7,58.57,住家用,鋼筋混凝土造,98年8月13日,二十六層,
RPSPMLKKQHLFFCB18CC,7,4.83,見其他登記事項,鋼筋混凝土造,98年8月13日,二十六層,
RPSPMLKKQHLFFCB18CC,7,23.14,見其他登記事項,鋼筋混凝土造,98年8月13日,二十六層,
RPTPMLKKQHLFFCB28CC,6,46.56,住家用,鋼筋混凝土造,99年2月1日,十一層,
RPTPMLKKQHLFFCB28CC,6,17.18,見其他登記事項,鋼筋混凝土造,99年2月1日,十二層,
RPTPMLKKQHLFFCB28CC,6,6.37,見其他登記事項,鋼筋混凝土造,99年2月1日,十二層,
RPVPMLKKQHLFFCB48CC,7,47.65,住家用,鋼筋混凝土造,98年8月13日,二十六層,
RPVPMLKKQHLFFCB48CC,7,41.78,見其他登記事項,鋼筋混凝土造,98年8月13日,二十六層,
RPVPMLKKQHLFFCB48CC,7,18.85,見其他登記事項,鋼筋混凝土造,98年8月13日,二十六層,
RPXPMLKKQHLFFCB68CC,7,39.61,住家用,鋼筋混凝土造,98年8月13日,二十六層,
RPXPMLKKQHLFFCB68CC,7,3.28,見其他登記事項,鋼筋混凝土造,98年8月13日,二十六層,
RPXPMLKKQHLFFCB68CC,7,15.71,見其他登記事項,鋼筋混凝土造,98年8月13日,二十六層,
RPPQMLKKQHLFFCB97CC,7,48.69,住家用,鋼筋混凝土造,98年8月13日,二十六層,
RPPQMLKKQHLFFCB97CC,7,3.97,見其他登記事項,鋼筋混凝土造,98年8月13日,二十六層,
RPPQMLKKQHLFFCB97CC,7,19.16,見其他登記事項,鋼筋混凝土造,98年8月13日,二十六層,
RPUPMLKKQHLFFBB28CC,3,67.28,住家用,鋼筋混凝土造,102年7月25日,二十二層,
RPUPMLKKQHLFFBB28CC,3,18.08,見其它登記事項,鋼筋混凝土造,102年7月25日,二十二層,
RPUPMLKKQHLFFBB28CC,3,41.65,見其它登記事項,鋼筋混凝土造,102年7月25日,二十二層,
RPXPMLKKQHLFFBB58CC,11,48.14,住家用,鋼筋混凝土造,94年12月8日,十八層,
RPXPMLKKQHLFFBB58CC,11,19.26,共有部份,鋼筋混凝土造,94年12月8日,十八層,
RPPQMLKKQHLFFBB87CC,11,47.39,住家用,鋼筋混凝土造,94年12月8日,十八層,
RPPQMLKKQHLFFBB87CC,11,18.99,共有部份,鋼筋混凝土造,94年12月8日,十八層,
RPQQMLKKQHLFFBB97CC,11,47.70,住家用,鋼筋混凝土造,94年12月8日,十八層,
RPQQMLKKQHLFFBB97CC,11,19.13,共有部份,鋼筋混凝土造,94年12月8日,十八層,
RPSQMLKKQHLFFBB18CC,11,48.54,住家用,鋼筋混凝土造,94年12月8日,十八層,
RPSQMLKKQHLFFBB18CC,11,19.52,共有部份,鋼筋混凝土造,94年12月8日,十八層,
RPUOMLKKQHLFFAB08CC,21,29.08,住家用,鋼筋混凝土造,84年1月13日,十九層,
RPXPMLKKQHLFFAB48CC,45,826.44,商業用,見其他登記事項,60年2月15日,一層,
RPXOMLKKQHLFFBB58DC,20,155.49,住家用,鋼筋混凝土造,85年10月3日,十二層,
RPTNMLLKQHLFFBB08CC,1,80.20,見其它登記事項,鋼筋混凝土造,104年12月28日,十四層,
RPTNMLLKQHLFFBB08CC,1,46.39,見其它登記事項,鋼筋混凝土造,104年12月28日,十四層,
RPTNMLLKQHLFFBB08CC,1,16.15,見其它登記事項,鋼筋混凝土造,104年12月28日,十四層,
RPWNMLLKQHLFFBB38CC,1,178.50,見其它登記事項,鋼筋混凝土造,104年11月3日,十二層,
RPSPMLLKQHLFFBB18CC,16,114.26,見其它登記事項,鋼骨鋼筋混凝土造,89年6月3日,二十八層,
RPSPMLLKQHLFFBB18CC,16,27.22,見其它登記事項,鋼骨鋼筋混凝土造,89年6月3日,二十八層,
RPSPMLLKQHLFFBB18CC,16,31.36,見其它登記事項,鋼骨鋼筋混凝土造,89年6月3日,二十八層,
RPUOMLLKQHLFFCB38CC,27,291.90,商業用,鋼筋混凝土造,78年9月16日,十五層,
RPUOMLLKQHLFFCB38CC,27,142.93,商業用,鋼筋混凝土造,78年9月16日,十五層,
RPUOMLLKQHLFFCB38CC,27,172.07,共有部分,鋼筋混凝土造,78年9月16日,十五層,
RPOPMLLKQHLFFCB87CC,24,127.65,住家用,鋼筋混凝土造,81年4月27日,七層,
RPRQMLMKQHLFFCB38CC,10,84.16,住家用,鋼筋混凝土造,95年11月13日,十五層,
RPRQMLMKQHLFFCB38CC,10,68.00,見其他登記事項,鋼筋混凝土造,95年11月13日,十五層,
RPSOMLMKQHLFFAB08CC,5,129.21,見其他登記事項,鋼筋混凝土造,100年1月27日,十五層,
RPSOMLMKQHLFFAB08CC,5,10.52,見其他登記事項,鋼筋混凝土造,100年1月27日,十五層,
RPSOMLMKQHLFFAB08CC,5,52.73,見其他登記事項,鋼筋混凝土造,100年1月27日,十五層,
RPPNMLOKQHLFFBB97CC,10,66.24,住家用,鋼筋混凝土造,95年5月19日,十一層,
RPSOMLPKQHLFFBB48CC,8,182.92,見其他登記事項,鋼筋混凝土造,98年1月20日,七層,
RPWOMLPKQHLFFBB88CC,1,98.64,見其它登記事項,鋼筋混凝土造,104年8月26日,十六層,
RPWOMLPKQHLFFBB88CC,1,29.17,見其它登記事項,鋼筋混凝土造,104年8月26日,十六層,
RPWOMLPKQHLFFBB88CC,1,53.25,見其它登記事項,鋼筋混凝土造,104年8月26日,二十五層,
RPOOMLPKQHLFFCB18CC,4,159.22,見其他登記事項,鋼骨鋼筋混凝土造,101年12月19日,二十九層,
RPOOMLPKQHLFFCB18CC,4,104.95,見其他登記事項,鋼骨鋼筋混凝土造,101年12月19日,二十九層,
RPPOMLPKQHLFFCB28CC,24,165.41,見其他登記事項,見其他登記事項,81年7月1日,二十八層,
RPPOMLPKQHLFFCB28CC,24,74.35,共有部分,見其他登記事項,81年7月1日,二十八層,
RPQOMLPKQHLFFCB38CC,1,182.23,見其他登記事項,鋼骨鋼筋混凝土造,104年9月24日,三十四層,
RPQOMLPKQHLFFCB38CC,1,46.51,見其他登記事項,鋼骨鋼筋混凝土造,104年9月24日,三十四層,
RPQOMLPKQHLFFCB38CC,1,56.55,見其他登記事項,鋼骨鋼筋混凝土造,104年9月24日,三十四層,
RPROMLPKQHLFFCB48CC,24,156.38,見其他登記事項,見其他登記事項,81年7月1日,二十八層,
RPROMLPKQHLFFCB48CC,24,70.57,共有部分,見其他登記事項,81年7月1日,二十八層,
RPSOMLPKQHLFFCB58CC,24,219.64,見其他登記事項,見其他登記事項,81年7月1日,二十八層,
RPSOMLPKQHLFFCB58CC,24,103.34,共有部分,見其他登記事項,81年7月1日,二十八層,
RPTOMLPKQHLFFCB68CC,6,171.12,見其他登記事項,見其他登記事項,99年6月4日,三十八層,
RPTOMLPKQHLFFCB68CC,6,70.49,見其他登記事項,見其他登記事項,99年6月4日,三十八層,
RPTOMLPKQHLFFCB68CC,6,14.84,見其他登記事項,見其他登記事項,99年6月4日,三十八層,
RPTOMLPKQHLFFCB68CC,6,27.31,見其他登記事項,見其他登記事項,99年6月4日,三十八層,
RPUOMLPKQHLFFCB78CC,3,89.68,住家用,鋼筋混凝土造,102年10月17日,十四層,
RPUOMLPKQHLFFCB78CC,3,40.56,見其他登記事項,鋼筋混凝土造,102年10月17日,十四層,
RPWOMLPKQHLFFCB98CC,10,25.72,住家用,鋼筋混凝土造,95年11月24日,十四層,
RPWOMLPKQHLFFCB98CC,10,11.56,見其他登記事項,鋼筋混凝土造,95年11月24日,十四層,
RPQNMLPKQHLFFCL66CC,15,38.00,見其他登記事項,鋼筋混凝土造,90年6月29日,四層,
RPSNMLPKQHLFFAB28CC,22,23.31,住家用,鋼筋混凝土造,84年1月13日,十九層,
RPSNMLPKQHLFFAB28CC,22,3.83,共有部份,鋼筋混凝土造,84年1月13日,十九層,
RPSNMLPKQHLFFAB28CC,22,8.40,見其他登記事項,鋼筋混凝土造,84年1月13日,十九層,
RPTNMLPKQHLFFAB38CC,22,24.02,住家用,鋼筋混凝土造,84年1月13日,十九層,
RPTNMLPKQHLFFAB38CC,22,3.71,共有部份,鋼筋混凝土造,84年1月13日,十九層,
RPTNMLPKQHLFFAB38CC,22,9.08,見其他登記事項,鋼筋混凝土造,84年1月13日,十九層,
RPWNMLPKQHLFFAB68CC,25,156.71,見其他登記事項,見其他登記事項,80年4月2日,三十七層,
RPWNMLPKQHLFFAB68CC,25,103.92,見其他登記事項,見其他登記事項,80年4月2日,三十七層,
RPXNMLPKQHLFFAB78CC,18,100.05,住家用,鋼筋混凝土造,87年10月30日,二十四層,
RPXNMLPKQHLFFAB78CC,18,100.05,住家用,鋼筋混凝土造,87年10月30日,二十四層,
RPXNMLPKQHLFFAB78CC,18,33.85,共有部份,鋼筋混凝土造,87年10月30日,二十四層,
RPXNMLPKQHLFFAB78CC,18,68.25,共有部份,鋼筋混凝土造,87年10月30日,二十四層,
RPPOMLPKQHLFFAB08CC,21,25.98,見其他登記事項,鋼筋混凝土造,84年6月28日,十三層,
RPPOMLPKQHLFFAB08CC,21,4.00,見其他登記事項,鋼筋混凝土造,84年6月28日,十三層,
RPPOMLPKQHLFFAB08CC,21,26.18,見其他登記事項,鋼筋混凝土造,84年6月28日,十三層,
RPQOMLPKQHLFFAB18CC,21,21.48,見其他登記事項,鋼筋混凝土造,84年6月28日,十三層,
RPQOMLPKQHLFFAB18CC,21,21.48,見其他登記事項,鋼筋混凝土造,84年6月28日,十三層,
RPQOMLPKQHLFFAB18CC,21,2.69,見其他登記事項,鋼筋混凝土造,84年6月28日,十三層,
RPQOMLPKQHLFFAB18CC,21,17.63,見其他登記事項,鋼筋混凝土造,84年6月28日,十三層,
RPQOMLPKQHLFFAB18CC,21,2.69,見其他登記事項,鋼筋混凝土造,84年6月28日,十三層,
RPQOMLPKQHLFFAB18CC,21,17.63,見其他登記事項,鋼筋混凝土造,84年6月28日,十三層,
RPROMLPKQHLFFAB28CC,26,189.64,商業用,鋼筋混凝土造,79年11月10日,十四層,
RPROMLPKQHLFFAB28CC,26,8.68,見其他登記事項,鋼筋混凝土造,79年11月10日,十四層,
RPROMLPKQHLFFAB28CC,26,37.20,見其他登記事項,鋼筋混凝土造,79年11月10日,十四層,
RPQPMLPKQHLFFAB28CC,45,826.44,商業用,見其他登記事項,60年2月15日,一層,
RPUNMLQKQHLFFCL17CC,36,285.08,住商用,鋼筋混凝土造,69年7月20日,三層,
RPQNMLQKQHLFFHL27CC,4,205.07,見其他登記事項,鋼筋混凝土造,101年11月13日,四層,
RPOOMLQKQHLFFHL17CC,5,289.01,見其他登記事項,鋼筋混凝土造,101年1月6日,四層,
RPOOMLQKQHLFFHL17CC,5,2.76,見其他登記事項,鋼筋混凝土造,101年1月6日,四層,
RPQNMLQKQHLFFFL17DC,8,253.69,見其他登記事項,鋼筋混凝土造,97年10月20日,四層,
RPTNMLQKQHLFFFL47DC,5,237.08,見其他登記事項,鋼筋混凝土造,100年6月16日,四層,
RPRNMLQKQHLFFCB58DC,9,63.98,住家用,鋼筋混凝土造,96年11月22日,十二層,
RPPOMLQKQHLFFCB48DC,24,112.11,住商用,鋼筋混凝土造,82年1月20日,六層,
RPQPMLQKQHLFFCB58CC,29,36.90,住商用,鋼筋混凝土造,76年11月18日,四層,
RPPOMLQKQHLFFBB28CC,18,95.21,住家用,鋼筋混凝土造,87年11月11日,十四層,
RPOPMLRKQHLFFBB38CC,23,42.41,住家用,鋼筋混凝土造,82年11月22日,七層,
RPVNMLRKQHLFFCB98CC,43,95.20,住家用,見其他登記事項,62年3月2日,二層,
RPRNMLRKQHLFFBB58DC,1,76.43,見其它登記事項,鋼筋混凝土造,104年4月23日,二十二層,
RPRNMLRKQHLFFBB58DC,1,11.80,見其它登記事項,鋼筋混凝土造,104年4月23日,二十二層,
RPRNMLRKQHLFFBB58DC,1,1.88,見其它登記事項,鋼筋混凝土造,104年4月23日,二十二層,
RPRNMLRKQHLFFBB58DC,1,20.78,見其它登記事項,鋼筋混凝土造,104年4月23日,二十二層,
RPRNMLRKQHLFFBB58DC,1,21.35,見其它登記事項,鋼筋混凝土造,104年4月23日,二十二層,
RPSNMLRKQHLFFHL57CC,24,122.60,見其他登記事項,鋼筋混凝土造,81年10月1日,七層,
RPSNMLRKQHLFFAB48CC,32,257.33,住商用,鋼筋混凝土造,73年11月9日,四層,
RPQOMLRKQHLFFAB38CC,31,155.45,住家用,加強磚造,74年12月23日,二層,
RPQOMLRKQHLFFAB38CC,46,52.14,住家用,加強磚造,59年7月17日,一層,
RPSNMLSKQHLFFAB58CC,18,44.65,商業用,鋼筋混凝土造,87年9月30日,十二層,
RPSNMLSKQHLFFAB58CC,18,9.00,共有部份,鋼筋混凝土造,87年9月30日,十三層,
RPSNMLSKQHLFFAB58CC,18,32.24,商業用,鋼筋混凝土造,87年9月30日,十三層,
RPSNMLSKQHLFFAB58CC,18,6.65,共有部份,鋼筋混凝土造,87年9月30日,十三層,
RPTOMLSKQHLFFAB78CC,19,25.30,住家用,見其他登記事項,86年1月31日,二十八層,
RPTOMLSKQHLFFAB78CC,19,.92,見其他登記事項,見其他登記事項,86年1月31日,二十八層,
RPTOMLSKQHLFFAB78CC,19,7.75,見其他登記事項,見其他登記事項,86年1月31日,二十八層,
RPTOMLSKQHLFFAB78CC,19,3.48,共有部份,見其他登記事項,86年1月31日,二十八層,
RPRNMLSKQHLFFHL57CC,29,188.68,見其他登記事項,鋼筋混凝土造,77年1月2日,三層,
RPTNMLSKQHLFFCL27CC,48,121.96,住家用,加強磚造,57年12月1日,二層,
RPXNMLSKQHLFFCL67CC,34,19.67,國民住宅,鋼筋混凝土造,72年2月3日,五層,
RPUNMLSKQHLFFBB98DC,34,39.66,商業用,鋼筋混凝土造,71年11月23日,三層,
RPWNMLSKQHLFFBB56DC,22,23.18,住家用,鋼筋混凝土造,83年9月7日,八層,
RPWNMLSKQHLFFBB56DC,22,18.80,共有部份,鋼筋混凝土造,83年9月7日,八層,
RPVNMLSKQHLFFIL08CC,1,72.53,見其他登記事項,鋼筋混凝土造,104年11月25日,九層,
RPQOMLSKQHLFFAB68EC,27,99.14,住商用,鋼筋混凝土造,78年3月16日,五層,
RPOOMLSKQHLFFCB48CC,7,197.95,住家用,鋼筋混凝土造,98年7月13日,二十八層,
RPOOMLSKQHLFFCB48CC,7,92.19,見其他登記事項,鋼筋混凝土造,98年7月13日,二十八層,
RPOOMLSKQHLFFCB48CC,7,42.84,見其他登記事項,鋼筋混凝土造,98年7月13日,二十八層,
RPSOMLSKQHLFFCB88CC,1,45.34,見其他登記事項,鋼筋混凝土造,104年10月21日,十二層,
RPSOMLSKQHLFFCB88CC,1,24.94,見其他登記事項,鋼筋混凝土造,104年10月21日,十二層,
RPTOMLSKQHLFFCB98CC,1,54.69,見其他登記事項,鋼筋混凝土造,104年10月21日,十二層,
RPTOMLSKQHLFFCB98CC,1,63.86,見其他登記事項,鋼筋混凝土造,104年10月21日,十二層,
RPOOMLSKQHLFFBB38CC,1,88.25,見其它登記事項,鋼筋混凝土造,104年4月16日,十四層,
RPOOMLSKQHLFFBB38CC,1,58.50,見其它登記事項,鋼筋混凝土造,104年4月16日,十四層,
RPOOMLSKQHLFFBB38CC,1,19.66,見其它登記事項,鋼筋混凝土造,104年4月16日,十四層,
RPOQMLTKQHLFFCB78CC,2,167.67,住家用,鋼筋混凝土造,103年6月26日,二十七層,
RPOQMLTKQHLFFCB78CC,2,59.25,見其他登記事項,鋼筋混凝土造,103年6月26日,二十七層,
RPOQMLTKQHLFFCB78CC,2,45.18,見其他登記事項,鋼筋混凝土造,103年6月26日,二十七層,
RPQQMLTKQHLFFCB98CC,2,355.34,見其他登記事項,鋼骨鋼筋混凝土造,103年4月3日,三十六層,
RPQQMLTKQHLFFCB98CC,2,105.84,見其他登記事項,鋼骨鋼筋混凝土造,103年4月3日,三十六層,
RPQQMLTKQHLFFCB98CC,2,113.20,見其他登記事項,鋼骨鋼筋混凝土造,103年4月3日,三十六層,
RPUNMLMLQHLFFCB48CC,43,60.00,住家用,磚造,62年4月1日,一層,
RPUPMLMLQHLFFCB68CC,1,73.27,見其他登記事項,鋼筋混凝土造,104年5月18日,十七層,
RPUPMLMLQHLFFCB68CC,1,90.66,見其他登記事項,鋼筋混凝土造,104年5月18日,十七層,
RPVPMLMLQHLFFCB78CC,7,39.93,住家用,鋼筋混凝土造,98年8月13日,二十六層,
RPVPMLMLQHLFFCB78CC,7,3.28,見其他登記事項,鋼筋混凝土造,98年8月13日,二十六層,
RPVPMLMLQHLFFCB78CC,7,15.71,見其他登記事項,鋼筋混凝土造,98年8月13日,二十六層,
RPWPMLMLQHLFFCB88CC,7,58.57,住家用,鋼筋混凝土造,98年8月13日,二十六層,
RPWPMLMLQHLFFCB88CC,7,23.82,見其他登記事項,鋼筋混凝土造,98年8月13日,二十六層,
RPWPMLMLQHLFFCB88CC,7,23.14,見其他登記事項,鋼筋混凝土造,98年8月13日,二十六層,
RPXPMLMLQHLFFCB98CC,7,39.66,住家用,鋼筋混凝土造,98年8月13日,二十六層,
RPXPMLMLQHLFFCB98CC,7,41.08,見其他登記事項,鋼筋混凝土造,98年8月13日,二十六層,
RPXPMLMLQHLFFCB98CC,7,15.60,見其他登記事項,鋼筋混凝土造,98年8月13日,二十六層,
RPOQMLMLQHLFFCB18CC,7,47.65,住家用,鋼筋混凝土造,98年8月13日,二十六層,
RPOQMLMLQHLFFCB18CC,7,39.88,見其他登記事項,鋼筋混凝土造,98年8月13日,二十六層,
RPOQMLMLQHLFFCB18CC,7,18.85,見其他登記事項,鋼筋混凝土造,98年8月13日,二十六層,
RPPQMLMLQHLFFCB28CC,7,39.89,住家用,鋼筋混凝土造,98年8月13日,二十六層,
RPPQMLMLQHLFFCB28CC,7,3.28,見其他登記事項,鋼筋混凝土造,98年8月13日,二十六層,
RPPQMLMLQHLFFCB28CC,7,15.71,見其他登記事項,鋼筋混凝土造,98年8月13日,二十六層,
RPXNMLMLQHLFFBB68CC,22,29.97,商業用,鋼筋混凝土造,83年12月22日,十七層,
RPXNMLMLQHLFFBB68CC,22,15.45,共有部份,鋼筋混凝土造,83年12月22日,十七層,
RPXNMLMLQHLFFBB68CC,22,17.50,見其它登記事項,鋼筋混凝土造,83年12月22日,十七層,
RPQQMLMLQHLFFBB28CC,11,47.70,住家用,鋼筋混凝土造,94年12月8日,十八層,
RPQQMLMLQHLFFBB28CC,11,19.13,共有部份,鋼筋混凝土造,94年12月8日,十八層,
RPRQMLMLQHLFFBB38CC,11,49.46,住家用,鋼筋混凝土造,94年12月8日,十八層,
RPRQMLMLQHLFFBB38CC,11,35.73,共有部分,鋼筋混凝土造,94年12月8日,十八層,
RPSQMLMLQHLFFBB48CC,11,59.92,住家用,鋼筋混凝土造,94年12月8日,十八層,
RPSQMLMLQHLFFBB48CC,11,39.98,共有部分,鋼筋混凝土造,94年12月8日,十八層,
RPTQMLMLQHLFFBB58CC,11,47.37,住家用,鋼筋混凝土造,94年12月8日,十八層,
RPTQMLMLQHLFFBB58CC,11,50.88,共有部分,鋼筋混凝土造,94年12月8日,十八層,
RPPOMLMLQHLFFBB08DC,22,156.90,住商用,鋼筋混凝土造,83年4月1日,七層,
RPPOMLMLQHLFFBB08DC,22,47.66,共有部份,鋼筋混凝土造,83年4月1日,七層,
RPPOMLMLQHLFFBB08DC,22,169.41,住商用,鋼筋混凝土造,83年4月1日,七層,
RPPOMLMLQHLFFBB08DC,22,51.46,共有部份,鋼筋混凝土造,83年4月1日,七層,
RPUNMLMLQHLFFHL37CC,43,111.36,住家用,加強磚造,62年10月15日,二層,
RPUNMLMLQHLFFAB28CC,21,102.66,見其他登記事項,見其他登記事項,84年5月3日,一層,
RPUNMLMLQHLFFAB28CC,21,259.58,見其他登記事項,見其他登記事項,84年5月3日,一層,
RPVNMLMLQHLFFAB38CC,21,102.66,見其他登記事項,見其他登記事項,84年5月3日,一層,
RPVNMLMLQHLFFAB38CC,21,259.58,見其他登記事項,見其他登記事項,84年5月3日,一層,
RPWNMLNLQHLFFAB58CC,20,19.17,見其他登記事項,鋼筋混凝土造,85年5月6日,十八層,
RPWNMLNLQHLFFAB58CC,20,3.30,見其他登記事項,鋼筋混凝土造,85年5月6日,十八層,
RPWNMLNLQHLFFAB58CC,20,3.72,見其他登記事項,鋼筋混凝土造,85年5月6日,十八層,
RPWNMLNLQHLFFAB58CC,20,.89,見其他登記事項,鋼筋混凝土造,85年5月6日,十八層,
RPWNMLNLQHLFFAB58CC,20,1.46,見其他登記事項,鋼筋混凝土造,85年5月6日,十八層,
RPXNMLNLQHLFFAB68CC,20,71.30,見其他登記事項,鋼筋混凝土造,85年5月6日,十八層,
RPXNMLNLQHLFFAB68CC,20,14.92,見其他登記事項,鋼筋混凝土造,85年5月6日,十八層,
RPXNMLNLQHLFFAB68CC,20,4.42,見其他登記事項,鋼筋混凝土造,85年5月6日,十八層,
RPXNMLNLQHLFFAB68CC,20,4.01,見其他登記事項,鋼筋混凝土造,85年5月6日,十八層,
RPXNMLNLQHLFFAB68CC,20,5.93,見其他登記事項,鋼筋混凝土造,85年5月6日,十八層,
RPPOMLNLQHLFFAB97CC,20,19.27,見其他登記事項,鋼筋混凝土造,85年5月6日,十八層,
RPPOMLNLQHLFFAB97CC,20,3.30,見其他登記事項,鋼筋混凝土造,85年5月6日,十八層,
RPPOMLNLQHLFFAB97CC,20,3.72,見其他登記事項,鋼筋混凝土造,85年5月6日,十八層,
RPPOMLNLQHLFFAB97CC,20,.89,見其他登記事項,鋼筋混凝土造,85年5月6日,十八層,
RPPOMLNLQHLFFAB97CC,20,1.31,見其他登記事項,鋼筋混凝土造,85年5月6日,十八層,
RPSOMLNLQHLFFAB28CC,20,19.87,見其他登記事項,鋼筋混凝土造,85年5月6日,十八層,
RPSOMLNLQHLFFAB28CC,20,4.20,見其他登記事項,鋼筋混凝土造,85年5月6日,十八層,
RPSOMLNLQHLFFAB28CC,20,4.74,見其他登記事項,鋼筋混凝土造,85年5月6日,十八層,
RPSOMLNLQHLFFAB28CC,20,1.13,見其他登記事項,鋼筋混凝土造,85年5月6日,十八層,
RPSOMLNLQHLFFAB28CC,20,1.52,見其他登記事項,鋼筋混凝土造,85年5月6日,十八層,
RPXOMLNLQHLFFAB78CC,18,116.14,住家用,鋼筋混凝土造,87年10月30日,二十四層,
RPXOMLNLQHLFFAB78CC,18,19.55,共有部份,鋼筋混凝土造,87年10月30日,二十四層,
RPXOMLNLQHLFFAB78CC,18,26.45,共有部份,鋼筋混凝土造,87年10月30日,二十四層,
RPPNMLNLQHLFFGL86CC,27,271.64,見其他登記事項,加強磚造,78年9月30日,二層,
RPOOMLNLQHLFFGL86CC,3,61.23,見其他登記事項,鋼筋混凝土造,102年5月27日,十二層,
RPOOMLNLQHLFFGL86CC,3,55.85,見其他登記事項,鋼筋混凝土造,102年5月27日,十二層,
RPQNMLNLQHLFFBB18DC,39,22.66,住家用,鋼筋混凝土造,66年12月14日,五層,
RPSOMLNLQHLFFBB48DC,1,81.98,見其他登記事項,鋼筋混凝土造,104年6月15日,十四層,
RPSOMLNLQHLFFBB48DC,1,19.80,見其他登記事項,鋼筋混凝土造,104年6月15日,十四層,
RPSOMLNLQHLFFBB48DC,1,16.45,見其他登記事項,鋼筋混凝土造,104年6月15日,十四層,
RPWNMLNLQHLFFBB68CC,39,60.98,住家用,鋼筋混凝土造,66年5月17日,四層,
RPUOMLNLQHLFFBB58CC,3,63.45,住家用,鋼筋混凝土造,102年7月25日,二十二層,
RPUOMLNLQHLFFBB58CC,3,17.07,見其他登記事項,鋼筋混凝土造,102年7月25日,二十二層,
RPUOMLNLQHLFFBB58CC,3,13.62,見其他登記事項,鋼筋混凝土造,102年7月25日,二十二層,
RPVOMLNLQHLFFBB68CC,3,42.77,住家用,鋼筋混凝土造,102年7月25日,二十二層,
RPVOMLNLQHLFFBB68CC,3,11.45,見其他登記事項,鋼筋混凝土造,102年7月25日,二十二層,
RPVOMLNLQHLFFBB68CC,3,36.44,見其他登記事項,鋼筋混凝土造,102年7月25日,二十二層,
RPQOMLNLQHLFFCB28CC,10,56.16,住家用,鋼筋混凝土造,95年11月13日,二十八層,
RPQOMLNLQHLFFCB28CC,10,22.93,見其他登記事項,鋼筋混凝土造,95年11月13日,二十八層,
RPSOMLNLQHLFFCB48CC,4,55.41,住家用,鋼筋混凝土造,101年11月21日,十四層,
RPSOMLNLQHLFFCB48CC,4,38.84,見其他登記事項,鋼筋混凝土造,101年11月21日,十四層,
RPSOMLNLQHLFFCB48CC,4,16.73,見其他登記事項,鋼筋混凝土造,101年11月21日,十四層,
RPUOMLNLQHLFFCB68CC,8,69.62,住家用,鋼筋混凝土造,98年1月21日,十層,
RPUOMLNLQHLFFCB68CC,8,47.00,見其他登記事項,鋼筋混凝土造,98年1月21日,十層,
RPWOMLNLQHLFFCB88CC,11,67.20,住家用,鋼筋混凝土造,94年11月10日,二十三層,
RPWOMLNLQHLFFCB88CC,11,30.38,見其他登記事項,鋼筋混凝土造,94年11月10日,二十三層,
RPSPMLNLQHLFFCB58CC,17,214.06,見其他登記事項,鋼筋混凝土造,88年2月25日,四層,
RPSPMLNLQHLFFCB58CC,17,28.39,共有部分,鋼筋混凝土造,88年2月25日,四層,
RPSPMLNLQHLFFCB58CC,17,27.56,共有部分,鋼筋混凝土造,88年2月25日,四層,
RPTNMLOLQHLFFCB58CC,7,58.57,住家用,鋼筋混凝土造,98年8月13日,二十六層,
RPTNMLOLQHLFFCB58CC,7,42.64,見其他登記事項,鋼筋混凝土造,98年8月13日,二十六層,
RPTNMLOLQHLFFCB58CC,7,23.15,見其他登記事項,鋼筋混凝土造,98年8月13日,二十六層,
RPXPMLOLQHLFFBB56DC,,41.10,住家用,磚造,,一層,
RPSNMLOLQHLFFAB28CC,10,17.39,見其他登記事項,鋼筋混凝土造,95年12月22日,十五層,
RPSNMLOLQHLFFAB28CC,10,12.36,見其他登記事項,鋼筋混凝土造,95年12月22日,十五層,
RPSNMLOLQHLFFAB28CC,10,82.44,見其他登記事項,鋼筋混凝土造,95年12月22日,十五層,
RPTNMLPLQHLFFAB48CC,30,123.50,住商用,加強磚造,75年3月5日,二層,
RPUNMLPLQHLFFAB58CC,47,106.68,住家用,見其他登記事項,58年10月11日,二層,
RPSOMLPLQHLFFAB48CC,16,48.65,見其他登記事項,鋼筋混凝土造,90年1月5日,五層,
RPTOMLPLQHLFFHL67CC,43,110.88,見其他登記事項,加強磚造,62年12月21日,二層,
RPTNMLPLQHLFFIL67CC,22,267.16,住商用,鋼筋混凝土造,83年7月2日,五層,
RPQNMLPLQHLFFAB28DC,10,245.76,見其他登記事項,見其他登記事項,95年8月23日,二層,
RPVOMLPLQHLFFCB98CC,7,39.66,住家用,鋼筋混凝土造,98年8月13日,二十六層,
RPVOMLPLQHLFFCB98CC,7,22.27,見其他登記事項,鋼筋混凝土造,98年8月13日,二十六層,
RPVOMLPLQHLFFCB98CC,7,15.60,見其他登記事項,鋼筋混凝土造,98年8月13日,二十六層,
RPXOMLPLQHLFFCB56CC,7,39.61,住家用,鋼筋混凝土造,98年8月13日,二十六層,
RPXOMLPLQHLFFCB56CC,7,3.28,見其他登記事項,鋼筋混凝土造,98年8月13日,二十六層,
RPXOMLPLQHLFFCB56CC,7,15.71,見其他登記事項,鋼筋混凝土造,98年8月13日,二十六層,
RPOPMLPLQHLFFCB38CC,7,39.66,住家用,鋼筋混凝土造,98年8月13日,二十六層,
RPOPMLPLQHLFFCB38CC,7,3.28,見其他登記事項,鋼筋混凝土造,98年8月13日,二十六層,
RPOPMLPLQHLFFCB38CC,7,15.60,見其他登記事項,鋼筋混凝土造,98年8月13日,二十六層,
RPROMLPLQHLFFBB48CC,20,18.98,住家用,鋼筋混凝土造,85年7月15日,十四層,
RPROMLPLQHLFFBB48CC,20,5.61,共有部份,鋼筋混凝土造,85年7月15日,十四層,
RPROMLPLQHLFFBB48CC,20,6.59,共有部份,鋼筋混凝土造,85年7月15日,十四層,
RPWOMLPLQHLFFBB98CC,3,42.49,住家用,鋼筋混凝土造,102年7月25日,二十二層,
RPWOMLPLQHLFFBB98CC,3,11.38,見其他登記事項,鋼筋混凝土造,102年7月25日,二十二層,
RPWOMLPLQHLFFBB98CC,3,36.30,見其他登記事項,鋼筋混凝土造,102年7月25日,二十二層,
RPXOMLPLQHLFFBB09CC,11,63.68,住家用,鋼筋混凝土造,94年12月8日,十八層,
RPXOMLPLQHLFFBB09CC,11,53.40,共有部分,鋼筋混凝土造,94年12月8日,十八層,
RPWNMLQLQHLFFBB98CC,23,99.47,住商用,鋼筋混凝土造,82年12月1日,七層,
RPWNMLQLQHLFFBB98CC,23,25.55,共有部分,鋼筋混凝土造,82年12月1日,七層,
RPXNMLQLQHLFFBB09CC,23,92.96,住商用,鋼筋混凝土造,82年12月1日,七層,
RPXNMLQLQHLFFBB09CC,23,25.55,共有部分,鋼筋混凝土造,82年12月1日,七層,
RPOOMLQLQHLFFBB28CC,16,61.12,住家用,鋼筋混凝土造,89年2月18日,十四層,
RPOOMLQLQHLFFBB28CC,16,21.64,共有部分,鋼筋混凝土造,89年2月18日,十四層,
RPUNMLQLQHLFFCB88CC,21,113.47,見其他登記事項,見其他登記事項,84年12月6日,一層,
RPOQMLQLQHLFFCB58CC,1,170.12,見其他登記事項,鋼筋混凝土造,104年10月8日,二十五層,
RPPQMLQLQHLFFCB68CC,22,78.88,住家用,鋼筋混凝土造,83年10月26日,十四層,
RPPQMLQLQHLFFCB68CC,22,24.36,共有部分,鋼筋混凝土造,83年10月26日,十四層,
RPUNMLQLQHLFFBB88DC,17,93.04,住家用,鋼筋混凝土造,88年6月23日,十三層,
RPUNMLQLQHLFFBB88DC,17,7.76,住家用,鋼筋混凝土造,88年6月23日,十三層,
RPUNMLQLQHLFFBB88DC,17,32.91,共有部分,鋼筋混凝土造,88年6月23日,十三層,
RPUNMLQLQHLFFBB88DC,17,25.86,共有部分,鋼筋混凝土造,88年6月23日,十三層,
RPVNMLQLQHLFFCB09DC,10,22.74,住家用,鋼筋混凝土造,95年11月24日,十四層,
RPVNMLQLQHLFFCB09DC,10,3.99,住家用,鋼筋混凝土造,95年11月24日,十四層,
RPVNMLQLQHLFFCB09DC,10,12.17,見其他登記事項,鋼筋混凝土造,95年11月24日,十四層,
RPVOMLTLQHLFFCB86DC,29,196.26,住商用,鋼筋混凝土造,76年3月10日,三層,
RPUOMLTLQHLFFBB66DC,22,106.95,住家用,鋼筋混凝土造,83年3月30日,九層,
RPUOMLTLQHLFFBB66DC,22,23.13,共有部分,鋼筋混凝土造,83年3月30日,九層,
RPUOMLTLQHLFFBB66DC,22,14.92,見其他登記事項,鋼筋混凝土造,83年3月30日,九層,
RPUOMLTLQHLFFBB66DC,22,.17,商業用,鋼筋混凝土造,83年3月30日,九層,
RPPNMLTLQHLFFAL96DC,22,45.99,商業用,鋼筋混凝土造,83年7月25日,十二層,
RPPNMLTLQHLFFAL96DC,22,22.52,共同使用部份,鋼筋混凝土造,83年7月25日,十二層,
RPVNMLTLQHLFFCL67CC,1,280.53,見其他登記事項,鋼筋混凝土造,104年5月25日,五層,
RPSOMLTLQHLFFAB88CC,26,347.99,商業用,鋼筋混凝土造,79年9月24日,十二層,
RPOPMLTLQHLFFCB78CC,16,147.36,見其他登記事項,鋼筋混凝土造,89年8月4日,四層,
RPWPMLTLQHLFFCB96CC,13,163.36,見其他登記事項,見其他登記事項,93年2月19日,四層,
RPWNMLKMQHLFFCB58CC,22,148.80,住家用,鋼筋混凝土造,83年11月28日,十三層,
RPTPMLKMQHLFFCB48CC,3,81.71,住家用,鋼筋混凝土造,102年10月17日,十四層,
RPTPMLKMQHLFFCB48CC,3,60.75,見其他登記事項,鋼筋混凝土造,102年10月17日,十四層,
RPVPMLKMQHLFFCB68CC,20,60.78,住家用,鋼筋混凝土造,85年12月14日,十四層,
RPVPMLKMQHLFFCB68CC,20,19.15,共有部分,鋼筋混凝土造,85年12月14日,十四層,
RPVPMLKMQHLFFCB68CC,20,.05,見其他登記事項,鋼筋混凝土造,85年12月14日,十四層,
RPVPMLKMQHLFFCB68CC,20,14.25,共有部分,鋼筋混凝土造,85年12月14日,十四層,
RPPPMLKMQHLFFAB87CC,1,88.12,見其他登記事項,鋼筋混凝土造,104年4月13日,十五層,
RPPPMLKMQHLFFAB87CC,1,56.62,見其他登記事項,鋼筋混凝土造,104年4月13日,十五層,
RPQNMLKMQHLFFCL98CC,34,234.00,住商用,鋼筋混凝土造,71年6月20日,三層,
RPUNMLKMQHLFFGL17CC,1,93.56,見其他登記事項,鋼筋混凝土造,105年1月8日,十五層,
RPUNMLKMQHLFFGL17CC,1,43.02,見其他登記事項,鋼筋混凝土造,105年1月8日,十五層,
RPUNMLKMQHLFFGL17CC,1,26.52,見其他登記事項,鋼筋混凝土造,105年1月8日,十五層,
RPXOMLKMQHLFFAB68DC,22,105.97,商業用,鋼筋混凝土造,83年4月20日,十三層,
RPXOMLKMQHLFFAB68DC,22,48.75,見其他登記事項,鋼筋混凝土造,83年4月20日,十三層,
RPVNMLLMQHLFFAL86DC,18,166.62,見其他登記事項,鋼筋混凝土造,87年4月30日,三層,
RPTOMLLMQHLFFBB48DC,1,76.43,見其他登記事項,鋼筋混凝土造,104年4月23日,二十二層,
RPTOMLLMQHLFFBB48DC,1,11.80,見其他登記事項,鋼筋混凝土造,104年4月23日,二十二層,
RPTOMLLMQHLFFBB48DC,1,1.88,見其他登記事項,鋼筋混凝土造,104年4月23日,二十二層,
RPTOMLLMQHLFFBB48DC,1,20.78,見其他登記事項,鋼筋混凝土造,104年4月23日,二十二層,
RPTOMLLMQHLFFBB48DC,1,21.35,見其他登記事項,鋼筋混凝土造,104年4月23日,二十二層,
RPRNMLLMQHLFFGL96CC,30,106.82,見其他登記事項,加強磚造,75年9月9日,二層,
RPTNMLLMQHLFFAB18CC,20,19.52,見其他登記事項,鋼筋混凝土造,85年5月6日,十八層,
RPTNMLLMQHLFFAB18CC,20,3.36,見其他登記事項,鋼筋混凝土造,85年5月6日,十八層,
RPTNMLLMQHLFFAB18CC,20,3.78,見其他登記事項,鋼筋混凝土造,85年5月6日,十八層,
RPTNMLLMQHLFFAB18CC,20,.91,見其他登記事項,鋼筋混凝土造,85年5月6日,十八層,
RPTNMLLMQHLFFAB18CC,20,1.34,見其他登記事項,鋼筋混凝土造,85年5月6日,十八層,
RPVNMLLMQHLFFAB38CC,20,19.67,見其他登記事項,鋼筋混凝土造,85年5月6日,十八層,
RPVNMLLMQHLFFAB38CC,20,3.36,見其他登記事項,鋼筋混凝土造,85年5月6日,十八層,
RPVNMLLMQHLFFAB38CC,20,3.81,見其他登記事項,鋼筋混凝土造,85年5月6日,十八層,
RPVNMLLMQHLFFAB38CC,20,.91,見其他登記事項,鋼筋混凝土造,85年5月6日,十八層,
RPVNMLLMQHLFFAB38CC,20,1.34,見其他登記事項,鋼筋混凝土造,85年5月6日,十八層,
RPOOMLLMQHLFFAB77CC,20,19.52,見其他登記事項,鋼筋混凝土造,85年5月6日,十八層,
RPOOMLLMQHLFFAB77CC,20,3.36,見其他登記事項,鋼筋混凝土造,85年5月6日,十八層,
RPOOMLLMQHLFFAB77CC,20,3.78,見其他登記事項,鋼筋混凝土造,85年5月6日,十八層,
RPOOMLLMQHLFFAB77CC,20,.91,見其他登記事項,鋼筋混凝土造,85年5月6日,十八層,
RPOOMLLMQHLFFAB77CC,20,1.34,見其他登記事項,鋼筋混凝土造,85年5月6日,十八層,
RPRPMLLMQHLFFAB18CC,20,24.38,住家用,見其他登記事項,86年1月31日,二十八層,
RPRPMLLMQHLFFAB18CC,20,1.17,見其他登記事項,見其他登記事項,86年1月31日,二十八層,
RPRPMLLMQHLFFAB18CC,20,7.45,見其他登記事項,見其他登記事項,86年1月31日,二十八層,
RPRPMLLMQHLFFAB18CC,20,4.55,共有部份,見其他登記事項,86年1月31日,二十八層,
RPSPMLLMQHLFFAB28CC,20,25.30,住家用,見其他登記事項,86年1月31日,二十八層,
RPSPMLLMQHLFFAB28CC,20,.92,見其他登記事項,見其他登記事項,86年1月31日,二十八層,
RPSPMLLMQHLFFAB28CC,20,7.69,見其他登記事項,見其他登記事項,86年1月31日,二十八層,
RPSPMLLMQHLFFAB28CC,20,3.48,共有部份,見其他登記事項,86年1月31日,二十八層,
RPOOMLLMQHLFFCB97CC,6,184.72,見其他登記事項,鋼骨鋼筋混凝土造,99年10月13日,三十二層,
RPOOMLLMQHLFFCB97CC,6,83.96,見其他登記事項,鋼骨鋼筋混凝土造,99年10月13日,三十二層,
RPTOMLLMQHLFFCB48CC,2,57.33,住家用,鋼筋混凝土造,103年7月4日,十二層,
RPTOMLLMQHLFFCB48CC,2,47.61,見其他登記事項,鋼筋混凝土造,103年7月4日,十二層,
RPTOMLLMQHLFFCB48CC,23,15.27,見其他登記事項,見其他登記事項,82年5月7日,二十二層,
RPUOMLLMQHLFFBB48CC,8,18.50,住家用,鋼筋混凝土造,97年11月28日,十七層,
RPUOMLLMQHLFFBB48CC,8,3.86,共有部份,鋼筋混凝土造,97年11月28日,十七層,
RPUOMLLMQHLFFBB48CC,8,7.76,共有部份,鋼筋混凝土造,97年11月28日,十七層,
RPXOMLLMQHLFFBB78CC,1,63.04,見其它登記事項,鋼筋混凝土造,105年2月4日,十一層,
RPXOMLLMQHLFFBB78CC,1,52.98,見其它登記事項,鋼筋混凝土造,105年2月4日,十二層,
RPXOMLLMQHLFFBB78CC,1,11.63,見其它登記事項,鋼筋混凝土造,105年2月4日,十二層,
RPOPMLLJRHLFFCB87CC,4,161.62,住家用,鋼筋混凝土造,102年1月25日,二十六層,
RPSPMLLJRHLFFCB38DC,23,142.73,住家用,鋼筋混凝土造,83年1月11日,十二層,
RPRNMLMJRHLFFBB08DC,28,48.72,住商用,鋼筋混凝土造,77年7月4日,三層,
RPRPMLMJRHLFFAB08CC,10,112.94,見其他登記事項,鋼筋混凝土造,95年12月22日,十五層,
RPRPMLMJRHLFFAB08CC,10,23.81,見其他登記事項,鋼筋混凝土造,95年12月22日,十五層,
RPRPMLMJRHLFFAB08CC,10,16.92,見其他登記事項,鋼筋混凝土造,95年12月22日,十五層,
RPTPMLMJRHLFFAB28CC,18,147.66,住家用,鋼筋混凝土造,87年10月30日,二十四層,
RPTPMLMJRHLFFAB28CC,18,24.89,住家用,鋼筋混凝土造,87年10月30日,二十四層,
RPTPMLMJRHLFFAB28CC,18,56.12,共有部份,鋼筋混凝土造,87年10月30日,二十四層,
RPTPMLMJRHLFFCB48CC,1,105.93,見其他登記事項,鋼筋混凝土造,104年4月27日,二十九層,
RPTPMLMJRHLFFCB48CC,1,12.82,見其他登記事項,鋼筋混凝土造,104年4月27日,二十九層,
RPTPMLMJRHLFFCB48CC,1,13.48,見其他登記事項,鋼筋混凝土造,104年4月27日,二十九層,
RPWQMLMJRHLFFCB88CC,4,108.60,見其他登記事項,鋼骨鋼筋混凝土造,101年12月19日,二十九層,
RPWQMLMJRHLFFCB88CC,4,71.60,見其他登記事項,鋼骨鋼筋混凝土造,101年12月19日,二十九層,
RPQNMLOJRHLFFAB97CC,20,20.04,見其他登記事項,鋼筋混凝土造,85年5月6日,十八層,
RPQNMLOJRHLFFAB97CC,20,3.72,見其他登記事項,鋼筋混凝土造,85年5月6日,十八層,
RPQNMLOJRHLFFAB97CC,20,4.19,見其他登記事項,鋼筋混凝土造,85年5月6日,十八層,
RPQNMLOJRHLFFAB97CC,20,1.00,見其他登記事項,鋼筋混凝土造,85年5月6日,十八層,
RPQNMLOJRHLFFAB97CC,20,1.52,見其他登記事項,鋼筋混凝土造,85年5月6日,十八層,
RPRNMLOJRHLFFAB08CC,20,19.17,見其他登記事項,鋼筋混凝土造,85年5月6日,十八層,
RPRNMLOJRHLFFAB08CC,20,3.30,見其他登記事項,鋼筋混凝土造,85年5月6日,十八層,
RPRNMLOJRHLFFAB08CC,20,3.72,見其他登記事項,鋼筋混凝土造,85年5月6日,十八層,
RPRNMLOJRHLFFAB08CC,20,.89,見其他登記事項,鋼筋混凝土造,85年5月6日,十八層,
RPRNMLOJRHLFFAB08CC,20,1.57,見其他登記事項,鋼筋混凝土造,85年5月6日,十八層,
RPSNMLOJRHLFFAB18CC,20,19.29,見其他登記事項,鋼筋混凝土造,85年5月6日,十八層,
RPSNMLOJRHLFFAB18CC,20,3.55,見其他登記事項,鋼筋混凝土造,85年5月6日,十八層,
RPSNMLOJRHLFFAB18CC,20,3.99,見其他登記事項,鋼筋混凝土造,85年5月6日,十八層,
RPSNMLOJRHLFFAB18CC,20,.95,見其他登記事項,鋼筋混凝土造,85年5月6日,十八層,
RPSNMLOJRHLFFAB18CC,20,1.42,見其他登記事項,鋼筋混凝土造,85年5月6日,十八層,
RPUNMLOJRHLFFAB38CC,20,19.27,見其他登記事項,鋼筋混凝土造,85年5月6日,十八層,
RPUNMLOJRHLFFAB38CC,20,3.30,見其他登記事項,鋼筋混凝土造,85年5月6日,十八層,
RPUNMLOJRHLFFAB38CC,20,3.72,見其他登記事項,鋼筋混凝土造,85年5月6日,十八層,
RPUNMLOJRHLFFAB38CC,20,.89,見其他登記事項,鋼筋混凝土造,85年5月6日,十八層,
RPUNMLOJRHLFFAB38CC,20,1.46,見其他登記事項,鋼筋混凝土造,85年5月6日,十八層,
RPVNMLOJRHLFFAB48CC,20,19.87,見其他登記事項,鋼筋混凝土造,85年5月6日,十八層,
RPVNMLOJRHLFFAB48CC,20,4.20,見其他登記事項,鋼筋混凝土造,85年5月6日,十八層,
RPVNMLOJRHLFFAB48CC,20,4.74,見其他登記事項,鋼筋混凝土造,85年5月6日,十八層,
RPVNMLOJRHLFFAB48CC,20,1.13,見其他登記事項,鋼筋混凝土造,85年5月6日,十八層,
RPVNMLOJRHLFFAB48CC,20,1.51,見其他登記事項,鋼筋混凝土造,85年5月6日,十八層,
RPQNMLPJRHLFFAL09CC,22,454.61,見其他登記事項,鋼筋混凝土造,83年6月1日,四層,
RPUNMLPJRHLFFAL86CC,54,58.24,住家用,,52年2月9日,二層,
RPRNMLPJRHLFFFL07CC,22,191.54,見其他登記事項,鋼筋混凝土造,83年7月23日,四層,
RPSNMLPJRHLFFFL17CC,2,237.40,見其他登記事項,鋼筋混凝土造,103年10月31日,四層,
RPQNMLPJRHLFFHL27DC,23,137.62,住家用,鋼筋混凝土造,82年4月24日,三層,
RPQNMLPJRHLFFHL27DC,23,38.35,停車空間,鋼筋混凝土造,82年4月24日,十層,
RPSNMLPJRHLFFHL47DC,20,77.18,住家用,鋼筋混凝土造,85年11月29日,五層,
RPTNMLPJRHLFFHL57DC,1,21.00,見其他登記事項,鋼筋混凝土造,104年8月13日,三層,
RPUNMLQJRHLFFFL47CC,2,219.89,見其他登記事項,鋼筋混凝土造,103年3月6日,三層,
RPOOMLQJRHLFFFL96CC,35,70.04,住家用,鋼筋混凝土造,70年11月16日,五層,
RPPOMLQJRHLFFAB18CC,21,20.28,見其他登記事項,鋼骨鋼筋混凝土造,85年1月19日,二十二層,
RPPOMLQJRHLFFAB18CC,21,2.28,見其他登記事項,鋼骨鋼筋混凝土造,85年1月19日,二十二層,
RPPOMLQJRHLFFAB18CC,21,2.52,見其他登記事項,鋼骨鋼筋混凝土造,85年1月19日,二十二層,
RPPOMLQJRHLFFAB18CC,21,6.70,見其他登記事項,鋼骨鋼筋混凝土造,85年1月19日,二十二層,
RPPOMLQJRHLFFAB18CC,21,8.30,見其他登記事項,鋼筋混凝土造,85年1月19日,二十二層,
RPVOMLQJRHLFFAB78CC,10,26.49,見其他登記事項,鋼筋混凝土造,95年10月26日,三十二層,
RPVOMLQJRHLFFAB78CC,10,4.48,見其他登記事項,鋼筋混凝土造,95年6月22日,三十二層,
RPVOMLQJRHLFFAB78CC,10,11.10,見其他登記事項,鋼筋混凝土造,95年10月26日,三十二層,
RPRNMLQJRHLFFCB48CC,26,263.79,住商用,鋼筋混凝土造,79年11月14日,五層,
RPQOMLQJRHLFFCB48CC,33,52.20,住家用,加強磚造,72年9月6日,二層,
RPVPMLQJRHLFFCB09CC,20,51.92,見其他登記事項,鋼筋混凝土造,85年7月10日,十五層,
RPVPMLQJRHLFFCB09CC,20,38.32,共有部分,鋼筋混凝土造,85年7月10日,十五層,
RPXPMLQJRHLFFCB66CC,20,60.36,見其他登記事項,鋼筋混凝土造,85年7月10日,十五層,
RPXPMLQJRHLFFCB66CC,20,38.32,共有部分,鋼筋混凝土造,85年7月10日,十五層,
RPSQMLQJRHLFFCB88CC,7,41.66,住家用,鋼筋混凝土造,98年8月13日,二十六層,
RPSQMLQJRHLFFCB88CC,7,3.45,見其他登記事項,鋼筋混凝土造,98年8月13日,二十六層,
RPSQMLQJRHLFFCB88CC,7,16.44,見其他登記事項,鋼筋混凝土造,98年8月13日,二十六層,
RPTQMLQJRHLFFCB98CC,7,39.66,住家用,鋼筋混凝土造,98年8月13日,二十六層,
RPTQMLQJRHLFFCB98CC,7,22.27,見其他登記事項,鋼筋混凝土造,98年8月13日,二十六層,
RPTQMLQJRHLFFCB98CC,7,15.60,見其他登記事項,鋼筋混凝土造,98年8月13日,二十六層,
RPWOMLQJRHLFFBB98CC,8,39.06,見其他登記事項,鋼筋混凝土造,97年11月27日,五層,
RPOPMLQJRHLFFBB28CC,8,39.06,見其他登記事項,鋼筋混凝土造,97年11月27日,五層,
RPRPMLQJRHLFFBB58CC,8,40.51,見其他登記事項,鋼筋混凝土造,98年2月16日,四層,
RPRPMLQJRHLFFBB58CC,8,40.51,見其他登記事項,鋼筋混凝土造,98年2月16日,四層,
RPQQMLQJRHLFFBB58CC,11,49.46,住家用,鋼筋混凝土造,94年12月8日,十八層,
RPQQMLQJRHLFFBB58CC,11,51.67,共有部分,鋼筋混凝土造,94年12月8日,十八層,
RPSQMLQJRHLFFBB78CC,1,63.04,見其他登記事項,鋼筋混凝土造,105年2月4日,十一層,
RPSQMLQJRHLFFBB78CC,1,19.16,見其他登記事項,鋼筋混凝土造,105年2月4日,十二層,
RPSQMLQJRHLFFBB78CC,1,11.63,見其他登記事項,鋼筋混凝土造,105年2月4日,十二層,
RPWQMLQJRHLFFBB56CC,38,36.40,住家用,鋼筋混凝土造,68年1月9日,八層,
RPORMLQJRHLFFBB48CC,11,59.98,住家用,鋼筋混凝土造,94年12月8日,十八層,
RPORMLQJRHLFFBB48CC,11,55.93,共有部分,鋼筋混凝土造,94年12月8日,十八層,
RPRRMLQJRHLFFBB78CC,3,42.49,住家用,鋼筋混凝土造,102年7月25日,二十二層,
RPRRMLQJRHLFFBB78CC,3,11.38,見其他登記事項,鋼筋混凝土造,102年7月25日,二十二層,
RPRRMLQJRHLFFBB78CC,3,22.69,見其他登記事項,鋼筋混凝土造,102年7月25日,二十二層,
RPTRMLQJRHLFFBB98CC,3,66.04,住家用,鋼筋混凝土造,102年7月25日,二十二層,
RPTRMLQJRHLFFBB98CC,3,17.72,見其他登記事項,鋼筋混凝土造,102年7月25日,二十二層,
RPTRMLQJRHLFFBB98CC,3,14.15,見其他登記事項,鋼筋混凝土造,102年7月25日,二十二層,
RPXRMLQJRHLFFBB76CC,3,42.95,住家用,鋼筋混凝土造,102年7月25日,二十二層,
RPXRMLQJRHLFFBB76CC,3,11.52,見其他登記事項,鋼筋混凝土造,102年7月25日,二十二層,
RPXRMLQJRHLFFBB76CC,3,22.82,見其他登記事項,鋼筋混凝土造,102年7月25日,二十二層,
RPPSMLQJRHLFFBB68CC,3,42.95,住家用,鋼筋混凝土造,102年7月25日,二十二層,
RPPSMLQJRHLFFBB68CC,3,11.52,見其他登記事項,鋼筋混凝土造,102年7月25日,二十二層,
RPPSMLQJRHLFFBB68CC,3,36.44,見其他登記事項,鋼筋混凝土造,102年7月25日,二十二層,
RPQSMLQJRHLFFBB78CC,3,42.49,住家用,鋼筋混凝土造,102年7月25日,二十二層,
RPQSMLQJRHLFFBB78CC,3,11.38,見其他登記事項,鋼筋混凝土造,102年7月25日,二十二層,
RPQSMLQJRHLFFBB78CC,3,36.30,見其他登記事項,鋼筋混凝土造,102年7月25日,二十二層,
RPQNMLRJRHLFFBB38CC,1,166.90,見其他登記事項,鋼筋混凝土造,104年10月22日,十九層,
RPQNMLRJRHLFFBB38CC,1,38.70,見其他登記事項,鋼筋混凝土造,104年10月22日,十九層,
RPQNMLRJRHLFFBB38CC,1,16.92,見其他登記事項,鋼筋混凝土造,104年10月22日,十九層,
RPXPMLRJRHLFFBB66CC,37,135.08,住商用,加強磚造,68年8月10日,二層,
RPRNMLRJRHLFFCB58CC,17,276.55,見其他登記事項,鋼筋混凝土造,88年11月18日,四層,
RPSNMLRJRHLFFCB68CC,7,36.14,住家用,鋼筋混凝土造,98年8月13日,二十六層,
RPTNMLRJRHLFFCB78CC,21,89.92,住家用,鋼筋混凝土造,84年10月24日,二十五層,
RPXNMLRJRHLFFCB56CC,7,38.36,住家用,鋼筋混凝土造,98年8月13日,二十六層,
RPTPMLRJRHLFFCB98CC,1,96.58,住家用,鋼筋混凝土造,103年11月19日,二十一層,
RPUPMLRJRHLFFCB09CC,8,100.95,住家用,鋼筋混凝土造,98年1月21日,十層,
RPQQMLRJRHLFFCB78CC,1,105.19,見其他登記事項,鋼筋混凝土造,104年3月20日,十一層,
RPQQMLRJRHLFFCB78CC,1,66.42,見其他登記事項,鋼筋混凝土造,104年3月20日,十一層,
RPUOMLRJRHLFFAB78CC,,189.87,商業用,見其他登記事項,,三十二層,
RPUOMLRJRHLFFAB78CC,26,67.98,見其他登記事項,見其他登記事項,79年9月26日,三十二層,
RPSNMLRJRHLFFGL47CC,6,70.32,見其他登記事項,見其他登記事項,99年12月9日,四層,
RPVNMLRJRHLFFHL97DC,23,25.79,見其他登記事項,鋼筋混凝土造,82年12月31日,十二層,
RPVNMLRJRHLFFHL97DC,23,11.03,共有部份,鋼筋混凝土造,82年12月31日,十二層,
RPWNMLRJRHLFFHL08DC,23,20.94,見其他登記事項,鋼筋混凝土造,82年12月31日,十二層,
RPWNMLRJRHLFFHL08DC,23,9.06,共有部份,鋼筋混凝土造,82年12月31日,十二層,
RPXNMLRJRHLFFHL18DC,23,18.49,見其他登記事項,鋼筋混凝土造,82年12月31日,十二層,
RPXNMLRJRHLFFHL18DC,23,8.07,共用部份,鋼筋混凝土造,82年12月31日,十二層,
RPXNMLSJRHLFFAB09CC,6,93.90,見其他登記事項,鋼筋混凝土造,99年9月21日,十層,
RPXNMLSJRHLFFAB09CC,6,74.97,見其他登記事項,鋼筋混凝土造,99年9月21日,十層,
RPPOMLSJRHLFFAB38CC,26,138.62,見其他登記事項,鋼筋混凝土造,79年11月10日,十四層,
RPPOMLSJRHLFFAB38CC,26,11.18,見其他登記事項,鋼筋混凝土造,79年11月10日,十四層,
RPPOMLSJRHLFFAB38CC,26,50.53,見其他登記事項,鋼筋混凝土造,79年11月10日,十四層,
RPQOMLSJRHLFFAB48CC,26,118.78,商業用,鋼筋混凝土造,80年1月18日,十七層,
RPQOMLSJRHLFFAB48CC,26,46.22,見其他登記事項,鋼筋混凝土造,80年1月18日,十七層,
RPPPMLSJRHLFFAB48CC,30,30.58,住家用,鋼筋混凝土造,75年9月30日,五層,
RPPPMLSJRHLFFAB48CC,30,6.27,見其他登記事項,鋼筋混凝土造,75年9月30日,五層,
RPQOMLSJRHLFFCB68CC,19,106.00,見其他登記事項,鋼筋混凝土造,87年1月8日,十四層,
RPQOMLSJRHLFFCB68CC,19,88.07,共有部分,鋼筋混凝土造,87年1月8日,十四層,
RPQOMLSJRHLFFCB68CC,19,14.93,共有部分,鋼筋混凝土造,87年1月8日,十四層,
RPROMLSJRHLFFCB78CC,1,119.81,見其他登記事項,鋼筋混凝土造,104年3月20日,十一層,
RPROMLSJRHLFFCB78CC,1,75.67,見其他登記事項,鋼筋混凝土造,104年3月20日,十一層,
RPSOMLSJRHLFFCB88CC,7,20.64,住家用,鋼筋混凝土造,98年8月13日,十八層,
RPSOMLSJRHLFFCB88CC,7,5.52,見其他登記事項,鋼筋混凝土造,98年8月13日,二十六層,
RPSOMLSJRHLFFCB88CC,7,23.77,見其他登記事項,鋼筋混凝土造,98年8月13日,二十六層,
RPXOMLSJRHLFFCB76CC,34,102.06,住家用,鋼筋混凝土造,71年7月5日,五層,
RPROMLSJRHLFFBB68CC,20,92.10,見其他登記事項,鋼筋混凝土造,86年2月3日,十三層,
RPROMLSJRHLFFBB68CC,20,55.70,共有部分,鋼筋混凝土造,86年2月3日,十三層,
RPROMLSJRHLFFBB68CC,20,42.70,共有部分,鋼筋混凝土造,86年2月3日,十三層,
RPXOMLSJRHLFFBB66CC,1,60.67,見其他登記事項,鋼筋混凝土造,104年4月23日,二十二層,
RPXOMLSJRHLFFBB66CC,1,13.99,見其他登記事項,鋼筋混凝土造,104年4月23日,二十二層,
RPXOMLSJRHLFFBB66CC,1,14.37,見其他登記事項,鋼筋混凝土造,104年4月23日,二十二層,
RPUPMLSJRHLFFBB09CC,34,66.00,住商用,鋼筋混凝土造,71年9月4日,三層,
RPXNMLTJRHLFFBB66CC,27,307.72,住商用,鋼造,79年3月7日,二層,
RPPOMLTJRHLFFBB58CC,32,848.79,住商用,鋼筋混凝土造,73年12月28日,五層,
RPSPMLTJRHLFFCB09CC,7,108.50,見其他登記事項,鋼骨鋼筋混凝土造,99年2月11日,二十九層,
RPSPMLTJRHLFFCB09CC,7,192.24,住家用,鋼骨鋼筋混凝土造,99年2月11日,二十九層,
RPXNMLTJRHLFFAB56CC,4,152.83,見其他登記事項,鋼筋混凝土造,101年11月21日,二十六層,
RPXNMLTJRHLFFAB56CC,4,89.04,見其他登記事項,鋼筋混凝土造,101年11月21日,二十六層,
RPQOMLTJRHLFFAB58CC,18,109.96,住家用,鋼筋混凝土造,87年10月30日,二十四層,
RPQOMLTJRHLFFAB58CC,18,17.44,住家用,鋼筋混凝土造,87年10月30日,二十四層,
RPQOMLTJRHLFFAB58CC,18,21.46,住家用,鋼筋混凝土造,87年10月30日,二十四層,
RPQOMLTJRHLFFAB58CC,18,74.04,住家用,鋼筋混凝土造,87年10月30日,二十四層,
RPXNMLKKRHLFFHL47CC,25,10.01,見其他登記事項,鋼筋混凝土造,80年10月20日,十二層,
RPXNMLKKRHLFFHL47CC,25,142.12,見其他登記事項,鋼筋混凝土造,80年10月20日,十二層,
RPPNMLKKRHLFFCL78CC,35,113.46,住商用,加強磚造,71年2月5日,二層,
RPWNMLKKRHLFFCB48CC,17,164.05,見其他登記事項,鋼筋混凝土造,87年11月13日,二十二層,
RPXNMLKKRHLFFCB58CC,18,72.30,見其他登記事項,鋼筋混凝土造,87年11月13日,二十二層,
RPXOMLKKRHLFFCB68CC,7,65.94,住家用,鋼筋混凝土造,98年8月13日,十八層,
RPXOMLKKRHLFFCB68CC,7,43.16,見其他登記事項,鋼筋混凝土造,98年8月13日,二十六層,
RPXOMLKKRHLFFCB68CC,7,23.35,見其他登記事項,鋼筋混凝土造,98年8月13日,二十六層,
RPWPMLKKRHLFFBB58CC,11,48.22,住家用,鋼筋混凝土造,94年12月8日,十八層,
RPWPMLKKRHLFFBB58CC,11,19.39,共有部分,鋼筋混凝土造,94年12月8日,十八層,
RPXPMLKKRHLFFBB68CC,11,48.07,住家用,鋼筋混凝土造,94年12月8日,十八層,
RPXPMLKKRHLFFBB68CC,11,19.26,共有部分,鋼筋混凝土造,94年12月8日,十八層,
RPOQMLKKRHLFFBB87CC,11,47.70,住家用,鋼筋混凝土造,94年12月8日,十八層,
RPOQMLKKRHLFFBB87CC,11,19.13,共有部分,鋼筋混凝土造,94年12月8日,十八層,
RPPQMLKKRHLFFBB97CC,3,65.73,住家用,鋼筋混凝土造,102年7月25日,二十二層,
RPPQMLKKRHLFFBB97CC,3,17.65,見其他登記事項,鋼筋混凝土造,102年7月25日,二十二層,
RPPQMLKKRHLFFBB97CC,3,41.38,見其他登記事項,鋼筋混凝土造,102年7月25日,二十二層,
RPQQMLKKRHLFFBB08CC,3,62.26,住家用,鋼筋混凝土造,102年7月25日,二十二層,
RPQQMLKKRHLFFBB08CC,3,16.71,見其他登記事項,鋼筋混凝土造,102年7月25日,二十二層,
RPQQMLKKRHLFFBB08CC,3,13.35,見其他登記事項,鋼筋混凝土造,102年7月25日,二十二層,
RPRQMLKKRHLFFBB18CC,3,181.47,見其他登記事項,鋼筋混凝土造,102年7月25日,二十二層,
RPRQMLKKRHLFFBB18CC,3,39.03,見其他登記事項,鋼筋混凝土造,102年7月25日,二十二層,
RPRQMLKKRHLFFBB18CC,3,66.74,見其他登記事項,鋼筋混凝土造,102年7月25日,二十二層,
RPSQMLKKRHLFFBB28CC,3,42.95,住家用,鋼筋混凝土造,102年7月25日,二十二層,
RPSQMLKKRHLFFBB28CC,3,11.52,見其他登記事項,鋼筋混凝土造,102年7月25日,二十二層,
RPSQMLKKRHLFFBB28CC,3,36.44,見其他登記事項,鋼筋混凝土造,102年7月25日,二十二層,
RPTQMLKKRHLFFBB38CC,3,65.73,住家用,鋼筋混凝土造,102年7月25日,二十二層,
RPTQMLKKRHLFFBB38CC,3,17.65,見其他登記事項,鋼筋混凝土造,102年7月25日,二十二層,
RPTQMLKKRHLFFBB38CC,3,27.77,見其他登記事項,鋼筋混凝土造,102年7月25日,二十二層,
RPPNMLLKRHLFFFL56CC,22,19.90,見其他登記事項,鋼筋混凝土造,83年5月18日,四層,
RPQNMLLKRHLFFFL66CC,19,26.20,見其他登記事項,鋼筋混凝土造,86年3月31日,四層,
RPQNMLMKRHLFFFL76CC,19,68.36,住家用,鋼筋混凝土造,86年8月11日,八層,
RPVNMLMKRHLFFAL76CC,48,7.98,商業用,磚造,57年3月18日,一層,
RPUNMLMKRHLFFAB28CC,26,90.92,住商用,鋼筋混凝土造,79年12月12日,五層,
RPVOMLMKRHLFFAB48CC,19,83.26,住家用,鋼筋混凝土造,86年9月18日,二十一層,
RPVOMLMKRHLFFAB48CC,19,15.23,共有部份,鋼筋混凝土造,86年9月18日,二十一層,
RPVOMLMKRHLFFAB48CC,19,18.59,見其他登記事項,鋼筋混凝土造,86年9月18日,二十一層,
RPUOMLMKRHLFFGL47DC,18,163.13,見其他登記事項,鋼筋混凝土造,87年5月6日,四層,
RPTOMLMKRHLFFBB48DC,20,142.50,住商用,鋼筋混凝土造,85年7月15日,十四層,
RPTNMLMKRHLFFBB28CC,1,84.58,見其他登記事項,鋼筋混凝土造,104年8月13日,十五層,
RPTNMLMKRHLFFBB28CC,1,39.76,見其他登記事項,鋼筋混凝土造,104年8月13日,十五層,
RPOQMLMKRHLFFBB08CC,2,102.05,住家用,鋼筋混凝土造,103年11月6日,十五層,
RPOQMLMKRHLFFBB08CC,2,29.14,見其他登記事項,鋼筋混凝土造,103年11月6日,十五層,
RPOQMLMKRHLFFBB08CC,2,46.94,見其他登記事項,鋼筋混凝土造,103年11月6日,十五層,
RPTQMLMKRHLFFBB58CC,11,115.05,見其他登記事項,鋼筋混凝土造,94年12月8日,十八層,
RPXQMLMKRHLFFBB98CC,19,106.60,住家用,鋼筋混凝土造,86年2月26日,十二層,
RPXQMLMKRHLFFBB98CC,19,31.73,共有部分,鋼筋混凝土造,86年2月26日,十二層,
RPTOMLMKRHLFFCB48CC,48,148.04,住家用,加強磚造,57年4月1日,二層,
RPVOMLMKRHLFFCB68CC,24,91.42,住家用,鋼筋混凝土造,82年1月4日,五層,
RPTPMLMKRHLFFCB58CC,5,137.39,住家用,鋼筋混凝土造,100年12月28日,二十四層,
RPTPMLMKRHLFFCB58CC,5,37.21,見其他登記事項,鋼筋混凝土造,100年12月28日,二十四層,
RPTPMLMKRHLFFCB58CC,5,54.90,見其他登記事項,鋼筋混凝土造,100年12月28日,二十四層,
RPQRMLMKRHLFFCB48CC,1,53.97,見其他登記事項,鋼筋混凝土造,104年10月21日,十二層,
RPQRMLMKRHLFFCB48CC,1,63.47,見其他登記事項,鋼筋混凝土造,104年10月21日,十二層,
RPSRMLMKRHLFFCB68CC,10,79.64,住家用,鋼筋混凝土造,95年11月13日,二十八層,
RPSRMLMKRHLFFCB68CC,10,67.33,見其他登記事項,鋼筋混凝土造,95年11月13日,二十八層,
RPVRMLMKRHLFFCB98CC,7,45.25,住家用,鋼筋混凝土造,98年8月13日,二十六層,
RPVRMLMKRHLFFCB98CC,7,3.80,見其他登記事項,鋼筋混凝土造,98年8月13日,二十六層,
RPVRMLMKRHLFFCB98CC,7,17.80,見其他登記事項,鋼筋混凝土造,98年8月13日,二十六層,
RPWRMLMKRHLFFCB09CC,3,74.49,住家用,鋼筋混凝土造,102年11月5日,十二層,
RPWRMLMKRHLFFCB09CC,3,89.70,見其他登記事項,鋼筋混凝土造,102年11月5日,十二層,
RPWRMLMKRHLFFCB09CC,3,13.90,見其他登記事項,鋼筋混凝土造,102年11月5日,十二層,
RPVPMLNKRHLFFBB78CC,25,217.90,商業用,見其他登記事項,80年6月13日,二十層,
RPVPMLNKRHLFFBB78CC,25,89.57,共有部分,見其他登記事項,80年6月13日,二十層,
RPUOMLNKRHLFFAB48CC,26,103.45,商業用,鋼筋混凝土造,79年4月12日,七層,
RPUOMLNKRHLFFAB48CC,26,43.72,見其他登記事項,鋼筋混凝土造,79年4月12日,七層,
RPSPMLNKRHLFFAB38CC,41,164.55,住商用,加強磚造,64年11月8日,三層,
RPWOMLOKRHLFFAB78CC,17,247.87,見其他登記事項,見其他登記事項,88年9月2日,十二層,
RPOPMLOKRHLFFAB08CC,6,54.19,見其他登記事項,鋼筋混凝土造,99年8月12日,十三層,
RPOPMLOKRHLFFAB08CC,6,13.91,見其他登記事項,鋼筋混凝土造,99年8月12日,十三層,
RPOPMLOKRHLFFAB08CC,6,11.46,見其他登記事項,鋼筋混凝土造,99年8月12日,十三層,
RPTNMLOKRHLFFCB58CC,8,21.40,住家用,鋼筋混凝土造,98年1月21日,十層,
RPVPMLOKRHLFFCB98CC,22,89.06,住商用,鋼筋混凝土造,83年12月6日,十六層,
RPXPMLOKRHLFFCB56CC,22,60.45,住家用,鋼筋混凝土造,83年10月7日,十二層,
RPXPMLOKRHLFFCB56CC,22,13.13,共有部分,鋼筋混凝土造,83年10月7日,十二層,
RPPQMLOKRHLFFCB48CC,7,65.94,住家用,鋼筋混凝土造,98年8月13日,十八層,
RPPQMLOKRHLFFCB48CC,7,5.35,見其他登記事項,鋼筋混凝土造,98年8月13日,二十六層,
RPPQMLOKRHLFFCB48CC,7,23.35,見其他登記事項,鋼筋混凝土造,98年8月13日,二十六層,
RPQQMLOKRHLFFCB58CC,20,101.43,見其他登記事項,鋼筋混凝土造,86年1月14日,十二層,
RPQQMLOKRHLFFCB58CC,20,55.64,共有部分,鋼筋混凝土造,86年1月14日,十二層,
RPSQMLOKRHLFFCB78CC,22,186.28,住家用,鋼筋混凝土造,83年6月27日,九層,
RPRNMLPKRHLFFCB48CC,7,59.09,住家用,鋼筋混凝土造,98年8月13日,十八層,
RPRNMLPKRHLFFCB48CC,7,42.64,住家用,鋼筋混凝土造,98年8月13日,十八層,
RPRNMLPKRHLFFCB48CC,7,20.94,住家用,鋼筋混凝土造,98年8月13日,十八層,
RPRNMLPKRHLFFBB38CC,11,47.70,住家用,鋼筋混凝土造,94年12月8日,十八層,
RPRNMLPKRHLFFBB38CC,11,19.13,共有部分,鋼筋混凝土造,94年12月8日,十八層,
RPSNMLPKRHLFFBB48CC,11,47.39,住家用,鋼筋混凝土造,94年12月8日,十八層,
RPSNMLPKRHLFFBB48CC,11,18.99,共有部分,鋼筋混凝土造,94年12月8日,十八層,
RPTNMLPKRHLFFBB58CC,11,48.56,住家用,鋼筋混凝土造,94年12月8日,十八層,
RPTNMLPKRHLFFBB58CC,11,19.52,共有部分,鋼筋混凝土造,94年12月8日,十八層,
RPUNMLPKRHLFFBB68CC,11,48.56,住家用,鋼筋混凝土造,94年12月8日,十八層,
RPUNMLPKRHLFFBB68CC,11,19.52,共有部分,鋼筋混凝土造,94年12月8日,十八層,
RPVNMLPKRHLFFBB78CC,11,64.97,住家用,鋼筋混凝土造,94年12月8日,十八層,
RPVNMLPKRHLFFBB78CC,11,57.92,共有部分,鋼筋混凝土造,94年12月8日,十八層,
RPWNMLPKRHLFFBB88CC,3,16.92,見其他登記事項,鋼筋混凝土造,102年7月25日,二十二層,
RPWNMLPKRHLFFBB88CC,3,62.93,住家用,鋼筋混凝土造,102年7月25日,二十二層,
RPWNMLPKRHLFFBB88CC,3,40.71,見其他登記事項,鋼筋混凝土造,102年7月25日,二十二層,
RPXNMLPKRHLFFBB98CC,3,42.77,住家用,鋼筋混凝土造,102年7月25日,二十二層,
RPXNMLPKRHLFFBB98CC,3,11.45,見其他登記事項,鋼筋混凝土造,102年7月25日,二十二層,
RPXNMLPKRHLFFBB98CC,3,36.44,見其他登記事項,鋼筋混凝土造,102年7月25日,二十二層,
RPOOMLPKRHLFFBB18CC,3,67.17,住家用,鋼筋混凝土造,102年7月25日,二十二層,
RPOOMLPKRHLFFBB18CC,3,18.01,見其他登記事項,鋼筋混凝土造,102年7月25日,二十二層,
RPOOMLPKRHLFFBB18CC,3,41.64,見其他登記事項,鋼筋混凝土造,102年7月25日,二十二層,
RPPOMLPKRHLFFBB28CC,3,65.73,住家用,鋼筋混凝土造,102年7月25日,二十二層,
RPPOMLPKRHLFFBB28CC,3,17.64,見其他登記事項,鋼筋混凝土造,102年7月25日,二十二層,
RPPOMLPKRHLFFBB28CC,3,41.38,見其他登記事項,鋼筋混凝土造,102年7月25日,二十二層,
RPQOMLPKRHLFFBB38CC,3,67.17,住家用,鋼筋混凝土造,102年7月25日,二十二層,
RPQOMLPKRHLFFBB38CC,3,18.01,見其他登記事項,鋼筋混凝土造,102年7月25日,二十二層,
RPQOMLPKRHLFFBB38CC,3,28.03,見其他登記事項,鋼筋混凝土造,102年7月25日,二十二層,
RPROMLPKRHLFFBB48CC,3,65.73,住家用,鋼筋混凝土造,102年7月25日,二十二層,
RPROMLPKRHLFFBB48CC,3,17.64,見其他登記事項,鋼筋混凝土造,102年7月25日,二十二層,
RPROMLPKRHLFFBB48CC,3,27.76,見其他登記事項,鋼筋混凝土造,102年7月25日,二十二層,
RPSOMLPKRHLFFBB58CC,3,67.28,住家用,鋼筋混凝土造,102年7月25日,二十二層,
RPSOMLPKRHLFFBB58CC,3,18.07,見其他登記事項,鋼筋混凝土造,102年7月25日,二十二層,
RPSOMLPKRHLFFBB58CC,3,41.64,見其他登記事項,鋼筋混凝土造,102年7月25日,二十二層,
RPTOMLPKRHLFFBB68CC,3,42.77,住家用,鋼筋混凝土造,102年7月25日,二十二層,
RPTOMLPKRHLFFBB68CC,3,11.45,見其他登記事項,鋼筋混凝土造,102年7月25日,二十二層,
RPTOMLPKRHLFFBB68CC,3,36.44,見其他登記事項,鋼筋混凝土造,102年7月25日,二十二層,
RPVNMLTKRHLFFBB56CC,27,320.11,商業用,鋼筋混凝土造,78年7月1日,十二層,
RPVNMLTKRHLFFBB56CC,27,119.48,共有部分,鋼筋混凝土造,78年7月1日,十二層,
RPROMLTKRHLFFBB88CC,19,54.10,住家用,鋼筋混凝土造,86年6月28日,十五層,
RPROMLTKRHLFFBB88CC,19,12.29,共有部分,鋼筋混凝土造,86年6月28日,十五層,
RPROMLTKRHLFFBB88CC,19,7.85,共有部分,鋼筋混凝土造,86年6月28日,十五層,
RPSOMLTKRHLFFBB98CC,22,20.61,住家用,鋼筋混凝土造,83年8月25日,九層,
RPSOMLTKRHLFFBB98CC,22,9.64,共有部分,鋼筋混凝土造,83年8月25日,九層,
RPSOMLTKRHLFFBB98CC,22,.00,共有部分,鋼筋混凝土造,83年8月25日,九層,
RPTOMLTKRHLFFBB09CC,25,130.76,住家用,鋼筋混凝土造,80年12月26日,十五層,
RPTOMLTKRHLFFBB09CC,25,12.93,共有部分,鋼筋混凝土造,80年12月26日,十五層,
RPTOMLTKRHLFFBB09CC,25,37.00,見其他登記事項,鋼筋混凝土造,80年12月26日,十五層,
RPQPMLTKRHLFFBB88CC,1,188.70,見其他登記事項,鋼筋混凝土造,104年4月16日,十四層,
RPPNMLTKRHLFFAB48CC,26,90.30,住商用,鋼筋混凝土造,79年12月12日,五層,
RPROMLTKRHLFFCB09DC,22,229.93,見其他登記事項,鋼筋混凝土造,83年8月26日,十五層,
RPTNMLTKRHLFFGL97DC,31,142.28,見其他登記事項,加強磚造,74年7月10日,二層,
RPQNMLKLRHLFFAL88DC,23,358.62,見其他登記事項,鋼筋混凝土造,82年6月18日,四層,
RPSNMLKLRHLFFFL86CC,5,219.00,見其他登記事項,鋼筋混凝土造,100年12月14日,四層,
RPWNMLKLRHLFFAB38CC,21,149.31,見其他登記事項,鋼筋混凝土造,85年1月24日,三層,
RPWNMLKLRHLFFBB48CC,1,188.70,見其他登記事項,鋼筋混凝土造,104年4月16日,十四層,
RPXNMLKLRHLFFBB58CC,1,177.79,見其他登記事項,鋼筋混凝土造,104年4月16日,十四層,
RPQOMLKLRHLFFBB97CC,1,165.66,見其他登記事項,鋼筋混凝土造,104年4月16日,十四層,
RPTQMLKLRHLFFBB48CC,1,147.33,見其他登記事項,鋼筋混凝土造,104年12月28日,十四層,
RPUQMLKLRHLFFBB58CC,1,147.30,見其他登記事項,鋼筋混凝土造,104年12月28日,十四層,
RPOOMLKLRHLFFCB87CC,1,167.82,見其他登記事項,鋼筋混凝土造,104年5月13日,十二層,
RPOOMLKLRHLFFCB87CC,1,83.52,見其他登記事項,鋼筋混凝土造,104年5月13日,十二層,
RPTOMLKLRHLFFCB38CC,28,338.93,住商用,鋼造,77年6月25日,二層,
RPXOMLKLRHLFFCB78CC,5,206.20,見其他登記事項,鋼筋混凝土造,101年1月13日,十四層,
RPOPMLKLRHLFFCB97CC,15,196.30,見其他登記事項,鋼筋混凝土造,90年11月21日,四層,
RPOPMLKLRHLFFCB97CC,15,381.37,見其他登記事項,鋼筋混凝土造,90年11月21日,四層,
RPOPMLKLRHLFFCB97CC,15,342.50,住家用,鋼筋混凝土造,90年11月21日,四層,
RPOPMLKLRHLFFCB97CC,15,342.50,住家用,鋼筋混凝土造,90年11月21日,四層,
RPWNMLLLRHLFFCB68CC,39,65.90,住商用,鋼筋混凝土造,66年10月22日,四層,
RPXNMLLLRHLFFCB78CC,47,45.27,住家用,磚造,58年7月1日,一層,
RPTOMLLLRHLFFBB38CC,22,238.24,住家用,鋼筋混凝土造,83年4月21日,五層,
RPOQMLLLRHLFFBB08CC,34,79.34,住家用,鋼筋混凝土造,71年11月11日,五層,
RPOQMLLLRHLFFBB08CC,34,4.58,共有部分,鋼筋混凝土造,71年11月11日,五層,
RPRQMLLLRHLFFAB28CC,6,36.24,見其他登記事項,鋼筋混凝土造,99年8月12日,十三層,
RPRQMLLLRHLFFAB28CC,6,10.50,見其他登記事項,鋼筋混凝土造,99年8月12日,十三層,
RPRQMLLLRHLFFAB28CC,6,8.63,見其他登記事項,鋼筋混凝土造,99年8月12日,十三層,
RPUSMLLLRHLFFAB78CC,2,75.22,見其他登記事項,鋼筋混凝土造,103年5月6日,十五層,
RPUSMLLLRHLFFAB78CC,2,52.94,見其他登記事項,鋼筋混凝土造,103年5月6日,十五層,
RPQTMLLLRHLFFAB48CC,10,83.53,見其他登記事項,鋼筋混凝土造,95年12月22日,十五層,
RPQTMLLLRHLFFAB48CC,10,17.62,見其他登記事項,鋼筋混凝土造,95年12月22日,十五層,
RPQTMLLLRHLFFAB48CC,10,12.52,見其他登記事項,鋼筋混凝土造,95年12月22日,十五層,
RPOPMLLLRHLFFAL88CC,11,68.19,見其他登記事項,鋼筋混凝土造,95年1月12日,十三層,
RPOPMLLLRHLFFAL88CC,11,23.71,共用部份,鋼筋混凝土造,95年1月12日,十三層,
RPQOMLLLRHLFFCB28DC,1,534.28,見其他登記事項,鋼骨鋼筋混凝土造,104年9月24日,三十四層,
RPWOMLMLRHLFFCB98DC,8,42.03,住家用,鋼筋混凝土造,97年11月27日,二十二層,
RPWOMLMLRHLFFCB98DC,8,32.09,見其他登記事項,鋼筋混凝土造,97年11月27日,二十二層,
RPSNMLMLRHLFFCL76CC,7,484.41,住家用,見其他登記事項,98年8月20日,五層,
RPVQMLMLRHLFFAB78CC,10,120.80,見其他登記事項,鋼筋混凝土造,95年12月22日,十五層,
RPVQMLMLRHLFFAB78CC,10,67.92,見其他登記事項,鋼筋混凝土造,95年12月22日,十五層,
RPSOMLNLRHLFFAB38CC,43,95.00,商業用,見其他登記事項,62年10月26日,三層,
RPSOMLNLRHLFFAB38CC,43,95.00,商業用,見其他登記事項,62年10月26日,三層,
RPUOMLNLRHLFFAB58CC,6,63.31,見其他登記事項,鋼筋混凝土造,99年8月27日,十二層,
RPUOMLNLRHLFFAB58CC,6,34.92,見其他登記事項,鋼筋混凝土造,99年8月27日,十二層,
RPUOMLNLRHLFFAB58CC,6,9.34,見其他登記事項,鋼筋混凝土造,99年8月27日,十二層,
RPXNMLNLRHLFFGL77CC,4,116.87,見其他登記事項,鋼筋混凝土造,101年11月5日,十四層,
RPXNMLNLRHLFFGL77CC,4,71.36,見其他登記事項,鋼筋混凝土造,101年11月5日,十四層,
RPUPMLNLRHLFFBB78CC,11,64.97,住家用,鋼筋混凝土造,94年12月8日,十八層,
RPUPMLNLRHLFFBB78CC,11,57.92,共有部分,鋼筋混凝土造,94年12月8日,十八層,
RPOQMLNLRHLFFBB28CC,11,48.56,住家用,鋼筋混凝土造,94年12月8日,十八層,
RPOQMLNLRHLFFBB28CC,11,51.41,共有部分,鋼筋混凝土造,94年12月8日,十八層,
RPRQMLNLRHLFFBB58CC,11,63.68,住家用,鋼筋混凝土造,94年12月8日,十八層,
RPRQMLNLRHLFFBB58CC,11,57.39,共有部分,鋼筋混凝土造,94年12月8日,十八層,
RPWNMLNLRHLFFCB88CC,9,98.93,住家用,鋼筋混凝土造,96年3月13日,十五層,
RPSOMLNLRHLFFCB58CC,21,136.00,商業用,鋼筋混凝土造,84年10月24日,二十五層,
RPSOMLNLRHLFFCB58CC,21,25.04,共有部分,鋼筋混凝土造,84年10月24日,二十五層,
RPSOMLNLRHLFFCB58CC,21,1.96,共有部分,鋼筋混凝土造,84年10月24日,二十五層,
RPSOMLNLRHLFFCB58CC,21,6.46,共有部分,鋼筋混凝土造,84年10月24日,二十五層,
RPSOMLNLRHLFFCB58CC,21,3.86,共有部分,鋼筋混凝土造,84年10月24日,二十五層,
RPSOMLNLRHLFFCB58CC,21,39.17,共有部分,鋼筋混凝土造,84年10月24日,二十五層,
RPVPMLNLRHLFFCB98CC,10,94.33,住家用,鋼筋混凝土造,95年12月5日,十五層,
RPVPMLNLRHLFFCB98CC,10,19.77,見其他登記事項,鋼筋混凝土造,95年12月5日,十五層,
RPVPMLNLRHLFFCB98CC,10,42.81,見其他登記事項,鋼筋混凝土造,95年12月5日,十五層,
RPOQMLNLRHLFFCB38CC,7,63.30,住家用,鋼筋混凝土造,99年2月1日,十二層,
RPOQMLNLRHLFFCB38CC,7,23.32,見其他登記事項,鋼筋混凝土造,99年2月1日,十二層,
RPOQMLNLRHLFFCB38CC,7,8.66,見其他登記事項,鋼筋混凝土造,99年2月1日,十二層,
RPPNMLPLRHLFFCB38CC,26,94.80,住商用,鋼筋混凝土造,79年5月10日,四層,
RPQNMLPLRHLFFAB28CC,20,40.07,見其他登記事項,鋼筋混凝土造,85年5月6日,十八層,
RPQNMLPLRHLFFAB28CC,20,7.87,見其他登記事項,鋼筋混凝土造,85年5月6日,十八層,
RPQNMLPLRHLFFAB28CC,20,8.86,見其他登記事項,鋼筋混凝土造,85年5月6日,十八層,
RPQNMLPLRHLFFAB28CC,20,2.13,見其他登記事項,鋼筋混凝土造,85年5月6日,十八層,
RPQNMLPLRHLFFAB28CC,20,3.13,見其他登記事項,鋼筋混凝土造,85年5月6日,十八層,
RPRNMLPLRHLFFAB38CC,20,19.15,見其他登記事項,鋼筋混凝土造,85年5月6日,十八層,
RPRNMLPLRHLFFAB38CC,20,3.92,見其他登記事項,鋼筋混凝土造,85年5月6日,十八層,
RPRNMLPLRHLFFAB38CC,20,4.42,見其他登記事項,鋼筋混凝土造,85年5月6日,十八層,
RPRNMLPLRHLFFAB38CC,20,1.06,見其他登記事項,鋼筋混凝土造,85年5月6日,十八層,
RPRNMLPLRHLFFAB38CC,20,1.66,見其他登記事項,鋼筋混凝土造,85年5月6日,十八層,
RPXOMLQLRHLFFAB56CC,22,48.19,住商用,鋼筋混凝土造,83年12月7日,十五層,
RPXOMLQLRHLFFAB56CC,22,17.34,共有部分,鋼筋混凝土造,83年12月7日,十五層,
RPXOMLQLRHLFFAB56CC,22,3.40,共有部分,鋼筋混凝土造,83年12月7日,十五層,
RPVPMLQLRHLFFAB09CC,6,133.83,見其他登記事項,鋼筋混凝土造,99年8月23日,十四層,
RPVPMLQLRHLFFAB09CC,6,11.92,見其他登記事項,鋼筋混凝土造,99年8月23日,十四層,
RPVPMLQLRHLFFAB09CC,6,104.76,見其他登記事項,鋼筋混凝土造,99年8月23日,十四層,
RPWPMLQLRHLFFAB56CC,26,400.27,住商用,鋼筋混凝土造,79年3月24日,十二層,
RPWPMLQLRHLFFAB56CC,26,29.70,住家用,鋼筋混凝土造,79年3月24日,十二層,
RPWPMLQLRHLFFAB56CC,26,80.98,見其他登記事項,鋼筋混凝土造,79年3月24日,十二層,
RPUNMLQLRHLFFFL67CC,24,87.20,住商用,鋼筋混凝土造,82年3月15日,五層,
RPVNMLQLRHLFFFL77CC,22,113.09,住家用,鋼筋混凝土造,83年10月18日,十四層,
RPUNMLQLRHLFFCB09DC,20,237.40,住家用,鋼筋混凝土造,85年6月3日,四層,
RPTNMLQLRHLFFIL87CC,37,103.74,住商用,加強磚造,68年7月5日,二層,
RPPNMLQLRHLFFCB48CC,10,37.35,住家用,鋼筋混凝土造,95年11月24日,十四層,
RPPNMLQLRHLFFCB48CC,10,16.85,見其他登記事項,鋼筋混凝土造,95年11月24日,十四層,
RPRNMLQLRHLFFCB68CC,2,165.73,住家用,鋼筋混凝土造,103年6月26日,二十七層,
RPRNMLQLRHLFFCB68CC,2,58.85,見其他登記事項,鋼筋混凝土造,103年6月26日,二十七層,
RPRNMLQLRHLFFCB68CC,2,44.62,見其他登記事項,鋼筋混凝土造,103年6月26日,二十七層,
RPTNMLQLRHLFFCB88CC,8,585.12,見其他登記事項,鋼筋混凝土造,97年6月17日,二層,
RPTNMLQLRHLFFCB88CC,29,246.01,工業用,加強磚造,76年6月26日,一層,
RPVNMLQLRHLFFCB09CC,7,41.66,住家用,鋼筋混凝土造,98年8月13日,二十六層,
RPVNMLQLRHLFFCB09CC,7,41.26,見其他登記事項,鋼筋混凝土造,98年8月13日,二十六層,
RPVNMLQLRHLFFCB09CC,7,16.44,見其他登記事項,鋼筋混凝土造,98年8月13日,二十六層,
RPUOMLQLRHLFFCB09CC,22,134.76,住家用,鋼筋混凝土造,83年7月21日,二十四層,
RPUOMLQLRHLFFCB09CC,22,17.40,住家用,鋼筋混凝土造,83年7月21日,二十四層,
RPUOMLQLRHLFFCB09CC,22,49.08,共有部分,鋼筋混凝土造,83年7月21日,二十四層,
RPQPMLQLRHLFFCB78CC,1,194.69,見其他登記事項,鋼骨鋼筋混凝土造,104年9月24日,三十四層,
RPQPMLQLRHLFFCB78CC,1,49.74,見其他登記事項,鋼骨鋼筋混凝土造,104年9月24日,三十四層,
RPQPMLQLRHLFFCB78CC,1,60.45,見其他登記事項,鋼骨鋼筋混凝土造,104年9月24日,三十四層,
RPRPMLQLRHLFFCB88CC,7,39.61,住家用,鋼筋混凝土造,98年8月13日,二十六層,
RPRPMLQLRHLFFCB88CC,7,3.28,見其他登記事項,鋼筋混凝土造,98年8月13日,二十六層,
RPRPMLQLRHLFFCB88CC,7,15.60,見其他登記事項,鋼筋混凝土造,98年8月13日,二十六層,
RPSPMLQLRHLFFCB98CC,20,56.06,見其他登記事項,鋼筋混凝土造,85年9月3日,十五層,
RPSPMLQLRHLFFCB98CC,20,43.89,共有部分,鋼筋混凝土造,85年9月3日,十五層,
RPTPMLQLRHLFFCB09CC,7,41.83,住家用,鋼筋混凝土造,98年8月13日,二十六層,
RPTPMLQLRHLFFCB09CC,7,3.45,見其他登記事項,鋼筋混凝土造,98年8月13日,二十六層,
RPTPMLQLRHLFFCB09CC,7,16.44,見其他登記事項,鋼筋混凝土造,98年8月13日,二十六層,
RPUPMLQLRHLFFCB56CC,20,60.72,見其他登記事項,鋼筋混凝土造,85年9月3日,十五層,
RPUPMLQLRHLFFCB56CC,20,32.54,共有部分,鋼筋混凝土造,85年9月3日,十五層,
RPOQMLQLRHLFFCB68CC,1,236.30,見其他登記事項,鋼骨鋼筋混凝土造,104年9月24日,三十四層,
RPOQMLQLRHLFFCB68CC,1,60.45,見其他登記事項,鋼骨鋼筋混凝土造,104年9月24日,三十四層,
RPOQMLQLRHLFFCB68CC,1,73.54,見其他登記事項,鋼骨鋼筋混凝土造,104年9月24日,三十四層,
RPPQMLQLRHLFFCB78CC,7,63.30,住家用,鋼筋混凝土造,99年2月1日,十二層,
RPPQMLQLRHLFFCB78CC,7,23.32,見其他登記事項,鋼筋混凝土造,99年2月1日,十二層,
RPPQMLQLRHLFFCB78CC,7,41.09,見其他登記事項,鋼筋混凝土造,99年2月1日,十二層,
RPRQMLQLRHLFFCB98CC,22,157.35,見其他登記事項,鋼筋混凝土造,83年11月28日,十三層,
RPUNMLQLRHLFFBB88CC,25,113.28,商業用,鋼筋混凝土造,80年5月6日,十二層,
RPUNMLQLRHLFFBB88CC,25,50.74,共有部分,鋼筋混凝土造,80年5月6日,十二層,
RPVNMLQLRHLFFBB98CC,11,59.98,住家用,鋼筋混凝土造,94年12月8日,十八層,
RPVNMLQLRHLFFBB98CC,11,51.94,共有部分,鋼筋混凝土造,94年12月8日,十八層,
RPWOMLQLRHLFFBB56CC,43,20.00,住家用,加強磚造,62年6月1日,二層,
RPOPMLQLRHLFFBB48CC,24,110.37,住家用,鋼筋混凝土造,81年11月1日,十三層,
RPRQMLQLRHLFFBB88CC,3,42.49,住家用,鋼筋混凝土造,102年7月25日,二十二層,
RPRQMLQLRHLFFBB88CC,3,11.38,見其他登記事項,鋼筋混凝土造,102年7月25日,二十二層,
RPRQMLQLRHLFFBB88CC,3,36.30,見其他登記事項,鋼筋混凝土造,102年7月25日,二十二層,
RPSQMLQLRHLFFBB98CC,3,67.28,住家用,鋼筋混凝土造,102年7月25日,二十二層,
RPSQMLQLRHLFFBB98CC,3,18.07,見其他登記事項,鋼筋混凝土造,102年7月25日,二十二層,
RPSQMLQLRHLFFBB98CC,3,41.64,見其他登記事項,鋼筋混凝土造,102年7月25日,二十二層,
RPWPMLTLRHLFFBB96CC,25,99.82,住家用,鋼筋混凝土造,80年7月3日,七層,
RPWPMLTLRHLFFBB96CC,25,25.00,共有部分,鋼筋混凝土造,80年7月3日,七層,
RPPOMLTLRHLFFCB88CC,7,65.94,住家用,鋼筋混凝土造,98年8月13日,十八層,
RPPOMLTLRHLFFCB88CC,7,5.35,見其他登記事項,鋼筋混凝土造,98年8月13日,二十六層,
RPPOMLTLRHLFFCB88CC,7,23.35,見其他登記事項,鋼筋混凝土造,98年8月13日,二十六層,
RPOPMLTLRHLFFCB88CC,29,152.12,住家用,鋼筋混凝土造,76年5月20日,三層,
RPOPMLTLRHLFFCB88CC,29,31.80,見其他登記事項,鋼筋混凝土造,76年5月20日,三層,
RPSPMLTLRHLFFCB76DC,20,154.60,國民住宅,鋼筋混凝土造,85年6月15日,十二層,
RPTNMLTLRHLFFAL37CC,6,1097.19,見其他登記事項,見其他登記事項,99年12月21日,二層,
RPOQMLTLRHLFFAB78CC,21,23.76,見其他登記事項,鋼筋混凝土造,84年6月28日,十三層,
RPOQMLTLRHLFFAB78CC,21,3.50,見其他登記事項,鋼筋混凝土造,84年6月28日,十三層,
RPOQMLTLRHLFFAB78CC,21,22.98,見其他登記事項,鋼筋混凝土造,84年6月28日,十三層,
RPTNMLKMRHLFFAB18CC,26,90.30,住商用,鋼筋混凝土造,79年12月12日,五層,
RPTQMLKMRHLFFAB48CC,17,97.62,住家用,鋼筋混凝土造,88年12月18日,十四層,
RPTQMLKMRHLFFAB48CC,17,8.24,共有部份,鋼筋混凝土造,88年12月18日,十四層,
RPTQMLKMRHLFFAB48CC,17,31.83,共有部份,鋼筋混凝土造,88年12月18日,十四層,
RPPOMLKMRHLFFGL86CC,1,93.56,見其他登記事項,鋼筋混凝土造,105年1月8日,十五層,
RPPOMLKMRHLFFGL86CC,1,43.02,見其他登記事項,鋼筋混凝土造,105年1月8日,十五層,
RPPOMLKMRHLFFGL86CC,1,26.52,見其他登記事項,鋼筋混凝土造,105年1月8日,十五層,
RPQOMLKMRHLFFFL86CC,16,131.47,住家用,鋼筋混凝土造,90年1月12日,十四層,
RPSOMLKMRHLFFCB48DC,27,116.94,住商用,鋼筋混凝土造,78年4月8日,五層,
RPUOMLKMRHLFFCB68DC,20,154.60,國民住宅,鋼筋混凝土造,85年6月15日,十二層,
RPVPMLKMRHLFFCB78CC,23,107.51,住家用,鋼筋混凝土造,82年12月17日,七層,
RPVPMLKMRHLFFCB78CC,23,22.16,共有部分,鋼筋混凝土造,82年12月17日,七層,
RPOPMLKMRHLFFBB97CC,36,79.72,商業用,鋼筋混凝土造,69年12月30日,十一層,
RPOPMLKMRHLFFBB97CC,36,142.75,住家用,鋼筋混凝土造,69年12月30日,十一層,
RPOPMLKMRHLFFBB97CC,36,146.37,,鋼筋混凝土造,69年12月30日,十一層,
RPPNMLLJIILFFCB96CC,13,441.49,見其他登記事項,見其他登記事項,92年12月24日,二層,
RPQNMLLJIILFFCB07CC,24,46.57,住家用,鋼筋混凝土造,81年11月13日,十六層,
RPQNMLLJIILFFCB07CC,24,23.82,共有部分,鋼筋混凝土造,81年11月13日,十六層,
RPPNMLLJIILFFAB76CC,11,44.23,見其他登記事項,鋼筋混凝土造,94年12月19日,十二層,
RPPNMLLJIILFFAB76CC,11,15.04,見其他登記事項,鋼筋混凝土造,94年12月19日,十二層,
RPPNMLLJIILFFAB76CC,11,10.07,見其他登記事項,鋼筋混凝土造,94年12月19日,十二層,
RPROMLNJIILFFAB27CC,25,903.18,見其他登記事項,見其他登記事項,80年6月28日,二十八層,
RPROMLNJIILFFAB27CC,25,38.98,見其他登記事項,鋼骨混凝土造,80年6月28日,二十八層,
RPROMLNJIILFFAB27CC,25,51.67,見其他登記事項,鋼骨混凝土造,80年6月28日,二十八層,
RPROMLNJIILFFAB27CC,25,51.67,見其他登記事項,鋼骨混凝土造,80年6月28日,二十八層,
RPSNMLNJIILFFHL98CC,27,210.81,見其他登記事項,鋼筋混凝土造,78年5月23日,四層,
RPVPMLNJIILFFBB97DC,2,222.79,見其他登記事項,鋼筋混凝土造,103年6月30日,四層,
RPWNMLNJIILFFBB77CC,2,150.24,住家用,鋼筋混凝土造,103年12月23日,十九層,
RPUPMLOJIILFFBB87CC,22,31.72,商業用,鋼筋混凝土造,83年12月22日,十七層,
RPUPMLOJIILFFBB87CC,22,14.64,共有部份,鋼筋混凝土造,83年12月22日,十七層,
RPTQMLOJIILFFBB87CC,11,47.39,住家用,鋼筋混凝土造,94年12月8日,十八層,
RPTQMLOJIILFFBB87CC,11,34.94,共有部分,鋼筋混凝土造,94年12月8日,十八層,
RPUQMLOJIILFFBB97CC,11,48.54,住家用,鋼筋混凝土造,94年12月8日,十八層,
RPUQMLOJIILFFBB97CC,11,35.47,共有部分,鋼筋混凝土造,94年12月8日,十八層,
RPORMLOJIILFFBB47CC,11,47.70,住家用,鋼筋混凝土造,94年12月8日,十八層,
RPORMLOJIILFFBB47CC,11,47.02,共有部分,鋼筋混凝土造,94年12月8日,十八層,
RPQRMLOJIILFFBB67CC,11,47.70,住家用,鋼筋混凝土造,94年12月8日,十八層,
RPQRMLOJIILFFBB67CC,11,19.13,共有部份,鋼筋混凝土造,94年12月8日,十八層,
RPRRMLOJIILFFBB77CC,11,63.68,住家用,鋼筋混凝土造,94年12月8日,十八層,
RPRRMLOJIILFFBB77CC,11,57.52,共有部份,鋼筋混凝土造,94年12月8日,十八層,
RPSRMLOJIILFFBB87CC,11,47.37,住家用,鋼筋混凝土造,94年12月8日,十八層,
RPSRMLOJIILFFBB87CC,11,46.89,共有部份,鋼筋混凝土造,94年12月8日,十八層,
RPURMLOJIILFFBB08CC,11,47.39,住家用,鋼筋混凝土造,94年12月8日,十八層,
RPURMLOJIILFFBB08CC,11,18.99,共有部份,鋼筋混凝土造,94年12月8日,十八層,
RPVRMLOJIILFFBB18CC,11,59.92,住家用,鋼筋混凝土造,94年12月8日,十八層,
RPVRMLOJIILFFBB18CC,11,55.93,共有部份,鋼筋混凝土造,94年12月8日,十八層,
RPWRMLOJIILFFBB28CC,11,128.08,見其它登記事項,鋼筋混凝土造,94年12月8日,十八層,
RPWRMLOJIILFFBB28CC,11,313.26,共有部份,鋼筋混凝土造,94年12月8日,十八層,
RPXRMLOJIILFFBB38CC,11,48.22,住家用,鋼筋混凝土造,94年12月8日,十八層,
RPXRMLOJIILFFBB38CC,11,51.28,共有部份,鋼筋混凝土造,94年12月8日,十八層,
RPXNMLOJIILFFCB08CC,37,88.10,住家用,鋼筋混凝土造,69年2月26日,五層,
RPROMLOJIILFFCB57CC,13,441.49,見其他登記事項,見其他登記事項,92年12月24日,二層,
RPQRMLOJIILFFCB77CC,7,41.66,住家用,鋼筋混凝土造,98年8月13日,二十六層,
RPQRMLOJIILFFCB77CC,7,3.45,見其他登記事項,鋼筋混凝土造,98年8月13日,二十六層,
RPQRMLOJIILFFCB77CC,7,16.44,見其他登記事項,鋼筋混凝土造,98年8月13日,二十六層,
RPRRMLOJIILFFCB87CC,7,68.22,住家用,鋼筋混凝土造,98年8月13日,十八層,
RPRRMLOJIILFFCB87CC,7,43.33,見其他登記事項,鋼筋混凝土造,98年8月13日,二十六層,
RPRRMLOJIILFFCB87CC,7,23.77,見其他登記事項,鋼筋混凝土造,98年8月13日,二十六層,
RPSRMLOJIILFFCB97CC,7,32.93,住家用,鋼筋混凝土造,99年2月1日,十一層,
RPSRMLOJIILFFCB97CC,7,12.15,見其他登記事項,鋼筋混凝土造,99年2月1日,十二層,
RPSRMLOJIILFFCB97CC,7,4.51,見其他登記事項,鋼筋混凝土造,99年2月1日,十二層,
RPTRMLOJIILFFCB08CC,7,41.66,住家用,鋼筋混凝土造,98年8月13日,二十六層,
RPTRMLOJIILFFCB08CC,7,41.26,見其他登記事項,鋼筋混凝土造,98年8月13日,二十六層,
RPTRMLOJIILFFCB08CC,7,16.44,見其他登記事項,鋼筋混凝土造,98年8月13日,二十六層,
RPVRMLOJIILFFCB28CC,7,47.65,住家用,鋼筋混凝土造,98年8月13日,二十六層,
RPVRMLOJIILFFCB28CC,7,39.88,見其他登記事項,鋼筋混凝土造,98年8月13日,二十六層,
RPVRMLOJIILFFCB28CC,7,18.85,見其他登記事項,鋼筋混凝土造,98年8月13日,二十六層,
RPVNMLOJIILFFBB87DC,28,95.65,住家用,鋼筋混凝土造,77年11月26日,五層,
RPPNMLOJIILFFHL78CC,3,96.82,見其他登記事項,鋼筋混凝土造,102年7月18日,十四層,
RPXNMLOJIILFFAB87CC,48,138.10,住家用,見其他登記事項,57年9月28日,二層,
RPWNMLPJIILFFAB87CC,26,630.80,住商用,鋼筋混凝土造,79年4月24日,四層,
RPVOMLPJIILFFAB87CC,18,43.74,住家用,鋼筋混凝土造,87年4月13日,十四層,
RPVOMLPJIILFFAB87CC,18,14.66,共有部分,鋼筋混凝土造,87年4月13日,十四層,
RPTPMLPJIILFFAB77CC,10,26.49,見其他登記事項,鋼筋混凝土造,95年10月26日,三十二層,
RPTPMLPJIILFFAB77CC,10,4.52,見其他登記事項,鋼筋混凝土造,95年6月22日,三十二層,
RPTPMLPJIILFFAB77CC,10,11.08,見其他登記事項,鋼筋混凝土造,95年10月26日,三十二層,
RPVNMLPJIILFFGL76CC,2,106.11,見其他登記事項,鋼筋混凝土造,103年7月11日,十二層,
RPVNMLPJIILFFGL76CC,2,45.78,見其他登記事項,鋼筋混凝土造,103年7月11日,十二層,
RPRPMLPJIILFFBB77DC,26,30.31,住家用,鋼筋混凝土造,79年6月21日,五層,
RPRPMLPJIILFFBB77DC,26,10.14,共有部分,鋼筋混凝土造,79年6月21日,五層,
RPVOMLPJIILFFCB08CC,3,117.00,住家用,鋼筋混凝土造,102年12月18日,十二層,
RPVOMLPJIILFFCB08CC,3,90.56,見其他登記事項,鋼筋混凝土造,102年12月18日,十二層,
RPVOMLPJIILFFCB08CC,3,26.09,見其他登記事項,鋼筋混凝土造,102年12月18日,十二層,
RPWOMLPJIILFFCB18CC,1,56.58,見其他登記事項,鋼筋混凝土造,104年10月21日,十二層,
RPWOMLPJIILFFCB18CC,1,31.13,見其他登記事項,鋼筋混凝土造,104年10月21日,十二層,
RPWNMLPJIILFFBB97CC,3,67.17,住家用,鋼筋混凝土造,102年7月25日,二十二層,
RPWNMLPJIILFFBB97CC,3,18.01,見其它登記事項,鋼筋混凝土造,102年7月25日,二十二層,
RPWNMLPJIILFFBB97CC,3,41.64,見其它登記事項,鋼筋混凝土造,102年7月25日,二十二層,
RPPOMLPJIILFFBB37CC,3,67.17,住家用,鋼筋混凝土造,102年7月25日,二十二層,
RPPOMLPJIILFFBB37CC,3,18.01,見其它登記事項,鋼筋混凝土造,102年7月25日,二十二層,
RPPOMLPJIILFFBB37CC,3,28.03,見其它登記事項,鋼筋混凝土造,102年7月25日,二十二層,
RPVPMLPJIILFFBB08CC,38,75.69,住家用,鋼筋混凝土造,68年1月23日,五層,
RPRNMLQJIILFFBB57CC,44,82.18,住家用,鋼筋混凝土加強磚造,62年2月14日,四層,
RPVNMLQJIILFFBB97CC,34,75.58,住家用,鋼筋混凝土造,71年7月23日,五層,
RPVNMLQJIILFFBB97CC,34,6.41,共有部分,鋼筋混凝土造,71年7月23日,五層,
RPXTMLQJIILFFBB78CC,3,67.28,住家用,鋼筋混凝土造,102年7月25日,二十二層,
RPXTMLQJIILFFBB78CC,3,18.07,見其他登記事項,鋼筋混凝土造,102年7月25日,二十二層,
RPXTMLQJIILFFBB78CC,3,41.64,見其他登記事項,鋼筋混凝土造,102年7月25日,二十二層,
RPPOMLQJIILFFCB57CC,4,153.81,見其他登記事項,鋼筋混凝土造,101年12月12日,十五層,
RPPOMLQJIILFFCB57CC,4,100.46,見其他登記事項,鋼筋混凝土造,101年12月12日,十五層,
RPROMLQJIILFFCB77CC,4,210.15,見其他登記事項,鋼筋混凝土造,101年12月12日,十五層,
RPROMLQJIILFFCB77CC,4,272.76,見其他登記事項,鋼筋混凝土造,101年12月12日,十五層,
RPROMLQJIILFFCB77CC,4,212.79,見其他登記事項,鋼筋混凝土造,101年12月12日,十五層,
RPSNMLQJIILFFAL58CC,44,152.38,住家用,加強磚造,61年4月28日,二層,
RPRNMLQJIILFFCL68CC,26,321.30,住商用,鋼筋混凝土造,80年1月10日,四層,
RPVOMLQJIILFFAB97CC,11,251.20,見其他登記事項,鋼筋混凝土造,94年9月9日,四層,
RPXOMLQJIILFFAB18CC,24,96.06,見其他登記事項,鋼筋混凝土造,82年2月26日,五層,
RPQPMLRJIILFFAB67CC,28,197.26,商業用,鋼筋混凝土造,78年2月3日,十二層,
RPRPMLRJIILFFAB77CC,4,168.16,見其他登記事項,鋼筋混凝土造,101年11月21日,二十六層,
RPRPMLRJIILFFAB77CC,4,91.54,見其他登記事項,鋼筋混凝土造,101年11月21日,二十六層,
RPRPMLRJIILFFAB77CC,4,42.53,見其他登記事項,鋼筋混凝土造,101年11月21日,二十六層,
RPVPMLRJIILFFAB18CC,13,73.26,見其他登記事項,鋼筋混凝土造,92年8月22日,九層,
RPVPMLRJIILFFAB18CC,13,32.56,見其他登記事項,鋼筋混凝土造,92年8月22日,九層,
RPSOMLRJIILFFHL86CC,3,79.13,見其他登記事項,鋼筋混凝土造,102年4月1日,十二層,
RPSOMLRJIILFFHL86CC,3,56.12,見其他登記事項,鋼筋混凝土造,102年4月1日,十二層,
RPTNMLRJIILFFCB97CC,36,9.91,住商用,鋼筋混凝土造,69年11月28日,三層,
RPOQMLRJIILFFCB77CC,20,230.76,見其他登記事項,鋼筋混凝土造,85年11月18日,十二層,
RPOQMLRJIILFFCB77CC,20,150.01,共有部分,鋼筋混凝土造,85年11月18日,十二層,
RPSQMLRJIILFFCB18CC,22,83.11,住家用,鋼筋混凝土造,83年10月26日,十四層,
RPSQMLRJIILFFCB18CC,22,22.39,共有部分,鋼筋混凝土造,83年10月26日,十四層,
RPSQMLRJIILFFCB18CC,22,7.60,商業用,鋼筋混凝土造,83年10月26日,十四層,
RPSQMLRJIILFFCB18CC,22,.32,共有部分,鋼筋混凝土造,83年10月26日,十四層,
RPUQMLRJIILFFCB38CC,1,187.24,見其他登記事項,鋼骨鋼筋混凝土造,104年9月24日,三十四層,
RPUQMLRJIILFFCB38CC,1,47.84,見其他登記事項,鋼骨鋼筋混凝土造,104年9月24日,三十四層,
RPUQMLRJIILFFCB38CC,1,58.22,見其他登記事項,鋼骨鋼筋混凝土造,104年9月24日,三十四層,
RPVQMLRJIILFFCB48CC,1,236.30,見其他登記事項,鋼骨鋼筋混凝土造,104年9月24日,三十四層,
RPVQMLRJIILFFCB48CC,1,60.45,見其他登記事項,鋼骨鋼筋混凝土造,104年9月24日,三十四層,
RPVQMLRJIILFFCB48CC,1,124.79,見其他登記事項,鋼骨鋼筋混凝土造,104年9月24日,三十四層,
RPXQMLRJIILFFCB68CC,22,270.88,商業用,鋼筋混凝土造,83年10月24日,十四層,
RPXQMLRJIILFFCB68CC,22,139.98,共有部分,鋼筋混凝土造,83年10月24日,十四層,
RPPPMLRJIILFFBB67CC,37,125.10,住商用,加強磚造,68年7月13日,二層,
RPQPMLRJIILFFBB77CC,44,224.40,商業用,鋼筋混凝土加強磚造,61年9月26日,三層,
RPSPMLRJIILFFBB97CC,29,66.91,住家用,鋼筋混凝土造,76年5月12日,五層,
RPURMLRJIILFFBB38CC,31,47.42,住商用,鋼筋混凝土造,74年11月25日,三層,
RPQNMLSJIILFFGL56CC,29,142.86,見其他登記事項,鋼筋混凝土造,76年7月18日,三層,
RPPNMLKKIILFFGL38CC,9,178.16,見其他登記事項,鋼筋混凝土造,96年7月19日,四層,
RPUNMLKKIILFFAB27CC,20,20.27,見其他登記事項,鋼筋混凝土造,85年5月6日,十八層,
RPUNMLKKIILFFAB27CC,20,3.78,見其他登記事項,鋼筋混凝土造,85年5月6日,十八層,
RPUNMLKKIILFFAB27CC,20,4.24,見其他登記事項,鋼筋混凝土造,85年5月6日,十八層,
RPUNMLKKIILFFAB27CC,20,1.01,見其他登記事項,鋼筋混凝土造,85年5月6日,十八層,
RPUNMLKKIILFFAB27CC,20,1.51,見其他登記事項,鋼筋混凝土造,85年5月6日,十八層,
RPVNMLKKIILFFAB37CC,20,40.88,見其他登記事項,鋼筋混凝土造,85年5月6日,十八層,
RPVNMLKKIILFFAB37CC,20,8.26,見其他登記事項,鋼筋混凝土造,85年5月6日,十八層,
RPVNMLKKIILFFAB37CC,20,9.31,見其他登記事項,鋼筋混凝土造,85年5月6日,十八層,
RPVNMLKKIILFFAB37CC,20,2.22,見其他登記事項,鋼筋混凝土造,85年5月6日,十八層,
RPVNMLKKIILFFAB37CC,20,3.29,見其他登記事項,鋼筋混凝土造,85年5月6日,十八層,
RPWNMLKKIILFFAB47CC,20,19.15,見其他登記事項,鋼筋混凝土造,85年5月6日,十八層,
RPWNMLKKIILFFAB47CC,20,3.92,見其他登記事項,鋼筋混凝土造,85年5月6日,十八層,
RPWNMLKKIILFFAB47CC,20,4.42,見其他登記事項,鋼筋混凝土造,85年5月6日,十八層,
RPWNMLKKIILFFAB47CC,20,1.06,見其他登記事項,鋼筋混凝土造,85年5月6日,十八層,
RPWNMLKKIILFFAB47CC,20,1.66,見其他登記事項,鋼筋混凝土造,85年5月6日,十八層,
RPQNMLKKIILFFCB17DC,10,22.74,住家用,鋼筋混凝土造,95年11月24日,十四層,
RPQNMLKKIILFFCB17DC,10,3.99,住家用,鋼筋混凝土造,95年11月24日,十四層,
RPQNMLKKIILFFCB17DC,10,12.17,見其他登記事項,鋼筋混凝土造,95年11月24日,十四層,
RPVNMLLKIILFFCB67CC,11,172.86,住家用,鋼筋混凝土造,95年2月22日,十四層,
RPOOMLLKIILFFCB07CC,15,455.14,見其他登記事項,見其他登記事項,90年4月30日,一層,
RPWNMLMKIILFFCB87CC,36,118.36,住家用,鋼筋混凝土造,69年7月16日,二層,
RPWOMLMKIILFFCB97CC,16,99.42,住家用,鋼筋混凝土造,89年8月1日,十層,
RPWOMLMKIILFFCB97CC,16,45.09,共有部分,鋼筋混凝土造,89年8月1日,十層,
RPQPMLMKIILFFBB37CC,8,17.38,住家用,鋼筋混凝土造,97年11月28日,十七層,
RPQPMLMKIILFFBB37CC,8,3.65,共有部分,鋼筋混凝土造,97年11月28日,十七層,
RPQPMLMKIILFFBB37CC,8,7.30,共有部分,鋼筋混凝土造,97年11月28日,十七層,
RPTNMLMKIILFFAB37CC,22,24.02,住家用,鋼筋混凝土造,84年1月13日,十九層,
RPTNMLMKIILFFAB37CC,22,3.71,共有部份,鋼筋混凝土造,84年1月13日,十九層,
RPTNMLMKIILFFAB37CC,22,9.08,見其他登記事項,鋼筋混凝土造,84年1月13日,十九層,
RPPNMLMKIILFFCL18CC,23,157.54,住家用,鋼筋混凝土造,82年4月17日,三層,
RPRNMLMKIILFFCL38CC,15,208.91,見其他登記事項,鋼筋混凝土造,90年6月29日,四層,
RPSNMLMKIILFFFL78CC,23,40.78,共有部份,鋼筋混凝土造,82年12月31日,十四層,
RPSNMLMKIILFFFL78CC,23,133.03,住商用,鋼筋混凝土造,82年12月31日,十四層,
RPQOMLNKIILFFCL48CC,1,138.96,見其他登記事項,鋼筋混凝土造,104年11月6日,七層,
RPRNMLNKIILFFHL98CC,40,85.60,住家用,加強磚造,65年9月30日,二層,
RPUNMLNKIILFFAB57CC,18,127.49,住家用,鋼筋混凝土造,87年9月18日,十四層,
RPUNMLNKIILFFAB57CC,18,64.19,共有部份,鋼筋混凝土造,87年9月18日,十四層,
RPUNMLNKIILFFAB57CC,18,16.03,共有部份,鋼筋混凝土造,87年9月18日,十四層,
RPTOMLNKIILFFAB57CC,10,112.94,見其他登記事項,鋼筋混凝土造,95年12月22日,十五層,
RPTOMLNKIILFFAB57CC,10,23.81,見其他登記事項,鋼筋混凝土造,95年12月22日,十五層,
RPXOMLNKIILFFBB18DC,9,167.73,見其他登記事項,鋼筋混凝土造,96年12月31日,十四層,
RPTPMLNKIILFFBB87DC,9,124.65,見其他登記事項,鋼筋混凝土造,96年12月31日,十四層,
RPTPMLNKIILFFBB87DC,9,43.08,共有部分,鋼筋混凝土造,96年12月31日,十四層,
RPOPMLNKIILFFBB27CC,11,59.92,住家用,鋼筋混凝土造,94年12月8日,十八層,
RPOPMLNKIILFFBB27CC,11,55.93,共有部分,鋼筋混凝土造,94年12月8日,十八層,
RPPPMLNKIILFFBB37CC,11,48.22,住家用,鋼筋混凝土造,94年12月8日,十八層,
RPPPMLNKIILFFBB37CC,11,19.39,共有部分,鋼筋混凝土造,94年12月8日,十八層,
RPUPMLNKIILFFBB87CC,11,93.13,見其他登記事項,鋼筋混凝土造,94年12月8日,十八層,
RPUPMLNKIILFFBB87CC,11,53.80,共有部分,鋼筋混凝土造,94年12月8日,十八層,
RPWPMLNKIILFFBB08CC,11,48.22,住家用,鋼筋混凝土造,94年12月8日,十八層,
RPWPMLNKIILFFBB08CC,11,19.39,共有部分,鋼筋混凝土造,94年12月8日,十八層,
RPXPMLNKIILFFBB18CC,11,48.14,住家用,鋼筋混凝土造,94年12月8日,十八層,
RPXPMLNKIILFFBB18CC,11,35.20,共有部分,鋼筋混凝土造,94年12月8日,十八層,
RPOQMLNKIILFFBB37CC,11,47.37,住家用,鋼筋混凝土造,94年12月8日,十八層,
RPOQMLNKIILFFBB37CC,11,34.94,共有部分,鋼筋混凝土造,94年12月8日,十八層,
RPRQMLNKIILFFBB67CC,3,362.94,見其他登記事項,鋼筋混凝土造,102年7月25日,二十二層,
RPRQMLNKIILFFBB67CC,3,39.03,見其他登記事項,鋼筋混凝土造,102年7月25日,二十二層,
RPRQMLNKIILFFBB67CC,3,93.97,見其他登記事項,鋼筋混凝土造,102年7月25日,二十二層,
RPTQMLNKIILFFBB87CC,3,42.77,住家用,鋼筋混凝土造,102年7月25日,二十二層,
RPTQMLNKIILFFBB87CC,3,11.45,見其他登記事項,鋼筋混凝土造,102年7月25日,二十二層,
RPTQMLNKIILFFBB87CC,3,9.21,見其他登記事項,鋼筋混凝土造,102年7月25日,二十二層,
RPUQMLNKIILFFBB97CC,3,65.73,住家用,鋼筋混凝土造,102年7月25日,二十二層,
RPUQMLNKIILFFBB97CC,3,17.64,見其他登記事項,鋼筋混凝土造,102年7月25日,二十二層,
RPUQMLNKIILFFBB97CC,3,41.38,見其他登記事項,鋼筋混凝土造,102年7月25日,二十二層,
RPVQMLNKIILFFBB08CC,3,66.04,住家用,鋼筋混凝土造,102年7月25日,二十二層,
RPVQMLNKIILFFBB08CC,3,17.70,見其他登記事項,鋼筋混凝土造,102年7月25日,二十二層,
RPVQMLNKIILFFBB08CC,3,27.70,見其他登記事項,鋼筋混凝土造,102年7月25日,二十二層,
RPSNMLNKIILFFCB57CC,23,95.55,住家用,鋼筋混凝土造,82年11月20日,八層,
RPTNMLNKIILFFCB67CC,22,123.21,住家用,鋼筋混凝土造,83年7月21日,二十四層,
RPTNMLNKIILFFCB67CC,22,44.29,共有部分,鋼筋混凝土造,83年7月21日,二十四層,
RPUNMLNKIILFFCB77CC,22,113.62,住家用,鋼筋混凝土造,83年7月21日,二十四層,
RPUNMLNKIILFFCB77CC,22,41.90,共有部分,鋼筋混凝土造,83年7月21日,二十四層,
RPPPMLNKIILFFCB47CC,22,74.77,商業用,鋼筋混凝土造,83年8月17日,六層,
RPRPMLNKIILFFCB67CC,7,96.37,住家用,鋼筋混凝土造,98年8月13日,二十六層,
RPVPMLNKIILFFCB08CC,7,41.83,住家用,鋼筋混凝土造,98年8月13日,二十六層,
RPVPMLNKIILFFCB08CC,7,3.45,見其他登記事項,鋼筋混凝土造,98年8月13日,二十六層,
RPVPMLNKIILFFCB08CC,7,16.44,見其他登記事項,鋼筋混凝土造,98年8月13日,二十六層,
RPXPMLNKIILFFCB28CC,7,41.83,住家用,鋼筋混凝土造,98年8月13日,二十六層,
RPXPMLNKIILFFCB28CC,7,3.45,見其他登記事項,鋼筋混凝土造,98年8月13日,二十六層,
RPXPMLNKIILFFCB28CC,7,16.44,見其他登記事項,鋼筋混凝土造,98年8月13日,二十六層,
RPPQMLNKIILFFCB57CC,7,41.66,住家用,鋼筋混凝土造,98年8月13日,二十六層,
RPPQMLNKIILFFCB57CC,7,41.26,見其他登記事項,鋼筋混凝土造,98年8月13日,二十六層,
RPPQMLNKIILFFCB57CC,7,16.44,見其他登記事項,鋼筋混凝土造,98年8月13日,二十六層,
RPQOMLOKIILFFBB57DC,8,86.26,住家用,鋼筋混凝土造,97年7月21日,十五層,
RPQOMLOKIILFFBB57DC,8,66.48,共有部分,鋼筋混凝土造,97年7月21日,十五層,
RPTOMLOKIILFFCB97DC,33,60.00,住商用,鋼筋混凝土造,73年1月19日,五層,
RPOPMLOKIILFFCB57DC,22,102.42,住家用,鋼筋混凝土造,84年3月24日,十一層,
RPOPMLOKIILFFCB57DC,22,42.19,共有部分,鋼筋混凝土造,84年3月24日,十一層,
RPSOMLOKIILFFAB67DC,1,100.61,見其他登記事項,鋼筋混凝土造,104年8月4日,十二層,
RPSOMLOKIILFFAB67DC,1,51.42,見其他登記事項,鋼筋混凝土造,104年8月4日,十二層,
RPRNMLOKIILFFFL88CC,43,138.38,商業用,加強磚造,62年11月30日,二層,
RPVNMLRKIILFFHL17CC,23,83.05,見其他登記事項,鋼筋混凝土造,82年12月31日,十二層,
RPVNMLRKIILFFHL17CC,23,14.97,共同使用部份,鋼筋混凝土造,82年12月31日,十二層,
RPPOMLRKIILFFGL56CC,2,67.10,見其他登記事項,鋼筋混凝土造,103年10月22日,二十六層,
RPPOMLRKIILFFGL56CC,2,44.43,見其他登記事項,鋼筋混凝土造,103年10月22日,二十六層,
RPQOMLRKIILFFAB67CC,15,72.60,見其他登記事項,鋼骨鋼筋混凝土造,90年10月18日,一層,
RPOPMLRKIILFFAB57CC,10,105.93,見其他登記事項,鋼筋混凝土造,96年1月23日,十九層,
RPOPMLRKIILFFAB57CC,10,24.57,見其他登記事項,鋼筋混凝土造,96年1月23日,十九層,
RPOPMLRKIILFFAB57CC,10,28.20,見其他登記事項,鋼筋混凝土造,96年1月23日,十九層,
RPUPMLRKIILFFBB28CC,3,161.08,住家用,鋼筋混凝土造,102年9月18日,十九層,
RPUPMLRKIILFFBB28CC,3,33.83,見其它登記事項,鋼筋混凝土造,102年9月18日,二十層,
RPUPMLRKIILFFBB28CC,3,15.64,見其它登記事項,鋼筋混凝土造,102年9月18日,二十層,
RPUPMLRKIILFFBB28CC,3,89.22,見其它登記事項,鋼筋混凝土造,102年9月18日,二十層,
RPUOMLRKIILFFCB28CC,23,108.48,住商用,鋼筋混凝土造,82年10月4日,十四層,
RPUOMLRKIILFFCB28CC,23,27.00,共有部分,鋼筋混凝土造,82年10月4日,十四層,
RPVOMLRKIILFFCB38CC,10,30.90,住家用,鋼筋混凝土造,95年11月24日,十四層,
RPVOMLRKIILFFCB38CC,10,13.93,見其他登記事項,鋼筋混凝土造,95年11月24日,十四層,
RPRNMLSKIILFFCB97CC,31,91.63,住家用,鋼筋混凝土造,74年11月8日,五層,
RPTNMLSKIILFFCB18CC,4,793.33,見其他登記事項,鋼筋混凝土造,101年12月12日,十五層,
RPVOMLSKIILFFCB48CC,24,122.31,住家用,鋼筋混凝土造,81年6月2日,七層,
RPWOMLSKIILFFCB58CC,25,28.18,住家用,鋼筋混凝土造,80年9月2日,六層,
RPWOMLSKIILFFCB58CC,25,14.86,共有部分,鋼筋混凝土造,80年9月2日,六層,
RPXOMLSKIILFFBB58CC,8,299.14,見其他登記事項,鋼筋混凝土造,98年2月16日,十二層,
RPOPMLSKIILFFBB77CC,8,40.51,見其它登記事項,鋼筋混凝土造,98年2月16日,四層,
RPOPMLSKIILFFBB77CC,8,40.51,見其它登記事項,鋼筋混凝土造,98年2月16日,四層,
RPPPMLSKIILFFBB87CC,8,105.57,見其他登記事項,鋼筋混凝土造,97年11月27日,五層,
RPTNMLSKIILFFHL07CC,28,153.18,見其他登記事項,鋼筋混凝土造,77年12月10日,五層,
RPTNMLTKIILFFHL17CC,1,36.54,見其他登記事項,見其他登記事項,104年7月20日,一層,
RPXNMLTKIILFFHL57CC,45,38.12,住家用,磚造,61年1月6日,一層,
RPVOMLTKIILFFHL47CC,4,205.07,見其他登記事項,鋼筋混凝土造,101年11月13日,四層,
RPVNMLTKIILFFCL86CC,11,178.62,見其他登記事項,鋼筋混凝土造,95年3月9日,四層,
RPOOMLTKIILFFCL88CC,23,88.73,住家用,鋼筋混凝土造,83年2月8日,十層,
RPQOMLTKIILFFBB08DC,22,89.76,住家用,鋼筋混凝土造,83年6月30日,十層,
RPPOMLTKIILFFCB97CC,7,62.86,住家用,鋼筋混凝土造,98年8月13日,十八層,
RPPOMLTKIILFFCB97CC,7,11.10,住家用,鋼筋混凝土造,98年8月13日,十八層,
RPPOMLTKIILFFCB97CC,7,6.04,見其他登記事項,鋼筋混凝土造,98年8月13日,二十六層,
RPPOMLTKIILFFCB97CC,7,26.07,見其他登記事項,鋼筋混凝土造,98年8月13日,二十六層,
RPQOMLTKIILFFCB08CC,6,1129.00,見其他登記事項,鋼筋混凝土造,99年9月30日,二十三層,
RPTPMLTKIILFFCB48CC,1,180.47,見其他登記事項,見其他登記事項,104年8月7日,三十八層,
RPTPMLTKIILFFCB48CC,1,23.27,見其他登記事項,見其他登記事項,104年8月7日,三十八層,
RPTPMLTKIILFFCB48CC,1,106.18,見其他登記事項,見其他登記事項,104年8月7日,三十八層,
RPROMLKLIILFFCB37CC,35,99.19,商業用,鋼筋混凝土造,70年4月24日,四層,
RPSOMLKLIILFFCB47CC,25,123.98,住商用,鋼筋混凝土造,80年11月20日,十四層,
RPSOMLKLIILFFCB47CC,25,35.18,共有部分,鋼筋混凝土造,80年11月20日,十四層,
RPSOMLKLIILFFCB47CC,25,8.35,共有部分,鋼筋混凝土造,80年11月20日,十四層,
RPSOMLKLIILFFCB47CC,25,13.01,共有部分,鋼筋混凝土造,80年11月20日,十四層,
RPSNMLKLIILFFBB27CC,23,25.74,住家用,鋼筋混凝土造,82年10月28日,七層,
RPSNMLKLIILFFBB27CC,23,3.35,住家用,鋼筋混凝土造,82年10月28日,七層,
RPSNMLKLIILFFBB27CC,23,9.00,共有部分,鋼筋混凝土造,82年10月28日,七層,
RPVNMLKLIILFFBB57CC,18,73.50,住家用,鋼筋混凝土造,87年8月1日,九層,
RPVNMLKLIILFFBB57CC,18,9.57,住家用,鋼筋混凝土造,87年8月1日,九層,
RPVNMLKLIILFFBB57CC,18,48.87,共有部份,鋼筋混凝土造,87年8月1日,九層,
RPWNMLKLIILFFBB67CC,23,24.19,住家用,鋼筋混凝土造,82年10月28日,七層,
RPWNMLKLIILFFBB67CC,23,5.04,住家用,鋼筋混凝土造,82年10月28日,七層,
RPWNMLKLIILFFBB67CC,23,8.33,共有部份,鋼筋混凝土造,82年10月28日,七層,
RPXOMLKLIILFFBB87CC,23,51.90,住家用,鋼筋混凝土造,82年10月14日,十三層,
RPQRMLKLIILFFBB47CC,11,47.70,住家用,鋼筋混凝土造,94年12月8日,十八層,
RPQRMLKLIILFFBB47CC,11,35.07,共有部份,鋼筋混凝土造,94年12月8日,十八層,
RPSRMLKLIILFFBB67CC,11,49.46,住家用,鋼筋混凝土造,94年12月8日,十八層,
RPSRMLKLIILFFBB67CC,11,19.79,共有部份,鋼筋混凝土造,94年12月8日,十八層,
RPVRMLKLIILFFBB97CC,11,48.07,住家用,鋼筋混凝土造,94年12月8日,十八層,
RPVRMLKLIILFFBB97CC,11,47.16,共有部份,鋼筋混凝土造,94年12月8日,十八層,
RPWRMLKLIILFFBB08CC,11,48.56,住家用,鋼筋混凝土造,94年12月8日,十八層,
RPWRMLKLIILFFBB08CC,11,19.52,共有部份,鋼筋混凝土造,94年12月8日,十八層,
RPXRMLKLIILFFBB18CC,11,63.68,住家用,鋼筋混凝土造,94年12月8日,十八層,
RPXRMLKLIILFFBB18CC,11,53.40,共有部份,鋼筋混凝土造,94年12月8日,十八層,
RPRNMLKLIILFFFL58CC,22,180.20,住家用,鋼筋混凝土造,83年7月25日,三層,
RPVNMLKLIILFFGL09CC,2,55.96,見其他登記事項,鋼筋混凝土造,103年5月14日,十五層,
RPVNMLKLIILFFGL09CC,2,7.53,見其他登記事項,鋼筋混凝土造,103年5月14日,十五層,
RPVNMLKLIILFFGL09CC,2,1.68,見其他登記事項,鋼筋混凝土造,103年5月14日,十五層,
RPVNMLKLIILFFGL09CC,2,57.76,見其他登記事項,鋼筋混凝土造,103年5月14日,十五層,
RPTOMLKLIILFFAB37CC,26,90.30,住商用,鋼筋混凝土造,79年12月12日,五層,
RPTNMLLLIILFFAB37CC,13,303.53,見其他登記事項,鋼骨鋼筋混凝土造,93年3月4日,一層,
RPQOMLLLIILFFAB17CC,18,92.21,見其他登記事項,鋼筋混凝土造,87年10月17日,十四層,
RPROMLLLIILFFAB27CC,21,229.85,見其他登記事項,鋼筋混凝土造,84年4月1日,五層,
RPQNMLLLIILFFFL68DC,23,88.66,住家用,鋼筋混凝土造,82年6月21日,七層,
RPQNMLLLIILFFFL68DC,23,30.36,共有部份,鋼筋混凝土造,82年6月21日,七層,
RPXOMLLLIILFFCB08CC,4,61.82,住家用,鋼筋混凝土造,101年5月23日,十一層,
RPXOMLLLIILFFCB08CC,4,34.13,見其他登記事項,鋼筋混凝土造,101年5月23日,十一層,
RPXOMLLLIILFFCB08CC,4,13.60,見其他登記事項,鋼筋混凝土造,101年5月23日,十一層,
RPPPMLLLIILFFCB37CC,6,48.77,住家用,鋼筋混凝土造,99年11月19日,二十四層,
RPPPMLLLIILFFCB37CC,6,35.90,見其他登記事項,鋼筋混凝土造,99年11月19日,二十四層,
RPTPMLLLIILFFCB77CC,22,81.37,商業用,鋼筋混凝土造,83年7月23日,十六層,
RPTPMLLLIILFFCB77CC,22,28.65,共有部分,鋼筋混凝土造,83年7月12日,十五層,
RPSNMLNLIILFFCB67CC,16,207.66,住家用,鋼筋混凝土造,89年6月5日,十二層,
RPSNMLNLIILFFCB67CC,16,122.80,共有部分,鋼筋混凝土造,89年6月5日,十二層,
RPSNMLNLIILFFCB67CC,16,14.96,共有部分,鋼筋混凝土造,89年6月5日,十二層,
RPPNMLNLIILFFFL68CC,24,87.20,住商用,鋼筋混凝土造,82年3月15日,五層,
RPWOMLOLIILFFGL07CC,3,143.20,見其他登記事項,鋼筋混凝土造,102年5月27日,十二層,
RPQNMLOLIILFFHL09CC,3,66.80,見其他登記事項,鋼筋混凝土造,102年7月18日,十四層,
RPQNMLOLIILFFHL09CC,3,63.69,見其他登記事項,鋼筋混凝土造,102年7月18日,十四層,
RPTNMLOLIILFFHL76CC,21,55.82,住家用,鋼筋混凝土造,84年4月18日,五層,
RPTNMLOLIILFFHL76CC,21,33.94,共有部份,鋼筋混凝土造,84年4月18日,五層,
RPVOMLOLIILFFAB97CC,23,197.30,住家用,鋼筋混凝土造,82年5月15日,五層,
RPVPMLOLIILFFAB08CC,49,158.23,住家用,見其他登記事項,57年3月28日,二層,
RPPQMLOLIILFFBB77DC,22,125.33,住商用,鋼筋混凝土造,84年1月27日,八層,
RPUNMLOLIILFFCB97CC,8,489.81,見其他登記事項,見其他登記事項,97年5月29日,一層,
RPUNMLOLIILFFCB97CC,8,313.35,見其他登記事項,見其他登記事項,97年5月29日,一層,
RPUNMLOLIILFFCB97CC,21,287.56,見其他登記事項,見其他登記事項,84年8月31日,一層,
RPUPMLOLIILFFCB18CC,7,47.65,住家用,鋼筋混凝土造,98年8月13日,二十六層,
RPUPMLOLIILFFCB18CC,7,39.88,見其他登記事項,鋼筋混凝土造,98年8月13日,二十六層,
RPUPMLOLIILFFCB18CC,7,18.85,見其他登記事項,鋼筋混凝土造,98年8月13日,二十六層,
RPWPMLOLIILFFCB38CC,7,59.09,住家用,鋼筋混凝土造,98年8月13日,十八層,
RPWPMLOLIILFFCB38CC,7,4.83,見其他登記事項,鋼筋混凝土造,98年8月13日,二十六層,
RPWPMLOLIILFFCB38CC,7,20.94,見其他登記事項,鋼筋混凝土造,98年8月13日,二十六層,
RPQQMLOLIILFFCB87CC,7,68.22,住家用,鋼筋混凝土造,98年8月13日,十八層,
RPQQMLOLIILFFCB87CC,7,24.51,見其他登記事項,鋼筋混凝土造,98年8月13日,二十六層,
RPQQMLOLIILFFCB87CC,7,23.77,見其他登記事項,鋼筋混凝土造,98年8月13日,二十六層,
RPTQMLOLIILFFCB18CC,7,39.61,住家用,鋼筋混凝土造,98年8月13日,二十六層,
RPTQMLOLIILFFCB18CC,7,3.28,見其他登記事項,鋼筋混凝土造,98年8月13日,二十六層,
RPTQMLOLIILFFCB18CC,7,15.60,見其他登記事項,鋼筋混凝土造,98年8月13日,二十六層,
RPUQMLOLIILFFCB28CC,7,37.23,住家用,鋼筋混凝土造,98年8月13日,二十六層,
RPUQMLOLIILFFCB28CC,7,3.11,見其他登記事項,鋼筋混凝土造,98年8月13日,二十六層,
RPUQMLOLIILFFCB28CC,7,14.66,見其他登記事項,鋼筋混凝土造,98年8月13日,二十六層,
RPWQMLOLIILFFCB48CC,7,41.66,住家用,鋼筋混凝土造,98年8月13日,二十六層,
RPWQMLOLIILFFCB48CC,7,41.26,見其他登記事項,鋼筋混凝土造,98年8月13日,二十六層,
RPWQMLOLIILFFCB48CC,7,16.44,見其他登記事項,鋼筋混凝土造,98年8月13日,二十六層,
RPPPMLOLIILFFBB57CC,21,32.31,住家用,鋼筋混凝土造,85年3月22日,七層,
RPPPMLOLIILFFBB57CC,21,12.69,共有部份,鋼筋混凝土造,85年3月22日,七層,
RPPPMLOLIILFFBB57CC,21,6.53,共有部份,鋼筋混凝土造,85年3月22日,七層,
RPRQMLOLIILFFBB87CC,3,42.77,住家用,鋼筋混凝土造,102年7月25日,二十二層,
RPRQMLOLIILFFBB87CC,3,11.45,見其它登記事項,鋼筋混凝土造,102年7月25日,二十二層,
RPRQMLOLIILFFBB87CC,3,36.44,見其它登記事項,鋼筋混凝土造,102年7月25日,二十二層,
RPUQMLOLIILFFBB18CC,3,42.77,住家用,鋼筋混凝土造,102年7月25日,二十二層,
RPUQMLOLIILFFBB18CC,3,11.45,見其它登記事項,鋼筋混凝土造,102年7月25日,二十二層,
RPUQMLOLIILFFBB18CC,3,36.44,見其它登記事項,鋼筋混凝土造,102年7月25日,二十二層,
RPTOMLPLIILFFBB97CC,3,67.28,住家用,鋼筋混凝土造,102年7月25日,二十二層,
RPTOMLPLIILFFBB97CC,3,17.86,見其它登記事項,鋼筋混凝土造,102年7月25日,二十二層,
RPTOMLPLIILFFBB97CC,3,41.64,見其它登記事項,鋼筋混凝土造,102年7月25日,二十二層,
RPUOMLPLIILFFBB08CC,3,66.04,住家用,鋼筋混凝土造,102年7月25日,二十二層,
RPUOMLPLIILFFBB08CC,3,17.71,見其它登記事項,鋼筋混凝土造,102年7月25日,二十二層,
RPUOMLPLIILFFBB08CC,3,27.76,見其它登記事項,鋼筋混凝土造,102年7月25日,二十二層,
RPVOMLPLIILFFBB18CC,3,66.96,住家用,鋼筋混凝土造,102年7月25日,二十二層,
RPVOMLPLIILFFBB18CC,3,18.00,見其它登記事項,鋼筋混凝土造,102年7月25日,二十二層,
RPVOMLPLIILFFBB18CC,3,28.03,見其它登記事項,鋼筋混凝土造,102年7月25日,二十二層,
RPWOMLPLIILFFBB28CC,11,50.55,住家用,鋼筋混凝土造,94年12月8日,十八層,
RPWOMLPLIILFFBB28CC,11,36.93,共有部份,鋼筋混凝土造,94年12月8日,十八層,
RPXOMLPLIILFFBB38CC,11,48.22,住家用,鋼筋混凝土造,94年12月8日,十八層,
RPXOMLPLIILFFBB38CC,11,19.39,共有部份,鋼筋混凝土造,94年12月8日,十八層,
RPPNMLPLIILFFCB57CC,23,76.73,住家用,鋼筋混凝土造,82年11月20日,八層,
RPQNMLPLIILFFCB67CC,7,59.09,住家用,鋼筋混凝土造,98年8月13日,十八層,
RPQNMLPLIILFFCB67CC,7,40.74,見其他登記事項,鋼筋混凝土造,98年8月13日,二十六層,
RPQNMLPLIILFFCB67CC,7,20.94,見其他登記事項,鋼筋混凝土造,98年8月13日,二十六層,
RPPRMLPLIILFFCB97CC,7,59.09,住家用,鋼筋混凝土造,98年8月13日,十八層,
RPPRMLPLIILFFCB97CC,7,4.83,見其他登記事項,鋼筋混凝土造,98年8月13日,二十六層,
RPPRMLPLIILFFCB97CC,7,20.94,見其他登記事項,鋼筋混凝土造,98年8月13日,二十六層,
RPRRMLPLIILFFCB18CC,7,39.61,住家用,鋼筋混凝土造,98年8月13日,二十六層,
RPRRMLPLIILFFCB18CC,7,3.28,見其他登記事項,鋼筋混凝土造,98年8月13日,二十六層,
RPRRMLPLIILFFCB18CC,7,15.60,見其他登記事項,鋼筋混凝土造,98年8月13日,二十六層,
RPSRMLPLIILFFCB28CC,7,39.61,住家用,鋼筋混凝土造,98年8月13日,二十六層,
RPSRMLPLIILFFCB28CC,7,39.19,見其他登記事項,鋼筋混凝土造,98年8月13日,二十六層,
RPSRMLPLIILFFCB28CC,7,15.60,見其他登記事項,鋼筋混凝土造,98年8月13日,二十六層,
RPTRMLPLIILFFCB38CC,7,39.61,住家用,鋼筋混凝土造,98年8月13日,二十六層,
RPTRMLPLIILFFCB38CC,7,3.28,見其他登記事項,鋼筋混凝土造,98年8月13日,二十六層,
RPTRMLPLIILFFCB38CC,7,15.60,見其他登記事項,鋼筋混凝土造,98年8月13日,二十六層,
RPURMLPLIILFFCB48CC,7,73.96,住家用,鋼筋混凝土造,98年8月13日,十八層,
RPURMLPLIILFFCB48CC,7,6.04,見其他登記事項,鋼筋混凝土造,98年8月13日,二十六層,
RPURMLPLIILFFCB48CC,7,26.07,見其他登記事項,鋼筋混凝土造,98年8月13日,二十六層,
RPVRMLPLIILFFCB58CC,7,39.89,住家用,鋼筋混凝土造,98年8月13日,二十六層,
RPVRMLPLIILFFCB58CC,7,22.27,見其他登記事項,鋼筋混凝土造,98年8月13日,二十六層,
RPVRMLPLIILFFCB58CC,7,15.71,見其他登記事項,鋼筋混凝土造,98年8月13日,二十六層,
RPWNMLPLIILFFHL27DC,1,21.00,見其他登記事項,鋼筋混凝土造,104年8月13日,三層,
RPPOMLPLIILFFAB47CC,29,131.39,住商用,鋼筋混凝土造,76年12月15日,四層,
RPQOMLQLIILFFGL76DC,15,53.66,見其他登記事項,鋼筋混凝土造,90年6月27日,四層,
RPRNMLQLIILFFBB77CC,39,185.68,住商用,鋼筋混凝土造,66年9月2日,七層,
RPUNMLRLIILFFBB18CC,38,82.71,住商用,鋼筋混凝土造,68年3月3日,五層,
RPVNMLRLIILFFBB28CC,45,116.46,住家用,鋼筋混凝土加強磚造,61年2月4日,二層,
RPVNMLRLIILFFBB28CC,45,116.46,住家用,鋼筋混凝土加強磚造,61年2月4日,二層,
RPWQMLRLIILFFBB68CC,1,85.95,見其他登記事項,鋼筋混凝土造,104年11月3日,十二層,
RPVNMLRLIILFFCB38CC,19,829.36,見其他登記事項,見其他登記事項,86年3月7日,二層,
RPUPMLRLIILFFCB48CC,21,123.62,商業用,鋼筋混凝土造,84年10月24日,二十五層,
RPUPMLRLIILFFCB48CC,21,45.65,共有部分,鋼筋混凝土造,84年10月24日,二十五層,
RPUPMLRLIILFFCB48CC,21,1.79,共有部分,鋼筋混凝土造,84年10月24日,二十五層,
RPUPMLRLIILFFCB48CC,21,5.87,共有部分,鋼筋混凝土造,84年10月24日,二十五層,
RPUPMLRLIILFFCB48CC,21,3.51,共有部分,鋼筋混凝土造,84年10月24日,二十五層,
RPUPMLRLIILFFCB48CC,21,35.60,共有部分,鋼筋混凝土造,84年10月24日,二十五層,
RPQQMLRLIILFFCB18CC,,8827.15,見其他登記事項,見其他登記事項,105年8月3日,三層,
RPTPMLRLIILFFBB38DC,22,23.55,住家用,鋼筋混凝土造,83年9月7日,八層,
RPTPMLRLIILFFBB38DC,22,19.16,共有部份,鋼筋混凝土造,83年9月7日,八層,
RPUPMLRLIILFFBB48DC,23,63.84,住家用,鋼筋混凝土造,82年8月3日,八層,
RPUPMLRLIILFFBB48DC,23,19.05,共有部份,鋼筋混凝土造,82年8月3日,八層,
RPVPMLRLIILFFBB58DC,24,85.04,住家用,鋼筋混凝土造,81年8月26日,七層,
RPVPMLRLIILFFBB58DC,24,16.82,共有部分,鋼筋混凝土造,81年8月26日,七層,
RPTSMLRLIILFFBB68DC,18,186.38,見其它登記事項,鋼筋混凝土造,87年7月17日,十四層,
RPRNMLRLIILFFAB77CC,20,20.04,見其他登記事項,鋼筋混凝土造,85年5月6日,十八層,
RPRNMLRLIILFFAB77CC,20,3.72,見其他登記事項,鋼筋混凝土造,85年5月6日,十八層,
RPRNMLRLIILFFAB77CC,20,4.19,見其他登記事項,鋼筋混凝土造,85年5月6日,十八層,
RPRNMLRLIILFFAB77CC,20,1.00,見其他登記事項,鋼筋混凝土造,85年5月6日,十八層,
RPRNMLRLIILFFAB77CC,20,1.52,見其他登記事項,鋼筋混凝土造,85年5月6日,十八層,
RPSNMLRLIILFFAB87CC,20,20.84,見其他登記事項,鋼筋混凝土造,85年5月6日,十八層,
RPSNMLRLIILFFAB87CC,20,3.67,見其他登記事項,鋼筋混凝土造,85年5月6日,十八層,
RPSNMLRLIILFFAB87CC,20,4.15,見其他登記事項,鋼筋混凝土造,85年5月6日,十八層,
RPSNMLRLIILFFAB87CC,20,.99,見其他登記事項,鋼筋混凝土造,85年5月6日,十八層,
RPSNMLRLIILFFAB87CC,20,1.46,見其他登記事項,鋼筋混凝土造,85年5月6日,十八層,
RPVOMLRLIILFFAB28CC,4,175.01,見其他登記事項,鋼筋混凝土造,101年11月21日,二十六層,
RPVOMLRLIILFFAB28CC,4,94.05,見其他登記事項,鋼筋混凝土造,101年11月21日,二十六層,
RPVOMLRLIILFFAB28CC,4,44.26,見其他登記事項,鋼筋混凝土造,101年11月21日,二十六層,
RPRPMLRLIILFFAB97CC,10,66.72,見其他登記事項,鋼筋混凝土造,95年12月22日,十五層,
RPRPMLRLIILFFAB97CC,10,14.08,見其他登記事項,鋼筋混凝土造,95年12月22日,十五層,
RPRPMLRLIILFFAB97CC,10,35.26,見其他登記事項,鋼筋混凝土造,95年12月22日,十五層,
RPOOMLSLIILFFAB67CC,26,156.71,見其他登記事項,見其他登記事項,80年4月2日,三十七層,
RPOOMLSLIILFFAB67CC,26,105.82,見其他登記事項,見其他登記事項,80年4月2日,三十七層,
RPVOMLSLIILFFAB38CC,23,159.31,商業用,鋼筋混凝土造,82年5月24日,十二層,
RPVOMLSLIILFFAB38CC,23,19.90,見其他登記事項,鋼筋混凝土造,82年5月24日,十二層,
RPSPMLSLIILFFAB18CC,10,26.50,見其他登記事項,鋼筋混凝土造,95年10月26日,三十二層,
RPSPMLSLIILFFAB18CC,10,4.41,見其他登記事項,鋼筋混凝土造,95年6月22日,三十二層,
RPSPMLSLIILFFAB18CC,10,11.08,見其他登記事項,鋼筋混凝土造,95年10月26日,三十二層,
RPUPMLSLIILFFAB38CC,26,220.10,商業用,鋼筋混凝土造,79年11月10日,十四層,
RPUPMLSLIILFFAB38CC,26,10.03,見其他登記事項,鋼筋混凝土造,79年11月10日,十四層,
RPUPMLSLIILFFAB38CC,26,42.20,見其他登記事項,鋼筋混凝土造,79年11月10日,十四層,
RPUPMLSLIILFFAB38CC,26,36.89,見其他登記事項,鋼筋混凝土造,79年11月10日,十四層,
RPVRMLSLIILFFCB88CC,1,180.61,見其他登記事項,鋼骨鋼筋混凝土造,104年9月24日,三十四層,
RPVRMLSLIILFFCB88CC,1,46.22,見其他登記事項,鋼骨鋼筋混凝土造,104年9月24日,三十四層,
RPVRMLSLIILFFCB88CC,1,56.27,見其他登記事項,鋼骨鋼筋混凝土造,104年9月24日,三十四層,
RPWRMLSLIILFFCB98CC,7,127.26,住家用,鋼筋混凝土造,99年1月20日,十五層,
RPWRMLSLIILFFCB98CC,7,82.54,見其他登記事項,鋼筋混凝土造,99年1月20日,十五層,
RPPSMLSLIILFFCB38CC,7,41.83,住家用,鋼筋混凝土造,98年8月13日,二十六層,
RPPSMLSLIILFFCB38CC,7,3.45,見其他登記事項,鋼筋混凝土造,98年8月13日,二十六層,
RPPSMLSLIILFFCB38CC,7,16.44,見其他登記事項,鋼筋混凝土造,98年8月13日,二十六層,
RPRSMLSLIILFFCB58CC,10,94.90,住家用,鋼筋混凝土造,95年8月25日,十五層,
RPRSMLSLIILFFCB58CC,10,58.39,見其他登記事項,鋼筋混凝土造,95年8月25日,十五層,
RPXSMLSLIILFFCB56CC,3,355.34,見其他登記事項,鋼骨鋼筋混凝土造,103年4月3日,三十六層,
RPXSMLSLIILFFCB56CC,3,105.84,見其他登記事項,鋼骨鋼筋混凝土造,103年4月3日,三十六層,
RPXSMLSLIILFFCB56CC,3,113.20,見其他登記事項,鋼骨鋼筋混凝土造,103年4月3日,三十六層,
RPPTMLSLIILFFCB48CC,10,127.18,見其他登記事項,見其他登記事項,95年8月2日,一層,
RPRNMLSLIILFFBB97CC,27,150.95,住商用,鋼筋混凝土造,79年4月16日,十七層,
RPRNMLSLIILFFBB97CC,27,20.87,共有部份,鋼筋混凝土造,79年4月16日,十八層,
RPSNMLTLIILFFCB28CC,20,400.41,見其他登記事項,鋼筋混凝土造,86年1月18日,二十一層,
RPVNMLTLIILFFCB58CC,19,92.81,住家用,鋼筋混凝土造,86年10月20日,十四層,
RPVNMLTLIILFFCB58CC,19,44.92,共有部分,鋼筋混凝土造,86年10月20日,十四層,
RPWNMLTLIILFFCB68CC,22,96.69,住家用,鋼筋混凝土造,83年4月25日,十三層,
RPWNMLTLIILFFCB68CC,22,38.75,共有部分,鋼筋混凝土造,83年4月25日,十三層,
RPXNMLTLIILFFCB78CC,25,21.29,住家用,鋼筋混凝土造,81年3月17日,六層,
RPXNMLTLIILFFCB78CC,25,7.76,共有部分,鋼筋混凝土造,81年3月17日,六層,
RPPOMLTLIILFFCB08CC,21,104.60,住家用,鋼筋混凝土造,84年7月14日,十層,
RPPOMLTLIILFFCB08CC,21,34.76,共有部分,鋼筋混凝土造,84年7月14日,十層,
RPOPMLLMIILFFCB37CC,2,158.37,住家用,鋼筋混凝土造,103年5月20日,十四層,
RPRPMLLMIILFFCB67CC,23,63.88,住商用,鋼筋混凝土造,82年9月8日,八層,
RPVPMLLMIILFFCB08CC,14,219.28,見其他登記事項,見其他登記事項,91年10月16日,一層,
RPTPMLLMIILFFGL76DC,9,181.74,見其他登記事項,鋼筋混凝土造,97年1月8日,四層,
