編號,屋齡,建物移轉面積平方公尺,主要用途,主要建材,建築完成日期,總層數,建物分層
RPTNMLSJQHLFFAI09CA,22,104.40,住家用,鋼筋混凝土造,83年5月16日,十二層,八層
RPTNMLSJQHLFFAI09CA,22,13.65,共有部份,鋼筋混凝土造,83年5月16日,十二層,
RPTNMLSJQHLFFAI09CA,22,2.40,共有部份,鋼筋混凝土造,83年5月16日,十二層,
RPTNMLSJQHLFFAI09CA,22,16.69,共有部份,鋼筋混凝土造,83年5月16日,十二層,
RPPOMLTJQHLFFAI88CA,23,76.55,住家用,鋼筋混凝土造,82年12月17日,七層,五層
RPPOMLTJQHLFFAI88CA,23,30.09,共有部份,鋼筋混凝土造,82年12月17日,七層,
RPSOMLLKQHLFFAI48CA,30,281.00,住商用,鋼筋混凝土造,75年6月12日,四層,一層 二層 三層 四層 騎樓 地下層
RPRNMLOKQHLFFAI58CA,24,88.04,住家用,鋼筋混凝土造,81年6月1日,六層,六層
RPRNMLOKQHLFFAI58CA,24,16.24,共有部份,鋼筋混凝土造,81年6月1日,六層,
RPRNMLOKQHLFFAI58CA,24,16.94,共有部份,鋼筋混凝土造,81年6月1日,六層,
RPRNMLOKQHLFFAI58CA,24,17.60,見其他登記事項,鋼筋混凝土造,81年6月1日,六層,地下層
RPRNMLOKQHLFFAI58CA,24,3.02,共有部份,鋼筋混凝土造,81年6月1日,六層,
RPTNMLOKQHLFFAI78CA,20,89.67,住家用,鋼筋混凝土造,85年3月11日,二十層,十層
RPTNMLOKQHLFFAI78CA,20,24.10,共有部份,鋼筋混凝土造,85年3月11日,二十層,
RPXNMLPKQHLFFAI66CA,4,318.41,見其他登記事項,見其他登記事項,101年11月21日,四層,一層 二層 三層 四層 見其他登記事項
RPTNMLKMQHLFFAI58CA,,237.76,見其他登記事項,見其他登記事項,105年4月14日,四層,一層 二層 三層 四層 見其他登記事項
RPPNMLNJQHLFFAI38EA,21,90.87,住家用,鋼筋混凝土造,84年10月13日,十二層,三層
RPPNMLNJQHLFFAI38EA,21,23.89,共有部份,鋼筋混凝土造,84年10月13日,十二層,
RPXNMLOJQHLFFAI66EA,18,241.98,住家用,鋼筋混凝土造,87年11月25日,五層,一層 二層 三層 四層 五層
RPRNMLQKQHLFFAI98EA,22,71.62,住家用,鋼筋混凝土造,83年5月3日,五層,五層
RPRNMLQKQHLFFAI98EA,22,6.30,共有部份,鋼筋混凝土造,83年5月3日,五層,
RPSNMLSKQHLFFAI09CA,23,63.04,住家用,鋼筋混凝土造,82年12月20日,十二層,六層
RPSNMLSKQHLFFAI09CA,23,22.21,共有部份,鋼筋混凝土造,82年12月20日,十二層,
RPWNMLKKQHLFFAI68CA,37,133.12,住商用,見使用執照,68年4月16日,二層,一層 二層 騎樓
RPQOMLKKQHLFFAI18CA,41,92.16,住商用,鋼筋混凝土加強磚造,64年11月10日,二層,一層 二層 騎樓
RPVNMLPJQHLFFAI98CA,24,67.02,住家用,鋼筋混凝土造,82年1月5日,十二層,十層
RPVNMLPJQHLFFAI98CA,24,16.05,共有部份,鋼筋混凝土造,82年1月5日,十二層,
RPVNMLPJQHLFFAI98CA,24,3.34,共有部份,鋼筋混凝土造,82年1月5日,十二層,
RPXNMLNJQHLFFAI98CA,12,114.64,住家用,鋼筋混凝土造,93年10月28日,十四層,八層
RPXNMLNJQHLFFAI98CA,12,71.76,共有部份,鋼筋混凝土造,93年10月28日,十四層,
RPSNMLOJQHLFFAI58CA,22,60.37,住家用,鋼筋混凝土造,83年11月11日,二十一層,七層
RPSNMLOJQHLFFAI58CA,22,14.41,共有部份,鋼筋混凝土造,83年11月11日,二十一層,
RPQNMLPJQHLFFAI48CA,20,59.30,住家用,鋼筋混凝土造,85年6月18日,九層,五層
RPQNMLPJQHLFFAI48CA,20,39.43,共有部份,鋼筋混凝土造,85年6月18日,九層,
RPRNMLLKQHLFFAI28CA,4,211.95,住商用,見其他登記事項,101年2月16日,四層,一層 二層 三層 四層
RPPOMLQKQHLFFAI68CA,41,91.28,住家用,鋼筋混凝土加強磚造,64年9月12日,二層,一層 二層
RPQNMLTKQHLFFAI98CA,17,78.00,住家用,鋼筋混凝土造,88年2月12日,十三層,十二層
RPQNMLTKQHLFFAI98CA,17,27.21,共有部份,鋼筋混凝土造,88年2月12日,十三層,
RPQNMLTKQHLFFAI98CA,17,9.95,共有部份,鋼筋混凝土造,88年2月12日,十三層,
RPWQMLLLQHLFFAI56CA,,87.12,見其他登記事項,見其他登記事項,105年5月10日,十四層,九層
RPWQMLLLQHLFFAI56CA,,14.08,見其他登記事項,見其他登記事項,105年5月10日,十四層,
RPWQMLLLQHLFFAI56CA,,21.38,見其他登記事項,見其他登記事項,105年5月10日,十四層,
RPXQMLLLQHLFFAI66CA,,87.12,見其他登記事項,見其他登記事項,105年5月10日,十四層,七層
RPXQMLLLQHLFFAI66CA,,21.70,見其他登記事項,見其他登記事項,105年5月10日,十四層,
RPXQMLLLQHLFFAI66CA,,43.50,見其他登記事項,見其他登記事項,105年5月10日,十四層,
RPORMLLLQHLFFAI48CA,,83.38,見其他登記事項,見其他登記事項,105年5月10日,十四層,九層
RPORMLLLQHLFFAI48CA,,43.96,見其他登記事項,見其他登記事項,105年5月10日,十四層,
RPORMLLLQHLFFAI48CA,,20.77,見其他登記事項,見其他登記事項,105年5月10日,十四層,
RPPRMLLLQHLFFAI58CA,,97.34,見其他登記事項,見其他登記事項,105年5月10日,十四層,三層
RPPRMLLLQHLFFAI58CA,,77.19,見其他登記事項,見其他登記事項,105年5月10日,十四層,
RPPRMLLLQHLFFAI58CA,,27.71,見其他登記事項,見其他登記事項,105年5月10日,十四層,
RPQRMLLLQHLFFAI68CA,,91.22,見其他登記事項,見其他登記事項,105年5月10日,十四層,八層
RPQRMLLLQHLFFAI68CA,,45.69,見其他登記事項,見其他登記事項,105年5月10日,十四層,
RPQRMLLLQHLFFAI68CA,,25.97,見其他登記事項,見其他登記事項,105年5月10日,十四層,
RPRRMLLLQHLFFAI78CA,,62.39,見其他登記事項,見其他登記事項,105年5月10日,十四層,十四層
RPRRMLLLQHLFFAI78CA,,40.84,見其他登記事項,見其他登記事項,105年5月10日,十四層,
RPRRMLLLQHLFFAI78CA,,17.76,見其他登記事項,見其他登記事項,105年5月10日,十四層,
RPSRMLLLQHLFFAI88CA,,95.44,見其他登記事項,見其他登記事項,105年5月10日,十四層,九層
RPSRMLLLQHLFFAI88CA,,30.46,見其他登記事項,見其他登記事項,105年5月10日,十四層,
RPSRMLLLQHLFFAI88CA,,29.50,見其他登記事項,見其他登記事項,105年5月10日,十四層,
RPSNMLKMQHLFFAI48CA,23,104.22,住家用,鋼筋混凝土造,82年5月15日,十五層,十二層
RPSNMLKMQHLFFAI48CA,23,11.59,共有部份,鋼筋混凝土造,82年5月15日,十五層,
RPSNMLKMQHLFFAI48CA,23,16.18,共有部份,鋼筋混凝土造,82年5月15日,十五層,
RPSNMLLMQHLFFAI58CA,31,67.02,住家用,鋼筋混凝土造,74年9月19日,五層,
RPSNMLLMQHLFFAI58CA,31,7.00,共有部份,鋼筋混凝土造,74年9月19日,五層,
RPSNMLLMQHLFFAI58CA,31,8.07,共有部份,鋼筋混凝土造,74年9月19日,五層,
RPVNMLSKQHLFFAI76CA,40,90.33,住家用,鋼筋混凝土加強磚造,65年2月24日,二層,一層 二層
RPPNMLQJQHLFFAI48CA,1,406.89,見其他登記事項,見其他登記事項,104年2月9日,四層,一層 二層 三層 四層
RPUNMLTJQHLFFAI66CA,20,33.54,住家用,鋼筋混凝土造,85年2月5日,十五層,七層
RPUNMLTJQHLFFAI66CA,20,2.98,見其他登記事項,鋼筋混凝土造,85年2月5日,十五層,
RPUNMLTJQHLFFAI66CA,20,6.50,共有部份,鋼筋混凝土造,85年2月5日,十五層,
RPRNMLTJQHLFFAI98CA,27,88.65,住家用,鋼筋混凝土造,78年7月3日,十二層,四層
RPRNMLTJQHLFFAI98CA,27,11.96,共有部份,鋼筋混凝土造,78年7月3日,十二層,
RPRNMLTJQHLFFAI98CA,27,9.50,共有部份,鋼筋混凝土造,78年7月3日,十二層,
RPPNMLTJQHLFFAI78CA,40,84.77,住家用,鋼筋混凝土加強磚造,65年8月26日,二層,一層 二層
RPOOMLPKQHLFFAI48CA,23,86.52,住家用,鋼筋混凝土造,82年5月15日,十五層,十四層
RPOOMLPKQHLFFAI48CA,23,9.60,共有部份,鋼筋混凝土造,82年5月15日,十五層,
RPOOMLPKQHLFFAI48CA,23,13.36,共有部份,鋼筋混凝土造,82年5月15日,十五層,
RPWOMLSKQHLFFAI96CA,23,57.92,見其他登記事項,鋼筋混凝土造,82年7月2日,五層,五層
RPWOMLSKQHLFFAI96CA,23,2.46,共有部份,鋼筋混凝土造,82年7月2日,五層,
RPWOMLSKQHLFFAI96CA,23,4.64,共有部份,鋼筋混凝土造,82年7月2日,五層,
RPWOMLSKQHLFFAI96CA,23,57.92,見其他登記事項,鋼筋混凝土造,82年7月2日,五層,五層
RPWOMLSKQHLFFAI96CA,23,2.46,共有部份,鋼筋混凝土造,82年7月2日,五層,
RPWOMLSKQHLFFAI96CA,23,4.64,共有部份,鋼筋混凝土造,82年7月2日,五層,
RPOOMLQKQHLFFAI58CA,24,11.64,住家用,鋼筋混凝土造,81年2月27日,六層,地下層
RPOOMLQKQHLFFAI58CA,24,41.49,共有部份,鋼筋混凝土造,81年2月27日,六層,
RPOOMLQKQHLFFAI58CA,24,94.87,住家用,鋼筋混凝土造,81年2月27日,六層,五層
RPOOMLQKQHLFFAI58CA,24,1.71,共有部份,鋼筋混凝土造,81年2月27日,六層,
RPQNMLTJQHLFFAI88CA,21,31.98,住家用,鋼筋混凝土造,84年10月4日,十一層,五層
RPQNMLTJQHLFFAI88CA,21,4.45,共有部份,鋼筋混凝土造,84年10月4日,十一層,
RPQNMLTJQHLFFAI88CA,21,6.27,共有部份,鋼筋混凝土造,84年10月4日,十一層,
RPQNMLRLQHLFFAI88CA,5,269.13,見其他登記事項,見其他登記事項,100年8月3日,四層,一層 二層 三層 四層
RPOOMLNLQHLFFAI38CA,27,88.65,住家用,鋼筋混凝土造,78年7月3日,十二層,五層
RPOOMLNLQHLFFAI38CA,27,11.96,共有部份,鋼筋混凝土造,78年7月3日,十二層,
RPOOMLNLQHLFFAI38CA,27,9.50,共有部份,鋼筋混凝土造,78年7月3日,十二層,
RPTNMLQLQHLFFAI66EA,23,57.88,住家用,鋼筋混凝土造,83年1月5日,七層,五層
RPTNMLQLQHLFFAI66EA,23,11.26,共有部份,鋼筋混凝土造,83年1月5日,七層,
RPTNMLQLQHLFFAI66EA,23,13.50,共有部份,鋼筋混凝土造,83年1月5日,八層,
RPUOMLMLQHLFFAI88CA,,87.12,見其他登記事項,見其他登記事項,105年5月10日,十四層,六層
RPUOMLMLQHLFFAI88CA,,44.53,見其他登記事項,見其他登記事項,105年5月10日,十四層,
RPUOMLMLQHLFFAI88CA,,21.38,見其他登記事項,見其他登記事項,105年5月10日,十四層,
RPVOMLMLQHLFFAI98CA,,87.12,見其他登記事項,見其他登記事項,105年5月10日,十四層,十一層
RPVOMLMLQHLFFAI98CA,,21.70,見其他登記事項,見其他登記事項,105年5月10日,十四層,
RPVOMLMLQHLFFAI98CA,,44.53,見其他登記事項,見其他登記事項,105年5月10日,十四層,
RPWOMLMLQHLFFAI09CA,,102.46,見其他登記事項,見其他登記事項,105年5月10日,十四層,五層
RPWOMLMLQHLFFAI09CA,,28.34,見其他登記事項,見其他登記事項,105年5月10日,十四層,
RPWOMLMLQHLFFAI09CA,,47.42,見其他登記事項,見其他登記事項,105年5月10日,十四層,
RPXOMLMLQHLFFAI56CA,,102.46,見其他登記事項,見其他登記事項,105年5月10日,十四層,十二層
RPXOMLMLQHLFFAI56CA,,28.34,見其他登記事項,見其他登記事項,105年5月10日,十四層,
RPXOMLMLQHLFFAI56CA,,47.42,見其他登記事項,見其他登記事項,105年5月10日,十四層,
RPUNMLKKQHLFFAI48CA,45,1375.14,見其他登記事項,鋼筋混凝土造,60年4月30日,四層,一層 二層 三層 四層 騎樓 地下層
RPVNMLMKQHLFFAI78CA,20,77.26,住家用,鋼筋混凝土造,85年3月11日,二十層,九層
RPVNMLMKQHLFFAI78CA,20,8.97,停車空間,鋼筋混凝土造,85年3月11日,二十層,
RPVNMLMKQHLFFAI78CA,20,19.58,共有部份,鋼筋混凝土造,85年3月11日,二十層,
RPQNMLLKQHLFFAI18CA,23,22.65,住家用,鋼筋混凝土造,82年10月12日,七層,四層
RPQNMLLKQHLFFAI18CA,23,13.60,共有部份,鋼筋混凝土造,82年10月12日,七層,
RPPNMLPKQHLFFAI48CA,24,97.16,住家用,鋼筋混凝土造,81年5月13日,七層,七層
RPPNMLPKQHLFFAI48CA,24,41.25,共有部份,鋼筋混凝土造,81年5月13日,七層,
RPVOMLLKQHLFFAI78CA,31,69.61,住家用,鋼筋混凝土造,74年6月25日,五層,五層
RPVOMLLKQHLFFAI78CA,31,4.85,共有部份,鋼筋混凝土造,74年6月25日,五層,
RPVOMLLKQHLFFAI78CA,31,6.27,共有部份,鋼筋混凝土造,74年6月25日,五層,
RPTNMLSKQHLFFAI56CA,36,83.51,住商用,鋼筋混凝土加強磚造,69年10月8日,二層,一層 二層
RPROMLPJRHLFFAI78CA,1,260.34,見其他登記事項,見其他登記事項,105年1月11日,四層,一層 二層 三層 四層
RPQPMLQLQHLFFAI98CA,23,28.30,住家用,鋼筋混凝土造,82年6月9日,十六層,四層
RPQPMLQLQHLFFAI98CA,23,4.66,共有部份,鋼筋混凝土造,82年6月9日,十六層,
RPQPMLQLQHLFFAI98CA,23,6.11,共有部份,鋼筋混凝土造,82年6月9日,十六層,
RPWNMLSKQHLFFAI86CA,20,108.92,住家用,鋼筋混凝土造,85年3月11日,二十層,十七層
RPWNMLSKQHLFFAI86CA,20,31.63,共有部份,鋼筋混凝土造,85年3月11日,二十層,
RPSNMLLKQHLFFAI38CA,12,108.12,住家用,鋼筋混凝土造,93年11月3日,十四層,九層
RPSNMLLKQHLFFAI38CA,12,69.55,共有部份,鋼筋混凝土造,93年11月3日,十四層,
RPTOMLKKQHLFFAI48CA,44,72.40,住家用,鋼筋混凝土加強磚造,61年12月25日,二層,一層 二層
RPQOMLOLQHLFFAI68CA,21,32.01,住家用,鋼筋混凝土造,84年10月13日,十二層,三層
RPQOMLOLQHLFFAI68CA,21,7.78,共有部份,鋼筋混凝土造,84年10月13日,十二層,
RPOPMLMLQHLFFAI38CA,,74.76,見其他登記事項,見其他登記事項,105年5月10日,十四層,十一層
RPOPMLMLQHLFFAI38CA,,18.35,見其他登記事項,見其他登記事項,105年5月10日,十四層,
RPOPMLMLQHLFFAI38CA,,42.57,見其他登記事項,見其他登記事項,105年5月10日,十四層,
RPPPMLMLQHLFFAI48CA,,102.62,見其他登記事項,見其他登記事項,105年5月10日,十四層,十四層
RPPPMLMLQHLFFAI48CA,,47.53,見其他登記事項,見其他登記事項,105年5月10日,十四層,
RPPPMLMLQHLFFAI48CA,,29.20,見其他登記事項,見其他登記事項,105年5月10日,十四層,
RPUNMLMLQHLFFAI78CA,22,83.59,住家用,鋼筋混凝土造,83年5月30日,十六層,九層
RPUNMLMLQHLFFAI78CA,22,27.04,共有部份,鋼筋混凝土造,83年5月30日,十六層,
RPOQMLTKQHLFFAI09CA,43,79.28,住家用,鋼筋混凝土加強磚造,62年4月2日,二層,一層 二層
RPUNMLLKQHLFFAI78EA,11,199.53,住家用,鋼筋混凝土造,94年4月12日,四層,一層 二層 三層 四層
RPWPMLTKQHLFFAI17CA,37,105.40,住商用,鋼筋混凝土造,68年3月27日,三層,一層 二層 三層 騎樓
RPTOMLMLQHLFFAI78CA,21,86.46,住家用,鋼筋混凝土造,84年11月9日,十六層,九層
RPTOMLMLQHLFFAI78CA,21,32.17,共有部份,鋼筋混凝土造,84年11月9日,十六層,
RPQNMLOLQHLFFAI58CA,37,124.21,住商用,鋼筋混凝土加強磚造,68年11月6日,二層,一層 二層 騎樓
RPPNMLMKQHLFFAI18CA,30,195.46,住家用,鋼筋混凝土造,75年8月25日,三層,一層 二層 三層
RPQNMLMKQHLFFAI28CA,24,115.78,住家用,鋼筋混凝土造,81年8月4日,十層,六層
RPQNMLMKQHLFFAI28CA,24,22.51,共有部份,鋼筋混凝土造,81年8月4日,十層,
RPQNMLMKQHLFFAI28CA,24,11.92,共有部份,鋼筋混凝土造,81年8月4日,十層,
RPPPMLSKQHLFFAI98CA,37,42.00,住家用,鋼筋混凝土加強磚造,68年8月14日,一層,一層
RPWNMLLMQHLFFAI98CA,26,91.98,住家用,鋼筋混凝土造,79年10月23日,七層,
RPWNMLLMQHLFFAI98CA,26,13.49,共有部份,鋼筋混凝土造,79年10月23日,七層,
RPWNMLLMQHLFFAI98CA,26,14.61,共有部份,鋼筋混凝土造,79年10月23日,七層,
RPXNMLLMQHLFFAI09CA,14,188.70,住家用,鋼筋混凝土造,91年6月5日,五層,
RPXNMLLMQHLFFAI09CA,14,48.77,共有部份,鋼筋混凝土造,91年6月5日,五層,
RPOOMLLMQHLFFAI28CA,9,177.24,住家用,鋼筋混凝土造,96年6月26日,四層,
RPQNMLPJRHLFFAI58CA,26,30.38,住家用,鋼筋混凝土造,79年11月10日,八層,六層
RPQNMLPJRHLFFAI58CA,26,4.89,共有部份,鋼筋混凝土造,79年11月10日,八層,
RPXNMLSJRHLFFAI96CA,26,126.65,住家用,鋼筋混凝土造,79年4月23日,七層,一層 地下層
RPXNMLSJRHLFFAI96CA,26,28.93,共有部份,鋼筋混凝土造,79年4月23日,七層,
RPOOMLSJRHLFFAI78CA,24,150.94,住家用,鋼筋混凝土造,81年6月30日,三層,一層 二層 三層
RPXOMLSJRHLFFAI07CA,2,220.67,見其他登記事項,見其他登記事項,103年12月2日,四層,一層 二層 三層 四層 見其他登記事項
RPXOMLSJRHLFFAI07CA,2,.18,見其他登記事項,見其他登記事項,103年12月2日,四層,
RPOOMLPJRHLFFAI48CA,4,150.21,見其他登記事項,見其他登記事項,101年10月31日,三層,一層 二層 三層 見其他登記事項
RPXNMLRKQHLFFAI86CA,18,80.54,住家用,鋼筋混凝土造,87年3月19日,二十二層,四層
RPXNMLRKQHLFFAI86CA,18,16.74,共有部份,鋼筋混凝土造,87年3月19日,二十二層,
RPXNMLRKQHLFFAI86CA,18,18.09,共有部份,鋼筋混凝土造,87年3月19日,二十二層,
RPTOMLRKQHLFFAI56CA,25,118.24,住家用,鋼筋混凝土造,80年9月20日,五層,五層
RPTOMLRKQHLFFAI56CA,,5.44,共有部份,鋼筋混凝土造,,五層,
RPVNMLPKQHLFFAI09CA,1,366.73,見其他登記事項,見其他登記事項,104年5月26日,五層,一層 二層 三層 四層 五層
RPSOMLPLQHLFFAI98CA,24,102.76,住家用,鋼筋混凝土造,81年8月4日,十層,四層
RPSOMLPLQHLFFAI98CA,24,22.51,共有部份,鋼筋混凝土造,81年8月4日,十層,
RPSOMLPLQHLFFAI98CA,24,12.80,共有部份,鋼筋混凝土造,81年8月4日,十層,
RPPNMLNLQHLFFAI38CA,8,5.66,共有部份,鋼筋混凝土造,97年3月3日,四層,
RPPNMLNLQHLFFAI38CA,8,8.36,見其他登記事項,鋼筋混凝土造,97年3月3日,四層,四層
RPPNMLNLQHLFFAI38CA,8,5.66,共有部份,鋼筋混凝土造,97年3月3日,四層,
RPPNMLNLQHLFFAI38CA,8,8.36,見其他登記事項,鋼筋混凝土造,97年3月3日,四層,四層
RPPOMLMLQHLFFAI38CA,21,91.16,住家用,鋼筋混凝土造,84年10月13日,十二層,四層
RPPOMLMLQHLFFAI38CA,21,19.45,共有部份,鋼筋混凝土造,84年10月13日,十二層,
RPPOMLMLQHLFFAI38CA,21,16.00,見其他登記事項,鋼筋混凝土造,84年10月13日,十二層,地下二層
RPPOMLMLQHLFFAI38CA,21,2.19,共有部份,鋼筋混凝土造,84年10月13日,十二層,
RPTNMLRKQHLFFAI09CA,12,203.04,見其他登記事項,鋼筋混凝土造,93年9月14日,三層,一層 二層 三層 見其他登記事項
RPVNMLTKQHLFFAI86CA,24,146.05,住家用,鋼筋混凝土造,81年12月10日,十六層,六層
RPVNMLTKQHLFFAI86CA,24,9.32,共有部份,鋼筋混凝土造,81年12月10日,十六層,
RPVNMLTKQHLFFAI86CA,24,19.39,共有部份,鋼筋混凝土造,81年12月10日,十六層,
RPVNMLTKQHLFFAI86CA,24,36.77,見其他登記事項,鋼筋混凝土造,81年12月10日,十六層,地下二層
RPVNMLTKQHLFFAI86CA,24,.21,共有部份,鋼筋混凝土造,81年12月10日,十六層,
RPUOMLLMQHLFFAI88CA,32,120.92,住家用,加強磚造,73年8月13日,二層,
RPTPMLSJRHLFFAI76CA,,233.11,見其他登記事項,見其他登記事項,105年5月9日,四層,一層 二層 三層 四層
RPVPMLSJRHLFFAI96CA,,299.66,見其他登記事項,見其他登記事項,105年5月9日,四層,一層 二層 三層 四層 見其他登記事項
RPWPMLSJRHLFFAI07CA,,211.04,見其他登記事項,見其他登記事項,105年5月9日,四層,一層 二層 三層 四層
RPXPMLSJRHLFFAI17CA,,257.95,見其他登記事項,見其他登記事項,105年5月9日,四層,一層 二層 三層 四層 見其他登記事項
RPWNMLMKRHLFFAI98CA,15,184.92,住家用,鋼筋混凝土造,90年3月1日,四層,一層 二層 三層 四層
RPUOMLMKRHLFFAI88CA,,195.31,見其他登記事項,見其他登記事項,105年4月18日,三層,一層 二層 三層 見其他登記事項
RPUPMLSJRHLFFAI86CA,,211.11,見其他登記事項,見其他登記事項,105年5月9日,四層,一層 二層 三層 四層
RPSNMLLJRHLFFAI38CA,17,260.24,見其他登記事項,鋼筋混凝土造,88年3月5日,三層,一層 二層 三層 騎樓
RPTOMLLMQHLFFAI78CA,38,105.34,住家用,鋼筋混凝土加強磚造,67年9月18日,二層,
RPOPMLSKQHLFFAI88CA,21,75.62,住家用,鋼筋混凝土造,84年10月4日,十一層,九層
RPOPMLSKQHLFFAI88CA,21,13.45,共有部份,鋼筋混凝土造,84年10月4日,十一層,
RPOPMLSKQHLFFAI88CA,21,9.45,共有部份,鋼筋混凝土造,84年10月4日,十一層,
RPUNMLSKQHLFFAI66CA,23,86.96,住家用,鋼筋混凝土造,82年6月9日,十六層,六層
RPUNMLSKQHLFFAI66CA,23,21.37,共有部份,鋼筋混凝土造,82年6月9日,十六層,
RPUNMLSKQHLFFAI66CA,23,14.23,共有部份,鋼筋混凝土造,82年6月9日,十六層,
RPTPMLTKQHLFFAI86CA,,419.88,見其他登記事項,見其他登記事項,105年4月15日,三層,一層 二層 三層 地下一層 見其他登記事項
RPTPMLTKQHLFFAI86CA,,27.58,見其他登記事項,見其他登記事項,105年4月15日,一層,
RPPOMLNLQHLFFAI48CA,,561.06,見其他登記事項,見其他登記事項,105年4月15日,三層,一層 二層 三層 地下一層 見其他登記事項
RPPOMLNLQHLFFAI48CA,,27.58,見其他登記事項,見其他登記事項,105年4月15日,一層,
RPVNMLOLQHLFFAI09CA,17,97.28,住家用,鋼筋混凝土造,88年7月17日,十二層,十層
RPVNMLOLQHLFFAI09CA,17,29.53,共有部份,鋼筋混凝土造,88年7月17日,十二層,
RPVNMLOLQHLFFAI09CA,17,13.38,共有部份,鋼筋混凝土造,88年7月17日,十二層,
RPPOMLPLQHLFFAI68CA,22,90.89,住家用,鋼筋混凝土造,83年11月25日,十六層,十五層
RPPOMLPLQHLFFAI68CA,22,6.95,共有部份,鋼筋混凝土造,83年11月25日,十六層,
RPPOMLPLQHLFFAI68CA,22,10.95,共有部份,鋼筋混凝土造,83年11月25日,十六層,
RPPOMLPLQHLFFAI68CA,22,11.44,住家用,鋼筋混凝土造,83年11月25日,十六層,地下層
RPPOMLPLQHLFFAI68CA,22,.00,共有部份,鋼筋混凝土造,83年11月25日,十六層,
RPTNMLMLQHLFFAI88EA,16,211.85,住家用,鋼筋混凝土造,89年9月20日,四層,一層 二層 三層 四層
RPSOMLMLQHLFFAI68CA,17,224.66,見其他登記事項,鋼筋混凝土造,88年11月29日,五層,一層 二層 三層 四層 五層
RPSNMLNLQHLFFAI68CA,5,261.36,見其他登記事項,見其他登記事項,101年1月16日,五層,一層 二層 三層 四層 五層 騎樓
RPUNMLNLQHLFFAI88CA,5,250.46,見其他登記事項,見其他登記事項,101年1月16日,五層,一層 二層 三層 四層 五層 騎樓
RPVNMLNLQHLFFAI98CA,39,215.22,住家用,鋼筋混凝土加強磚造,66年6月28日,二層,一層 二層
RPSPMLTKQHLFFAI76CA,,397.73,見其他登記事項,見其他登記事項,105年4月15日,三層,一層 二層 三層 地下一層 見其他登記事項
RPSPMLTKQHLFFAI76CA,,27.58,見其他登記事項,見其他登記事項,105年4月15日,一層,
RPWNMLMLQHLFFAI98CA,23,83.26,住家用,鋼筋混凝土造,82年7月13日,十二層,九層
RPWNMLMLQHLFFAI98CA,23,19.05,共有部份,鋼筋混凝土造,82年7月13日,十二層,
RPWNMLMLQHLFFAI98CA,23,38.00,共有部份,鋼筋混凝土造,82年7月13日,十二層,
RPSNMLMLQHLFFAI58CA,27,116.61,住家用,鋼筋混凝土造,78年7月3日,十二層,三層
RPSNMLMLQHLFFAI58CA,27,15.55,共有部份,鋼筋混凝土造,78年7月3日,十二層,
RPSNMLMLQHLFFAI58CA,27,12.67,共有部份,鋼筋混凝土造,78年7月3日,十二層,
RPTNMLLJRHLFFAI48CA,24,270.22,商業用,鋼筋混凝土造,80年11月2日,八層,二層
RPTNMLLJRHLFFAI48CA,24,137.48,商業用,鋼筋混凝土造,80年11月2日,八層,一層 騎樓
RPTNMLLJRHLFFAI48CA,24,11.11,共有部份,鋼筋混凝土造,80年11月2日,八層,
RPTNMLLJRHLFFAI48CA,24,38.42,共有部份,鋼筋混凝土造,80年11月2日,八層,
RPPOMLKMQHLFFAI28CA,31,127.81,住家用,鋼筋混凝土造,74年7月24日,二層,一層 二層 騎樓
RPXNMLMKRHLFFAI09CA,25,85.57,住家用,鋼筋混凝土造,80年6月20日,七層,二層
RPXNMLMKRHLFFAI09CA,25,11.45,共有部份,鋼筋混凝土造,80年6月20日,七層,
RPPNMLOKRHLFFAI48CA,26,65.47,住家用,鋼筋混凝土造,79年10月15日,七層,六層
RPPNMLOKRHLFFAI48CA,26,12.04,共有部份,鋼筋混凝土造,79年10月15日,七層,
RPWNMLTKQHLFFAI96CA,23,64.67,住家用,鋼筋混凝土造,82年6月9日,十二層,九層
RPWNMLTKQHLFFAI96CA,23,11.98,共有部份,鋼筋混凝土造,82年6月9日,十二層,
RPWNMLTKQHLFFAI96CA,23,10.20,共有部份,鋼筋混凝土造,82年6月9日,十二層,
RPTNMLOLQHLFFAI88CA,17,112.51,住家用,鋼筋混凝土造,88年7月17日,十二層,十一層
RPTNMLOLQHLFFAI88CA,17,14.14,共有部份,鋼筋混凝土造,88年7月17日,十二層,
RPTNMLOLQHLFFAI88CA,17,15.93,共有部份,鋼筋混凝土造,88年7月17日,十二層,
RPRNMLNLQHLFFAI68DA,38,95.16,住家用,鋼筋混凝土加強磚造,67年3月7日,二層,一層 二層
RPXNMLTLQHLFFAI27DA,10,168.95,見其他登記事項,鋼筋混凝土造,95年11月3日,三層,一層 二層 三層 見其他登記事項
RPVPMLTKQHLFFAI27EA,40,135.31,住商用,鋼筋混凝土加強磚造,65年9月18日,三層,一層 二層 三層 騎樓 地下層
RPUNMLOLQHLFFAI98CA,33,95.14,住家用,鋼筋混凝土造,72年10月17日,八層,四層
RPUNMLOLQHLFFAI98CA,33,22.90,共有部份,鋼筋混凝土造,72年10月17日,八層,
RPPOMLOLQHLFFAI58CA,12,127.58,住家用,鋼筋混凝土造,93年10月28日,十四層,十四層
RPPOMLOLQHLFFAI58CA,12,71.55,共有部份,鋼筋混凝土造,93年10月28日,十四層,
RPPNMLOLQHLFFAI48CA,20,70.24,住家用,鋼筋混凝土造,85年3月11日,二十層,三層
RPPNMLOLQHLFFAI48CA,20,24.10,共有部份,鋼筋混凝土造,85年3月11日,二十層,
RPXNMLMLQHLFFAI09CA,31,124.44,住商用,鋼筋混凝土造,74年8月12日,四層,一層 二層 三層 四層 騎樓
RPXNMLMLQHLFFAI09CA,31,124.44,住商用,鋼筋混凝土造,74年8月12日,四層,一層 二層 三層 四層 騎樓
RPQPMLMLQHLFFAI58CA,1,192.74,見其他登記事項,見其他登記事項,104年4月28日,三層,一層 二層 三層 見其他登記事項
RPRPMLMLQHLFFAI68CA,1,202.66,見其他登記事項,見其他登記事項,104年4月28日,三層,一層 二層 三層 見其他登記事項
RPTNMLQLQHLFFAI09CA,,103.90,見其他登記事項,見其他登記事項,105年5月10日,十四層,四層
RPTNMLQLQHLFFAI09CA,,47.77,見其他登記事項,見其他登記事項,105年5月10日,十四層,
RPTNMLQLQHLFFAI09CA,,29.57,見其他登記事項,見其他登記事項,105年5月10日,十四層,
RPUNMLQLQHLFFAI56CA,,95.04,見其他登記事項,見其他登記事項,105年5月10日,十四層,七層
RPUNMLQLQHLFFAI56CA,,46.27,見其他登記事項,見其他登記事項,105年5月10日,十四層,
RPUNMLQLQHLFFAI56CA,,26.29,見其他登記事項,見其他登記事項,105年5月10日,十四層,
RPVNMLQLQHLFFAI66CA,,102.46,見其他登記事項,見其他登記事項,105年5月10日,十四層,十層
RPVNMLQLQHLFFAI66CA,,28.34,見其他登記事項,見其他登記事項,105年5月10日,十四層,
RPVNMLQLQHLFFAI66CA,,47.42,見其他登記事項,見其他登記事項,105年5月10日,十四層,
RPWNMLQLQHLFFAI76CA,,77.82,見其他登記事項,見其他登記事項,105年5月10日,十四層,十一層
RPWNMLQLQHLFFAI76CA,,19.11,見其他登記事項,見其他登記事項,105年5月10日,十四層,
RPWNMLQLQHLFFAI76CA,,42.00,見其他登記事項,見其他登記事項,105年5月10日,十四層,
RPRNMLTLQHLFFAI56CA,11,189.29,見其他登記事項,鋼筋混凝土造,94年7月22日,三層,一層 二層 三層 屋頂突出物
RPOOMLQLQHLFFAI68CA,,103.90,見其他登記事項,見其他登記事項,105年5月10日,十四層,六層
RPOOMLQLQHLFFAI68CA,,47.77,見其他登記事項,見其他登記事項,105年5月10日,十四層,
RPOOMLQLQHLFFAI68CA,,29.57,見其他登記事項,見其他登記事項,105年5月10日,十四層,
RPROMLSJRHLFFAI09CA,22,99.19,住家用,鋼筋混凝土造,83年7月1日,六層,四層
RPROMLSJRHLFFAI09CA,22,24.60,共有部份,鋼筋混凝土造,83年7月1日,六層,
RPSOMLSJRHLFFAI56CA,22,61.91,住家用,鋼筋混凝土造,83年12月31日,十二層,十層
RPSOMLSJRHLFFAI56CA,22,23.60,共有部份,鋼筋混凝土造,83年12月31日,十二層,
RPSNMLTJRHLFFAI56CA,24,.01,共有部份,鋼筋混凝土造,81年9月14日,九層,
RPSNMLTJRHLFFAI56CA,24,9.74,見其他登記事項,鋼筋混凝土造,81年9月14日,九層,通道 地下層
RPSNMLTJRHLFFAI56CA,24,9.59,共有部份,鋼筋混凝土造,81年9月14日,九層,
RPSNMLTJRHLFFAI56CA,24,72.65,住家用,鋼筋混凝土造,81年9月14日,九層,五層
RPSNMLTJRHLFFAI56CA,24,2.83,共有部份,鋼筋混凝土造,81年9月14日,九層,
RPQNMLOKRHLFFAI58CA,17,107.61,住商用,鋼筋混凝土造,88年7月31日,十四層,一層 騎樓 夾層
RPQNMLOKRHLFFAI58CA,17,3.81,共有部份,鋼筋混凝土造,88年7月31日,十四層,
RPQNMLOKRHLFFAI58CA,17,12.03,共有部份,鋼筋混凝土造,88年7月31日,十四層,
RPQOMLKMQHLFFAI38CA,24,82.36,住家用,鋼筋混凝土造,81年6月25日,七層,一層
RPQOMLKMQHLFFAI38CA,24,15.76,共有部份,鋼筋混凝土造,81年6月25日,七層,
RPQOMLKMQHLFFAI38CA,24,13.93,見其他登記事項,鋼筋混凝土造,81年6月25日,七層,地下層
RPUNMLKMQHLFFAI68CA,17,103.03,住家用,鋼筋混凝土造,89年1月11日,十二層,五層
RPUNMLKMQHLFFAI68CA,17,20.46,共有部份,鋼筋混凝土造,89年1月11日,十二層,
RPUNMLKMQHLFFAI68CA,17,21.29,共有部份,鋼筋混凝土造,89年1月11日,十二層,
RPOOMLKMQHLFFAI18CA,22,96.84,住家用,鋼筋混凝土造,84年1月25日,七層,五層
RPOOMLKMQHLFFAI18CA,22,34.18,共有部份,鋼筋混凝土造,84年1月25日,七層,
RPXOMLLMQHLFFAI56CA,17,88.44,住家用,鋼筋混凝土造,88年7月17日,十一層,
RPXOMLLMQHLFFAI56CA,17,11.82,共有部份,鋼筋混凝土造,88年7月17日,十一層,
RPXOMLLMQHLFFAI56CA,17,12.04,共有部份,鋼筋混凝土造,88年7月17日,十二層,
RPSOMLLJRHLFFAI48CA,23,65.60,住家用,鋼筋混凝土造,82年2月9日,七層,七層
RPSOMLLJRHLFFAI48CA,23,14.56,共有部份,鋼筋混凝土造,82年2月9日,七層,
RPSOMLLJRHLFFAI48CA,23,12.12,共有部份,鋼筋混凝土造,82年2月9日,七層,
RPSOMLLJRHLFFAI48CA,23,16.37,見其他登記事項,鋼筋混凝土造,82年2月9日,七層,地下層
RPSOMLLJRHLFFAI48CA,23,.06,共有部份,鋼筋混凝土造,82年2月9日,七層,
RPROMLLJRHLFFAI38CA,39,99.00,住家用,鋼筋混凝土加強磚造,66年6月16日,二層,一層 二層
RPOOMLLJRHLFFAI08CA,47,48.51,住家用,鋼筋混凝土加強磚造,58年11月1日,二層,一層 二層 騎樓
RPROMLKMQHLFFAI48CA,22,60.37,住家用,鋼筋混凝土造,83年11月11日,二十一層,四層
RPROMLKMQHLFFAI48CA,22,14.41,共有部份,鋼筋混凝土造,83年11月11日,二十一層,
RPVNMLRJRHLFFAI66CA,27,895.51,住商用,鋼筋混凝土造,78年2月24日,五層,一層 二層 三層 四層 五層 騎樓 地下層
RPROMLOKRHLFFAI78CA,20,237.43,見其他登記事項,鋼筋混凝土造,85年4月10日,五層,一層 二層 三層 四層 五層
RPSNMLNKRHLFFAI68CA,36,124.15,住家用,鋼筋混凝土加強磚造,69年3月20日,二層,一層 二層
RPTOMLSJRHLFFAI66CA,23,55.00,住商用,鋼筋混凝土造,82年11月25日,六層,一層
RPTOMLSJRHLFFAI66CA,23,10.61,共有部份,鋼筋混凝土造,82年11月25日,六層,
RPTOMLSJRHLFFAI66CA,23,11.90,共有部份,鋼筋混凝土造,82年11月25日,六層,
RPPOMLQLQHLFFAI78CA,,97.34,見其他登記事項,見其他登記事項,105年5月10日,十四層,六層
RPPOMLQLQHLFFAI78CA,,46.73,見其他登記事項,見其他登記事項,105年5月10日,十四層,
RPPOMLQLQHLFFAI78CA,,27.71,見其他登記事項,見其他登記事項,105年5月10日,十四層,
RPSOMLQLQHLFFAI09CA,,102.46,見其他登記事項,見其他登記事項,105年5月10日,十四層,九層
RPSOMLQLQHLFFAI09CA,,28.34,見其他登記事項,見其他登記事項,105年5月10日,十四層,
RPSOMLQLQHLFFAI09CA,,77.88,見其他登記事項,見其他登記事項,105年5月10日,十四層,
RPUOMLQLQHLFFAI66CA,,100.80,見其他登記事項,見其他登記事項,105年5月10日,十四層,五層
RPUOMLQLQHLFFAI66CA,,46.15,見其他登記事項,見其他登記事項,105年5月10日,十四層,
RPUOMLQLQHLFFAI66CA,,27.88,見其他登記事項,見其他登記事項,105年5月10日,十四層,
RPTNMLTLQHLFFAI76CA,,86.53,見其他登記事項,見其他登記事項,105年5月10日,十四層,六層
RPTNMLTLQHLFFAI76CA,,21.55,見其他登記事項,見其他登記事項,105年5月10日,十四層,
RPTNMLTLQHLFFAI76CA,,42.69,見其他登記事項,見其他登記事項,105年5月10日,十四層,
RPUNMLTLQHLFFAI86CA,33,116.98,住家用,鋼筋混凝土加強磚造,72年3月20日,二層,一層 二層
RPXNMLQLQHLFFAI86CA,,87.12,見其他登記事項,見其他登記事項,105年5月10日,十四層,六層
RPXNMLQLQHLFFAI86CA,,21.70,見其他登記事項,見其他登記事項,105年5月10日,十四層,
RPXNMLQLQHLFFAI86CA,,28.38,見其他登記事項,見其他登記事項,105年5月10日,十四層,
RPRNMLQLQHLFFAI88CA,,90.67,見其他登記事項,見其他登記事項,105年5月10日,十四層,八層
RPRNMLQLQHLFFAI88CA,,29.77,見其他登記事項,見其他登記事項,105年5月10日,十四層,
RPRNMLQLQHLFFAI88CA,,28.02,見其他登記事項,見其他登記事項,105年5月10日,十四層,
RPSNMLQLQHLFFAI98CA,,86.53,見其他登記事項,見其他登記事項,105年5月10日,十四層,七層
RPSNMLQLQHLFFAI98CA,,21.55,見其他登記事項,見其他登記事項,105年5月10日,十四層,
RPSNMLQLQHLFFAI98CA,,43.50,見其他登記事項,見其他登記事項,105年5月10日,十四層,
RPRNMLOLQHLFFAI68CA,13,128.67,住家用,鋼筋混凝土造,92年3月17日,十三層,三層
RPRNMLOLQHLFFAI68CA,13,71.51,共有部份,鋼筋混凝土造,92年3月17日,十四層,
RPWNMLOLQHLFFAI76EA,27,125.55,住家用,加強磚造,79年2月7日,二層,一層 二層 夾層
RPSNMLOLQHLFFAI78CA,23,101.99,住家用,鋼筋混凝土造,82年5月26日,九層,四層
RPSNMLOLQHLFFAI78CA,23,17.08,共有部份,鋼筋混凝土造,82年5月26日,九層,
RPSNMLOLQHLFFAI78CA,23,11.96,共有部份,鋼筋混凝土造,82年5月26日,九層,
RPSOMLOLQHLFFAI88CA,14,94.25,住家用,鋼筋混凝土造,91年4月19日,二層,一層 二層
RPTOMLOLQHLFFAI98CA,25,77.78,住家用,鋼筋混凝土造,80年6月27日,十五層,五層
RPTOMLOLQHLFFAI98CA,25,13.92,共有部份,鋼筋混凝土造,80年6月27日,十五層,
RPTOMLOLQHLFFAI98CA,25,2.43,共有部份,鋼筋混凝土造,80年6月27日,十五層,
RPTOMLOLQHLFFAI98CA,25,36.04,見其他登記事項,鋼筋混凝土造,80年6月27日,十五層,地下層
RPTNMLKLRHLFFAI58CA,44,46.95,住家用,木造,61年1月27日,一層,一層
RPUNMLKLRHLFFAI68CA,19,41.36,住家用,鋼筋混凝土造,86年11月20日,十二層,十一層
RPUNMLKLRHLFFAI68CA,19,24.08,共有部份,鋼筋混凝土造,86年11月20日,十二層,
RPUNMLKLRHLFFAI68CA,19,41.36,住家用,鋼筋混凝土造,86年11月20日,十二層,十一層
RPUNMLQJRHLFFAI09CA,12,115.36,住家用,鋼筋混凝土造,93年11月3日,十四層,
RPUNMLQJRHLFFAI09CA,12,89.47,共有部份,鋼筋混凝土造,93年11月3日,十四層,
RPVNMLSJRHLFFAI76CA,39,121.15,住商用,鋼筋混凝土加強磚造,66年1月21日,二層,一層 二層 騎樓
RPPOMLMKRHLFFAI38CA,32,98.55,住商用,鋼筋混凝土加強磚造,73年2月7日,二層,一層 二層 騎樓
RPSNMLPLQHLFFAI88CA,25,88.02,住家用,鋼筋混凝土造,80年4月3日,八層,五層
RPSNMLPLQHLFFAI88CA,25,32.65,共有部份,鋼筋混凝土造,80年4月3日,八層,
RPTNMLPLQHLFFAI98CA,32,92.06,住家用,鋼筋混凝土造,73年9月4日,五層,五層
RPTNMLPLQHLFFAI98CA,32,18.71,共有部份,鋼筋混凝土造,73年9月4日,五層,
RPWNMLPLQHLFFAI66CA,23,69.14,住家用,鋼筋混凝土造,82年2月17日,六層,二層
RPWNMLPLQHLFFAI66CA,23,11.29,共有部份,鋼筋混凝土造,82年2月17日,六層,
RPPNMLQLQHLFFAI68CA,25,238.54,住家用,鋼筋混凝土造,80年5月11日,四層,一層 二層 三層 四層 地下層
RPQNMLSLQHLFFAI98CA,,296.96,見其他登記事項,見其他登記事項,105年6月27日,三層,一層 二層 三層 見其他登記事項
RPRNMLSLQHLFFAI09CA,,216.26,見其他登記事項,見其他登記事項,105年6月27日,三層,一層 二層 三層 見其他登記事項
RPUNMLSLQHLFFAI76CA,,257.36,見其他登記事項,見其他登記事項,105年6月27日,三層,一層 二層 三層 見其他登記事項
RPVNMLSLQHLFFAI86CA,,260.77,見其他登記事項,見其他登記事項,105年6月27日,三層,一層 二層 三層 見其他登記事項
RPVOMLQLQHLFFAI76CA,,83.38,見其他登記事項,見其他登記事項,105年5月10日,十四層,六層
RPVOMLQLQHLFFAI76CA,,42.92,見其他登記事項,見其他登記事項,105年5月10日,十四層,
RPVOMLQLQHLFFAI76CA,,20.47,見其他登記事項,見其他登記事項,105年5月10日,十四層,
RPWOMLQLQHLFFAI86CA,48,76.72,住家用,木造,57年3月20日,一層,一層
RPOOMLQLQHLFFAI88EA,12,115.81,住家用,鋼筋混凝土造,93年10月28日,十四層,三層
RPOOMLQLQHLFFAI88EA,12,79.80,共有部份,鋼筋混凝土造,93年10月28日,十四層,
RPVNMLQJRHLFFAI66DA,31,73.20,住家用,鋼筋混凝土造,74年9月19日,五層,二層
RPVNMLQJRHLFFAI66DA,31,5.34,共有部份,鋼筋混凝土造,74年9月19日,五層,
RPVNMLQJRHLFFAI66DA,31,8.08,共有部份,鋼筋混凝土造,74年9月19日,五層,
RPTOMLOKRHLFFAI98CA,26,126.38,住家用,鋼筋混凝土造,79年12月18日,七層,五層
RPTOMLOKRHLFFAI98CA,26,14.46,共有部份,鋼筋混凝土造,79年12月18日,七層,
RPTOMLOKRHLFFAI98CA,26,27.06,共有部份,鋼筋混凝土造,79年12月18日,七層,
RPWOMLLMQHLFFAI09CA,22,99.50,住家用,鋼筋混凝土造,83年12月23日,十四層,
RPWOMLLMQHLFFAI09CA,22,22.48,共有部份,鋼筋混凝土造,83年12月23日,十四層,
RPWOMLLMQHLFFAI09CA,22,20.49,共有部份,鋼筋混凝土造,83年12月23日,十四層,
RPQOMLLJRHLFFAI28CA,1,324.76,見其他登記事項,見其他登記事項,104年11月3日,四層,一層 二層 三層 四層 見其他登記事項
RPRPMLQLQHLFFAI09CA,,305.55,住家用,見其他登記事項,105年4月14日,四層,一層 二層 三層 四層
RPXNMLKMQHLFFAI98CA,20,42.52,住家用,鋼筋混凝土造,85年6月18日,九層,四層
RPXNMLKMQHLFFAI98CA,20,15.59,共有部份,鋼筋混凝土造,85年6月18日,九層,
RPPNMLLMQHLFFAI28CA,30,115.67,住家用,加強磚造,75年4月8日,二層,一層 二層
RPTNMLNJRHLFFAI68CA,23,82.66,住家用,鋼筋混凝土造,83年1月27日,八層,六層
RPTNMLNJRHLFFAI68CA,23,33.44,共有部份,鋼筋混凝土造,83年1月27日,八層,
RPRNMLPJRHLFFAI68CA,24,18.39,共有部份,鋼筋混凝土造,82年1月13日,六層,
RPRNMLPJRHLFFAI68CA,24,51.66,住家用,鋼筋混凝土造,82年1月13日,六層,三層
SPRNMLPJRHLFFAI78CA,24,49.75,住家用,鋼筋混凝土造,82年1月13日,六層,三層
SPRNMLPJRHLFFAI78CA,24,18.39,共有部份,鋼筋混凝土造,82年1月13日,六層,
RPSNMLPJRHLFFAI78CA,22,79.06,住家用,鋼筋混凝土造,83年11月9日,十二層,七層
RPSNMLPJRHLFFAI78CA,22,24.98,共有部份,鋼筋混凝土造,83年11月9日,十二層,
RPTNMLMJRHLFFAI58CA,38,132.24,住商用,鋼筋混凝土加強磚造,67年5月22日,三層,一層 二層 三層
RPRNMLNJRHLFFAI48CA,1,352.39,見其他登記事項,見其他登記事項,105年1月11日,四層,一層 二層 三層 四層 見其他登記事項
RPVOMLMLRHLFFAI09CA,24,27.55,住家用,鋼筋混凝土造,81年9月3日,七層,五層
RPVOMLMLRHLFFAI09CA,24,3.76,共有部份,鋼筋混凝土造,81年9月3日,七層,
RPVOMLMLRHLFFAI09CA,24,9.43,共有部份,鋼筋混凝土造,81年9月3日,七層,
RPRPMLMLRHLFFAI78CA,3,266.45,見其他登記事項,見其他登記事項,102年6月28日,四層,一層 二層 三層 四層 見其他登記事項
RPSPMLMLRHLFFAI88CA,3,266.45,見其他登記事項,見其他登記事項,102年6月28日,四層,一層 二層 三層 四層 見其他登記事項
RPTNMLSJRHLFFAI66DA,38,52.67,住家用,鋼筋混凝土加強磚造,67年9月18日,二層,一層 二層
RPOOMLTLQHLFFAI56EA,23,101.09,住家用,鋼筋混凝土造,82年3月25日,十二層,八層
RPOOMLTLQHLFFAI56EA,23,18.79,共有部份,鋼筋混凝土造,82年3月25日,十二層,
RPOOMLTLQHLFFAI56EA,23,12.22,共有部份,鋼筋混凝土造,82年3月25日,十二層,
RPVNMLMKRHLFFAI09EA,37,125.05,住商用,鋼筋混凝土加強磚造,68年11月15日,二層,一層 二層
RPXNMLLJRHLFFAI98DA,22,167.42,住商用,鋼筋混凝土造,83年11月25日,十六層,一層 二層 三層 騎樓
RPXNMLLJRHLFFAI98DA,22,10.76,共有部份,鋼筋混凝土造,83年11月25日,十六層,
RPXNMLLJRHLFFAI98DA,22,12.56,共有部份,鋼筋混凝土造,83年11月25日,十六層,
RPPPMLMLRHLFFAI58CA,,389.65,見其他登記事項,見其他登記事項,105年5月9日,五層,一層 二層 三層 四層 五層
RPQPMLMLRHLFFAI68CA,,288.49,見其他登記事項,見其他登記事項,105年5月9日,四層,一層 二層 三層 四層 見其他登記事項
RPQNMLRKRHLFFAI88CA,22,263.64,見其他登記事項,鋼筋混凝土造,83年11月9日,三層,一層 二層 三層 夾層 地下層
RPPNMLOJRHLFFAI38CA,23,129.89,住家用,鋼筋混凝土造,82年8月28日,六層,二層
RPPNMLOJRHLFFAI38CA,23,42.01,共有部份,鋼筋混凝土造,82年8月28日,六層,
RPQNMLRJRHLFFAI78CA,,201.50,住家用,見其他登記事項,105年3月10日,四層,一層 二層 三層 四層
RPRNMLRJRHLFFAI88CA,,196.06,住家用,見其他登記事項,105年3月10日,四層,一層 二層 三層 四層
RPSNMLRJRHLFFAI98CA,,199.28,住家用,見其他登記事項,105年3月10日,四層,一層 二層 三層 四層
RPTNMLRJRHLFFAI09CA,,197.01,住家用,見其他登記事項,105年3月10日,四層,一層 二層 三層 四層
RPQNMLLJRHLFFAI18CA,12,37.69,共有部份,鋼筋混凝土造,93年11月3日,十四層,
RPQNMLLJRHLFFAI18CA,12,54.13,住家用,鋼筋混凝土造,93年11月3日,十四層,三層
RPQNMLLJRHLFFAI18CA,12,37.69,共有部份,鋼筋混凝土造,93年11月3日,十四層,
RPQNMLLJRHLFFAI18CA,12,54.13,住家用,鋼筋混凝土造,93年11月3日,十四層,三層
RPVNMLLJRHLFFAI68CA,37,59.75,住家用,鋼筋混凝土造,68年4月17日,七層,五層
RPVNMLLJRHLFFAI68CA,37,12.63,共有部份,鋼筋混凝土造,68年4月17日,七層,
RPWNMLPJRHLFFAI56CA,25,109.11,住家用,鋼筋混凝土造,80年5月8日,十層,一層
RPWNMLPJRHLFFAI56CA,25,12.87,共有部份,鋼筋混凝土造,80年5月8日,十層,
RPWNMLPJRHLFFAI56CA,25,3.61,共有部份,鋼筋混凝土造,80年5月8日,十層,
RPQNMLNJRHLFFAI38CA,10,168.73,住家用,鋼筋混凝土造,95年12月4日,三層,一層 二層 三層
RPTNMLPJRHLFFAI88CA,40,84.72,住家用,鋼筋混凝土加強磚造,65年8月26日,二層,一層 二層
RPWOMLSJRHLFFAI96CA,17,101.85,住家用,鋼筋混凝土造,88年7月17日,十二層,一層
RPWOMLSJRHLFFAI96CA,17,13.60,共有部份,鋼筋混凝土造,88年7月17日,十二層,
RPWOMLSJRHLFFAI96CA,17,4.18,共有部份,鋼筋混凝土造,88年7月17日,十二層,
RPSPMLSJRHLFFAI66CA,49,33.62,住家用,木造,56年8月20日,一層,一層
RPOPMLSJRHLFFAI88CA,3,199.06,見其他登記事項,見其他登記事項,102年10月16日,三層,一層 二層 三層 見其他登記事項
RPPPMLSJRHLFFAI98CA,12,115.59,住家用,鋼筋混凝土造,93年10月28日,十四層,八層
RPPPMLSJRHLFFAI98CA,12,79.63,共有部份,鋼筋混凝土造,93年10月28日,十四層,
RPOOMLQLRHLFFAI78CA,36,92.12,住家用,鋼筋混凝土加強磚造,69年1月8日,二層,一層 二層
RPROMLQLRHLFFAI09CA,21,31.15,住家用,鋼筋混凝土造,84年7月24日,十四層,七層
RPROMLQLRHLFFAI09CA,21,8.20,共有部份,鋼筋混凝土造,84年7月24日,十四層,
RPROMLQLRHLFFAI09CA,21,19.99,共有部份,鋼筋混凝土造,84年7月24日,十四層,
RPXNMLTKRHLFFAI17CA,30,127.67,住家用,鋼筋混凝土造,75年5月22日,十層,五層
RPXNMLTKRHLFFAI17CA,30,11.85,共有部份,鋼筋混凝土造,75年5月22日,十層,
RPXNMLTKRHLFFAI17CA,30,17.04,共有部份,鋼筋混凝土造,75年5月22日,十層,
RPUNMLRLRHLFFAI76CA,23,95.54,住家用,鋼筋混凝土造,82年7月6日,七層,四層
RPUNMLRLRHLFFAI76CA,23,39.81,共有部份,鋼筋混凝土造,82年7月6日,七層,
RPQPMLSJRHLFFAI09CA,43,71.75,住家用,木造,62年9月10日,二層,一層 二層
RPQOMLSJRHLFFAI98CA,22,98.08,住家用,鋼筋混凝土造,83年12月23日,十三層,四層
RPQOMLSJRHLFFAI98CA,22,22.69,共有部份,鋼筋混凝土造,83年12月23日,十三層,
RPSOMLOKRHLFFAI88CA,17,54.98,住家用,鋼筋混凝土造,88年4月21日,十四層,七層
RPSOMLOKRHLFFAI88CA,17,24.01,共有部份,鋼筋混凝土造,88年4月21日,十四層,
RPSOMLMKRHLFFAI68CA,,209.51,見其他登記事項,見其他登記事項,105年4月18日,三層,一層 二層 三層 見其他登記事項
RPSNMLNJRHLFFAI58CA,1,352.39,見其他登記事項,見其他登記事項,105年1月11日,四層,一層 二層 三層 四層 見其他登記事項
RPVNMLPJRHLFFAI09CA,25,1835.76,住商用,加強磚造,80年1月19日,二層,一層 二層 騎樓
RPUOMLOKRHLFFAI09CA,23,391.65,商業用,鋼筋混凝土造,82年6月9日,十六層,一層 二層
RPUOMLOKRHLFFAI09CA,23,63.99,共有部份,鋼筋混凝土造,82年6月9日,十六層,
RPUOMLOKRHLFFAI09CA,23,61.45,共有部份,鋼筋混凝土造,82年6月9日,十六層,
RPRNMLRKRHLFFAI98CA,23,64.07,住家用,鋼筋混凝土造,82年6月16日,六層,五層
RPRNMLRKRHLFFAI98CA,23,11.78,共有部份,鋼筋混凝土造,82年6月16日,六層,
RPRNMLRKRHLFFAI98CA,23,7.73,共有部份,鋼筋混凝土造,82年6月16日,六層,
RPRNMLRKRHLFFAI98CA,23,.55,見其他登記事項,鋼筋混凝土造,82年6月16日,六層,地下層
RPRNMLRKRHLFFAI98CA,23,.01,共有部份,鋼筋混凝土造,82年6月16日,六層,
RPRNMLRKRHLFFAI98CA,23,.01,共有部份,鋼筋混凝土造,82年6月16日,六層,
RPSNMLTKRHLFFAI66CA,24,208.68,住家用,鋼筋混凝土造,82年2月13日,四層,一層 二層 三層 四層
RPOPMLMLRHLFFAI48CA,22,42.09,住家用,鋼筋混凝土造,83年12月31日,十二層,九層
RPOPMLMLRHLFFAI48CA,22,15.96,共有部份,鋼筋混凝土造,83年12月31日,十二層,
RPXNMLLJRHLFFAI09EA,24,4.40,共有部份,鋼筋混凝土造,81年10月29日,十層,
RPXNMLLJRHLFFAI09EA,24,90.02,住家用,鋼筋混凝土造,81年10月29日,十層,六層
RPXNMLLJRHLFFAI09EA,24,13.31,共有部份,鋼筋混凝土造,81年10月29日,十層,
RPXNMLLJRHLFFAI09EA,24,90.02,住家用,鋼筋混凝土造,81年10月29日,十層,六層
RPXNMLLJRHLFFAI09EA,24,6.73,共有部份,鋼筋混凝土造,81年10月29日,十層,
RPXNMLLJRHLFFAI09EA,24,13.31,共有部份,鋼筋混凝土造,81年10月29日,十層,
RPXNMLLJRHLFFAI09EA,24,6.73,共有部份,鋼筋混凝土造,81年10月29日,十層,
RPXNMLLJRHLFFAI09EA,24,4.40,共有部份,鋼筋混凝土造,81年10月29日,十層,
RPXNMLRJRHLFFAI07EA,4,180.39,住家用,見其他登記事項,101年11月21日,四層,一層 二層 三層 四層
RPXNMLRJRHLFFAI07EA,4,.35,見其他登記事項,見其他登記事項,101年11月21日,一層,
RPTOMLQLRHLFFAI76DA,2,244.17,住家用,見其他登記事項,103年4月25日,四層,一層 二層 三層 四層
RPPNMLSKRHLFFAI88CA,22,195.52,住商用,鋼筋混凝土造,83年7月18日,十二層,六層
RPPNMLSKRHLFFAI88CA,22,27.23,共有部份,鋼筋混凝土造,83年7月18日,十二層,
RPPNMLSKRHLFFAI88CA,22,22.09,共有部份,鋼筋混凝土造,83年7月18日,十二層,
RPTPMLMLRHLFFAI98CA,3,266.45,見其他登記事項,見其他登記事項,102年6月28日,四層,一層 二層 三層 四層 見其他登記事項
RPUPMLMLRHLFFAI09CA,3,271.04,見其他登記事項,見其他登記事項,102年6月28日,四層,一層 二層 三層 四層 見其他登記事項
RPPNMLQKRHLFFAI68CA,22,133.62,住商用,鋼筋混凝土造,83年3月22日,九層,一層 二層 三層 騎樓
RPPNMLQKRHLFFAI68CA,22,29.28,共有部份,鋼筋混凝土造,83年3月22日,九層,
RPPNMLNKRHLFFAI38CA,24,62.61,住家用,鋼筋混凝土造,81年5月13日,七層,四層
RPPNMLNKRHLFFAI38CA,24,18.68,共有部份,鋼筋混凝土造,81年5月13日,七層,
RPUNMLPJRHLFFAI98CA,28,126.18,住家用,加強磚造,77年2月13日,二層,一層 二層
RPRNMLQJRHLFFAI78CA,46,59.50,住家用,木造,59年11月3日,二層,
RPPNMLPKRHLFFAI58CA,2,304.47,住家用,見其他登記事項,103年6月5日,四層,一層 二層 三層 四層
RPPNMLTJRHLFFAI88CA,23,18.80,共有部份,鋼筋混凝土造,82年6月9日,十二層,
RPPNMLTJRHLFFAI88CA,23,17.36,共有部份,鋼筋混凝土造,82年6月9日,十二層,
RPPNMLTJRHLFFAI88CA,23,101.18,住家用,鋼筋混凝土造,82年6月9日,十二層,十一層
RPPNMLKKRHLFFAI08CA,39,87.34,住家用,鋼筋混凝土加強磚造,66年4月20日,二層,一層 二層
RPSNMLLKRHLFFAI48CA,,106.68,見其他登記事項,見其他登記事項,105年6月27日,三層,一層 二層 三層 見其他登記事項
RPRNMLPKRHLFFAI78CA,42,64.80,住家用,木造,63年6月27日,二層,一層 二層
RPWNMLTKRHLFFAI07CA,21,78.93,住家用,鋼筋混凝土造,85年2月14日,十三層,四層
RPWNMLTKRHLFFAI07CA,21,26.95,見其他登記事項,鋼筋混凝土造,85年2月14日,十三層,
RPPNMLKLRHLFFAI18CA,21,82.28,住家用,鋼筋混凝土造,84年10月4日,十一層,八層
RPPNMLKLRHLFFAI18CA,21,14.32,共有部份,鋼筋混凝土造,84年10月4日,十一層,
RPPNMLKLRHLFFAI18CA,21,10.01,共有部份,鋼筋混凝土造,84年10月4日,十一層,
RPPOMLMLRHLFFAI48CA,24,73.07,住家用,鋼筋混凝土造,81年9月14日,九層,五層
RPPOMLMLRHLFFAI48CA,24,9.64,共有部份,鋼筋混凝土造,81年9月14日,九層,
RPPOMLMLRHLFFAI48CA,24,2.85,共有部份,鋼筋混凝土造,81年9月14日,九層,
RPPOMLMLRHLFFAI48CA,24,9.74,見其他登記事項,鋼筋混凝土造,81年9月14日,九層,通道 地下層
RPPOMLMLRHLFFAI48CA,24,.01,共有部份,鋼筋混凝土造,81年9月14日,九層,
RPQNMLKMRHLFFAI38CA,,83.38,見其他登記事項,見其他登記事項,105年5月10日,十四層,九層
RPQNMLKMRHLFFAI38CA,,20.47,見其他登記事項,見其他登記事項,105年5月10日,十四層,
RPQNMLKMRHLFFAI38CA,,27.81,見其他登記事項,見其他登記事項,105年5月10日,十四層,
RPRNMLKMRHLFFAI48CA,,87.12,見其他登記事項,見其他登記事項,105年5月10日,十四層,八層
RPRNMLKMRHLFFAI48CA,,21.70,見其他登記事項,見其他登記事項,105年5月10日,十四層,
RPRNMLKMRHLFFAI48CA,,28.38,見其他登記事項,見其他登記事項,105年5月10日,十四層,
RPSNMLKMRHLFFAI58CA,,74.76,見其他登記事項,見其他登記事項,105年5月10日,十四層,十三層
RPSNMLKMRHLFFAI58CA,,18.62,見其他登記事項,見其他登記事項,105年5月10日,十四層,
RPSNMLKMRHLFFAI58CA,,26.42,見其他登記事項,見其他登記事項,105年5月10日,十四層,
RPVNMLKMRHLFFAI88CA,,83.38,見其他登記事項,見其他登記事項,105年5月10日,十四層,七層
RPVNMLKMRHLFFAI88CA,,42.92,見其他登記事項,見其他登記事項,105年5月10日,十四層,
RPVNMLKMRHLFFAI88CA,,20.77,見其他登記事項,見其他登記事項,105年5月10日,十四層,
RPWNMLKMRHLFFAI98CA,,103.90,見其他登記事項,見其他登記事項,105年5月10日,十四層,十二層
RPWNMLKMRHLFFAI98CA,,47.77,見其他登記事項,見其他登記事項,105年5月10日,十四層,
RPWNMLKMRHLFFAI98CA,,29.57,見其他登記事項,見其他登記事項,105年5月10日,十四層,
RPOOMLKMRHLFFAI28CA,,87.12,見其他登記事項,見其他登記事項,105年5月10日,十四層,十三層
RPOOMLKMRHLFFAI28CA,,28.38,見其他登記事項,見其他登記事項,105年5月10日,十四層,
RPOOMLKMRHLFFAI28CA,,21.38,見其他登記事項,見其他登記事項,105年5月10日,十四層,
RPQOMLKMRHLFFAI48CA,,83.38,見其他登記事項,見其他登記事項,105年5月10日,十四層,三層
RPQOMLKMRHLFFAI48CA,,20.47,見其他登記事項,見其他登記事項,105年5月10日,十四層,
RPQOMLKMRHLFFAI48CA,,13.50,見其他登記事項,見其他登記事項,105年5月10日,十四層,
RPROMLKMRHLFFAI58CA,,86.53,見其他登記事項,見其他登記事項,105年5月10日,十四層,十二層
RPROMLKMRHLFFAI58CA,,21.55,見其他登記事項,見其他登記事項,105年5月10日,十四層,
RPROMLKMRHLFFAI58CA,,44.53,見其他登記事項,見其他登記事項,105年5月10日,十四層,
RPOPMLKMRHLFFAI38CA,,77.82,見其他登記事項,見其他登記事項,105年5月10日,十四層,十層
RPOPMLKMRHLFFAI38CA,,19.38,見其他登記事項,見其他登記事項,105年5月10日,十四層,
RPOPMLKMRHLFFAI38CA,,26.88,見其他登記事項,見其他登記事項,105年5月10日,十四層,
RPPPMLKMRHLFFAI48CA,,83.38,見其他登記事項,見其他登記事項,105年5月10日,十四層,六層
RPPPMLKMRHLFFAI48CA,,20.77,見其他登記事項,見其他登記事項,105年5月10日,十四層,
RPPPMLKMRHLFFAI48CA,,13.50,見其他登記事項,見其他登記事項,105年5月10日,十四層,
RPTOMLKMRHLFFAI78CA,,77.82,見其他登記事項,見其他登記事項,105年5月10日,十四層,五層
RPTOMLKMRHLFFAI78CA,,26.88,見其他登記事項,見其他登記事項,105年5月10日,十四層,
RPTOMLKMRHLFFAI78CA,,19.38,見其他登記事項,見其他登記事項,105年5月10日,十四層,
RPPNMLKMRHLFFAI48EA,15,275.99,見其他登記事項,鋼筋混凝土造,90年12月20日,四層,一層 二層 三層 四層
RPWNMLNKRHLFFAI66EA,39,78.04,住家用,鋼筋混凝土加強磚造,66年11月10日,二層,一層 二層
RPPNMLSJRHLFFAI98EA,27,35.29,住家用,鋼筋混凝土造,78年5月18日,五層,二層
RPPNMLSJRHLFFAI98EA,27,2.59,共有部份,鋼筋混凝土造,78年5月18日,五層,
RPPNMLSJRHLFFAI98EA,27,5.46,共有部份,鋼筋混凝土造,78年5月18日,五層,
RPQNMLTJRHLFFAI56EA,20,70.81,住家用,鋼筋混凝土造,86年2月3日,八層,八層
RPQNMLTJRHLFFAI56EA,20,18.14,見其他登記事項,鋼筋混凝土造,86年2月3日,八層,
RPUNMLLLRHLFFAI78CA,31,36.01,住家用,鋼筋混凝土造,74年11月29日,五層,二層
RPUNMLLLRHLFFAI78CA,31,6.28,共有部份,鋼筋混凝土造,74年11月29日,五層,
RPUNMLLLRHLFFAI78CA,31,4.23,共有部份,鋼筋混凝土造,74年11月29日,五層,
RPRNMLTJRHLFFAI09CA,37,121.20,住家用,鋼筋混凝土加強磚造,69年1月31日,四層,一層 二層 三層 四層
RPWOMLRJRHLFFAI86CA,23,89.92,住家用,鋼筋混凝土造,82年10月21日,十二層,十層
RPWOMLRJRHLFFAI86CA,23,31.17,共有部份,鋼筋混凝土造,82年10月21日,十二層,
RPSNMLSJRHLFFAI09CA,35,9.41,住家用,鋼筋混凝土加強磚造,70年3月12日,二層,一層 二層
RPUNMLSJRHLFFAI66CA,22,97.59,住家用,鋼筋混凝土造,83年4月2日,六層,二層
RPUNMLSJRHLFFAI66CA,22,31.23,共有部份,鋼筋混凝土造,83年4月2日,六層,
RPRNMLQKRHLFFAI88CA,23,110.22,住家用,鋼筋混凝土造,82年10月26日,十二層,十一層
RPRNMLQKRHLFFAI88CA,23,35.49,共有部份,鋼筋混凝土造,82年10月26日,十二層,
RPWNMLSJRHLFFAI86CA,22,89.46,住商用,鋼筋混凝土造,83年7月18日,十二層,四層
RPWNMLSJRHLFFAI86CA,22,19.24,共有部份,鋼筋混凝土造,83年7月18日,十二層,
RPWNMLSJRHLFFAI86CA,22,11.91,共有部份,鋼筋混凝土造,83年7月18日,十二層,
RPSNMLQLRHLFFAI09CA,,235.74,見其他登記事項,見其他登記事項,105年4月14日,四層,一層 二層 三層 四層 見其他登記事項
RPROMLNJIILFFAI77CA,13,128.67,住家用,鋼筋混凝土造,92年3月17日,十二層,七層
RPROMLNJIILFFAI77CA,13,71.51,共有部份,鋼筋混凝土造,92年3月17日,十四層,
RPPNMLMLRHLFFAI58EA,46,81.08,住家用,木造,59年3月31日,二層,一層 二層
RPQOMLNJIILFFAI87EA,23,85.67,住商用,鋼筋混凝土造,82年5月25日,十層,一層
RPQOMLNJIILFFAI87EA,23,13.49,共有部份,鋼筋混凝土造,82年5月25日,十層,
RPQOMLNJIILFFAI87EA,23,10.38,共有部份,鋼筋混凝土造,82年5月25日,十層,
RPQOMLOJIILFFAI77CA,23,81.19,住家用,鋼筋混凝土造,82年2月3日,十層,四層
RPQOMLOJIILFFAI77CA,23,31.08,共有部份,鋼筋混凝土造,82年2月3日,十層,
RPQOMLOJIILFFAI77CA,23,88.45,住家用,鋼筋混凝土造,82年2月3日,十層,四層
RPQOMLOJIILFFAI77CA,23,34.74,共有部份,鋼筋混凝土造,82年2月3日,十層,
RPQPMLKMRHLFFAI58CA,,83.38,見其他登記事項,見其他登記事項,105年5月10日,十四層,四層
RPQPMLKMRHLFFAI58CA,,27.81,見其他登記事項,見其他登記事項,105年5月10日,十四層,
RPQPMLKMRHLFFAI58CA,,20.47,見其他登記事項,見其他登記事項,105年5月10日,十四層,
RPQNMLMLRHLFFAI48CA,22,89.54,住家用,鋼筋混凝土造,83年11月29日,十六層,五層
RPQNMLMLRHLFFAI48CA,22,16.80,共有部份,鋼筋混凝土造,83年11月29日,十六層,
RPXOMLMLRHLFFAI66CA,23,18.42,住家用,鋼筋混凝土造,82年10月12日,七層,七層
RPXOMLMLRHLFFAI66CA,23,7.88,共有部份,鋼筋混凝土造,82年10月12日,七層,
RPRNMLKKRHLFFAI28CA,70,41.07,住家用,木造,36年1月15日,一層,一層
RPQNMLPKRHLFFAI68CA,24,99.43,住家用,鋼筋混凝土造,81年7月28日,十四層,十三層
RPQNMLPKRHLFFAI68CA,24,13.43,共有部份,鋼筋混凝土造,81年7月28日,十四層,
RPQNMLPKRHLFFAI68CA,24,18.15,共有部份,鋼筋混凝土造,81年7月28日,十四層,
RPQNMLPKRHLFFAI68CA,24,15.33,共有部份,鋼筋混凝土造,81年7月28日,十四層,
RPROMLMKRHLFFAI58CA,21,241.39,住家用,鋼筋混凝土造,84年7月13日,五層,一層 二層 三層 四層 五層
RPQNMLMKRHLFFAI38CA,19,117.13,住商用,鋼筋混凝土造,86年7月9日,九層,一層 二層
RPQNMLMKRHLFFAI38CA,19,54.17,共有部份,鋼筋混凝土造,86年7月9日,九層,
RPOOMLTJRHLFFAI88CA,32,79.72,見其他登記事項,鋼筋混凝土造,73年2月20日,五層,二層
RPOOMLTJRHLFFAI88CA,32,5.72,共有部份,鋼筋混凝土造,73年2月20日,五層,
RPPOMLTJRHLFFAI98CA,35,93.38,住家用,鋼筋混凝土加強磚造,70年9月21日,二層,一層 二層
RPQNMLLJIILFFAI37CA,21,33.68,住家用,鋼筋混凝土造,84年10月4日,十一層,六層
RPQNMLLJIILFFAI37CA,21,6.27,共有部份,鋼筋混凝土造,84年10月4日,十一層,
RPQNMLLJIILFFAI37CA,21,4.45,共有部份,鋼筋混凝土造,84年10月4日,十一層,
RPRNMLLKRHLFFAI48DA,23,28.97,住家用,鋼筋混凝土造,82年6月9日,十六層,五層
RPRNMLLKRHLFFAI48DA,23,4.78,共有部份,鋼筋混凝土造,82年6月9日,十六層,
RPRNMLLKRHLFFAI48DA,23,6.28,共有部份,鋼筋混凝土造,82年6月9日,十六層,
RPRNMLQJIILFFAI18EA,19,26.11,住家用,鋼筋混凝土造,86年3月17日,十二層,九層
RPRNMLQJIILFFAI18EA,19,14.83,共有部份,鋼筋混凝土造,86年3月17日,十二層,
RPRNMLQJIILFFAI18EA,19,7.68,共有部份,鋼筋混凝土造,86年3月17日,十二層,
RPXNMLNKRHLFFAI76EA,36,40.56,住家用,鋼筋混凝土造,69年10月30日,五層,一層
RPTPMLKMRHLFFAI88CA,40,91.16,住家用,鋼筋混凝土加強磚造,65年7月16日,二層,一層 二層 騎樓
RPQNMLLLRHLFFAI38CA,21,210.84,住家用,鋼筋混凝土造,84年11月11日,五層,一層 二層 三層 四層 五層
RPPNMLTKRHLFFAI98CA,23,94.34,住家用,鋼筋混凝土造,82年6月23日,十二層,十層
RPPNMLTKRHLFFAI98CA,23,13.44,共有部份,鋼筋混凝土造,82年6月23日,十二層,
RPPNMLTKRHLFFAI98CA,23,15.90,共有部份,鋼筋混凝土造,82年6月23日,十三層,
RPRNMLRLRHLFFAI09CA,17,77.18,住家用,鋼筋混凝土造,88年11月29日,十二層,十層 夾層
RPRNMLRLRHLFFAI09CA,17,19.85,共有部份,鋼筋混凝土造,88年11月29日,十二層,
RPRNMLRLRHLFFAI09CA,17,11.27,共有部份,鋼筋混凝土造,88年11月29日,十二層,
RPRNMLRLRHLFFAI09CA,17,.15,見其他登記事項,鋼筋混凝土造,88年11月29日,十二層,一層
RPRNMLRLRHLFFAI09CA,17,.02,共有部份,鋼筋混凝土造,88年11月29日,十二層,
RPTOMLQJIILFFAI28CA,26,202.69,見其他登記事項,鋼筋混凝土造,79年10月16日,四層,一層 二層 三層 四層 防空避難室
RPSNMLOKRHLFFAI78CA,23,71.13,住家用,鋼筋混凝土造,83年2月3日,十二層,十層
RPSNMLOKRHLFFAI78CA,23,13.24,共有部份,鋼筋混凝土造,83年2月3日,十二層,
RPTNMLOKRHLFFAI88CA,21,92.90,住家用,鋼筋混凝土造,84年8月16日,十八層,三層
RPTNMLOKRHLFFAI88CA,21,29.05,共有部份,鋼筋混凝土造,84年8月16日,十九層,
RPVOMLOKRHLFFAI56CA,44,99.60,住商用,鋼筋混凝土加強磚造,61年4月10日,二層,一層 二層 騎樓
RPPOMLPJIILFFAI77CA,23,28.25,住家用,鋼筋混凝土造,82年4月26日,六層,五層
RPPOMLPJIILFFAI77CA,23,6.12,見其他登記事項,鋼筋混凝土造,82年4月26日,六層,地下層
RPPOMLPJIILFFAI77CA,23,.86,共有部份,鋼筋混凝土造,82年4月26日,六層,
RPPOMLPJIILFFAI77CA,23,5.39,共有部份,鋼筋混凝土造,82年4月26日,六層,
RPSNMLOLRHLFFAI88CA,23,75.10,住家用,鋼筋混凝土造,82年11月8日,八層,七層
RPSNMLOLRHLFFAI88CA,23,15.65,共有部份,鋼筋混凝土造,82年11月8日,八層,
RPTNMLOLRHLFFAI98CA,21,102.94,住家用,鋼筋混凝土造,84年10月4日,十一層,五層
RPTNMLOLRHLFFAI98CA,21,20.08,共有部份,鋼筋混凝土造,84年10月4日,十一層,
RPTNMLOLRHLFFAI98CA,21,12.23,共有部份,鋼筋混凝土造,84年10月4日,十一層,
RPVPMLKMRHLFFAI09CA,47,88.20,住家用,加強磚造,58年5月1日,二層,一層 二層 騎樓
RPUNMLOLRHLFFAI09CA,33,118.90,住商用,鋼筋混凝土造,72年10月17日,八層,一層 二層
RPUNMLOLRHLFFAI09CA,33,30.67,共有部份,鋼筋混凝土造,72年10月17日,八層,
RPWPMLMLRHLFFAI66CA,31,95.66,住家用,鋼筋混凝土造,74年10月4日,三層,一層 二層 三層 騎樓
RPWOMLOKRHLFFAI66CA,12,178.88,見其他登記事項,鋼筋混凝土造,93年9月23日,三層,一層 二層 三層 見其他登記事項
RPPNMLLKIILFFAI57EA,39,49.60,住商用,鋼筋混凝土加強磚造,66年12月6日,二層,一層 二層 騎樓
RPWNMLPJIILFFAI38CA,,100.80,見其他登記事項,見其他登記事項,105年5月10日,十四層,八層
RPWNMLPJIILFFAI38CA,,77.65,見其他登記事項,見其他登記事項,105年5月10日,十四層,
RPWNMLPJIILFFAI38CA,,27.88,見其他登記事項,見其他登記事項,105年5月10日,十四層,
RPXNMLPJIILFFAI48CA,,62.39,見其他登記事項,見其他登記事項,105年5月10日,十四層,六層
RPXNMLPJIILFFAI48CA,,24.69,見其他登記事項,見其他登記事項,105年5月10日,十四層,
RPXNMLPJIILFFAI48CA,,17.76,見其他登記事項,見其他登記事項,105年5月10日,十四層,
RPXNMLOJIILFFAI38CA,35,87.07,住家用,鋼筋混凝土造,70年10月27日,五層,三層
RPXNMLOJIILFFAI38CA,35,2.81,共有部份,鋼筋混凝土造,70年10月27日,五層,
RPXNMLOJIILFFAI38CA,35,5.25,共有部份,鋼筋混凝土造,70年10月27日,五層,
RPTNMLPJIILFFAI08CA,,74.76,見其他登記事項,見其他登記事項,105年5月10日,十四層,九層
RPTNMLPJIILFFAI08CA,,26.42,見其他登記事項,見其他登記事項,105年5月10日,十四層,
RPTNMLPJIILFFAI08CA,,18.62,見其他登記事項,見其他登記事項,105年5月10日,十四層,
RPUNMLQJIILFFAI28CA,,86.53,見其他登記事項,見其他登記事項,105年5月10日,十四層,十三層
RPUNMLQJIILFFAI28CA,,28.27,見其他登記事項,見其他登記事項,105年5月10日,十四層,
RPUNMLQJIILFFAI28CA,,21.24,見其他登記事項,見其他登記事項,105年5月10日,十四層,
RPVNMLQJIILFFAI38CA,,77.82,見其他登記事項,見其他登記事項,105年5月10日,十四層,十四層
RPVNMLQJIILFFAI38CA,,19.11,見其他登記事項,見其他登記事項,105年5月10日,十四層,
RPVNMLQJIILFFAI38CA,,26.88,見其他登記事項,見其他登記事項,105年5月10日,十四層,
RPWNMLQJIILFFAI48CA,,77.82,見其他登記事項,見其他登記事項,105年5月10日,十四層,十三層
RPWNMLQJIILFFAI48CA,,26.88,見其他登記事項,見其他登記事項,105年5月10日,十四層,
RPWNMLQJIILFFAI48CA,,19.37,見其他登記事項,見其他登記事項,105年5月10日,十四層,
RPXNMLQJIILFFAI58CA,,74.76,見其他登記事項,見其他登記事項,105年5月10日,十四層,十層
RPXNMLQJIILFFAI58CA,,26.42,見其他登記事項,見其他登記事項,105年5月10日,十四層,
RPXNMLQJIILFFAI58CA,,18.62,見其他登記事項,見其他登記事項,105年5月10日,十四層,
RPOOMLQJIILFFAI77CA,,95.44,見其他登記事項,見其他登記事項,105年5月10日,十四層,七層
RPOOMLQJIILFFAI77CA,,30.46,見其他登記事項,見其他登記事項,105年5月10日,十四層,
RPOOMLQJIILFFAI77CA,,29.50,見其他登記事項,見其他登記事項,105年5月10日,十四層,
RPOOMLOJIILFFAI57CA,24,187.69,住家用,鋼筋混凝土造,81年4月27日,四層,一層 二層 三層 四層
RPPNMLPLRHLFFAI68CA,54,54.27,住家用,見使用執照,51年10月10日,一層,一層
RPOOMLLLRHLFFAI28CA,20,27.06,住家用,鋼筋混凝土造,85年6月18日,九層,四層
RPOOMLLLRHLFFAI28CA,20,11.00,共有部份,鋼筋混凝土造,85年6月18日,九層,
RPRNMLMLRHLFFAI58CA,22,32.24,住家用,鋼筋混凝土造,83年11月28日,十二層,九層
RPRNMLMLRHLFFAI58CA,22,11.21,共有部份,鋼筋混凝土造,83年11月28日,十二層,
RPRNMLTKRHLFFAI56CA,50,29.60,住家用,木造,55年7月10日,一層,一層
RPPOMLRJIILFFAI97CA,23,87.28,住家用,鋼筋混凝土造,82年11月18日,十二層,七層
RPPOMLRJIILFFAI97CA,23,13.80,共有部份,鋼筋混凝土造,82年11月18日,十二層,
RPPOMLRJIILFFAI97CA,23,12.59,共有部份,鋼筋混凝土造,82年11月18日,十二層,
RPRNMLLLRHLFFAI68EA,36,95.42,住商用,鋼筋混凝土造,70年1月13日,四層,一層 二層
RPUNMLMLRHLFFAI09EA,44,164.60,住商用,鋼筋混凝土加強磚造,61年6月11日,四層,一層 二層 三層 四層 地下層
RPVNMLLLRHLFFAI88CA,34,54.81,住家用,鋼筋混凝土造,71年11月21日,五層,五層
RPVNMLLLRHLFFAI88CA,34,11.72,共有部份,鋼筋混凝土造,71年11月21日,五層,
RPQOMLMLRHLFFAI58CA,9,184.75,住商用,鋼筋混凝土造,96年3月26日,四層,一層 二層 三層 四層
RPUOMLMLRHLFFAI98CA,24,99.70,住家用,鋼筋混凝土造,81年8月28日,十層,三層
RPUOMLMLRHLFFAI98CA,24,29.48,共有部份,鋼筋混凝土造,81年8月28日,十層,
RPWOMLMLRHLFFAI56CA,32,125.95,住家用,加強磚造,73年9月20日,二層,一層 二層
RPQNMLQLRHLFFAI88CA,27,2.46,共有部份,鋼筋混凝土造,78年5月18日,五層,
RPQNMLQLRHLFFAI88CA,27,4.65,共有部份,鋼筋混凝土造,78年5月18日,五層,
RPQNMLQLRHLFFAI88CA,27,33.91,住家用,鋼筋混凝土造,78年5月18日,五層,二層
RPSNMLNLRHLFFAI78CA,12,204.88,住家用,鋼筋混凝土造,93年11月26日,四層,一層 二層 三層 四層
RPSOMLKMRHLFFAI68CA,2,207.66,見其他登記事項,見其他登記事項,103年3月20日,四層,一層 二層 三層 四層
RPSOMLKMRHLFFAI68CA,2,.17,見其他登記事項,見其他登記事項,103年3月20日,一層,
RPXNMLRLRHLFFAI07CA,,257.57,見其他登記事項,見其他登記事項,105年6月8日,四層,一層 二層 三層 四層
RPOOMLRLRHLFFAI88CA,,220.70,見其他登記事項,見其他登記事項,105年6月8日,四層,一層 二層 三層 四層
RPPOMLRLRHLFFAI98CA,,221.66,見其他登記事項,見其他登記事項,105年6月8日,四層,一層 二層 三層 四層
RPQOMLRLRHLFFAI09CA,,205.18,見其他登記事項,見其他登記事項,105年6月8日,四層,一層 二層 三層 四層
RPROMLRLRHLFFAI56CA,,204.75,見其他登記事項,見其他登記事項,105年6月8日,四層,一層 二層 三層 四層
RPSOMLRLRHLFFAI66CA,,224.24,見其他登記事項,見其他登記事項,105年6月8日,四層,一層 二層 三層 四層
RPTOMLRLRHLFFAI76CA,,224.20,見其他登記事項,見其他登記事項,105年6月8日,四層,一層 二層 三層 四層
RPUOMLRLRHLFFAI86CA,,204.72,見其他登記事項,見其他登記事項,105年6月8日,四層,一層 二層 三層 四層
RPVOMLRLRHLFFAI96CA,,205.36,見其他登記事項,見其他登記事項,105年6月8日,四層,一層 二層 三層 四層
RPWOMLRLRHLFFAI07CA,,206.66,見其他登記事項,見其他登記事項,105年6月8日,四層,一層 二層 三層 四層
RPXOMLRLRHLFFAI17CA,,209.20,見其他登記事項,見其他登記事項,105年6月8日,四層,一層 二層 三層 四層
RPQNMLSLRHLFFAI09CA,35,92.10,住商用,鋼筋混凝土加強磚造,70年12月9日,二層,一層 二層
RPTNMLTLRHLFFAI86CA,23,280.69,住商用,鋼筋混凝土造,82年8月5日,七層,一層 二層 騎樓 地下層
RPTNMLTLRHLFFAI86CA,23,68.45,共有部份,鋼筋混凝土造,82年8月5日,七層,
RPPNMLNLRHLFFAI48CA,7,287.44,見其他登記事項,見其他登記事項,98年5月22日,四層,一層 二層 三層 四層 見其他登記事項
RPQNMLLLIILFFAI57CA,23,81.71,住家用,鋼筋混凝土造,83年2月3日,十二層,十二層
RPQNMLLLIILFFAI57CA,23,15.51,共有部份,鋼筋混凝土造,83年2月3日,十二層,
RPSOMLMLRHLFFAI98EA,21,117.07,住家用,鋼筋混凝土造,84年10月4日,十一層,四層
RPSOMLMLRHLFFAI98EA,21,23.63,共有部份,鋼筋混凝土造,84年10月4日,十一層,
RPSOMLMLRHLFFAI98EA,21,14.46,共有部份,鋼筋混凝土造,84年10月4日,十一層,
RPTNMLOJIILFFAI18EA,23,71.38,住家用,鋼筋混凝土造,82年6月9日,十六層,十二層
RPTNMLOJIILFFAI18EA,23,17.57,共有部份,鋼筋混凝土造,82年6月9日,十六層,
RPTNMLOJIILFFAI18EA,23,11.72,共有部份,鋼筋混凝土造,82年6月9日,十六層,
RPTNMLNLRHLFFAI09EA,45,64.29,住家用,木造,60年9月20日,二層,一層 二層
RPPNMLQLRHLFFAI98EA,22,238.44,住家用,鋼筋混凝土造,83年4月22日,五層,一層 二層 三層 四層 五層
RPUNMLNKIILFFAI08CA,1,352.39,見其他登記事項,見其他登記事項,105年1月11日,四層,一層 二層 三層 四層 見其他登記事項
RPVNMLNKIILFFAI18CA,22,91.97,住家用,鋼筋混凝土造,83年4月6日,十二層,十二層
RPVNMLNKIILFFAI18CA,22,16.22,共有部份,鋼筋混凝土造,83年4月6日,十二層,
RPVNMLNKIILFFAI18CA,22,11.01,共有部份,鋼筋混凝土造,83年4月6日,十二層,
RPOOMLLKIILFFAI37CA,12,180.20,住商用,鋼筋混凝土造,93年11月29日,三層,一層 二層 三層 見其他登記事項
RPTNMLLLIILFFAI87CA,,194.25,住家用,見其他登記事項,105年5月3日,四層,四層
RPTNMLLLIILFFAI87CA,,102.13,見其他登記事項,見其他登記事項,105年5月3日,四層,
RPTNMLLLIILFFAI87CA,,.35,見其他登記事項,見其他登記事項,105年5月3日,一層,
RPUNMLLLIILFFAI97CA,,194.26,住家用,見其他登記事項,105年5月3日,四層,四層
RPUNMLLLIILFFAI97CA,,102.13,見其他登記事項,見其他登記事項,105年5月3日,四層,
RPUNMLLLIILFFAI97CA,,.35,見其他登記事項,見其他登記事項,105年5月3日,一層,
RPROMLRKIILFFAI28CA,2,312.39,住家用,見其他登記事項,103年5月8日,四層,一層 二層 三層 四層
RPPNMLSKIILFFAI08CA,30,92.93,住家用,鋼筋混凝土造,75年10月19日,五層,四層
RPPNMLSKIILFFAI08CA,30,8.10,共有部份,鋼筋混凝土造,75年10月19日,五層,
RPPNMLSKIILFFAI08CA,30,.05,共有部份,鋼筋混凝土造,75年10月19日,九層,
RPPNMLSKIILFFAI08CA,30,.06,共有部份,鋼筋混凝土造,75年10月19日,五層,
RPPNMLSKIILFFAI08CA,30,5.29,共有部份,鋼筋混凝土造,75年10月19日,十層,
RPWNMLLLIILFFAI18CA,,519.55,見其他登記事項,見其他登記事項,105年5月3日,四層,一層 二層 三層 四層
RPWNMLLLIILFFAI18CA,,.35,見其他登記事項,見其他登記事項,105年5月3日,一層,
RPRNMLQLRHLFFAI98CA,36,136.79,住家用,鋼筋混凝土加強磚造,69年6月12日,二層,一層 二層
RPQNMLPLRHLFFAI78CA,23,20.45,住家用,鋼筋混凝土造,82年10月12日,七層,七層
RPQNMLPLRHLFFAI78CA,23,12.22,共有部份,鋼筋混凝土造,82年10月12日,七層,
RPRNMLPLRHLFFAI88CA,43,68.82,住家用,木造,63年1月6日,二層,一層 二層
RPXNMLNLRHLFFAI66CA,25,143.39,住家用,鋼筋混凝土造,80年4月13日,二層,一層 二層
RPTOMLOJIILFFAI08CA,36,107.29,住家用,鋼筋混凝土造,69年8月13日,五層,三層
RPTOMLOJIILFFAI08CA,36,8.97,共有部份,鋼筋混凝土造,69年8月13日,五層,
RPTOMLOJIILFFAI08CA,36,4.88,共有部份,鋼筋混凝土造,69年8月13日,五層,
RPPOMLQJIILFFAI87CA,,77.82,見其他登記事項,見其他登記事項,105年5月10日,十四層,三層
RPPOMLQJIILFFAI87CA,,26.88,見其他登記事項,見其他登記事項,105年5月10日,十四層,
RPPOMLQJIILFFAI87CA,,19.38,見其他登記事項,見其他登記事項,105年5月10日,十四層,
RPUPMLKMRHLFFAI98CA,29,137.34,住家用,加強磚造,76年7月8日,二層,一層 二層
RPVNMLOLRHLFFAI56CA,23,86.96,住家用,鋼筋混凝土造,82年6月9日,十六層,九層
RPVNMLOLRHLFFAI56CA,23,21.37,共有部份,鋼筋混凝土造,82年6月9日,十六層,
RPVNMLOLRHLFFAI56CA,23,14.23,共有部份,鋼筋混凝土造,82年6月9日,十六層,
RPSOMLQLRHLFFAI56CA,25,108.64,住家用,鋼筋混凝土造,80年6月20日,七層,七層
RPSOMLQLRHLFFAI56CA,25,15.74,共有部份,鋼筋混凝土造,80年6月20日,七層,
RPSOMLPLIILFFAI28CA,34,113.06,住家用,鋼筋混凝土加強磚造,71年11月18日,二層,一層 二層
RPPNMLKLIILFFAI37CA,23,54.78,住家用,鋼筋混凝土造,82年11月2日,八層,
RPPNMLKLIILFFAI37CA,23,21.78,共有部份,鋼筋混凝土造,82年11月2日,八層,
RPSOMLRJIILFFAI28CA,47,56.24,住家用,木造,59年2月10日,一層,一層
RPSNMLRJIILFFAI18CA,12,77.41,見其他登記事項,鋼筋混凝土造,93年5月17日,三層,一層 二層 三層 見其他登記事項
RPUNMLRJIILFFAI38CA,19,30.87,住家用,鋼筋混凝土造,86年11月20日,十二層,五層
RPUNMLRJIILFFAI38CA,19,5.25,共有部份,鋼筋混凝土造,86年11月20日,十二層,
RPRNMLKKIILFFAI47CA,30,131.36,住家用,鋼筋混凝土造,76年2月27日,二層,一層 二層
RPPNMLNKIILFFAI57CA,,91.30,見其他登記事項,見其他登記事項,105年5月10日,十四層,七層
RPPNMLNKIILFFAI57CA,,46.03,見其他登記事項,見其他登記事項,105年5月10日,十四層,
RPPNMLNKIILFFAI57CA,,28.21,見其他登記事項,見其他登記事項,105年5月10日,十四層,
RPQNMLNKIILFFAI67CA,,91.22,見其他登記事項,見其他登記事項,105年5月10日,十四層,六層
RPQNMLNKIILFFAI67CA,,29.54,見其他登記事項,見其他登記事項,105年5月10日,十四層,
RPQNMLNKIILFFAI67CA,,25.97,見其他登記事項,見其他登記事項,105年5月10日,十四層,
RPRNMLNKIILFFAI77CA,,74.76,見其他登記事項,見其他登記事項,105年5月10日,十四層,十三層
RPRNMLNKIILFFAI77CA,,18.35,見其他登記事項,見其他登記事項,105年5月10日,十四層,
RPRNMLNKIILFFAI77CA,,12.11,見其他登記事項,見其他登記事項,105年5月10日,十四層,
RPSNMLNKIILFFAI87CA,,83.38,見其他登記事項,見其他登記事項,105年5月10日,十四層,十一層
RPSNMLNKIILFFAI87CA,,27.81,見其他登記事項,見其他登記事項,105年5月10日,十四層,
RPSNMLNKIILFFAI87CA,,20.77,見其他登記事項,見其他登記事項,105年5月10日,十四層,
RPWNMLOKIILFFAI38CA,15,284.63,見其他登記事項,鋼筋混凝土造,90年12月21日,四層,一層 二層 三層 四層
RPPOMLRKIILFFAI08CA,9,8.36,見其他登記事項,鋼筋混凝土造,97年3月3日,四層,四層
RPPOMLRKIILFFAI08CA,9,5.66,共有部份,鋼筋混凝土造,97年3月3日,四層,
RPQNMLRLRHLFFAI98CA,36,129.57,住家用,鋼筋混凝土加強磚造,69年9月17日,二層,一層 二層 電梯樓梯間
RPPNMLTLRHLFFAI09CA,23,97.61,住家用,鋼筋混凝土造,82年4月27日,七層,六層
RPPNMLTLRHLFFAI09CA,23,19.67,共有部份,鋼筋混凝土造,82年4月27日,七層,
RPQOMLQJIILFFAI97CA,,83.38,見其他登記事項,見其他登記事項,105年5月10日,十四層,十三層
RPQOMLQJIILFFAI97CA,,20.47,見其他登記事項,見其他登記事項,105年5月10日,十四層,
RPQOMLQJIILFFAI97CA,,43.96,見其他登記事項,見其他登記事項,105年5月10日,十四層,
RPUNMLPJIILFFAI18CA,,83.38,見其他登記事項,見其他登記事項,105年5月10日,十四層,八層
RPUNMLPJIILFFAI18CA,,20.77,見其他登記事項,見其他登記事項,105年5月10日,十四層,
RPUNMLPJIILFFAI18CA,,27.81,見其他登記事項,見其他登記事項,105年5月10日,十四層,
RPPNMLLJIILFFAI27CA,40,51.67,住家用,磚造,65年5月1日,一層,一層
RPSNMLTLRHLFFAI96EA,48,61.11,住商用,木造,57年3月20日,二層,一層 二層 騎樓
RPXPMLKMRHLFFAI66CA,25,76.26,住商用,鋼筋混凝土造,80年5月16日,三層,一層 二層 三層
RPTNMLLKIILFFAI77CA,20,79.78,住家用,鋼筋混凝土造,85年6月18日,九層,五層
RPTNMLLKIILFFAI77CA,20,26.59,共有部份,鋼筋混凝土造,85年6月18日,九層,
RPSOMLQJIILFFAI18CA,21,188.31,住家用,鋼筋混凝土造,84年12月11日,三層,一層 二層 三層 地下層
RPSOMLQJIILFFAI18CA,21,13.68,見其他登記事項,鋼筋混凝土造,84年12月11日,三層,
RPVNMLRJIILFFAI48CA,2,209.37,住家用,見其他登記事項,104年1月12日,四層,一層 二層 三層 四層
RPQNMLKLIILFFAI47CA,23,81.02,住家用,鋼筋混凝土造,82年8月23日,九層,
RPQNMLKLIILFFAI47CA,23,19.11,共有部份,鋼筋混凝土造,82年8月23日,九層,
RPQNMLKLIILFFAI47CA,23,9.28,共有部份,鋼筋混凝土造,82年8月23日,九層,
RPRNMLQLIILFFAI18CA,23,166.40,住家用,鋼筋混凝土造,82年10月28日,四層,一層 二層 三層 四層
RPSNMLQLIILFFAI28CA,36,98.67,住家用,鋼筋混凝土造,70年1月13日,四層,四層
RPSNMLQLIILFFAI28CA,36,10.41,共有部份,鋼筋混凝土造,70年1月13日,四層,
RPUNMLOLIILFFAI28CA,39,86.85,住家用,鋼筋混凝土加強磚造,66年6月9日,二層,一層 二層
RPRNMLNJIILFFAI67CA,9,98.88,見其他登記事項,見其他登記事項,97年2月5日,十一層,六層
RPRNMLNJIILFFAI67CA,9,18.42,共有部份,見其他登記事項,97年2月5日,十一層,
RPRNMLNJIILFFAI67CA,9,24.98,共有部份,見其他登記事項,97年2月5日,十一層,
RPRNMLNJIILFFAI67CA,9,.11,見其他登記事項,見其他登記事項,97年2月5日,十一層,二層
RPRNMLNJIILFFAI67CA,9,.02,共有部份,見其他登記事項,97年2月5日,十一層,
RPRNMLNJIILFFAI67CA,9,.34,共有部份,見其他登記事項,97年2月5日,十一層,
RPSOMLQLIILFFAI38CA,,171.28,見其他登記事項,見其他登記事項,105年8月16日,三層,一層 二層 三層 見其他登記事項
RPTOMLQLIILFFAI48CA,,172.36,見其他登記事項,見其他登記事項,105年8月16日,三層,一層 二層 三層 見其他登記事項
RPUOMLQLIILFFAI58CA,,165.82,見其他登記事項,見其他登記事項,105年8月16日,三層,一層 二層 三層 見其他登記事項
RPVOMLQLIILFFAI68CA,,168.95,見其他登記事項,見其他登記事項,105年8月16日,三層,一層 二層 三層 見其他登記事項
RPOPMLQLIILFFAI08CA,,165.56,見其他登記事項,見其他登記事項,105年8月16日,三層,一層 二層 三層 見其他登記事項
RPUOMLNJIILFFAI08CA,39,74.82,住家用,鋼筋混凝土加強磚造,67年2月1日,二層,一層 二層
RPRNMLOLIILFFAI97CA,23,203.67,住商用,鋼筋混凝土造,83年1月7日,四層,一層 二層 三層 四層
RPVOMLLKIILFFAI08CA,2,282.01,住家用,見其他登記事項,103年10月6日,四層,一層 二層 三層 四層
RPPNMLQJIILFFAI77CA,18,166.79,見其他登記事項,鋼筋混凝土造,87年11月21日,四層,一層 二層 三層 四層
RPPNMLRJIILFFAI87CA,27,2.46,共有部份,鋼筋混凝土造,78年5月18日,五層,
RPPNMLRJIILFFAI87CA,27,33.91,住家用,鋼筋混凝土造,78年5月18日,五層,五層
RPPNMLRJIILFFAI87CA,27,4.65,共有部份,鋼筋混凝土造,78年5月18日,五層,
RPXNMLLKIILFFAI18CA,8,205.62,住商用,見其他登記事項,97年12月18日,四層,一層 二層 三層 四層
RPVNMLMKIILFFAI08CA,10,184.55,見其他登記事項,鋼筋混凝土造,95年11月3日,三層,一層 二層 三層 見其他登記事項
RPPNMLOLIILFFAI77CA,26,120.02,住家用,鋼筋混凝土造,79年6月18日,三層,一層 二層 三層 夾層
RPRNMLNLIILFFAI87CA,21,25.91,住家用,鋼筋混凝土造,84年7月24日,十四層,九層
RPRNMLNLIILFFAI87CA,21,6.62,共有部份,鋼筋混凝土造,84年7月24日,十四層,
RPRNMLNLIILFFAI87CA,21,5.00,共有部份,鋼筋混凝土造,84年7月24日,十四層,
RPUNMLQLIILFFAI48CA,35,129.30,住家用,鋼筋混凝土加強磚造,70年12月26日,二層,一層 二層
RPTOMLPLIILFFAI38CA,4,239.50,見其他登記事項,見其他登記事項,101年5月4日,四層,一層 二層 三層 四層
RPROMLOJIILFFAI87CA,1,196.08,住家用,見其他登記事項,104年12月29日,四層,一層 二層 三層 四層
RPVNMLSLIILFFAI78CA,20,103.32,住家用,鋼筋混凝土造,85年5月10日,十層,六層 夾層
RPVNMLSLIILFFAI78CA,20,30.02,共有部份,鋼筋混凝土造,85年5月10日,十層,
RPOOMLPJIILFFAI87EA,21,31.85,住家用,鋼筋混凝土造,84年12月7日,六層,四層
RPOOMLPJIILFFAI87EA,21,13.04,共有部份,鋼筋混凝土造,84年12月7日,六層,
RPSNMLOJIILFFAI08EA,19,39.08,住家用,鋼筋混凝土造,87年2月26日,十二層,八層
RPSNMLOJIILFFAI08EA,19,7.42,共有部份,鋼筋混凝土造,87年2月26日,十二層,
RPSNMLOJIILFFAI08EA,19,6.93,共有部份,鋼筋混凝土造,87年2月26日,十二層,
RPTNMLRLIILFFAI48CA,,74.76,見其他登記事項,見其他登記事項,105年5月10日,十四層,十三層
RPTNMLRLIILFFAI48CA,,26.42,見其他登記事項,見其他登記事項,105年5月10日,十四層,
RPTNMLRLIILFFAI48CA,,18.62,見其他登記事項,見其他登記事項,105年5月10日,十四層,
RPUNMLRLIILFFAI58CA,,62.39,見其他登記事項,見其他登記事項,105年5月10日,十四層,五層
RPUNMLRLIILFFAI58CA,,40.84,見其他登記事項,見其他登記事項,105年5月10日,十四層,
RPUNMLRLIILFFAI58CA,,17.76,見其他登記事項,見其他登記事項,105年5月10日,十四層,
RPVNMLRLIILFFAI68CA,,91.22,見其他登記事項,見其他登記事項,105年5月10日,十四層,九層
RPVNMLRLIILFFAI68CA,,29.54,見其他登記事項,見其他登記事項,105年5月10日,十四層,
RPVNMLRLIILFFAI68CA,,25.97,見其他登記事項,見其他登記事項,105年5月10日,十四層,
RPWOMLQLIILFFAI78CA,,165.38,見其他登記事項,見其他登記事項,105年8月16日,三層,一層 二層 三層 見其他登記事項
RPXOMLQLIILFFAI88CA,,165.39,見其他登記事項,見其他登記事項,105年8月16日,三層,一層 二層 三層 見其他登記事項
RPQOMLKLIILFFAI57CA,23,72.37,住家用,鋼筋混凝土造,82年5月15日,十五層,
RPQOMLKLIILFFAI57CA,23,9.62,共有部份,鋼筋混凝土造,82年5月15日,十五層,
RPQOMLKLIILFFAI57CA,23,11.29,共有部份,鋼筋混凝土造,82年5月15日,十五層,
RPUNMLMKIILFFAI97CA,27,128.12,住家用,鋼筋混凝土造,79年1月12日,七層,五層
RPUNMLMKIILFFAI97CA,27,8.79,共有部份,鋼筋混凝土造,79年1月12日,七層,
RPUNMLMKIILFFAI97CA,27,16.88,共有部份,鋼筋混凝土造,79年1月12日,七層,
RPXNMLNKIILFFAI38CA,21,91.17,住家用,鋼筋混凝土造,84年10月2日,十二層,五層
RPXNMLNKIILFFAI38CA,21,18.98,共有部份,鋼筋混凝土造,84年10月2日,十四層,
RPXNMLNKIILFFAI38CA,21,13.36,共有部份,鋼筋混凝土造,84年10月2日,十二層,
RPSOMLPJIILFFAI08CA,33,80.68,見其他登記事項,鋼筋混凝土造,73年2月20日,五層,五層
RPSOMLPJIILFFAI08CA,33,5.72,共有部份,鋼筋混凝土造,73年2月20日,五層,
RPXOMLQJIILFFAI68CA,24,31.50,住家用,鋼筋混凝土造,81年9月3日,七層,五層
RPXOMLQJIILFFAI68CA,24,4.40,共有部份,鋼筋混凝土造,81年9月3日,七層,
RPXOMLQJIILFFAI68CA,24,7.30,共有部份,鋼筋混凝土造,81年9月3日,七層,
RPSNMLQJIILFFAI08CA,26,73.17,住家用,鋼筋混凝土造,79年10月15日,七層,三層
RPSNMLQJIILFFAI08CA,26,15.82,共有部份,鋼筋混凝土造,79年10月15日,七層,
RPSOMLRKIILFFAI38CA,21,33.97,住家用,鋼筋混凝土造,85年2月5日,十五層,九層
RPSOMLRKIILFFAI38CA,21,5.63,見其他登記事項,鋼筋混凝土造,85年2月5日,十五層,
RPSOMLRKIILFFAI38CA,21,2.98,見其他登記事項,鋼筋混凝土造,85年2月5日,十五層,
RPSOMLRKIILFFAI38CA,21,6.58,共有部份,鋼筋混凝土造,85年2月5日,十五層,
RPSNMLNLIILFFAI97CA,21,106.96,住家用,鋼筋混凝土造,84年5月22日,十二層,八層
RPSNMLNLIILFFAI97CA,21,27.40,共有部份,鋼筋混凝土造,84年5月22日,十二層,
RPRNMLMLIILFFAI77CA,25,103.60,住家用,鋼筋混凝土造,80年5月22日,五層,一層
RPRNMLMLIILFFAI77CA,25,24.11,共有部份,鋼筋混凝土造,80年5月22日,五層,
RPOOMLQLIILFFAI97CA,22,95.43,住家用,鋼筋混凝土造,83年10月11日,五層,五層
RPOOMLQLIILFFAI97CA,22,14.73,共有部份,鋼筋混凝土造,83年10月11日,五層,
RPRNMLKMIILFFAI67CA,33,33.22,住家用,鋼筋混凝土造,72年7月8日,五層,五層
RPRNMLKMIILFFAI67CA,33,4.29,共有部份,鋼筋混凝土造,72年7月8日,五層,
RPRNMLKMIILFFAI67CA,33,2.52,共有部份,鋼筋混凝土造,72年7月8日,五層,
RPUOMLQJIILFFAI58EA,21,82.00,住家用,鋼筋混凝土造,85年2月14日,十二層,四層
RPUOMLQJIILFFAI58EA,21,38.09,共有部份,鋼筋混凝土造,85年2月14日,十二層,
RPSNMLMJJILFFAI77CA,20,109.92,住家用,鋼筋混凝土造,85年6月18日,九層,四層
RPSNMLMJJILFFAI77CA,20,39.43,共有部份,鋼筋混凝土造,85年6月18日,九層,
RPPOMLQLIILFFAI08CA,32,80.16,住家用,鋼筋混凝土造,73年10月13日,五層,五層
RPPOMLQLIILFFAI08CA,32,6.39,共有部份,鋼筋混凝土造,73年10月13日,五層,
RPPOMLQLIILFFAI08CA,32,6.32,共有部份,鋼筋混凝土造,73年10月13日,五層,
RPXNMLQLIILFFAI78CA,43,74.28,住家用,鋼筋混凝土加強磚造,62年11月9日,二層,一層 二層
RPTNMLSLIILFFAI58CA,29,148.94,住家用,加強磚造,76年9月25日,二層,一層 二層 夾層
RPQNMLPKIILFFAI87CA,,213.36,見其他登記事項,見其他登記事項,105年6月27日,三層,一層 二層 三層 見其他登記事項
RPQNMLKKIILFFAI37CA,31,72.21,住家用,鋼筋混凝土造,74年9月19日,五層,五層
RPQNMLKKIILFFAI37CA,31,5.28,共有部份,鋼筋混凝土造,74年9月19日,五層,
RPQNMLKKIILFFAI37CA,31,6.61,共有部份,鋼筋混凝土造,74年9月19日,五層,
RPRNMLLKIILFFAI57CA,35,154.46,住家用,鋼筋混凝土加強磚造,70年11月6日,二層,一層 二層
RPPNMLQKIILFFAI87CA,9,170.25,見其他登記事項,鋼筋混凝土造,96年7月9日,三層,一層 二層 三層 見其他登記事項
RPRNMLOKIILFFAI87CA,23,99.20,住家用,鋼筋混凝土造,82年6月18日,十二層,七層
RPRNMLOKIILFFAI87CA,23,29.87,共有部份,鋼筋混凝土造,82年6月18日,十二層,
RPVOMLNKIILFFAI28CA,24,143.55,住家用,鋼筋混凝土造,81年8月4日,十層,十層
RPVOMLNKIILFFAI28CA,24,22.51,共有部份,鋼筋混凝土造,81年8月4日,十層,
RPVOMLNKIILFFAI28CA,24,11.92,共有部份,鋼筋混凝土造,81年8月4日,十層,
RPVOMLNKIILFFAI28CA,24,.47,住家用,鋼筋混凝土造,81年8月4日,十層,地下層
RPVOMLNKIILFFAI28CA,24,.94,共有部份,鋼筋混凝土造,81年8月4日,十層,
RPVOMLNKIILFFAI28CA,24,.53,共有部份,鋼筋混凝土造,81年8月4日,十層,
RPOPMLLKIILFFAI47CA,,86.53,見其他登記事項,見其他登記事項,105年5月10日,十四層,九層
RPOPMLLKIILFFAI47CA,,44.42,見其他登記事項,見其他登記事項,105年5月10日,十四層,
RPOPMLLKIILFFAI47CA,,21.24,見其他登記事項,見其他登記事項,105年5月10日,十四層,
RPPNMLNLIILFFAI67CA,23,76.55,住家用,鋼筋混凝土造,82年12月17日,七層,五層
RPPNMLNLIILFFAI67CA,23,30.09,共有部份,鋼筋混凝土造,82年12月17日,七層,
RPQNMLNLIILFFAI77CA,10,232.49,見其他登記事項,鋼筋混凝土造,95年4月4日,四層,一層 二層 三層 四層
RPWNMLKLIILFFAI08CA,26,74.91,住家用,鋼筋混凝土造,79年10月15日,七層,
RPWNMLKLIILFFAI08CA,26,9.49,共有部份,鋼筋混凝土造,79年10月15日,七層,
RPUNMLRKIILFFAI48CA,22,192.30,住家用,鋼筋混凝土造,83年12月23日,十四層,一層 二層 三層 騎樓
RPUNMLRKIILFFAI48CA,22,52.80,共有部份,鋼筋混凝土造,83年12月23日,十四層,
RPUNMLRKIILFFAI48CA,22,28.27,共有部份,鋼筋混凝土造,83年12月23日,十四層,
RPSNMLKKJILFFAI67CA,30,130.38,住家用,鋼筋混凝土造,75年4月12日,二層,一層 二層
RPQOMLRKIILFFAI18CA,23,98.25,住家用,鋼筋混凝土造,82年10月29日,十五層,十層 門廳
RPQOMLRKIILFFAI18CA,23,10.75,共有部份,鋼筋混凝土造,82年10月29日,十五層,
RPQOMLRKIILFFAI18CA,23,13.56,共有部份,鋼筋混凝土造,82年10月29日,十五層,
RPQOMLRKIILFFAI18CA,23,10.44,見其他登記事項,鋼筋混凝土造,82年10月29日,十五層,地下二層
RPQOMLRKIILFFAI18CA,23,5.47,共有部份,鋼筋混凝土造,82年10月29日,十五層,
RPSOMLOKIILFFAI08CA,23,95.31,住家用,鋼筋混凝土造,82年6月23日,十二層,十一層
RPSOMLOKIILFFAI08CA,23,15.90,共有部份,鋼筋混凝土造,82年6月23日,十三層,
RPSOMLOKIILFFAI08CA,23,13.20,共有部份,鋼筋混凝土造,82年6月23日,十二層,
RPVNMLQLIILFFAI58CA,36,83.52,見其他登記事項,鋼筋混凝土加強磚造,69年9月17日,四層,三層
RPVNMLQLIILFFAI58CA,36,6.51,共有部份,鋼筋混凝土加強磚造,69年9月17日,四層,
RPTNMLQLIILFFAI38CA,,191.31,見其他登記事項,見其他登記事項,105年8月16日,三層,一層 二層 三層 見其他登記事項
RPXNMLRJJILFFAI78CA,40,71.76,住商用,鋼筋混凝土加強磚造,65年6月14日,二層,一層 二層 騎樓
RPQOMLMJJILFFAI67CA,,183.67,見其他登記事項,見其他登記事項,105年8月16日,三層,一層 二層 三層 見其他登記事項
RPPPMLQLIILFFAI18CA,,165.38,見其他登記事項,見其他登記事項,105年8月16日,三層,一層 二層 三層 見其他登記事項
RPQOMLQLIILFFAI18CA,27,154.69,住家用,鋼筋混凝土造,79年2月12日,七層,五層
RPQOMLQLIILFFAI18CA,27,4.17,共有部份,,79年2月12日,000,
RPXNMLSLIILFFAI98CA,16,197.99,見其他登記事項,鋼筋混凝土造,89年7月4日,四層,一層 二層 三層 四層
RPVOMLLMIILFFAI28CA,22,87.31,住家用,鋼筋混凝土造,83年12月23日,九層,三層
RPVOMLLMIILFFAI28CA,22,19.62,共有部份,鋼筋混凝土造,83年12月23日,九層,
RPOOMLRJJILFFAI97CA,,307.25,見其他登記事項,見其他登記事項,105年5月9日,五層,一層 二層 三層 四層 五層
RPPNMLKKJILFFAI37CA,26,60.75,住家用,鋼筋混凝土造,79年3月28日,五層,五層
RPPNMLKKJILFFAI37CA,26,2.36,共有部份,鋼筋混凝土造,79年3月28日,五層,
RPPNMLKKJILFFAI37CA,26,7.69,共有部份,鋼筋混凝土造,79年3月28日,五層,
RPWNMLNLIILFFAI38CA,38,214.72,住家用,鋼筋混凝土加強磚造,67年4月13日,二層,一層 二層 陽台 夾層
RPTOMLOKIILFFAI18CA,23,18.57,住家用,鋼筋混凝土造,82年6月9日,十二層,十二層
RPTOMLOKIILFFAI18CA,23,3.52,共有部份,鋼筋混凝土造,82年6月9日,十二層,
RPTOMLOKIILFFAI18CA,23,5.41,共有部份,鋼筋混凝土造,82年6月9日,十二層,
RPUOMLOKIILFFAI28CA,2,316.85,住家用,見其他登記事項,103年7月9日,四層,一層 二層 三層 四層
RPROMLOKIILFFAI97CA,28,63.13,住家用,鋼筋混凝土造,78年1月17日,七層,五層
RPROMLOKIILFFAI97CA,28,9.87,共有部份,鋼筋混凝土造,78年1月17日,七層,
RPPNMLRKIILFFAI97CA,24,112.43,住家用,鋼筋混凝土造,81年6月26日,十五層,十三層
RPPNMLRKIILFFAI97CA,24,27.49,共有部份,鋼筋混凝土造,81年6月26日,十五層,
RPPNMLRKIILFFAI97CA,24,18.73,共有部份,鋼筋混凝土造,81年6月26日,十五層,
RPTNMLTKIILFFAI58CA,46,82.51,住家用,鋼筋混凝土加強磚造,59年8月24日,二層,一層 二層
RPUNMLTKIILFFAI68CA,,246.21,住家用,見其他登記事項,105年3月22日,四層,一層 二層 三層 四層
RPSNMLKLIILFFAI67CA,22,95.01,住家用,鋼筋混凝土造,83年11月29日,十六層,
RPSNMLKLIILFFAI67CA,22,18.07,共有部份,鋼筋混凝土造,83年11月29日,十六層,
RPWOMLKLIILFFAI18CA,24,56.31,住家用,鋼筋混凝土造,81年6月26日,十五層,
RPWOMLKLIILFFAI18CA,24,10.93,共有部份,鋼筋混凝土造,81年6月26日,十五層,
RPWOMLKLIILFFAI18CA,24,10.13,共有部份,鋼筋混凝土造,81年6月26日,十五層,
RPUNMLNLIILFFAI18CA,23,181.24,住商用,鋼筋混凝土造,82年7月24日,四層,一層 二層 三層 四層
RPPOMLOKIILFFAI97EA,27,118.51,住家用,鋼筋混凝土造,79年2月19日,七層,六層
RPPOMLOKIILFFAI97EA,27,25.25,共有部份,鋼筋混凝土造,79年2月19日,七層,
RPQNMLRKIILFFAI28EA,26,59.17,住家用,鋼筋混凝土造,79年10月15日,七層,四層
RPQNMLRKIILFFAI28EA,26,9.49,共有部份,鋼筋混凝土造,79年10月15日,七層,
RPRNMLSKIILFFAI48EA,32,64.94,住家用,加強磚造,73年8月18日,二層,一層 二層
RPSNMLSJJILFFAI38CA,10,479.69,見其他登記事項,鋼筋混凝土造,95年4月4日,五層,一層 二層 三層 四層 五層
RPSNMLPJJILFFAI08CA,45,51.29,住家用,木造,60年3月11日,一層,一層
RPUNMLLJJILFFAI87CA,2,186.73,見其他登記事項,見其他登記事項,103年11月17日,四層,一層 二層 三層 四層
RPUOMLLMIILFFAI18CA,21,84.61,住家用,鋼筋混凝土造,84年10月4日,十一層,五層
RPUOMLLMIILFFAI18CA,21,11.12,共有部份,鋼筋混凝土造,84年10月4日,十一層,
RPUOMLLMIILFFAI18CA,21,15.94,共有部份,鋼筋混凝土造,84年10月4日,十一層,
RPPNMLLJJILFFAI37CA,23,29.39,住家用,鋼筋混凝土造,82年4月26日,六層,一層
RPPNMLLJJILFFAI37CA,23,4.16,共有部份,鋼筋混凝土造,82年4月26日,六層,
RPPNMLLJJILFFAI37CA,23,4.61,見其他登記事項,鋼筋混凝土造,82年4月26日,六層,地下層
RPPNMLLJJILFFAI37CA,23,.65,共有部份,鋼筋混凝土造,82年4月26日,六層,
RPWNMLMJJILFFAI18CA,12,215.75,住家用,鋼筋混凝土造,93年11月5日,四層,一層 二層 三層 四層
RPXNMLMJJILFFAI28CA,33,100.00,商業用,鋼筋混凝土加強磚造,72年5月9日,二層,一層 二層 騎樓
RPXNMLMJJILFFAI28CA,33,28.80,商業用,鋼筋混凝土加強磚造,72年5月9日,二層,一層
RPUNMLKMIILFFAI97CA,22,304.75,住家用,鋼筋混凝土造,84年1月5日,四層,一層 二層 三層 四層
RPRNMLPJJILFFAI97CA,36,103.95,住商用,鋼筋混凝土加強磚造,69年12月3日,二層,一層 二層 騎樓
RPTNMLSKIILFFAI68EA,21,162.72,住商用,鋼筋混凝土造,84年7月24日,十四層,一層 二層 三層 騎樓
RPTNMLSKIILFFAI68EA,21,25.39,共有部份,鋼筋混凝土造,84年7月24日,十四層,
RPTNMLSKIILFFAI68EA,21,42.83,共有部份,鋼筋混凝土造,84年7月24日,十四層,
RPPNMLPLIILFFAI97DA,21,32.62,住家用,鋼筋混凝土造,84年7月12日,六層,二層
RPPNMLPLIILFFAI97DA,21,18.27,共有部份,鋼筋混凝土造,84年7月12日,六層,
RPPNMLTKIILFFAI18CA,17,82.56,住家用,鋼筋混凝土造,88年11月29日,十二層,八層 夾層
RPPNMLTKIILFFAI18CA,17,.15,見其他登記事項,鋼筋混凝土造,88年11月29日,十二層,一層
RPPNMLTKIILFFAI18CA,17,12.85,共有部份,鋼筋混凝土造,88年11月29日,十二層,
RPPNMLTKIILFFAI18CA,17,19.85,共有部份,鋼筋混凝土造,88年11月29日,十二層,
RPPNMLTKIILFFAI18CA,17,.02,共有部份,鋼筋混凝土造,88年11月29日,十二層,
RPVNMLTKIILFFAI78CA,33,129.65,住家用,鋼筋混凝土加強磚造,72年8月31日,二層,一層 二層 騎樓
RPXNMLTKIILFFAI98CA,31,73.19,住家用,鋼筋混凝土造,74年9月19日,五層,五層
RPXNMLTKIILFFAI98CA,31,5.34,共有部份,鋼筋混凝土造,74年9月19日,五層,
RPXNMLTKIILFFAI98CA,31,8.08,共有部份,鋼筋混凝土造,74年9月19日,五層,
RPVNMLLLIILFFAI08CA,4,195.79,見其他登記事項,見其他登記事項,101年4月16日,三層,一層 二層 三層 見其他登記事項
RPXNMLMKJILFFAI38CA,22,101.13,住家用,鋼筋混凝土造,83年9月14日,十二層,六層
RPXNMLMKJILFFAI38CA,22,35.77,共有部份,鋼筋混凝土造,83年9月14日,十二層,
RPWNMLQKJILFFAI68CA,36,92.27,住家用,鋼筋混凝土造,70年1月13日,四層,四層
RPWNMLQKJILFFAI68CA,36,10.41,共有部份,鋼筋混凝土造,70年1月13日,四層,
RPRNMLQKJILFFAI18CA,1,689.68,見其他登記事項,見其他登記事項,104年8月6日,五層,一層 二層 三層 四層 五層 騎樓 見其他登記事項
RPQPMLQLIILFFAI28CA,,165.68,見其他登記事項,見其他登記事項,105年8月16日,三層,一層 二層 三層 見其他登記事項
RPWNMLRLIILFFAI78CA,,77.82,見其他登記事項,見其他登記事項,105年5月10日,十四層,六層
RPWNMLRLIILFFAI78CA,,19.38,見其他登記事項,見其他登記事項,105年5月10日,十四層,
RPWNMLRLIILFFAI78CA,,12.58,見其他登記事項,見其他登記事項,105年5月10日,十四層,
RPVNMLLJJILFFAI97CA,25,62.92,住家用,鋼筋混凝土造,80年6月27日,十二層,十一層
RPVNMLLJJILFFAI97CA,25,101.89,住家用,鋼筋混凝土造,80年6月27日,十二層,十一層
RPVNMLLJJILFFAI97CA,25,20.61,共有部份,鋼筋混凝土造,80年6月27日,十二層,
RPVNMLLJJILFFAI97CA,25,12.65,共有部份,鋼筋混凝土造,80年6月27日,十二層,
RPTNMLLJJILFFAI77CA,22,458.80,見其他登記事項,鋼造,83年5月3日,二層,一層 二層 騎樓
RPOOMLMKJILFFAI57CA,24,67.02,住家用,鋼筋混凝土造,82年1月5日,十二層,七層
RPOOMLMKJILFFAI57CA,24,16.05,共有部份,鋼筋混凝土造,82年1月5日,十二層,
RPOOMLMKJILFFAI57CA,24,3.34,共有部份,鋼筋混凝土造,82年1月5日,十二層,
RPPOMLMKJILFFAI67CA,40,48.09,住家用,磚造,65年10月1日,一層,一層
RPXOMLKLIILFFAI28CA,,222.44,見其他登記事項,見其他登記事項,105年6月8日,四層,
RPPNMLLLIILFFAI47CA,32,86.17,住商用,鋼筋混凝土造,73年10月27日,三層,一層 二層 三層 騎樓
RPPOMLLLIILFFAI57CA,22,75.12,住家用,鋼筋混凝土造,83年11月9日,十二層,七層
RPPOMLLLIILFFAI57CA,22,25.29,共有部份,鋼筋混凝土造,83年11月9日,十二層,
RPTNMLOLIILFFAI18CA,20,85.26,住家用,鋼筋混凝土造,85年6月18日,九層,六層
RPTNMLOLIILFFAI18CA,20,35.76,共有部份,鋼筋混凝土造,85年6月18日,九層,
RPSNMLPLIILFFAI18CA,23,84.58,住家用,鋼筋混凝土造,82年11月8日,八層,二層
RPSNMLPLIILFFAI18CA,23,15.47,共有部份,鋼筋混凝土造,82年11月8日,八層,
RPOOMLPLIILFFAI08EA,16,235.87,住商用,鋼筋混凝土造,89年10月27日,四層,一層 二層 三層 四層
RPRNMLPLIILFFAI28EA,5,211.95,住商用,見其他登記事項,101年2月16日,四層,一層 二層 三層 四層
RPTOMLPKJILFFAI38CA,38,103.56,住家用,鋼筋混凝土加強磚造,67年5月18日,二層,一層 二層
RPTNMLMJJILFFAI87CA,23,88.95,住家用,鋼筋混凝土造,82年12月22日,七層,三層
RPTNMLMJJILFFAI87CA,23,32.24,共有部份,鋼筋混凝土造,82年12月22日,七層,
RPQNMLSLIILFFAI28CA,32,76.62,住家用,鋼筋混凝土造,73年7月27日,十層,四層
RPQNMLSLIILFFAI28CA,32,12.01,共有部份,鋼筋混凝土造,73年7月27日,十層,
RPQNMLSLIILFFAI28CA,32,5.09,共有部份,鋼筋混凝土造,73年7月27日,十層,
RPUNMLSLIILFFAI68CA,21,31.98,住家用,鋼筋混凝土造,84年10月4日,十一層,四層
RPUNMLSLIILFFAI68CA,21,4.45,共有部份,鋼筋混凝土造,84年10月4日,十一層,
RPUNMLSLIILFFAI68CA,21,6.27,共有部份,鋼筋混凝土造,84年10月4日,十一層,
RPWNMLSLIILFFAI88CA,39,86.72,住商用,鋼筋混凝土加強磚造,66年3月12日,二層,一層 二層 夾層
RPROMLPLIILFFAI18CA,25,55.68,住家用,鋼筋混凝土造,80年11月2日,八層,三層
RPROMLPLIILFFAI18CA,25,12.78,共有部份,鋼筋混凝土造,80年11月2日,八層,
RPROMLQLIILFFAI28CA,34,166.44,住商用,鋼筋混凝土造,71年11月30日,三層,一層 二層 三層 騎樓 地下層
RPOOMLSLIILFFAI18CA,21,90.36,住家用,鋼筋混凝土造,84年7月11日,十二層,十層
RPOOMLSLIILFFAI18CA,21,29.67,共有部份,鋼筋混凝土造,84年7月11日,十二層,
RPRNMLSLIILFFAI38CA,28,20.56,住家用,鋼筋混凝土造,78年2月3日,七層,二層
RPRNMLSLIILFFAI38CA,28,12.17,共有部份,鋼筋混凝土造,78年2月3日,七層,
RPQNMLKMIILFFAI57CA,20,70.65,住家用,鋼筋混凝土造,86年1月31日,十四層,二層
RPQNMLKMIILFFAI57CA,20,11.60,共有部份,鋼筋混凝土造,86年1月31日,十四層,
RPQNMLKMIILFFAI57CA,20,7.33,共有部份,鋼筋混凝土造,86年1月31日,十四層,
RPRNMLRKJILFFAI28CA,32,66.94,住家用,鋼筋混凝土造,73年11月29日,六層,四層
RPRNMLRKJILFFAI28CA,32,4.78,共有部份,鋼筋混凝土造,73年11月29日,六層,
RPRNMLRKJILFFAI28CA,32,8.83,共有部份,鋼筋混凝土造,73年11月29日,六層,
RPQOMLMKJILFFAI77CA,25,70.28,住家用,預力混凝土造,80年6月20日,七層,六層
RPQOMLMKJILFFAI77CA,25,6.60,共有部份,鋼筋混凝土造,80年6月20日,七層,
RPRNMLRJJILFFAI18CA,46,48.02,住家用,木造,59年11月23日,一層,一層 騎樓
RPPNMLTKJILFFAI28CA,2,251.53,見其他登記事項,見其他登記事項,103年12月24日,四層,一層 二層 三層 四層
RPPNMLTKJILFFAI28CA,2,.11,見其他登記事項,見其他登記事項,103年12月24日,一層,
RPVNMLOLIILFFAI38CA,27,129.56,住家用,鋼筋混凝土加強磚造,78年6月10日,二層,一層 二層
RPPOMLPLIILFFAI97CA,30,155.22,住商用,加強磚造,76年1月15日,二層,一層 二層 夾層
RPQOMLPLIILFFAI08CA,22,90.50,住家用,鋼筋混凝土造,83年5月25日,十二層,七層
RPQOMLPLIILFFAI08CA,22,31.06,共有部份,鋼筋混凝土造,83年5月25日,十二層,
RPWNMLOLIILFFAI68EA,9,30.13,共有部份,見其他登記事項,97年2月5日,十一層,
RPWNMLOLIILFFAI68EA,9,141.76,見其他登記事項,見其他登記事項,97年2月5日,十一層,六層
RPWNMLOLIILFFAI68EA,9,21.79,共有部份,見其他登記事項,97年2月5日,十一層,
RPWNMLOLIILFFAI68EA,9,.11,見其他登記事項,見其他登記事項,97年2月5日,十一層,二層
RPWNMLOLIILFFAI68EA,9,.02,共有部份,見其他登記事項,97年2月5日,十一層,
RPWNMLOLIILFFAI68EA,9,.34,共有部份,見其他登記事項,97年2月5日,十一層,
RPUNMLPLIILFFAI58EA,34,107.47,住家用,鋼筋混凝土加強磚造,71年10月19日,二層,一層 二層
RPRNMLSKJILFFAI38CA,4,227.31,見其他登記事項,見其他登記事項,101年10月5日,四層,一層 二層 三層 四層
RPQNMLLMIILFFAI67CA,1,199.06,見其他登記事項,見其他登記事項,104年4月28日,三層,一層 二層 三層 見其他登記事項
RPXOMLLMIILFFAI48CA,23,73.04,住家用,鋼筋混凝土造,82年6月9日,十六層,十六層
RPXOMLLMIILFFAI48CA,23,18.36,共有部份,鋼筋混凝土造,82年6月9日,十六層,
RPXOMLLMIILFFAI48CA,23,11.96,共有部份,鋼筋混凝土造,82年6月9日,十六層,
RPOPMLLMIILFFAI67CA,21,77.26,住家用,鋼筋混凝土造,85年3月11日,二十層,九層
RPOPMLLMIILFFAI67CA,21,8.97,停車空間,鋼筋混凝土造,85年3月11日,二十層,
RPOPMLLMIILFFAI67CA,21,19.58,共有部份,鋼筋混凝土造,85年3月11日,二十層,
RPPOMLSLIILFFAI28CA,19,88.40,住家用,鋼筋混凝土造,87年2月26日,十二層,八層
RPPOMLSLIILFFAI28CA,19,16.19,共有部份,鋼筋混凝土造,87年2月26日,十二層,
RPPOMLSLIILFFAI28CA,19,14.13,共有部份,鋼筋混凝土造,87年2月26日,十二層,
RPSOMLMKJILFFAI97CA,25,113.97,住家用,鋼筋混凝土造,80年6月27日,十五層,六層
RPSOMLMKJILFFAI97CA,25,19.49,共有部份,鋼筋混凝土造,80年6月27日,十五層,
RPSOMLMKJILFFAI97CA,25,.42,共有部份,鋼筋混凝土造,80年6月27日,十五層,
RPSOMLMKJILFFAI97CA,25,6.24,見其他登記事項,鋼筋混凝土造,80年6月27日,十五層,地下層
RPWNMLRJJILFFAI68CA,,28.61,見其他登記事項,見其他登記事項,105年5月10日,十四層,
RPQNMLKKJILFFAI47CA,22,82.74,住家用,鋼筋混凝土造,84年1月13日,八層,三層
RPQNMLKKJILFFAI47CA,22,43.67,共有部份,鋼筋混凝土造,84年1月13日,八層,
RPPNMLQJJILFFAI87CA,,77.82,見其他登記事項,見其他登記事項,105年5月10日,十四層,十四層
RPPNMLQJJILFFAI87CA,,19.37,見其他登記事項,見其他登記事項,105年5月10日,十四層,
RPPNMLQJJILFFAI87CA,,41.19,見其他登記事項,見其他登記事項,105年5月10日,十四層,
RPQNMLQJJILFFAI97CA,,83.38,見其他登記事項,見其他登記事項,105年5月10日,十四層,十三層
RPQNMLQJJILFFAI97CA,,27.81,見其他登記事項,見其他登記事項,105年5月10日,十四層,
RPQNMLQJJILFFAI97CA,,20.77,見其他登記事項,見其他登記事項,105年5月10日,十四層,
RPRNMLQJJILFFAI08CA,,74.76,見其他登記事項,見其他登記事項,105年5月10日,十四層,十一層
RPRNMLQJJILFFAI08CA,,42.57,見其他登記事項,見其他登記事項,105年5月10日,十四層,
RPRNMLQJJILFFAI08CA,,18.62,見其他登記事項,見其他登記事項,105年5月10日,十四層,
RPVOMLMLJILFFAI38CA,13,186.54,住家用,鋼筋混凝土造,93年3月8日,四層,一層 二層 三層 四層
RPSNMLRJJILFFAI48EA,3,206.92,見其他登記事項,見其他登記事項,102年12月13日,三層,一層 二層 三層 見其他登記事項
RPSOMLSKJILFFAI58CA,35,106.80,住家用,鋼筋混凝土加強磚造,70年8月12日,二層,一層 二層
RPTNMLOLJILFFAI28CA,22,86.84,住家用,鋼筋混凝土造,84年2月11日,七層,五層
RPTNMLOLJILFFAI28CA,22,31.25,共有部份,鋼筋混凝土造,84年2月11日,七層,
RPVNMLQKJILFFAI58CA,9,210.05,住家用,鋼筋混凝土造,96年4月4日,四層,一層 二層 三層 四層
RPQNMLKLJILFFAI57CA,33,27.41,住家用,鋼筋混凝土造,73年1月26日,十二層,十層
RPQNMLKLJILFFAI57CA,33,8.80,共有部份,鋼筋混凝土造,73年1月26日,十二層,
RPQPMLPKJILFFAI18CA,23,65.94,住家用,鋼筋混凝土造,82年9月23日,七層,六層
RPQPMLPKJILFFAI18CA,23,24.00,共有部份,鋼筋混凝土造,82年9月23日,七層,
RPPNMLMJJILFFAI47CA,41,119.86,住家用,鋼筋混凝土加強磚造,64年6月17日,二層,一層 二層
RPWOMLLMIILFFAI38CA,14,50.29,住商用,鋼筋混凝土造,91年4月24日,二層,一層 二層
RPRNMLMJJILFFAI67CA,21,162.81,住家用,鋼筋混凝土造,84年7月8日,四層,一層 二層 三層 四層
RPPNMLTLIILFFAI28CA,4,170.12,住家用,見其他登記事項,101年11月21日,四層,一層 二層 三層 四層
RPPNMLTLIILFFAI28CA,4,.35,見其他登記事項,見其他登記事項,101年11月21日,一層,
RPUNMLPJJILFFAI28CA,24,82.67,住家用,鋼筋混凝土造,81年8月28日,十層,九層
RPUNMLPJJILFFAI28CA,24,23.74,共有部份,鋼筋混凝土造,81年8月28日,十層,
RPPOMLNLJILFFAI87CA,23,175.99,商業用,鋼筋混凝土造,82年6月9日,十六層,一層 二層
RPPOMLNLJILFFAI87CA,23,188.86,商業用,鋼筋混凝土造,82年6月9日,十六層,一層 二層
RPPOMLNLJILFFAI87CA,23,16.36,共有部份,鋼筋混凝土造,82年6月9日,十六層,
RPPOMLNLJILFFAI87CA,23,30.86,共有部份,鋼筋混凝土造,82年6月9日,十六層,
RPPOMLNLJILFFAI87CA,23,14.97,共有部份,鋼筋混凝土造,82年6月9日,十六層,
RPPOMLNLJILFFAI87CA,23,28.82,共有部份,鋼筋混凝土造,82年6月9日,十六層,
RPTNMLOKJILFFAI28DA,47,94.94,住家用,鋼筋混凝土加強磚造,59年1月23日,二層,一層 二層
RPXNMLNJJILFFAI58EA,20,23.47,住家用,鋼筋混凝土造,85年6月18日,九層,四層
RPXNMLNJJILFFAI58EA,20,9.17,共有部份,鋼筋混凝土造,85年6月18日,九層,
RPTNMLLMIILFFAI18EA,48,104.12,住家用,加強磚造,57年9月20日,二層,一層 二層
RPRNMLLJJILFFAI77EA,16,161.24,住家用,鋼筋混凝土造,89年8月7日,三層,一層 二層 三層
RPSNMLTKJILFFAI58CA,18,72.19,住家用,鋼筋混凝土造,88年2月12日,十三層,一層
RPSNMLTKJILFFAI58CA,18,9.46,共有部份,鋼筋混凝土造,88年2月12日,十三層,
RPSNMLTKJILFFAI58CA,18,24.56,共有部份,鋼筋混凝土造,88年2月12日,十三層,
RPPNMLKLJILFFAI47CA,23,118.94,見其他登記事項,鋼筋混凝土造,82年7月2日,五層,一層
RPPNMLKLJILFFAI47CA,23,5.07,共有部份,鋼筋混凝土造,82年7月2日,五層,
RPPNMLKLJILFFAI47CA,23,9.52,共有部份,鋼筋混凝土造,82年7月2日,五層,
RPOOMLSKJILFFAI18CA,41,104.17,住家用,鋼筋混凝土加強磚造,64年5月8日,二層,一層 二層
RPPOMLSKJILFFAI28CA,2,206.50,見其他登記事項,見其他登記事項,103年12月24日,四層,一層 二層 三層 四層
RPPOMLSKJILFFAI28CA,2,.11,見其他登記事項,見其他登記事項,103年12月24日,一層,
RPTNMLPJJILFFAI18CA,31,73.20,住家用,鋼筋混凝土造,74年9月19日,五層,二層
RPTNMLPJJILFFAI18CA,31,5.34,共有部份,鋼筋混凝土造,74年9月19日,五層,
RPTNMLPJJILFFAI18CA,31,8.08,共有部份,鋼筋混凝土造,74年9月19日,五層,
RPWNMLKKJILFFAI08CA,23,28.13,住家用,鋼筋混凝土造,83年1月11日,八層,八層
RPWNMLKKJILFFAI08CA,23,18.85,共有部份,鋼筋混凝土造,83年1月11日,八層,
RPWNMLKKJILFFAI08CA,23,12.90,共有部份,鋼筋混凝土造,83年1月11日,八層,
RPUNMLMLJILFFAI18CA,24,98.27,住家用,鋼筋混凝土造,81年6月26日,十五層,十二層
RPUNMLMLJILFFAI18CA,24,33.42,共有部份,鋼筋混凝土造,81年6月26日,十五層,
RPUNMLMLJILFFAI18CA,24,16.48,共有部份,鋼筋混凝土造,81年6月26日,十五層,
RPRNMLTKJILFFAI48CA,25,102.84,住家用,鋼筋混凝土造,80年6月20日,七層,七層
RPRNMLTKJILFFAI48CA,25,18.38,共有部份,鋼筋混凝土造,80年6月20日,七層,
