絪腹,跋琿竚,簿锣縩キよそへ,ㄏノだ跋┪絪﹚
RPQNMLLJQHLFFBK58CC,璢琿,33.78,常カ
RPRNMLLJQHLFFCK88DC,琣琿,97.20,獶常カ疭﹚笰穨跋 ; 獶常カ絪﹚ヒ贺縱ノ
RPRNMLMJQHLFFBK88DC,璢琿,19.63,常カ
RPQNMLNJQHLFFBK78CC,璢琿,105.85,常カ
RPTNMLTJQHLFFBK17DC,璢琿,10.00,常カ
RPVOMLKKQHLFFBK56CC,穛琿,.00,常カ
RPXOMLPLQHLFFCK47CC,琣琿,365.80,獶常カ疭﹚笰穨跋 ; 獶常カ絪﹚笰ノ
RPXOMLPLQHLFFCK47CC,琣琿,365.80,獶常カ疭﹚笰穨跋 ; 獶常カ絪﹚笰ノ
RPXOMLPLQHLFFCK47CC,琣琿,365.90,獶常カ疭﹚笰穨跋 ; 獶常カ絪﹚笰ノ
RPVNMLTJRHLFFBK37CC,璢琿,10.59,常カ
RPVNMLTJRHLFFBK37CC,璢琿,10.59,常カ
RPPNMLTKRHLFFBK86CC,璢琿,35.76,常カ
RPPNMLTKRHLFFFK27CC,く稲琿,140.00,常カ
RPTNMLTKRHLFFBK37DC,褐琿,19.74,常カ
