絪腹,跋琿竚,簿锣縩キよそへ,ㄏノだ跋┪絪﹚
RPOOMLLJQHLFFCM78CC,瓾ń琿獺竡琿,21.24,常カ
RPRNMLNJQHLFFBM09CC,べ琿,935.00,常カㄤ
RPRNMLNJQHLFFBM09CC,べ琿,783.00,常カㄤ
RPRNMLNJQHLFFBM09CC,べ琿,11.00,常カㄤ
RPSNMLNJQHLFFBM56CC,砍琿,798.61,常カㄤ
RPSNMLNJQHLFFBM56CC,砍琿,429.03,常カㄤ
RPTNMLNJQHLFFBM66CC,щ躇琿,72.25,獶常カ秏跋 ; 獶常カ絪﹚贺縱ノ
RPRNMLOJQHLFFBM56CC,綾糩琿,144.36,常カㄤ
RPTNMLOJQHLFFBM76CC,綾糩琿,144.36,常カㄤ
RPUNMLOJQHLFFBM86CC,穝碔琿,61.00,常カㄤ
RPVNMLMKQHLFFBM96DC,べ琿,66.97,常カ坝
RPVNMLSKQHLFFBM57DC,い砍琿,15.97,常カ
RPSNMLSKQHLFFAM07CC,穝琿,120.23,常カ
RPSNMLSKQHLFFAM07CC,穝琿,135.04,常カ
RPSNMLSKQHLFFBM17CC,ら穝琿,537.00,常カ
RPTNMLMLQHLFFCM86CC,瓾ń琿獺竡琿,105.00,常カ
RPSNMLNLQHLFFAM66CC,玭щ琿,154.00,常カ
RPTNMLNLQHLFFAM76CC,笲猿琿,191.23,常カ
RPPNMLKKRHLFFBM78CC,べ琿,39.00,常カ
RPPNMLKKRHLFFBM78CC,べ琿,107.00,常カ
RPQNMLQLRHLFFAM86CC,Ю琿,18.21,常カ
RPUNMLPJIILFFBM88CC,ド畃琿,30.42,常カ
RPUNMLPJIILFFBM88CC,ド畃琿,11.44,常カ
RPUNMLPJIILFFBM88CC,ド畃琿,16.31,常カ
RPTNMLRKIILFFBM09CC,狶琿,194.00,常カ笰
RPTNMLRKIILFFBM09CC,狶琿,14.00,常カ笰
RPTNMLRKIILFFBM09CC,狶琿,200.00,常カ笰
RPTNMLRKIILFFBM09CC,狶琿,13.00,常カ笰
RPTNMLRKIILFFBM09CC,狶琿,199.00,常カ笰
RPTNMLRKIILFFBM09CC,狶琿,12.00,常カ笰
RPTNMLRKIILFFBM09CC,狶琿,16.00,常カ笰
RPUNMLRKIILFFBM56CC,綾糩琿,101.42,常カㄤ
RPXNMLPLIILFFBM76CC,い砍琿,12.03,常カ
