絪腹,跋琿竚,簿锣縩キよそへ,ㄏノだ跋┪絪﹚
RPXNMLLJQHLFFDN17CC,狶琿,42.00,常カ坝
RPUNMLLJQHLFFEN96CC,穝琿,400.00,獶常カ疭﹚笰穨跋 ; 獶常カ絪﹚笰ノ
RPTNMLMJQHLFFHN27CC,ッ琿,79.00,常カ
RPUNMLMJQHLFFHN37CC,ッ琿,79.00,常カ
RPSNMLNJQHLFFDN86CC,谗琿,33.42,常カ
RPXNMLNJQHLFFDN37CC,琿,81.41,常カ
RPVOMLMKQHLFFAN96CC,Θ琿,139.00,常カ坝
RPSNMLPKQHLFFGN57DC,打琿,2731.00,獶常カ笰穨跋 ; 獶常カ絪﹚笰ノ
RPRNMLNLQHLFFDN96CC,甃琿,98.48,獶常カ秏跋 ; 獶常カ絪﹚贺縱ノ
RPRNMLNLQHLFFDN96CC,甃琿,88.21,獶常カ秏跋 ; 獶常カ絪﹚贺縱ノ
RPOOMLQLQHLFFDN07CC,く稲琿,74.00,常カ
RPPNMLTLQHLFFFN57CC,古㎝琿,972.00,獶常カ疭﹚笰穨跋 ; 獶常カ絪﹚贺縱ノ
RPPNMLTLQHLFFFN57CC,古㎝琿,198.00,獶常カ疭﹚笰穨跋 ; 獶常カ絪﹚贺縱ノ
RPPNMLTLQHLFFFN57CC,古㎝琿,152.00,獶常カ疭﹚笰穨跋 ; 獶常カ絪﹚ユ硄ノ
RPXNMLLJRHLFFBN17DC,㎝﹁琿,98.00,常カ
RPQNMLMJRHLFFDN66CC,兢琿,95.00,常カ坝
RPTNMLTKRHLFFCN67CC,春褐琿,395.14,常カ
RPPNMLMLRHLFFDN76CC,い琿,109.00,常カㄤ
RPPNMLSLRHLFFDN37CC,到琿,931.62,常カ
RPPNMLSLRHLFFDN37CC,到琿,598.89,常カ
RPPNMLSLRHLFFDN37CC,到琿,60.00,常カ
RPSNMLTLRHLFFDN77CC,穝ネ琿,128.04,常カ坝
RPQOMLKMRHLFFAN66DC,チネ琿,66.00,常カ
RPUNMLOJIILFFAN88DC,チネ琿,66.00,常カ
RPUOMLOKIILFFAN98CC,皑伙琿,840.00,常カ笰
RPUOMLOKIILFFAN98CC,皑伙琿,840.00,常カ笰
RPQNMLTLIILFFHN17CC,﹁匪琿,38.00,常カ
RPQNMLTLIILFFHN17CC,﹁匪琿,74.00,常カ
