絪腹,跋琿竚,簿锣縩キよそへ,ㄏノだ跋┪絪﹚
RPTNMLMJQHLFFBQ76CA,兼醂琿兼醂琿,909.00,獶常カ疭﹚笰穨跋 ; 獶常カ絪﹚笰ノ
RPWNMLNJQHLFFCQ27CA,い狶琿,277.17,獶常カ疭﹚笰穨跋 ; 獶常カ絪﹚笰ノ
RPWNMLNJQHLFFCQ27CA,い狶琿,350.83,獶常カ疭﹚笰穨跋 ; 獶常カ絪﹚笰ノ
RPTNMLOJQHLFFCQ07CA,竡砍琿,42.32,常カ
RPQNMLPJQHLFFCQ86CA,盵Ю琿玭琿,3924.00,獶常カ疭﹚笰穨跋 ; 獶常カ絪﹚笰ノ
RPRNMLPJQHLFFCQ96CA,盵琿琱琿,12.00,獶常カ疭﹚笰穨跋 ; 獶常カ絪﹚ノ
RPPNMLQJQHLFFCQ86CA,穝绍琿,44.61,獶常カ秏跋 ; 獶常カ絪﹚贺縱ノ
RPRNMLTJQHLFFCQ37CA,底瓾琿い㎝琿,2.07,獶常カ疭﹚笰穨跋 ; 獶常カ絪﹚ヒ贺縱ノ
RPRNMLTJQHLFFCQ37CA,底瓾琿い㎝琿,30.75,獶常カ疭﹚笰穨跋 ; 獶常カ絪﹚ヒ贺縱ノ
RPRNMLTJQHLFFCQ37CA,底瓾琿い㎝琿,152.00,獶常カ疭﹚笰穨跋 ; 獶常カ絪﹚ヒ贺縱ノ
RPWNMLSKQHLFFCQ87CA,褐玭琿,37.46,常カ
RPOOMLSKQHLFFCQ17CA,ゆ琿,87.30,常カ
RPRNMLMJQHLFFDQ76CA,穝榜琿穝榜琿,2886.00,獶常カ疭﹚笰穨跋 ; 獶常カ絪﹚笰ノ
RPUNMLMJQHLFFDQ07CA,琱穝琿,79.19,獶常カ秏跋 ; 獶常カ絪﹚贺縱ノ
RPUNMLOJQHLFFDQ27CA,狥穝琿,24.99,常カㄤ
RPUNMLOJQHLFFDQ27CA,狥穝琿,80.66,常カ
RPUNMLPJQHLFFDQ37CA,㎝冻琿,133.69,獶常カ秏跋 ; 獶常カ絪﹚贺縱ノ
RPVNMLSJQHLFFDQ77CA,㎝砍琿,43.81,常カ
RPXNMLSJQHLFFDQ97CA,古玂琿,101.35,常カ
RPQNMLOJQHLFFEQ96CA,そバ琿,2040.00,獶常カ此狶跋 ; 獶常カ絪﹚笰ノ
RPSNMLSJQHLFFEQ57CA,宾玭琿,5.62,常カ
RPPNMLQKQHLFFEQ17CA,礷隔琿,235.24,獶常カ春跋 ; 獶常カ絪﹚狶穨ノ
RPSNMLTJQHLFFBQ47DA,匪琿,371.29,獶常カ秏跋 ; 獶常カ絪﹚贺縱ノ
RPSNMLTJQHLFFBQ47DA,匪琿,103.78,獶常カ秏跋 ; 獶常カ絪﹚贺縱ノ
RPPNMLPJQHLFFDQ96DA,忱玭琿,53.81,常カ坝
RPQNMLPJQHLFFDQ07DA,忱玭琿,33.53,常カ坝
RPSNMLMJQHLFFDQ96DA,古穝琿,85.74,常カ
RPQNMLNJQHLFFDQ86DA,纓︱琿纓琿,2204.00,獶常カ疭﹚笰穨跋 ; 獶常カ絪﹚笰ノ
RPQNMLMJQHLFFCQ76EA,盵琿琱琿,7.00,獶常カ疭﹚笰穨跋 ; 獶常カ絪﹚ノ
RPQNMLOJQHLFFCQ96EA,兼琿弘┚琿,65.00,獶常カ秏跋 ; 獶常カ絪﹚贺縱ノ
RPQNMLOJQHLFFCQ96EA,兼琿弘┚琿,31.05,獶常カ秏跋 ; 獶常カ絪﹚笴就ノ
RPSNMLOJQHLFFCQ17EA,琱肪琿,49.33,獶常カ秏跋 ; 獶常カ絪﹚贺縱ノ
RPUNMLQKQHLFFCQ67EA,繷琿,71.68,獶常カ疭﹚笰穨跋 ; 獶常カ絪﹚ヒ贺縱ノ
RPSNMLTLQHLFFCQ87EA,﹁绍琿﹁绍琿,4336.00,獶常カ疭﹚笰穨跋 ; 獶常カ絪﹚笰ノ
RPTNMLTJQHLFFBQ57DA,马琿,40.45,常カ
RPRNMLKKQHLFFBQ56DA,穝糳琿,28.43,常カ
RPVNMLNJQHLFFCQ27DA,穝绍琿,75.51,獶常カ笰穨跋 ; 獶常カ絪﹚贺縱ノ
RPTNMLQKQHLFFCQ47DA,き絓琿,575.85,常カ
RPTNMLSJQHLFFEQ67CA,￤琿,104.40,獶常カ℡玂▅跋 ; 獶常カ絪﹚笰ノ
RPTNMLSJQHLFFEQ67CA,￤琿,126.90,獶常カ℡玂▅跋 ; 獶常カ絪﹚笰ノ
RPTNMLSJQHLFFEQ67CA,￤琿,214.20,獶常カ℡玂▅跋 ; 獶常カ絪﹚笰ノ
RPTNMLSJQHLFFEQ67CA,￤琿,450.00,獶常カ℡玂▅跋 ; 獶常カ絪﹚笰ノ
RPTNMLSJQHLFFEQ67CA,￤琿,1727.00,獶常カ此狶跋 ; 獶常カ絪﹚笰ノ
RPTNMLSJQHLFFEQ67CA,￤琿,4392.00,獶常カ℡玂▅跋 ; 獶常カ絪﹚笰ノ
RPQNMLKKQHLFFDQ56CA,㎝砍琿,156.67,常カ
RPSNMLQLQHLFFDQ47CA,ホ庼琿,1000.00,獶常カ℡玂▅跋 ; 獶常カ絪﹚笰ノ
RPSNMLQLQHLFFDQ47CA,λ繷盩琿,1000.00,獶常カ℡玂▅跋 ; 獶常カ絪﹚狶穨ノ
RPQNMLQJQHLFFDQ07CA,竡砍琿,24.15,獶常カ疭﹚笰穨跋 ; 獶常カ絪﹚ヒ贺縱ノ
RPQNMLQJQHLFFDQ07CA,竡砍琿,36.84,獶常カ疭﹚笰穨跋 ; 獶常カ絪﹚ヒ贺縱ノ
RPRNMLQJQHLFFDQ17CA,砍琿,62.38,常カ
RPRNMLOJQHLFFDQ96CA,㎝伏琿,29.40,常カ笰
RPRNMLOJQHLFFDQ96CA,㎝伏琿,40.92,獶常カ疭﹚笰穨跋 ; 獶常カ絪﹚笰ノ
RPRNMLOJQHLFFDQ96CA,㎝伏琿,5009.51,獶常カ疭﹚笰穨跋 ; 獶常カ絪﹚笰ノ
RPPNMLNJQHLFFDQ66CA,陈糳琿,9.82,常カ
RPUNMLPKQHLFFCQ37CA,翠﹁琿,5.50,常カ
RPUNMLPKQHLFFCQ37CA,翠﹁琿,70.00,常カ
RPSNMLSJQHLFFCQ37CA,村琿村狥琿,249.00,獶常カ秏跋 ; 獶常カ絪﹚贺縱ノ
RPPNMLOJQHLFFCQ66CA,穝瓾琿,72.27,獶常カ秏跋 ; 獶常カ絪﹚贺縱ノ
RPRNMLOJQHLFFBQ76CA,竡λ琿,154.92,獶常カ笰穨跋 ; 獶常カ絪﹚笰ノ
RPRNMLOJQHLFFBQ76CA,竡λ琿,111.07,獶常カ笰穨跋 ; 獶常カ絪﹚笰ノ
RPRNMLOJQHLFFBQ76CA,竡λ琿,94.11,獶常カ笰穨跋 ; 獶常カ絪﹚笰ノ
RPRNMLOJQHLFFBQ76CA,竡λ琿,109.69,獶常カ笰穨跋 ; 獶常カ絪﹚笰ノ
RPRNMLOJQHLFFBQ76CA,竡λ琿,170.35,獶常カ笰穨跋 ; 獶常カ絪﹚笰ノ
RPRNMLOJQHLFFBQ76CA,竡λ琿,259.26,獶常カ笰穨跋 ; 獶常カ絪﹚笰ノ
RPRNMLOJQHLFFBQ76CA,竡λ琿,266.03,獶常カ笰穨跋 ; 獶常カ絪﹚笰ノ
RPRNMLOJQHLFFBQ76CA,竡λ琿,22.46,獶常カ笰穨跋 ; 獶常カ絪﹚笰ノ
RPQNMLPJQHLFFBQ76CA,匪瑆琿匪瑆琿,1714.50,獶常カ疭﹚笰穨跋 ; 獶常カ絪﹚笰ノ
RPPNMLRJQHLFFBQ86CA,狥糳琿篴琿,3788.00,獶常カ疭﹚笰穨跋 ; 獶常カ絪﹚笰ノ
RPUNMLKKQHLFFBQ76CA,古Φ琿,7.60,常カ
RPPNMLSJQHLFFEQ47EA,￤琿,36.25,獶常カ秏跋 ; 獶常カ絪﹚贺縱ノ
RPPNMLSJQHLFFEQ47EA,￤琿,275.25,獶常カ秏跋 ; 獶常カ絪﹚贺縱ノ
RPQNMLPJQHLFFEQ27EA,滦恔琿,110.16,獶常カ笰穨跋 ; 獶常カ絪﹚笰ノ
RPQNMLPJQHLFFEQ27EA,滦恔琿,54.39,獶常カ笰穨跋 ; 獶常カ絪﹚笰ノ
RPQNMLLKQHLFFBQ09CA,盵锭琿,1.03,獶常カ秏跋 ; 獶常カ絪﹚ユ硄ノ
RPQNMLLKQHLFFBQ09CA,盵锭琿,5.78,獶常カ秏跋 ; 獶常カ絪﹚贺縱ノ
RPQNMLLKQHLFFBQ09CA,盵锭琿,1.00,獶常カ秏跋 ; 獶常カ絪﹚ユ硄ノ
RPQNMLLKQHLFFBQ09CA,盵锭琿,3.44,獶常カ秏跋 ; 獶常カ絪﹚贺縱ノ
RPRNMLLKQHLFFBQ56CA,鶤穧琿腐琿,75.00,獶常カ疭﹚笰穨跋 ; 獶常カ絪﹚ヒ贺縱ノ
RPPNMLPJQHLFFBQ66CA,à盿瞅琿,47.36,獶常カ笰穨跋 ; 獶常カ絪﹚笰ノ
RPPNMLPJQHLFFBQ66CA,à盿瞅琿,193.14,獶常カ笰穨跋 ; 獶常カ絪﹚笰ノ
RPPNMLPJQHLFFBQ66CA,à盿瞅琿,67.79,獶常カ笰穨跋 ; 獶常カ絪﹚笰ノ
RPPNMLPJQHLFFBQ66CA,à盿瞅琿,211.71,獶常カ笰穨跋 ; 獶常カ絪﹚笰ノ
RPPNMLPJQHLFFBQ66CA,à盿瞅琿,520.93,獶常カ笰穨跋 ; 獶常カ絪﹚笰ノ
RPPNMLPJQHLFFBQ66CA,à盿瞅琿,337.07,獶常カ笰穨跋 ; 獶常カ絪﹚笰ノ
RPQNMLOJQHLFFBQ66CA,鞔躬琿鞔躬琿,1281.00,獶常カ笰穨跋 ; 獶常カ絪﹚笰ノ
RPSNMLTLQHLFFBQ57CA,蛮匪琿蛮匪琿,10.48,獶常カ疭﹚笰穨跋 ; 獶常カ絪﹚ユ硄ノ
RPSNMLTLQHLFFBQ57CA,蛮匪琿蛮匪琿,73.50,獶常カ疭﹚笰穨跋 ; 獶常カ絪﹚ヒ贺縱ノ
RPTNMLPJQHLFFCQ17CA,褐玭琿,22.74,常カ
RPPNMLPJQHLFFCQ76CA,盵Ю琿玭琿,3040.00,獶常カ疭﹚笰穨跋 ; 獶常カ絪﹚笰ノ
RPQNMLKKQHLFFCQ09CA,チ琿穝チ琿,2700.00,常カ笰
RPSNMLNJQHLFFDQ96CA,à琿à琿,2062.00,獶常カ疭﹚笰穨跋 ; 獶常カ絪﹚笰ノ
RPXNMLKKQHLFFDQ27CA,λ繷盩琿,1974.00,獶常カ℡玂▅跋 ; 獶常カ絪﹚笰ノ
RPXNMLKKQHLFFDQ27CA,λ繷盩琿,2692.00,獶常カ℡玂▅跋 ; 獶常カ絪﹚笰ノ
RPXNMLKKQHLFFDQ27CA,λ繷盩琿,1857.00,獶常カ℡玂▅跋 ; 獶常カ絪﹚笰ノ
RPXNMLKKQHLFFDQ27CA,λ繷盩琿,2449.00,獶常カ℡玂▅跋 ; 獶常カ絪﹚笰ノ
RPXNMLKKQHLFFDQ27CA,λ繷盩琿,1188.00,獶常カ℡玂▅跋 ; 獶常カ絪﹚笰ノ
RPPOMLPLQHLFFDQ17CA,玭琿,94.33,常カ
RPPOMLPLQHLFFDQ17CA,玭琿,4.49,常カ
RPPOMLPLQHLFFDQ17CA,玭琿,28.96,常カ
RPPOMLPLQHLFFDQ17CA,玭琿,2.15,常カ
RPPOMLPLQHLFFDQ17CA,玭琿,8.32,常カ
RPPOMLPLQHLFFDQ17CA,玭琿,1.98,常カ
RPQNMLQLQHLFFDQ27CA,竡砍琿,89.15,獶常カ疭﹚笰穨跋 ; 獶常カ絪﹚ヒ贺縱ノ
RPPNMLOJQHLFFDQ86DA,玭琿,46.48,常カ
RPTNMLMKQHLFFDQ17DA,㎝琿,1490.12,常カㄤ
RPTNMLMKQHLFFDQ17DA,㎝琿,1735.71,常カ笰
RPTNMLMKQHLFFDQ17DA,㎝琿,227.90,常カㄤ
RPTNMLMKQHLFFDQ17DA,㎝琿,260.20,常カㄤ
RPTNMLMKQHLFFDQ17DA,㎝琿,98.37,常カㄤ
RPWNMLPJQHLFFDQ67DA,筁肪琿筁肪琿,14.94,常カ
RPWNMLPJQHLFFDQ67DA,筁肪琿筁肪琿,96.00,常カ
RPPNMLSJQHLFFCQ27EA,郴￤琿￤琿,1501.00,獶常カ疭﹚笰穨跋 ; 獶常カ絪﹚笰ノ
RPUNMLSKQHLFFCQ87EA,い琿,95.00,獶常カ秏跋 ; 獶常カ絪﹚贺縱ノ
RPRNMLPJQHLFFBQ96DA,畆玡琿畆玡琿,3218.00,獶常カ疭﹚笰穨跋 ; 獶常カ絪﹚笰ノ
RPRNMLSJQHLFFBQ27DA,紈砍琿,1696.21,獶常カ疭﹚笰穨跋 ; 獶常カ絪﹚笰ノ
RPSNMLKKQHLFFDQ76CA,穝礷糳琿,703.10,獶常カ疭﹚笰穨跋 ; 獶常カ絪﹚笰ノ
RPPNMLMKQHLFFDQ66CA,份琿,32.92,獶常カ秏跋 ; 獶常カ絪﹚贺縱ノ
RPPNMLMKQHLFFDQ66CA,份琿,209.62,獶常カ秏跋 ; 獶常カ絪﹚贺縱ノ
RPUNMLOKQHLFFDQ37CA,㎝伏琿,.28,常カㄤ
RPUNMLOKQHLFFDQ37CA,㎝伏琿,104.34,常カ笰
RPUNMLOKQHLFFDQ37CA,㎝伏琿,986.43,常カ笰
RPUNMLOKQHLFFDQ37CA,㎝伏琿,4.83,常カ笰
RPUNMLOKQHLFFDQ37CA,㎝伏琿,949.35,常カ笰
RPUNMLOKQHLFFDQ37CA,㎝伏琿,42.51,常カ
RPPNMLKMQHLFFDQ66CA,㎝匪琿,15.91,獶常カ疭﹚笰穨跋 ; 獶常カ絪﹚ヒ贺縱ノ
RPPNMLKMQHLFFDQ66CA,㎝匪琿,62.00,獶常カ疭﹚笰穨跋 ; 獶常カ絪﹚ヒ贺縱ノ
RPPNMLTJQHLFFEQ37CA,滦恔琿,485.00,獶常カ℡玂▅跋 ; 獶常カ絪﹚笰ノ
RPPNMLTJQHLFFEQ37CA,滦恔琿,1746.00,獶常カ℡玂▅跋 ; 獶常カ絪﹚笰ノ
RPPNMLTJQHLFFEQ37CA,滦恔琿,213.00,獶常カ℡玂▅跋 ; 獶常カ絪﹚贺縱ノ
RPQNMLTJQHLFFEQ47CA,滦恔琿,3056.00,獶常カ℡玂▅跋 ; 獶常カ絪﹚笰ノ
RPPNMLKKQHLFFEQ56CA,馞竲琿,2.02,常カ笰
RPPNMLKKQHLFFEQ56CA,馞竲琿,236.00,常カ笰
RPSNMLPJQHLFFDQ17CA,琿,138.00,獶常カ秏跋 ; 獶常カ絪﹚贺縱ノ
RPSNMLPJQHLFFDQ17CA,琿,152.00,獶常カ秏跋 ; 獶常カ絪﹚贺縱ノ
RPRNMLSJQHLFFDQ37CA,古穝琿,102.87,常カ
RPOOMLSJQHLFFDQ17CA,竡琿,178.03,獶常カ疭﹚笰穨跋 ; 獶常カ絪﹚笰ノ
RPPNMLTJQHLFFCQ17CA,村琿,2880.00,獶常カ疭﹚笰穨跋 ; 獶常カ絪﹚笰ノ
RPQNMLTJQHLFFCQ27CA,村琿,2111.49,獶常カ疭﹚笰穨跋 ; 獶常カ絪﹚笰ノ
RPPNMLSJQHLFFCQ07CA,底瓾琿底瓾琿,3650.00,獶常カ疭﹚笰穨跋 ; 獶常カ絪﹚笰ノ
RPRNMLQKQHLFFCQ17CA,チ笰琿,9.79,常カ
RPWNMLTKQHLFFCQ97CA,褐玭琿,46.54,常カ
RPWNMLTKQHLFFCQ97CA,褐玭琿,45.06,常カ
RPSNMLMLQHLFFCQ96CA,穝瓾琿,69.27,獶常カ秏跋 ; 獶常カ絪﹚贺縱ノ
RPTNMLNLQHLFFCQ17CA,い狶琿,6.00,獶常カ秏跋 ; 獶常カ絪﹚贺縱ノ
RPTNMLNLQHLFFCQ17CA,い狶琿,3.29,獶常カ秏跋 ; 獶常カ絪﹚贺縱ノ
RPTNMLNLQHLFFCQ17CA,い狶琿,125.00,獶常カ秏跋 ; 獶常カ絪﹚贺縱ノ
RPUNMLMKQHLFFBQ96CA,﹎糳琿竡琿,1666.00,獶常カ疭﹚笰穨跋 ; 獶常カ絪﹚笰ノ
RPVNMLKKQHLFFBQ86CA,马琿,98.00,常カ
RPWNMLKKQHLFFBQ96CA,马琿,104.00,常カ
RPQNMLSJQHLFFEQ57EA,粪繷琿,4558.00,獶常カ℡玂▅跋 ; 獶常カ絪﹚狶穨ノ
RPQNMLSJQHLFFEQ57EA,粪繷琿,1016.00,獶常カ℡玂▅跋 ; 獶常カ絪﹚狶穨ノ
RPWNMLTJQHLFFBQ77CA,古Φ琿,20.85,常カ
RPPNMLSJQHLFFBQ96CA,翠Ю糳琿伦琿,1156.00,獶常カ疭﹚笰穨跋 ; 獶常カ絪﹚笰ノ
RPPNMLSJQHLFFBQ96CA,翠Ю糳琿伦琿,2022.00,獶常カ疭﹚笰穨跋 ; 獶常カ絪﹚笰ノ
RPRNMLQKQHLFFBQ07CA,鶤穧琿腐琿,69.00,獶常カ疭﹚笰穨跋 ; 獶常カ絪﹚ヒ贺縱ノ
RPRNMLQKQHLFFBQ07CA,鶤穧琿腐琿,44.30,獶常カ疭﹚笰穨跋 ; 獶常カ絪﹚ヒ贺縱ノ
RPPNMLOLQHLFFCQ86CA,き絓琿,251.02,常カ
RPRNMLMLQHLFFCQ86CA,き絓琿,251.02,常カ
RPPNMLNKQHLFFCQ66CA,垫そ琿,430.54,獶常カ疭﹚笰穨跋 ; 獶常カ絪﹚笰ノ
RPPNMLNKQHLFFCQ66CA,垫そ琿垫そ琿,29.77,獶常カ疭﹚笰穨跋 ; 獶常カ絪﹚笰ノ
RPPNMLNKQHLFFCQ66CA,垫そ琿垫そ琿,66.14,獶常カ疭﹚笰穨跋 ; 獶常カ絪﹚笰ノ
RPQNMLSJQHLFFCQ17CA,穝翠琿褐紈琿,3235.00,常カ笰
RPOOMLMKQHLFFCQ56CA,褐玭琿,19.62,常カ
RPRNMLKKQHLFFEQ76CA,狶琿,1000.00,獶常カ此狶跋 ; 獶常カ絪﹚笰ノ
RPTNMLTJQHLFFDQ67CA,穝榜琿,84.00,獶常カ秏跋 ; 獶常カ絪﹚贺縱ノ
RPVNMLLKQHLFFDQ17CA,玭箃琿玭㎝琿,3611.00,獶常カ疭﹚笰穨跋 ; 獶常カ絪﹚笰ノ
RPVNMLLKQHLFFDQ17CA,玭箃琿玭㎝琿,2997.00,獶常カ疭﹚笰穨跋 ; 獶常カ絪﹚笰ノ
RPTNMLOKQHLFFDQ27CA,砍琿,164.33,常カ
RPSNMLSJQHLFFDQ57DA,榜陈庱琿,977.60,獶常カ疭﹚笰穨跋 ; 獶常カ絪﹚笰ノ
RPUNMLSJQHLFFDQ77DA,筁肪琿筁肪琿,14.94,常カ
RPUNMLSJQHLFFDQ77DA,筁肪琿筁肪琿,90.00,常カ
RPPNMLTJQHLFFDQ37DA,琱秏琿,103.32,獶常カ秏跋 ; 獶常カ絪﹚贺縱ノ
RPRNMLKKQHLFFDQ76DA,ぱ琿,862.17,獶常カ秏跋 ; 獶常カ絪﹚贺縱ノ
RPRNMLKKQHLFFDQ76DA,ぱ琿,8.50,獶常カ疭﹚笰穨跋 ; 獶常カ絪﹚笰ノ
RPRNMLKKQHLFFDQ76DA,ぱ琿,24.38,獶常カ秏跋 ; 獶常カ絪﹚ユ硄ノ
RPUNMLKKQHLFFEQ17DA,粪糳琿,3307.00,獶常カ℡玂▅跋 ; 獶常カ絪﹚笰ノ
RPQNMLKKQHLFFBQ09DA,兼醂琿兼琿,724.25,獶常カ疭﹚笰穨跋 ; 獶常カ絪﹚笰ノ
RPSNMLKKQHLFFBQ66DA,芖玭琿,9.07,獶常カ秏跋 ; 獶常カ絪﹚贺縱ノ
RPSNMLKKQHLFFBQ66DA,芖玭琿,244.21,獶常カ秏跋 ; 獶常カ絪﹚贺縱ノ
RPSNMLKKQHLFFBQ66DA,芖玭琿,4.08,獶常カ秏跋 ; 獶常カ絪﹚贺縱ノ
RPSNMLKKQHLFFBQ66DA,芖玭琿,42.50,獶常カ秏跋 ; 獶常カ絪﹚贺縱ノ
RPSNMLLKQHLFFBQ76DA,古Φ琿,22.80,常カ
RPVNMLKKQHLFFDQ07CA,┚竡琿,22.96,常カㄤ
RPVNMLKKQHLFFDQ07CA,┚竡琿,5.98,常カㄤ
RPVNMLKKQHLFFDQ07CA,┚竡琿,319.78,常カ
RPPNMLLKQHLFFDQ56CA,琱狶琿,72.86,獶常カ秏跋 ; 獶常カ絪﹚贺縱ノ
RPXNMLPJRHLFFDQ77CA,穝琿,20.50,常カ
RPXNMLPJRHLFFDQ77CA,穝琿,79.64,常カ
RPXNMLPJRHLFFDQ77CA,穝琿,.43,常カ
RPQNMLKKQHLFFEQ66CA,宾狥琿,181.00,常カ
RPPNMLMLQHLFFEQ86CA,ず瓾琿,62.23,獶常カ秏跋 ; 獶常カ絪﹚贺縱ノ
RPTNMLKKQHLFFCQ76CA,い狶琿,22.44,獶常カ疭﹚笰穨跋 ; 獶常カ絪﹚ヒ贺縱ノ
RPPNMLLKQHLFFCQ09CA,Μ琿Μ琿,35.42,獶常カ疭﹚笰穨跋 ; 獶常カ絪﹚ヒ贺縱ノ
RPSNMLLKQHLFFCQ76CA,盵琿盵琿,815.62,獶常カ疭﹚笰穨跋 ; 獶常カ絪﹚笰ノ
RPQNMLKLQHLFFBQ09CA,穝绍琿购琿,12.19,獶常カ疭﹚笰穨跋 ; 獶常カ絪﹚笰ノ
RPPNMLTJQHLFFBQ07CA,鶤穧琿秏琿,53.36,獶常カ秏跋 ; 獶常カ絪﹚贺縱ノ
RPPNMLTJQHLFFBQ07CA,鶤穧琿秏琿,103.00,獶常カ秏跋 ; 獶常カ絪﹚贺縱ノ
RPQNMLTJQHLFFDQ37CA,琿,28.71,獶常カ秏跋 ; 獶常カ絪﹚贺縱ノ
RPQNMLTJQHLFFDQ37CA,琿,27.39,獶常カ秏跋 ; 獶常カ絪﹚贺縱ノ
RPQNMLTJQHLFFDQ37CA,琿,28.71,獶常カ秏跋 ; 獶常カ絪﹚贺縱ノ
RPQNMLTJQHLFFDQ37CA,琿,9.96,獶常カ秏跋 ; 獶常カ絪﹚贺縱ノ
RPQNMLTJQHLFFDQ37CA,琿,3.60,獶常カ秏跋 ; 獶常カ絪﹚贺縱ノ
RPQNMLTJQHLFFDQ37CA,琿,1.32,獶常カ秏跋 ; 獶常カ絪﹚贺縱ノ
RPRNMLTJQHLFFDQ47CA,狥琿,7.72,常カㄤ
RPVNMLKKQHLFFEQ37EA,芖い琿,376.72,獶常カ笰穨跋 ; 獶常カ絪﹚笰ノ
RPRNMLLKQHLFFEQ07EA,痷猌琿,221.22,常カ
RPQNMLMKQHLFFEQ07EA,痷猌琿,68.24,常カ坝
RPPNMLSJRHLFFEQ57EA,芖琿,197.98,獶常カ秏跋 ; 獶常カ絪﹚贺縱ノ
RPTOMLKMQHLFFCQ07CA,チ琿,101.00,常カ
RPXOMLKMQHLFFCQ47CA,チ琿,101.00,常カ
RPOPMLKMQHLFFCQ66CA,チ琿,101.00,常カ
RPPPMLKMQHLFFCQ76CA,チ琿,101.00,常カ
RPQPMLKMQHLFFCQ86CA,チ琿,102.00,常カ
RPVOMLKMQHLFFCQ27CA,チ琿,101.00,常カ
RPTNMLTLQHLFFBQ67CA,腐琿,2.86,獶常カ秏跋 ; 獶常カ絪﹚ユ硄ノ
RPTNMLTLQHLFFBQ67CA,腐琿,6.00,獶常カ秏跋 ; 獶常カ絪﹚贺縱ノ
RPTNMLTLQHLFFBQ67CA,腐琿,7.51,獶常カ秏跋 ; 獶常カ絪﹚贺縱ノ
RPTNMLTLQHLFFBQ67CA,腐琿,109.71,獶常カ秏跋 ; 獶常カ絪﹚贺縱ノ
RPUNMLMKQHLFFCQ07CA,礷盋琿㎝琿,2576.00,獶常カ疭﹚笰穨跋 ; 獶常カ絪﹚笰ノ
RPSNMLKKQHLFFCQ66CA,╭狶琿,47.26,獶常カ秏跋 ; 獶常カ絪﹚贺縱ノ
RPSNMLKKQHLFFCQ66CA,╭狶琿,47.26,獶常カ秏跋 ; 獶常カ絪﹚贺縱ノ
RPRNMLMKQHLFFCQ76CA,琿琿,1811.00,獶常カ疭﹚笰穨跋 ; 獶常カ絪﹚笰ノ
RPUNMLQLQHLFFCQ57CA,穝瓾琿,54.87,獶常カ秏跋 ; 獶常カ絪﹚贺縱ノ
RPVNMLQLQHLFFCQ67CA,穝瓾琿,54.87,獶常カ秏跋 ; 獶常カ絪﹚贺縱ノ
RPWNMLQLQHLFFCQ77CA,穝瓾琿,54.87,獶常カ秏跋 ; 獶常カ絪﹚贺縱ノ
RPPNMLOKQHLFFEQ96CA,滦恔琿,2855.00,獶常カ笰穨跋 ; 獶常カ絪﹚笰ノ
RPQOMLPJRHLFFDQ17CA,筁肪琿筁肪琿,97.00,常カ
RPUNMLRJRHLFFDQ67CA,匪瑆琿匪瑆琿,34.00,常カ
RPUNMLRJRHLFFDQ67CA,匪瑆琿匪瑆琿,34.00,常カ
RPUNMLRJRHLFFDQ67CA,匪瑆琿匪瑆琿,16.50,常カ
RPUNMLRJRHLFFDQ67CA,匪瑆琿匪瑆琿,16.50,常カ
RPSNMLMKQHLFFDQ96CA,彩匪琿彩匪琿,25.81,常カ
RPSNMLLKQHLFFDQ86CA,λ繷盩琿,1108.00,獶常カ℡玂▅跋 ; 獶常カ絪﹚狶穨ノ
RPUNMLRKQHLFFDQ67CA,猿Ю琿猿琿,1921.00,獶常カ疭﹚笰穨跋 ; 獶常カ絪﹚笰ノ
RPUNMLRKQHLFFDQ67CA,猿Ю琿猿琿,1338.00,獶常カ疭﹚笰穨跋 ; 獶常カ絪﹚笰ノ
RPRNMLKKQHLFFCQ66DA,チ琿,134.18,常カ
RPPNMLMKQHLFFCQ66DA,Μ琿λ瞅琿,2306.00,獶常カ疭﹚笰穨跋 ; 獶常カ絪﹚笰ノ
RPPNMLMKQHLFFCQ66DA,Μ琿λ瞅琿,2364.00,獶常カ疭﹚笰穨跋 ; 獶常カ絪﹚笰ノ
RPPNMLKMQHLFFCQ76EA,狶庱琿,128.00,獶常カ秏跋 ; 獶常カ絪﹚ユ硄ノ
RPQNMLSKQHLFFCQ47EA,伦Μ琿,108.67,獶常カ疭﹚笰穨跋 ; 獶常カ絪﹚ヒ贺縱ノ
RPUNMLKKQHLFFDQ07DA,筁肪琿筁肪琿,14.94,常カ
RPUNMLKKQHLFFDQ07DA,筁肪琿筁肪琿,91.00,常カ
RPUNMLLKQHLFFDQ17DA,ホ繷琿,1872.00,獶常カ笰穨跋 ; 獶常カ絪﹚笰ノ
RPUNMLOLQHLFFDQ57DA,陈琿,70.75,獶常カ秏跋 ; 獶常カ絪﹚贺縱ノ
RPTNMLMKQHLFFCQ07DA,繷琿,95.66,獶常カ秏跋 ; 獶常カ絪﹚贺縱ノ
RPPNMLPKQHLFFCQ96DA,ゆ琿,2983.62,常カ笰
RPVNMLMKQHLFFDQ27CA,砍琿,55.89,常カ
RPRNMLLKQHLFFDQ76CA,㎝砍琿,28.36,獶常カ疭﹚笰穨跋 ; 獶常カ絪﹚ヒ贺縱ノ
RPPNMLLMQHLFFDQ76CA,琱穝琿,56.20,獶常カ秏跋 ; 獶常カ絪﹚贺縱ノ
RPPNMLLMQHLFFDQ76CA,琱穝琿,17.65,獶常カ秏跋 ; 獶常カ絪﹚贺縱ノ
RPSNMLMKQHLFFCQ86CA,￤郴琿,888.06,常カ
RPSNMLMKQHLFFCQ86CA,￤郴琿,309.93,常カ
RPSNMLMKQHLFFCQ86CA,￤郴琿,2.64,常カㄤ
RPSNMLMKQHLFFCQ86CA,￤郴琿,85.53,常カ
RPSNMLMKQHLFFCQ86CA,￤郴琿,86.62,常カ
RPSNMLMKQHLFFCQ86CA,￤郴琿,58.37,常カ
RPSNMLMKQHLFFCQ86CA,￤郴琿,83.85,常カ
RPSNMLMKQHLFFCQ86CA,￤郴琿,86.17,常カ
RPSNMLMKQHLFFCQ86CA,￤郴琿,123.01,常カ
RPSNMLMKQHLFFCQ86CA,￤郴琿,55.36,常カ
RPSNMLMKQHLFFCQ86CA,￤郴琿,666.71,常カㄤ
RPSNMLMKQHLFFCQ86CA,￤郴琿,160.55,常カ
RPSNMLMKQHLFFCQ86CA,￤郴琿,87.11,常カ
RPSNMLMKQHLFFCQ86CA,￤郴琿,90.25,常カ
RPSNMLMKQHLFFCQ86CA,￤郴琿,88.97,常カ
RPQOMLMKQHLFFCQ76CA,打琿,500.00,常カㄤ
RPUNMLLKQHLFFCQ96CA,る兼琿る琿,2438.00,獶常カ疭﹚笰穨跋 ; 獶常カ絪﹚笰ノ
RPTNMLKKQHLFFBQ66CA,ゅて琿,56.88,常カ
RPVNMLMKQHLFFBQ07CA,せゆЮ琿せゆ琿,1714.00,獶常カ疭﹚笰穨跋 ; 獶常カ絪﹚笰ノ
RPPNMLPKQHLFFBQ76CA,ず琿,120.85,常カ
RPPNMLPKQHLFFBQ76CA,ず琿,26.69,常カ
RPPOMLMKQHLFFCQ66CA,チゅ琿,84.27,常カ
RPPOMLMKQHLFFCQ66CA,チゅ琿,5.43,常カ
RPQNMLPKQHLFFCQ96CA,穝瓾琿,67.89,獶常カ秏跋 ; 獶常カ絪﹚贺縱ノ
RPSNMLPKQHLFFCQ17CA,丁琿,1893.00,獶常カ疭﹚笰穨跋 ; 獶常カ絪﹚笰ノ
RPXNMLSKQHLFFCQ97CA,チゅ琿,64.76,常カ
RPQNMLNJRHLFFCQ76CA,砍琿,79.76,常カ
RPQNMLNJRHLFFCQ76CA,砍琿,20.27,常カ
RPUNMLMJRHLFFDQ17CA,﹁琿,151.70,常カㄤ
RPWNMLMKQHLFFDQ37CA,璛肖庱琿琄痌琿,2230.00,獶常カ疭﹚笰穨跋 ; 獶常カ絪﹚笰ノ
RPRNMLRKQHLFFDQ37CA,竃瓾琿,2980.00,獶常カ℡玂▅跋 ; 獶常カ絪﹚笰ノ
RPPNMLRKQHLFFEQ27CA,ネを攫琿,1207.00,獶常カ℡玂▅跋 ; 獶常カ絪﹚笰ノ
RPPNMLRKQHLFFEQ27CA,ネを攫琿,2072.25,獶常カ℡玂▅跋 ; 獶常カ絪﹚笰ノ
RPQNMLRKQHLFFEQ37CA,瓾琿,5225.00,獶常カ℡玂▅跋 ; 獶常カ絪﹚笰ノ
RPPNMLOLQHLFFEQ07CA,そバ琿,1000.00,獶常カ此狶跋 ; 獶常カ絪﹚狶穨ノ
RPSNMLQKQHLFFCQ37DA,穝瓾琿,1665.46,獶常カ笰穨跋 ; 獶常カ絪﹚笰ノ
RPSNMLQKQHLFFCQ37DA,穝瓾琿,286.33,獶常カ笰穨跋 ; 獶常カ絪﹚ノ
RPSNMLQKQHLFFCQ37DA,穝瓾琿,73.24,獶常カ秏跋 ; 獶常カ絪﹚贺縱ノ
RPVNMLMKQHLFFCQ27DA,丁琿,3503.00,獶常カ笰穨跋 ; 獶常カ絪﹚笰ノ
RPVNMLPKQHLFFCQ57DA,穝绍琿,78.19,獶常カ秏跋 ; 獶常カ絪﹚贺縱ノ
RPQNMLQKQHLFFCQ17DA,琱肪琿,100.00,獶常カ秏跋 ; 獶常カ絪﹚贺縱ノ
RPPNMLMJRHLFFCQ66DA,盵琿琱琿,2.00,獶常カ疭﹚笰穨跋 ; 獶常カ絪﹚ノ
RPQNMLQKQHLFFBQ07DA,芖玭琿,118.31,獶常カ秏跋 ; 獶常カ絪﹚贺縱ノ
RPQNMLQKQHLFFBQ07DA,芖玭琿,195.86,獶常カ秏跋 ; 獶常カ絪﹚贺縱ノ
RPPNMLLMQHLFFEQ86CA,き丁琿,223.78,獶常カ笰穨跋 ; 獶常カ絪﹚ヒ贺縱ノ
RPPNMLLMQHLFFEQ86CA,き丁琿,222.28,獶常カ笰穨跋 ; 獶常カ絪﹚ヒ贺縱ノ
RPWNMLMKQHLFFCQ47EA,穝绍琿,136.77,常カ笰
RPTNMLPLQHLFFEQ57CA,宾狥琿,46.00,常カ
RPQNMLMLQHLFFEQ96CA,芖琿,2786.65,獶常カ笰穨跋 ; 獶常カ絪﹚笰ノ
RPQNMLSKQHLFFEQ47CA,宾琿,616.83,獶常カ猠跋 ; 獶常カ絪﹚ノ
RPQNMLSKQHLFFEQ47CA,宾琿,17.83,常カㄤ
RPQNMLSKQHLFFEQ47CA,宾琿,147.33,獶常カ猠跋 ; 獶常カ絪﹚ノ
RPQNMLSKQHLFFEQ47CA,宾琿,15.83,獶常カ猠跋 ; 獶常カ絪﹚ノ
RPRNMLSKQHLFFEQ57CA,宾琿,93.50,常カㄤ
RPRNMLSKQHLFFEQ57CA,宾琿,36.83,常カㄤ
RPRNMLSKQHLFFEQ57CA,宾琿,48.17,常カㄤ
RPSNMLSKQHLFFEQ67CA,宾琿,465.00,常カㄤ
RPSNMLSKQHLFFEQ67CA,宾琿,291.00,獶常カ猠跋 ; 獶常カ絪﹚ノ
RPSNMLRKQHLFFDQ47CA,穝礷糳琿,3539.96,獶常カ笰穨跋 ; 獶常カ絪﹚笰ノ
RPTNMLRKQHLFFDQ57CA,猿Ю琿猿琿,1238.00,獶常カ疭﹚笰穨跋 ; 獶常カ絪﹚笰ノ
RPQNMLRKQHLFFDQ27CA,瓾琿,635.00,獶常カ疭﹚笰穨跋 ; 獶常カ絪﹚笰ノ
RPQNMLRKQHLFFDQ27CA,瓾琿,872.00,獶常カ疭﹚笰穨跋 ; 獶常カ絪﹚笰ノ
RPSNMLNJRHLFFDQ07CA,穝盵琿,38.46,獶常カ秏跋 ; 獶常カ絪﹚贺縱ノ
RPSNMLNJRHLFFDQ07CA,穝盵琿,36.88,獶常カ秏跋 ; 獶常カ絪﹚贺縱ノ
RPSNMLNJRHLFFDQ07CA,穝盵琿,109.04,獶常カ秏跋 ; 獶常カ絪﹚贺縱ノ
RPTNMLTJRHLFFDQ77CA,糴琿,73.62,獶常カ秏跋 ; 獶常カ絪﹚贺縱ノ
RPQNMLMJRHLFFCQ66CA,╭狶琿,66.43,獶常カ笰穨跋 ; 獶常カ絪﹚ヒ贺縱ノ
RPRNMLTLQHLFFCQ57CA,い琿,102.00,獶常カ秏跋 ; 獶常カ絪﹚贺縱ノ
RPTNMLPKQHLFFBQ17CA,せ琿,16.88,常カ
RPQNMLNLQHLFFBQ76CA,珼芖琿猀宾琿,4735.00,獶常カ疭﹚笰穨跋 ; 獶常カ絪﹚笰ノ
RPQNMLMLQHLFFBQ66CA,蛮硈兼琿硈兼琿,3070.00,獶常カ笰穨跋 ; 獶常カ絪﹚笰ノ
RPQNMLMLQHLFFBQ66CA,蛮硈兼琿硈兼琿,3674.00,獶常カ笰穨跋 ; 獶常カ絪﹚笰ノ
RPPNMLRKQHLFFBQ96CA,ゅ琿,28.54,常カ
RPSNMLNLQHLFFCQ07CA,礷盋琿㎝琿,4047.00,獶常カ疭﹚笰穨跋 ; 獶常カ絪﹚笰ノ
RPPNMLNLQHLFFCQ76CA,き絓琿,109.19,常カ
RPPNMLNLQHLFFCQ76CA,き絓琿,.27,常カ
RPPNMLRKQHLFFCQ07CA,礷琿礷琿,422.00,獶常カ疭﹚笰穨跋 ; 獶常カ絪﹚笰ノ
RPQNMLRKQHLFFCQ17CA,穝绍琿,2.95,常カㄤ
RPRNMLTKQHLFFCQ47CA,￤郴琿,9.66,獶常カ疭﹚笰穨跋 ; 獶常カ絪﹚ヒ贺縱ノ
RPSNMLTKQHLFFCQ57CA,翠狥琿,94.00,常カ
RPWOMLKMQHLFFCQ37CA,い琿,198.00,獶常カ穨跋 ; 獶常カ絪﹚贺縱ノ
RPSNMLPJRHLFFCQ17CA,侣玭翠琿,93.00,獶常カ疭﹚笰穨跋 ; 獶常カ絪﹚ヒ贺縱ノ
RPRNMLQKQHLFFDQ27CA,琿﹁琿,1746.00,獶常カ疭﹚笰穨跋 ; 獶常カ絪﹚笰ノ
RPRNMLOLQHLFFDQ17CA,糳穝琿,78.28,獶常カ秏跋 ; 獶常カ絪﹚贺縱ノ
RPTNMLSKQHLFFEQ77CA,宾琿,616.83,獶常カ猠跋 ; 獶常カ絪﹚ノ
RPTNMLSKQHLFFEQ77CA,宾琿,93.50,常カㄤ
RPTNMLSKQHLFFEQ77CA,宾琿,17.83,常カㄤ
RPTNMLSKQHLFFEQ77CA,宾琿,147.33,獶常カ猠跋 ; 獶常カ絪﹚ノ
RPTNMLSKQHLFFEQ77CA,宾琿,36.83,常カㄤ
RPTNMLSKQHLFFEQ77CA,宾琿,15.83,獶常カ猠跋 ; 獶常カ絪﹚ノ
RPTNMLSKQHLFFEQ77CA,宾琿,48.17,常カㄤ
RPUNMLSKQHLFFEQ87CA,宾琿,253.00,常カㄤ
RPUNMLSKQHLFFEQ87CA,宾琿,144.00,常カㄤ
RPVNMLSKQHLFFEQ97CA,宾琿,71.00,常カㄤ
RPQNMLQKQHLFFEQ27CA,盩竲琿,152.93,獶常カ秏跋 ; 獶常カ絪﹚贺縱ノ
RPQNMLQKQHLFFDQ27DA,筁肪琿筁肪琿,14.94,常カ
RPQNMLQKQHLFFDQ27DA,筁肪琿筁肪琿,90.00,常カ
RPPNMLRKQHLFFDQ27DA,郴瓾琿,78.00,獶常カ℡玂▅跋 ; 獶常カ絪﹚笰ノ
RPVNMLMLQHLFFDQ47DA,古玂琿,114.48,常カ
RPVNMLMLQHLFFDQ47DA,古玂琿,.58,常カ
RPVNMLMLQHLFFDQ47DA,古玂琿,.24,常カ
RPVNMLMLQHLFFDQ47DA,古玂琿,.42,常カ
RPVNMLMLQHLFFDQ47DA,古玂琿,.03,常カ
RPVNMLMLQHLFFDQ47DA,古玂琿,.29,常カ
RPVNMLMLQHLFFDQ47DA,古玂琿,.46,常カ
RPVNMLMLQHLFFDQ47DA,古玂琿,.17,常カ
RPVNMLMLQHLFFDQ47DA,古玂琿,.03,常カ
RPRNMLPJRHLFFDQ27DA,┚㎝琿,114.61,獶常カ秏跋 ; 獶常カ絪﹚贺縱ノ
RPQNMLRKQHLFFBQ17DA,筁肪穝琿,609.32,獶常カ笰穨跋 ; 獶常カ絪﹚緄崔ノ
RPQNMLRKQHLFFBQ17DA,筁肪穝琿,352.69,獶常カ笰穨跋 ; 獶常カ絪﹚緄崔ノ
RPQNMLRKQHLFFBQ17DA,筁肪穝琿,44.02,獶常カ笰穨跋 ; 獶常カ絪﹚緄崔ノ
RPTNMLRKQHLFFBQ47DA,榜繷琿,33.17,獶常カ秏跋 ; 獶常カ絪﹚贺縱ノ
RPVNMLMLQHLFFCQ37DA,﹁狶琿,362.41,常カ坝
RPRNMLNLQHLFFCQ07DA,盵琿琱琿,6.00,獶常カ疭﹚笰穨跋 ; 獶常カ絪﹚ノ
RPPNMLQLQHLFFEQ27CA,芖琿,23.16,獶常カ笰穨跋 ; 獶常カ絪﹚ヒ贺縱ノ
RPPNMLQLQHLFFEQ27CA,芖琿,6.45,獶常カ笰穨跋 ; 獶常カ絪﹚ヒ贺縱ノ
RPPNMLQLQHLFFEQ27CA,芖琿,124.82,獶常カ笰穨跋 ; 獶常カ絪﹚ヒ贺縱ノ
RPPNMLQLQHLFFEQ27CA,芖琿,2.49,獶常カ笰穨跋 ; 獶常カ絪﹚ヒ贺縱ノ
RPSNMLQLQHLFFEQ57CA,芖琿,23.16,獶常カ笰穨跋 ; 獶常カ絪﹚ヒ贺縱ノ
RPSNMLQLQHLFFEQ57CA,芖琿,6.45,獶常カ笰穨跋 ; 獶常カ絪﹚ヒ贺縱ノ
RPSNMLQLQHLFFEQ57CA,芖琿,236.40,獶常カ笰穨跋 ; 獶常カ絪﹚ヒ贺縱ノ
RPSNMLQLQHLFFEQ57CA,芖琿,2.49,獶常カ笰穨跋 ; 獶常カ絪﹚ヒ贺縱ノ
RPQNMLPLQHLFFEQ27CA,宾狥琿,55.00,常カ
RPPNMLSKQHLFFDQ27CA,穝榜琿穝榜琿,2700.00,獶常カ疭﹚笰穨跋 ; 獶常カ絪﹚笰ノ
RPSNMLTKQHLFFDQ67CA,狥墩糳琿狥墩琿,194.00,常カ
RPSNMLTKQHLFFDQ67CA,狥墩糳琿狥墩琿,352.00,常カㄤ
RPSNMLTKQHLFFDQ67CA,狥墩糳琿狥墩琿,1549.00,常カㄤ
RPPNMLNKRHLFFDQ86CA,份琿,580.21,獶常カ秏跋 ; 獶常カ絪﹚贺縱ノ
RPPNMLNKRHLFFDQ86CA,份琿,202.40,獶常カ秏跋 ; 獶常カ絪﹚贺縱ノ
RPUOMLKMQHLFFCQ17CA,チ琿,101.00,常カ
RPTNMLMLQHLFFCQ07CA,ゆ琿,88.24,常カ
RPXNMLTKQHLFFCQ08CA,褐玭琿,18.33,常カ
RPXNMLTKQHLFFCQ08CA,褐玭琿,80.92,常カ
RPPNMLMLQHLFFCQ66CA,褐砍琿,67.06,獶常カ秏跋 ; 獶常カ絪﹚贺縱ノ
RPPNMLSKQHLFFCQ17CA,狥打琿,2986.00,常カ笰
RPSNMLMLQHLFFBQ86CA,翠琿,1646.00,獶常カ疭﹚盡ノ跋 ; 獶常カ絪﹚緄崔ノ
RPTNMLMLQHLFFBQ96CA,翠琿,1896.00,獶常カ疭﹚盡ノ跋 ; 獶常カ絪﹚緄崔ノ
RPPNMLQKQHLFFBQ86CA,穝绍琿穝绍琿,3000.00,獶常カ疭﹚笰穨跋 ; 獶常カ絪﹚笰ノ
RPQNMLQJRHLFFBQ96CA,蛮瞇琿,181.37,獶常カ笰穨跋 ; 獶常カ絪﹚笰ノ
RPQNMLQJRHLFFBQ96CA,蛮瞇琿,351.67,獶常カ笰穨跋 ; 獶常カ絪﹚笰ノ
RPQNMLQJRHLFFBQ96CA,蛮瞇琿,142.59,獶常カ秏跋 ; 獶常カ絪﹚贺縱ノ
RPVOMLPJRHLFFBQ47CA,狥琿,2105.44,獶常カ疭﹚盡ノ跋 ; 獶常カ絪﹚緄崔ノ
RPVOMLPJRHLFFBQ47CA,狥琿,3245.59,獶常カ疭﹚盡ノ跋 ; 獶常カ絪﹚緄崔ノ
RPVOMLPJRHLFFBQ47CA,狥琿,2365.35,獶常カ疭﹚盡ノ跋 ; 獶常カ絪﹚緄崔ノ
RPRNMLRKQHLFFBQ17CA,匪瑆琿匪瑆琿,3191.00,獶常カ疭﹚笰穨跋 ; 獶常カ絪﹚笰ノ
RPQNMLTKQHLFFBQ27CA,─竲琿,69.49,常カ
RPSNMLNLQHLFFBQ96CA,紈琿,11.40,常カㄤ
RPSNMLNLQHLFFBQ96CA,紈琿,85.40,常カ
RPSNMLNLQHLFFBQ96CA,紈琿,359.60,常カ
RPSNMLNLQHLFFBQ96CA,紈琿,23.80,常カㄤ
RPSNMLNLQHLFFBQ96CA,紈琿,7.00,常カ
RPSNMLNLQHLFFBQ96CA,紈琿,3.50,常カ
RPRNMLOLQHLFFBQ96CA,鞔躬琿鞔躬琿,3833.20,獶常カ笰穨跋 ; 獶常カ絪﹚笰ノ
RPTNMLTKQHLFFCQ67CA,チ琿,47.00,常カ
RPUNMLTKQHLFFCQ77CA,﹁琿,71.00,常カ笰
RPUNMLTKQHLFFCQ77CA,﹁琿,86.71,常カ笰
RPUNMLTKQHLFFCQ77CA,﹁琿,73.71,常カ笰
RPUNMLTKQHLFFCQ77CA,﹁琿,3.44,常カ笰
RPQNMLNLQHLFFCQ86CA,き絓琿,111.38,常カ
RPXNMLOLQHLFFCQ67CA,Μ琿λ瞅琿,5531.00,常カ笰
RPOOMLOLQHLFFCQ86CA,╭狶琿,65.23,獶常カ秏跋 ; 獶常カ絪﹚贺縱ノ
RPOOMLOLQHLFFCQ86CA,╭狶琿,18.12,獶常カ秏跋 ; 獶常カ絪﹚贺縱ノ
RPOOMLOLQHLFFCQ86CA,╭狶琿,24.30,獶常カ秏跋 ; 獶常カ絪﹚贺縱ノ
RPSNMLOLQHLFFDQ27CA,い绍琿,77.61,獶常カ秏跋 ; 獶常カ絪﹚贺縱ノ
RPTNMLOLQHLFFDQ37CA,び玂琿び玂琿,95.00,常カ
RPQNMLKMQHLFFDQ76CA,糳琿糳琿,859.00,獶常カ疭﹚笰穨跋 ; 獶常カ絪﹚笰ノ
RPRNMLKMQHLFFDQ86CA,糳琿糳琿,1506.00,獶常カ疭﹚笰穨跋 ; 獶常カ絪﹚笰ノ
RPRNMLKMQHLFFDQ86CA,糳琿糳琿,1054.00,獶常カ疭﹚笰穨跋 ; 獶常カ絪﹚笰ノ
RPQNMLOLQHLFFEQ17CA,贾偿琿,2500.00,獶常カ℡玂▅跋 ; 獶常カ絪﹚笰ノ
RPPNMLSKQHLFFEQ37CA,￤琿,1077.00,獶常カ春跋 ; 獶常カ絪﹚笰ノ
RPUNMLQJRHLFFEQ67CA,芖琿,23.16,獶常カ笰穨跋 ; 獶常カ絪﹚ヒ贺縱ノ
RPUNMLQJRHLFFEQ67CA,芖琿,6.45,獶常カ笰穨跋 ; 獶常カ絪﹚ヒ贺縱ノ
RPUNMLQJRHLFFEQ67CA,芖琿,2.49,獶常カ笰穨跋 ; 獶常カ絪﹚ヒ贺縱ノ
RPUNMLQJRHLFFEQ67CA,芖琿,134.31,獶常カ笰穨跋 ; 獶常カ絪﹚ヒ贺縱ノ
RPPNMLRJRHLFFEQ27CA,芖琿,23.16,獶常カ笰穨跋 ; 獶常カ絪﹚ヒ贺縱ノ
RPPNMLRJRHLFFEQ27CA,芖琿,116.67,獶常カ笰穨跋 ; 獶常カ絪﹚ヒ贺縱ノ
RPPNMLRJRHLFFEQ27CA,芖琿,6.45,獶常カ笰穨跋 ; 獶常カ絪﹚ヒ贺縱ノ
RPPNMLRJRHLFFEQ27CA,芖琿,2.49,獶常カ笰穨跋 ; 獶常カ絪﹚ヒ贺縱ノ
RPVNMLLJRHLFFDQ27DA,古穝琿,35.72,常カ
RPVNMLSKQHLFFCQ97EA,チ琿穝チ琿,2262.00,常カ笰
RPVNMLTKQHLFFCQ08EA,狶庱琿狶琿,1299.00,獶常カ疭﹚笰穨跋 ; 獶常カ絪﹚笰ノ
RPQOMLMLQHLFFCQ07EA,兼┏琿兼┏琿,118.00,常カ
RPQNMLPLQHLFFCQ27EA,チ玭琿,15.75,常カ
RPQNMLPLQHLFFCQ27EA,チ玭琿,77.00,常カ
RPUNMLMLQHLFFCQ37EA,砍琿,101.34,常カ
RPXNMLOLQHLFFDQ87DA,ホ繷琿,235.00,獶常カ秏跋 ; 獶常カ絪﹚贺縱ノ
RPXNMLOLQHLFFDQ87DA,ホ繷琿,3.00,獶常カ℡玂▅跋 ; 獶常カ絪﹚笰ノ
RPXNMLOLQHLFFDQ87DA,ホ繷琿,56.67,獶常カ℡玂▅跋 ; 獶常カ絪﹚笰ノ
RPQNMLTKQHLFFEQ57CA,礷兼琿,26.19,獶常カ笰穨跋 ; 獶常カ絪﹚ヒ贺縱ノ
RPQNMLTKQHLFFEQ57CA,芖い琿,3.03,獶常カ秏跋 ; 獶常カ絪﹚ユ硄ノ
RPRNMLTKQHLFFEQ67CA,礷兼琿,167.00,獶常カ笰穨跋 ; 獶常カ絪﹚ヒ贺縱ノ
RPSNMLLJRHLFFDQ86CA,份琿,91.01,獶常カ秏跋 ; 獶常カ絪﹚贺縱ノ
RPSNMLLJRHLFFDQ86CA,份琿,29.34,獶常カ秏跋 ; 獶常カ絪﹚贺縱ノ
RPPNMLNJRHLFFDQ76CA,筁肪琿筁肪琿,84.93,常カ
RPQNMLMLQHLFFDQ86CA,获紂琿,1282.14,常カ笰
RPRNMLMLQHLFFDQ96CA,穝琿,1325.51,常カ笰
RPRNMLTKQHLFFDQ57CA,瓾琿,3856.00,獶常カ℡玂▅跋 ; 獶常カ絪﹚瓣玂ノ
RPSNMLOLQHLFFBQ07CA,匪琿匪琿,1445.00,獶常カ笰穨跋 ; 獶常カ絪﹚笰ノ
RPPNMLMLQHLFFBQ56CA,珼芖琿猀宾琿,1415.00,獶常カ疭﹚笰穨跋 ; 獶常カ絪﹚笰ノ
RPRNMLLMQHLFFBQ76CA,芖琿,66.12,獶常カ疭﹚笰穨跋 ; 獶常カ絪﹚笰ノ
RPPNMLKMQHLFFBQ09CA,瓾琿,74.31,常カ坝
RPTNMLNLQHLFFBQ07CA,繷λ瞅琿繷λ琿,1715.00,獶常カ疭﹚笰穨跋 ; 獶常カ絪﹚笰ノ
RPRNMLTKQHLFFBQ37CA,竡λ琿,1018.56,獶常カ笰穨跋 ; 獶常カ絪﹚笰ノ
RPRNMLTKQHLFFBQ37CA,竡λ琿,1400.00,獶常カ笰穨跋 ; 獶常カ絪﹚笰ノ
RPRNMLTKQHLFFBQ37CA,竡λ琿,499.54,獶常カ笰穨跋 ; 獶常カ絪﹚笰ノ
RPQNMLOLQHLFFCQ96CA,ゆ琿,204.25,常カ
RPQNMLOLQHLFFCQ96CA,ゆ琿,68.02,常カㄤ
RPQNMLOLQHLFFCQ96CA,ゆ琿,328.09,常カ
RPQNMLOLQHLFFCQ96CA,ゆ琿,1047.93,常カ
RPQNMLOLQHLFFCQ96CA,ゆ琿,124.55,常カㄤ
RPQNMLOLQHLFFCQ96CA,ゆ琿,1.16,常カㄤ
RPQNMLOLQHLFFCQ96CA,ゆ琿,29.97,常カㄤ
RPQNMLOLQHLFFCQ96CA,ゆ琿,234.20,常カㄤ
RPVNMLOLQHLFFCQ47CA,纍ダ鷡琿ゅ订琿,8.17,常カ
RPVNMLOLQHLFFCQ47CA,纍ダ鷡琿ゅ订琿,11.67,常カ
RPVNMLOLQHLFFCQ47CA,纍ダ鷡琿ゅ订琿,4.67,常カ
RPVNMLOLQHLFFCQ47CA,纍ダ鷡琿ゅ订琿,10.50,常カ
RPVNMLOLQHLFFCQ47CA,纍ダ鷡琿ゅ订琿,219.33,常カ
RPWNMLNLQHLFFCQ47CA,キ狶琿,8.70,常カ
RPWNMLNLQHLFFCQ47CA,キ狶琿,76.64,常カ
RPQNMLPJRHLFFCQ96CA,き絓琿,198.67,常カ
RPPNMLLKRHLFFCQ56CA,à琿,2763.00,獶常カ笰穨跋 ; 獶常カ絪﹚ノ
RPQNMLLKRHLFFCQ66CA,à琿,1989.00,獶常カ笰穨跋 ; 獶常カ絪﹚ノ
RPOOMLLJRHLFFDQ56CA,い绍琿,112.17,獶常カ疭﹚笰穨跋 ; 獶常カ絪﹚ヒ贺縱ノ
RPPNMLQJRHLFFDQ07CA,い绍琿,88.48,獶常カ疭﹚笰穨跋 ; 獶常カ絪﹚ヒ贺縱ノ
RPPNMLNLQHLFFEQ96CA,馞竲琿,17.12,常カ
RPQNMLNLQHLFFEQ07CA,馞竲琿,111.00,常カ
RPPNMLPLQHLFFEQ17CA,宾狥琿,52.00,常カ坝
RPQNMLOLQHLFFDQ17DA,匪瑆琿,94.01,獶常カ秏跋 ; 獶常カ絪﹚贺縱ノ
RPRNMLMJRHLFFEQ07DA,礷隔琿,11752.00,獶常カ℡玂▅跋 ; 獶常カ絪﹚狶穨ノ
RPPNMLLLQHLFFCQ66DA,琿,1630.74,獶常カ℡玂▅跋 ; 獶常カ絪﹚狶穨ノ
RPRNMLNLQHLFFBQ96DA,穝ネ琿,90.15,常カ
RPPNMLOLQHLFFBQ86DA,せ琿,14.00,常カㄤ
RPQNMLOLQHLFFBQ96DA,せ琿,4.00,常カㄤ
RPPNMLMJRHLFFBQ56DA,马琿,85.50,常カ
RPQNMLQJRHLFFEQ27CA,宾狥琿,105.00,常カ
RPQNMLQJRHLFFEQ27CA,宾狥琿,5.00,常カ
RPSNMLPLQHLFFEQ57DA,狶琿,6752.00,獶常カ℡玂▅跋 ; 獶常カ絪﹚笰ノ
RPXNMLNLQHLFFCQ77EA,盩琿,92.73,獶常カ秏跋 ; 獶常カ絪﹚贺縱ノ
RPSNMLQLQHLFFCQ57EA,打琿,2000.00,獶常カ疭﹚笰穨跋 ; 獶常カ絪﹚笰ノ
RPPNMLTLQHLFFCQ57EA,穝绍琿,45.92,獶常カ秏跋 ; 獶常カ絪﹚贺縱ノ
RPVNMLPLQHLFFEQ77CA,琿,10888.00,獶常カ℡玂▅跋 ; 獶常カ絪﹚笰ノ
RPVNMLPLQHLFFEQ77CA,琿,322.00,獶常カ℡玂▅跋 ; 獶常カ絪﹚笰ノ
RPRNMLRJRHLFFEQ47CA,痷猌琿,55.83,常カ
RPSNMLRJRHLFFEQ57CA,痷猌琿,58.27,常カ
RPTNMLRJRHLFFEQ67CA,痷猌琿,57.85,常カ
RPTNMLRJRHLFFEQ67CA,痷猌琿,67.90,常カ
RPUNMLRJRHLFFEQ77CA,痷猌琿,73.33,常カ
RPVNMLRJRHLFFEQ87CA,痷猌琿,99.36,常カ
RPWNMLRJRHLFFEQ97CA,痷猌琿,79.62,常カ
RPXNMLRJRHLFFEQ08CA,痷猌琿,3.88,常カ
RPOOMLRJRHLFFEQ27CA,痷猌琿,4.08,常カ
RPPOMLRJRHLFFEQ37CA,痷猌琿,.75,常カ
RPQOMLRJRHLFFEQ47CA,痷猌琿,2.81,常カ
RPROMLRJRHLFFEQ57CA,痷猌琿,53.19,常カ
RPXNMLMJRHLFFDQ47CA,狥墩糳琿狥墩琿,13.00,常カㄤ
RPXNMLMJRHLFFDQ47CA,狥墩糳琿狥墩琿,1762.00,常カㄤ
RPQNMLNLQHLFFDQ96CA,额肪琿额肪琿,2995.00,獶常カ疭﹚笰穨跋 ; 獶常カ絪﹚笰ノ
RPRNMLNLQHLFFDQ07CA,额肪琿额肪琿,2396.00,獶常カ疭﹚笰穨跋 ; 獶常カ絪﹚笰ノ
RPPNMLNJRHLFFCQ66CA,砍琿,33.37,常カ
RPQNMLRLQHLFFCQ27CA,盵琿,359.12,獶常カ疭﹚笰穨跋 ; 獶常カ絪﹚笰ノ
RPXNMLQLQHLFFCQ87CA,チゅ琿,78.52,常カ
RPXNMLQLQHLFFCQ87CA,チゅ琿,4.63,常カ
RPTNMLOLQHLFFCQ27CA,チ琿,78.00,常カ
RPUNMLNLQHLFFCQ27CA,兼┏琿兼┏琿,58.57,常カ
RPUNMLNLQHLFFCQ27CA,兼┏琿兼┏琿,.44,常カ
RPVNMLNLQHLFFCQ37CA,繷琿,472.03,獶常カ疭﹚笰穨跋 ; 獶常カ絪﹚笰ノ
RPVNMLNLQHLFFCQ37CA,繷琿,316.04,獶常カ疭﹚笰穨跋 ; 獶常カ絪﹚笰ノ
RPVNMLNLQHLFFCQ37CA,繷琿,228.13,獶常カ疭﹚笰穨跋 ; 獶常カ絪﹚笰ノ
RPVNMLNLQHLFFCQ37CA,繷琿,472.03,獶常カ疭﹚笰穨跋 ; 獶常カ絪﹚笰ノ
RPVNMLNLQHLFFCQ37CA,繷琿,316.04,獶常カ疭﹚笰穨跋 ; 獶常カ絪﹚笰ノ
RPVNMLNLQHLFFCQ37CA,繷琿,228.13,獶常カ疭﹚笰穨跋 ; 獶常カ絪﹚笰ノ
RPPNMLPLQHLFFCQ96CA,チ琿,363.00,常カ
RPPNMLQLQHLFFCQ07CA,盩琿,96.57,獶常カ秏跋 ; 獶常カ絪﹚贺縱ノ
RPQNMLQLQHLFFCQ17CA,盵Ю琿玭琿,2978.00,獶常カ疭﹚笰穨跋 ; 獶常カ絪﹚笰ノ
RPQNMLQLQHLFFCQ17CA,盵Ю琿玭琿,906.86,獶常カ疭﹚笰穨跋 ; 獶常カ絪﹚笰ノ
RPRNMLQLQHLFFCQ27CA,褐贾琿,51.69,常カ
RPRNMLQLQHLFFCQ27CA,褐贾琿,4.95,常カ
RPSNMLQLQHLFFCQ37CA,盵Ю琿玭琿,2185.33,獶常カ疭﹚笰穨跋 ; 獶常カ絪﹚笰ノ
RPTNMLQLQHLFFCQ47CA,村琿村狥琿,10.00,獶常カ疭﹚笰穨跋 ; 獶常カ絪﹚笰ノ
RPROMLMLQHLFFCQ96CA,à琿,2500.00,獶常カ笰穨跋 ; 獶常カ絪﹚笰ノ
RPPNMLNLQHLFFBQ66CA,古扼琿,82.96,獶常カ秏跋 ; 獶常カ絪﹚贺縱ノ
RPPNMLNLQHLFFBQ66CA,古扼琿,69.35,獶常カ秏跋 ; 獶常カ絪﹚贺縱ノ
RPQNMLPLQHLFFBQ96CA,古Φ琿,6.74,常カ
RPPNMLLJRHLFFBQ98CA,穝糳琿,3.76,常カ
RPWOMLPJRHLFFBQ57CA,σ刚兼琿σ刚琿,2920.00,獶常カ笰穨跋 ; 獶常カ絪﹚笰ノ
RPQNMLTJRHLFFEQ77EA,礷隔琿,441.56,獶常カ春跋 ; 獶常カ絪﹚ノ
RPQNMLTJRHLFFEQ77EA,礷隔琿,575.78,獶常カ春跋 ; 獶常カ絪﹚ノ
RPQNMLTJRHLFFEQ77EA,礷隔琿,2950.44,獶常カ春跋 ; 獶常カ絪﹚笰ノ
RPQNMLTJRHLFFEQ77EA,礷隔琿,333.33,獶常カ春跋 ; 獶常カ絪﹚笰ノ
RPRNMLMLQHLFFEQ27EA,粪繷琿,4484.00,獶常カ℡玂▅跋 ; 獶常カ絪﹚狶穨ノ
RPRNMLMLQHLFFEQ27EA,粪繷琿,1016.00,獶常カ℡玂▅跋 ; 獶常カ絪﹚狶穨ノ
RPQNMLLLRHLFFCQ96EA,榜繷琿㎝琿,2360.00,獶常カ疭﹚笰穨跋 ; 獶常カ絪﹚笰ノ
RPRNMLLLRHLFFCQ07EA,盵琿,1099.00,獶常カ笰穨跋 ; 獶常カ絪﹚ノ
RPPOMLPJRHLFFBQ86CA,穝ネ琿,97.88,常カ
RPQNMLLMQHLFFBQ66CA,竡λ琿,526.80,獶常カ笰穨跋 ; 獶常カ絪﹚緄崔ノ
RPVNMLPJRHLFFBQ37CA,λ瞅琿ㄎポ琿,85.80,常カ笰
RPVNMLPJRHLFFBQ37CA,λ瞅琿ㄎポ琿,2306.40,常カ笰
RPVNMLPJRHLFFBQ37CA,λ瞅琿ㄎポ琿,740.70,常カ笰
RPRNMLTKRHLFFBQ47CA,马琿,76.65,常カ
RPOOMLQLQHLFFCQ07CA,ゆ琿,300.00,獶常カ疭﹚笰穨跋 ; 獶常カ絪﹚笰ノ
RPWNMLOLQHLFFCQ57CA,琱肪琿琱肪琿,3233.00,獶常カ疭﹚笰穨跋 ; 獶常カ絪﹚笰ノ
RPPNMLLJRHLFFCQ09CA,琿琿,2300.00,獶常カ疭﹚笰穨跋 ; 獶常カ絪﹚笰ノ
RPSNMLNLQHLFFDQ17CA,猿Ю琿λ琿,1679.00,獶常カ疭﹚笰穨跋 ; 獶常カ絪﹚笰ノ
RPRNMLPLQHLFFDQ27CA,狥墩糳琿,23.44,常カ
RPRNMLPLQHLFFDQ27CA,狥墩糳琿,114.00,常カ
RPWNMLPLQHLFFDQ77CA,產琿,3195.29,獶常カ疭﹚笰穨跋 ; 獶常カ絪﹚笰ノ
RPVNMLQJRHLFFDQ67CA,狥穝琿,838.65,常カ笰
RPPNMLMJRHLFFDQ66CA,璛肖庱琿,158.00,獶常カ疭﹚笰穨跋 ; 獶常カ絪﹚ヒ贺縱ノ
RPSNMLSJRHLFFDQ57CA,琧琿,2120.00,獶常カ℡玂▅跋 ; 獶常カ絪﹚笰ノ
RPSNMLOLQHLFFCQ37EA,墩琿墩琿,4415.00,獶常カ疭﹚笰穨跋 ; 獶常カ絪﹚笰ノ
RPUNMLOLQHLFFCQ57EA,い琿,677.00,獶常カ笰穨跋 ; 獶常カ絪﹚笰ノ
RPRNMLPLQHLFFCQ37EA,チゅ琿,89.93,常カ
RPVNMLOLQHLFFDQ67DA,兼琿,19.67,獶常カ疭﹚笰穨跋 ; 獶常カ絪﹚笰ノ
RPVNMLOLQHLFFDQ67DA,兼琿,18.00,獶常カ疭﹚笰穨跋 ; 獶常カ絪﹚ノ
RPVNMLOLQHLFFDQ67DA,兼琿,186.00,獶常カ秏跋 ; 獶常カ絪﹚贺縱ノ
RPVNMLOLQHLFFDQ67DA,兼琿,87.50,獶常カ秏跋 ; 獶常カ絪﹚贺縱ノ
RPUNMLPLQHLFFEQ77DA,そバ琿,1000.00,獶常カ此狶跋 ; 獶常カ絪﹚笰ノ
RPRNMLNJRHLFFDQ96CA,い砍琿,16.65,常カ
RPRNMLNJRHLFFDQ96CA,い砍琿,19.47,常カ
RPRNMLNJRHLFFDQ96CA,い砍琿,113.25,常カ
RPTNMLOKRHLFFDQ37CA,い绍琿,323.41,獶常カ秏跋 ; 獶常カ絪﹚贺縱ノ
RPRNMLMJRHLFFDQ86CA,い绍琿,45.92,獶常カ疭﹚笰穨跋 ; 獶常カ絪﹚笰ノ
RPQNMLLMQHLFFDQ86CA,琿抖砍琿,3497.00,獶常カ疭﹚笰穨跋 ; 獶常カ絪﹚笰ノ
RPTNMLPJRHLFFDQ37CA,玭箃琿玭㎝琿,1261.00,獶常カ疭﹚笰穨跋 ; 獶常カ絪﹚笰ノ
RPQNMLPLQHLFFDQ17CA,额肪琿购琿,3000.00,獶常カ疭﹚笰穨跋 ; 獶常カ絪﹚笰ノ
RPPNMLRLQHLFFEQ37CA,芖琿,23.16,獶常カ笰穨跋 ; 獶常カ絪﹚ヒ贺縱ノ
RPPNMLRLQHLFFEQ37CA,芖琿,122.26,獶常カ笰穨跋 ; 獶常カ絪﹚ヒ贺縱ノ
RPPNMLRLQHLFFEQ37CA,芖琿,6.45,獶常カ笰穨跋 ; 獶常カ絪﹚ヒ贺縱ノ
RPPNMLRLQHLFFEQ37CA,芖琿,23.16,獶常カ笰穨跋 ; 獶常カ絪﹚ヒ贺縱ノ
RPQNMLRJRHLFFCQ17CA,穝绍琿,672.40,常カ
RPRNMLRJRHLFFCQ27CA,穝绍琿,16.17,常カ
RPSNMLRKRHLFFCQ47CA,褐贾琿,57.99,常カ
RPPNMLTLQHLFFBQ27CA,せ琿,14.70,常カ
RPPNMLTLQHLFFBQ27CA,せ琿,118.75,常カ
RPPNMLSJRHLFFBQ07CA,Φ琿,82.50,獶常カ穨跋 ; 獶常カ絪﹚贺縱ノ
RPPNMLPLQHLFFBQ86CA,古Φ琿,1520.53,常カ
RPPNMLQLQHLFFBQ96CA,蛮瞇琿,130.95,獶常カ秏跋 ; 獶常カ絪﹚贺縱ノ
RPPNMLQLQHLFFBQ96CA,蛮瞇琿,123.68,獶常カ秏跋 ; 獶常カ絪﹚贺縱ノ
RPPNMLQLQHLFFBQ96CA,蛮瞇琿,128.72,獶常カ秏跋 ; 獶常カ絪﹚贺縱ノ
RPVNMLPLQHLFFCQ57CA,穝砍琿穝砍琿,19.42,常カ
RPVNMLPLQHLFFCQ57CA,穝砍琿穝砍琿,93.50,常カ
RPTNMLPJRHLFFCQ27CA,い狶琿,74.00,獶常カ秏跋 ; 獶常カ絪﹚贺縱ノ
RPTNMLPJRHLFFCQ27CA,い狶琿,22.53,獶常カ秏跋 ; 獶常カ絪﹚贺縱ノ
RPVNMLOKRHLFFCQ47CA,猀竲琿,127.00,獶常カ秏跋 ; 獶常カ絪﹚贺縱ノ
RPOOMLOKRHLFFCQ86CA,狥篴琿,107.24,常カ
RPOOMLOKRHLFFCQ86CA,狥篴琿,10.18,常カ
RPTNMLQLQHLFFEQ67CA,ぱ糳琿,940.00,獶常カ℡玂▅跋 ; 獶常カ絪﹚笰ノ
RPTNMLQLQHLFFEQ67CA,ぱ糳琿,3439.00,獶常カ℡玂▅跋 ; 獶常カ絪﹚狶穨ノ
RPUNMLPLQHLFFDQ67DA,琱狶琿琱狶琿,1428.00,獶常カ疭﹚笰穨跋 ; 獶常カ絪﹚笰ノ
RPVNMLPLQHLFFDQ77DA,郴兼琿郴兼琿,3453.00,獶常カ疭﹚笰穨跋 ; 獶常カ絪﹚笰ノ
RPXOMLPJRHLFFBQ77DA,穝ネ琿,89.20,常カ
RPPNMLKMQHLFFEQ96EA,礷隔琿,719.00,獶常カ℡玂▅跋 ; 獶常カ絪﹚笰ノ
RPRNMLLJRHLFFEQ07EA,贾偿琿┰┰懂琿,629.54,獶常カ秏跋 ; 獶常カ絪﹚贺縱ノ
RPUNMLTLQHLFFBQ87DA,蛮匪琿ㄢ匪琿,1012.00,獶常カ疭﹚笰穨跋 ; 獶常カ絪﹚笰ノ
RPRNMLQJRHLFFEQ37CA,ず聕琿,7.34,常カ
RPRNMLQJRHLFFEQ37CA,ず聕琿,.35,常カㄤ
RPTNMLQJRHLFFEQ57CA,礷隔琿,101.00,獶常カ笰穨跋 ; 獶常カ絪﹚贺縱ノ
RPPNMLNJRHLFFEQ86CA,そバ琿,1000.00,獶常カ此狶跋 ; 獶常カ絪﹚狶穨ノ
RPQNMLNJRHLFFEQ96CA,そバ琿,1000.00,獶常カ此狶跋 ; 獶常カ絪﹚狶穨ノ
RPPNMLQJRHLFFEQ17CA,宾琿,93.00,常カ
RPSNMLLJRHLFFEQ96CA,礷隔琿,391.00,獶常カ笰穨跋 ; 獶常カ絪﹚笰ノ
RPQNMLTLQHLFFDQ67DA,匪瑆琿匪瑆琿,28.00,常カ
RPXNMLQJRHLFFDQ97DA,玭琿,.46,常カ
RPXNMLQJRHLFFDQ97DA,玭琿,8.01,常カ
RPSNMLLMQHLFFDQ07CA,砍琿,58.39,常カ
RPPNMLLJRHLFFDQ56CA,λ繷盩琿,1108.00,獶常カ℡玂▅跋 ; 獶常カ絪﹚狶穨ノ
RPPNMLLJRHLFFDQ56CA,ホ庼琿,1255.00,獶常カ℡玂▅跋 ; 獶常カ絪﹚狶穨ノ
RPSNMLKMQHLFFDQ96CA,砍琿,164.33,常カ
RPPNMLTLQHLFFDQ47CA,筁肪琿筁肪琿,745.00,常カ笰
RPPNMLTLQHLFFDQ47CA,筁肪琿筁肪琿,2160.00,獶常カ疭﹚笰穨跋 ; 獶常カ絪﹚笰ノ
RPPOMLKMQHLFFCQ66CA,ゆ琿,206.00,獶常カ疭﹚笰穨跋 ; 獶常カ絪﹚ユ硄ノ
RPPOMLKMQHLFFCQ66CA,ゆ琿,41.00,獶常カ疭﹚笰穨跋 ; 獶常カ絪﹚ユ硄ノ
RPQOMLKMQHLFFCQ76CA,ゆ琿,206.00,獶常カ疭﹚笰穨跋 ; 獶常カ絪﹚ユ硄ノ
RPQOMLKMQHLFFCQ76CA,ゆ琿,41.00,獶常カ疭﹚笰穨跋 ; 獶常カ絪﹚ユ硄ノ
RPSOMLKMQHLFFCQ96CA,チ琿,102.00,常カ
RPRNMLKMQHLFFCQ76CA,丁琿,13.10,獶常カ疭﹚笰穨跋 ; 獶常カ絪﹚ユ硄ノ
RPSNMLKMQHLFFCQ86CA,丁琿,114.00,獶常カ笰穨跋 ; 獶常カ絪﹚ユ硄ノ
RPSNMLKMQHLFFCQ86CA,丁琿,148.00,獶常カ笰穨跋 ; 獶常カ絪﹚ユ硄ノ
RPSNMLKMQHLFFCQ86CA,丁琿,41.00,獶常カ笰穨跋 ; 獶常カ絪﹚ユ硄ノ
RPVNMLKMQHLFFCQ17CA,丁琿,13.00,獶常カ笰穨跋 ; 獶常カ絪﹚ユ硄ノ
RPVNMLKMQHLFFCQ17CA,丁琿,18.00,獶常カ笰穨跋 ; 獶常カ絪﹚ユ硄ノ
RPVNMLKMQHLFFCQ17CA,丁琿,57.00,獶常カ疭﹚笰穨跋 ; 獶常カ絪﹚ユ硄ノ
RPWNMLKMQHLFFCQ27CA,丁琿,60.00,獶常カ疭﹚笰穨跋 ; 獶常カ絪﹚ユ硄ノ
RPXNMLKMQHLFFCQ37CA,丁琿,43.00,獶常カ秏跋 ; 獶常カ絪﹚ユ硄ノ
RPQNMLTLQHLFFBQ37CA,穝绍琿笰琿,1403.00,獶常カ疭﹚笰穨跋 ; 獶常カ絪﹚笰ノ
RPVNMLTLQHLFFBQ87CA,蛮瞇琿蛮瞇琿,1747.33,獶常カ疭﹚笰穨跋 ; 獶常カ絪﹚笰ノ
RPPNMLLMQHLFFBQ56CA,珼芖琿猀宾琿,2065.00,獶常カ疭﹚笰穨跋 ; 獶常カ絪﹚笰ノ
RPWNMLPJRHLFFBQ47CA,紈琿,4.00,常カ
RPWNMLPJRHLFFBQ47CA,紈琿,2.75,常カ
RPWNMLPJRHLFFBQ47CA,紈琿,79.24,常カ
RPWNMLPJRHLFFBQ47CA,紈琿,2.25,常カ
RPROMLPJRHLFFBQ07CA,古Φ琿,5.55,常カ坝
RPSNMLSJRHLFFBQ37CA,额畍琿额畍琿,1659.00,獶常カ疭﹚笰穨跋 ; 獶常カ絪﹚笰ノ
RPOOMLKMQHLFFCQ56CA,丁琿,102.00,獶常カ笰穨跋 ; 獶常カ絪﹚ユ硄ノ
RPOOMLKMQHLFFCQ56CA,丁琿,33.00,獶常カ疭﹚笰穨跋 ; 獶常カ絪﹚ユ硄ノ
RPUNMLKMQHLFFCQ07CA,丁琿,26.00,獶常カ疭﹚笰穨跋 ; 獶常カ絪﹚ユ硄ノ
RPUNMLKMQHLFFCQ07CA,丁琿,61.00,獶常カ疭﹚笰穨跋 ; 獶常カ絪﹚ユ硄ノ
RPRNMLNJRHLFFCQ86CA,褐玭琿,93.54,常カ
RPTNMLRJRHLFFCQ47CA,垫そ琿,11.00,獶常カ秏跋 ; 獶常カ絪﹚贺縱ノ
RPTNMLRJRHLFFCQ47CA,垫そ琿,21.00,獶常カ秏跋 ; 獶常カ絪﹚贺縱ノ
RPTNMLRJRHLFFCQ47CA,垫そ琿,261.00,獶常カ秏跋 ; 獶常カ絪﹚贺縱ノ
RPUNMLRJRHLFFCQ57CA,垫そ琿,111.00,獶常カ秏跋 ; 獶常カ絪﹚贺縱ノ
RPUNMLRJRHLFFCQ57CA,垫そ琿,23.27,獶常カ秏跋 ; 獶常カ絪﹚贺縱ノ
RPPNMLRJRHLFFCQ07CA,る兼琿兼琿,2000.00,獶常カ疭﹚笰穨跋 ; 獶常カ絪﹚笰ノ
RPTNMLMJRHLFFDQ17DA,㎝冻琿,90.21,獶常カ秏跋 ; 獶常カ絪﹚贺縱ノ
RPRNMLTJRHLFFEQ67CA,滦恔琿,100.00,獶常カ℡玂▅跋 ; 獶常カ絪﹚笰ノ
RPPNMLLJRHLFFEQ66CA,滦恔琿,5317.00,獶常カ℡玂▅跋 ; 獶常カ絪﹚笰ノ
RPUNMLQJRHLFFCQ57DA,丁琿,74.80,獶常カ秏跋 ; 獶常カ絪﹚贺縱ノ
RPUNMLQJRHLFFCQ57DA,丁琿,5.39,獶常カ秏跋 ; 獶常カ絪﹚贺縱ノ
RPUNMLQJRHLFFCQ57DA,狥打琿,3.12,獶常カ秏跋 ; 獶常カ絪﹚ユ硄ノ
RPQNMLMJRHLFFBQ66DA,畆琿玭畆琿,1244.00,獶常カ疭﹚笰穨跋 ; 獶常カ絪﹚笰ノ
RPSNMLMJRHLFFDQ96CA,瓾琿,6349.00,獶常カ疭﹚笰穨跋 ; 獶常カ絪﹚笰ノ
RPUNMLPJRHLFFDQ47CA,琿﹁琿,2133.00,獶常カ疭﹚笰穨跋 ; 獶常カ絪﹚笰ノ
RPVNMLPJRHLFFDQ57CA,匪瑆琿,94.00,獶常カ秏跋 ; 獶常カ絪﹚贺縱ノ
RPQNMLPJRHLFFDQ07CA,い绍琿,69.02,獶常カ秏跋 ; 獶常カ絪﹚贺縱ノ
RPPNMLLMQHLFFCQ66CA,チ笰琿,74.70,常カ
RPQNMLLJRHLFFCQ56CA,琱肪琿琱琿,1725.00,獶常カ疭﹚笰穨跋 ; 獶常カ絪﹚笰ノ
RPRNMLLJRHLFFCQ66CA,琱肪琿琱琿,930.00,獶常カ疭﹚笰穨跋 ; 獶常カ絪﹚笰ノ
RPPOMLNKRHLFFCQ86CA,翠﹁琿,67.00,常カ
RPPOMLNKRHLFFCQ86CA,翠﹁琿,21.00,常カ
RPQNMLOKRHLFFCQ96CA,穝翠琿褐紈琿,724.50,常カ笰
RPQNMLOKRHLFFCQ96CA,穝翠琿褐紈琿,724.50,常カ笰
RPSOMLPJRHLFFBQ17CA,鶣垫瓾琿ッ㎝琿,72.00,獶常カ疭﹚笰穨跋 ; 獶常カ絪﹚ヒ贺縱ノ
RPQNMLLJRHLFFEQ96EA,继攫￤琿,3080.00,獶常カ℡玂▅跋 ; 獶常カ絪﹚笰ノ
RPSNMLLLRHLFFCQ17EA,﹁绍琿﹁绍琿,1146.00,獶常カ疭﹚笰穨跋 ; 獶常カ絪﹚笰ノ
RPPNMLLLRHLFFCQ86EA,﹁绍琿﹁绍琿,2962.00,獶常カ疭﹚笰穨跋 ; 獶常カ絪﹚笰ノ
RPPNMLMJRHLFFEQ96EA,档冻琿,3194.08,獶常カ笰穨跋 ; 獶常カ絪﹚笰ノ
RPTNMLQJRHLFFBQ27CA,马琿,127.67,常カ
RPQNMLRJRHLFFBQ07CA,马琿,110.42,常カ
RPTNMLPJRHLFFBQ17CA,鞔躬琿,96.00,獶常カ秏跋 ; 獶常カ絪﹚贺縱ノ
RPRNMLMJRHLFFBQ66CA,榜繷琿榜玡琿,1230.00,獶常カ疭﹚笰穨跋 ; 獶常カ絪﹚笰ノ
RPWNMLOKRHLFFCQ57CA,砍琿,84.70,常カ
RPVNMLLJRHLFFCQ07CA,砍琿,98.88,常カ
RPPNMLPJRHLFFCQ86CA,チ琿,98.00,常カ
RPWNMLRLRHLFFCQ97CA,垫そ琿玶λ琿,76.00,獶常カ疭﹚笰穨跋 ; 獶常カ絪﹚ヒ贺縱ノ
RPWNMLRLRHLFFCQ97CA,垫そ琿玶λ琿,41.00,獶常カ疭﹚笰穨跋 ; 獶常カ絪﹚ヒ贺縱ノ
RPWNMLRLRHLFFCQ97CA,垫そ琿玶λ琿,126.00,獶常カ疭﹚笰穨跋 ; 獶常カ絪﹚ヒ贺縱ノ
RPRNMLNKRHLFFDQ07CA,盵郴琿,54.00,常カ
RPRNMLNKRHLFFDQ07CA,盵郴琿,377.00,常カ
RPQNMLNJRHLFFDQ86CA,穝盵琿,87.44,獶常カ秏跋 ; 獶常カ絪﹚贺縱ノ
RPQNMLNJRHLFFDQ86CA,穝盵琿,36.88,獶常カ秏跋 ; 獶常カ絪﹚贺縱ノ
RPOOMLQJRHLFFDQ07CA,瓾琿,1338.33,獶常カ℡玂▅跋 ; 獶常カ絪﹚笰ノ
RPOOMLQJRHLFFDQ07CA,瓾琿,1338.33,獶常カ℡玂▅跋 ; 獶常カ絪﹚笰ノ
RPOOMLQJRHLFFDQ07CA,瓾琿,1338.33,獶常カ℡玂▅跋 ; 獶常カ絪﹚笰ノ
RPPOMLQJRHLFFDQ17CA,瓾琿,985.00,獶常カ℡玂▅跋 ; 獶常カ絪﹚笰ノ
RPPOMLQJRHLFFDQ17CA,瓾琿,2500.00,獶常カ℡玂▅跋 ; 獶常カ絪﹚笰ノ
RPQOMLQJRHLFFDQ27CA,瓾琿,150.00,獶常カ℡玂▅跋 ; 獶常カ絪﹚贺縱ノ
RPQOMLQJRHLFFDQ27CA,瓾琿,2500.00,獶常カ℡玂▅跋 ; 獶常カ絪﹚笰ノ
RPROMLQJRHLFFDQ37CA,瓾琿,150.00,獶常カ℡玂▅跋 ; 獶常カ絪﹚贺縱ノ
RPROMLQJRHLFFDQ37CA,瓾琿,2500.00,獶常カ℡玂▅跋 ; 獶常カ絪﹚笰ノ
RPSOMLQJRHLFFDQ47CA,瓾琿,5000.00,獶常カ℡玂▅跋 ; 獶常カ絪﹚既ゼ絪﹚
RPSOMLQJRHLFFDQ47CA,瓾琿,5000.00,獶常カ℡玂▅跋 ; 獶常カ絪﹚既ゼ絪﹚
RPSOMLQJRHLFFDQ47CA,瓾琿,5000.00,獶常カ℡玂▅跋 ; 獶常カ絪﹚既ゼ絪﹚
RPPNMLPLRHLFFEQ27CA,滦恔琿,4133.00,獶常カ笰穨跋 ; 獶常カ絪﹚笰ノ
RPQNMLLMQHLFFEQ96CA,狜キ琿,3834.04,獶常カ笰穨跋 ; 獶常カ絪﹚笰ノ
RPSNMLLJRHLFFCQ96EA,爵繷琿爵繷琿,2613.00,獶常カ疭﹚笰穨跋 ; 獶常カ絪﹚笰ノ
RPTNMLLJRHLFFCQ07EA,爵繷琿爵繷琿,2090.00,獶常カ疭﹚笰穨跋 ; 獶常カ絪﹚笰ノ
RPUNMLLJRHLFFCQ17EA,墩琿墩琿,2551.00,獶常カ疭﹚笰穨跋 ; 獶常カ絪﹚笰ノ
RPUNMLLJRHLFFCQ17EA,墩琿墩琿,2678.00,獶常カ疭﹚笰穨跋 ; 獶常カ絪﹚笰ノ
RPRNMLPJRHLFFCQ27EA,猀竲琿,3243.00,獶常カ笰穨跋 ; 獶常カ絪﹚笰ノ
RPWNMLMJRHLFFDQ47DA,琿,157.90,獶常カ秏跋 ; 獶常カ絪﹚贺縱ノ
RPWNMLMJRHLFFDQ47DA,琿,150.64,獶常カ秏跋 ; 獶常カ絪﹚贺縱ノ
RPWNMLMJRHLFFDQ47DA,琿,157.90,獶常カ秏跋 ; 獶常カ絪﹚贺縱ノ
RPWNMLMJRHLFFDQ47DA,琿,54.78,獶常カ秏跋 ; 獶常カ絪﹚贺縱ノ
RPWNMLMJRHLFFDQ47DA,琿,19.80,獶常カ秏跋 ; 獶常カ絪﹚贺縱ノ
RPWNMLMJRHLFFDQ47DA,琿,7.26,獶常カ秏跋 ; 獶常カ絪﹚贺縱ノ
RPPNMLPJRHLFFDQ07DA,琿,28.39,常カ
RPWNMLLJRHLFFDQ37DA,筁肪琿筁肪琿,162.00,常カ
RPWNMLQJRHLFFDQ87DA,玭琿,85.24,常カ
RPSNMLNLRHLFFCQ27DA,ず狶琿ず狶琿,3.00,獶常カ疭﹚笰穨跋 ; 獶常カ絪﹚笰ノ
RPQNMLMJRHLFFEQ86CA,芖琿,1322.31,獶常カ笰穨跋 ; 獶常カ絪﹚笰ノ
RPRNMLKKRHLFFEQ86CA,纒泊狶琿,2030.00,獶常カ℡玂▅跋 ; 獶常カ絪﹚狶穨ノ
RPRNMLPKRHLFFEQ37CA,狶琿,118.00,獶常カ℡玂▅跋 ; 獶常カ絪﹚贺縱ノ
RPRNMLPKRHLFFEQ37CA,狶琿,15252.00,獶常カ℡玂▅跋 ; 獶常カ絪﹚笰ノ
RPRNMLPKRHLFFEQ37CA,狶琿,727.00,獶常カ℡玂▅跋 ; 獶常カ絪﹚贺縱ノ
RPPNMLPJRHLFFBQ86DA,ǎ纒琿,66.12,常カ
RPSNMLQJRHLFFBQ27DA,纒惦兼琿纒惦琿,1748.00,獶常カ疭﹚笰穨跋 ; 獶常カ絪﹚笰ノ
RPRNMLLKRHLFFCQ86DA,繷盵琿,274.96,獶常カ℡玂▅跋 ; 獶常カ絪﹚狶穨ノ
RPRNMLLLRHLFFBQ86DA,马琿,91.00,獶常カ疭﹚笰穨跋 ; 獶常カ絪﹚ヒ贺縱ノ
RPWNMLPJRHLFFDQ67CA,穝盵琿,7.04,獶常カ秏跋 ; 獶常カ絪﹚贺縱ノ
RPQNMLMJRHLFFDQ76CA,瓾琿,85.00,獶常カ秏跋 ; 獶常カ絪﹚贺縱ノ
RPPNMLRKRHLFFDQ27CA,榜秏琿,714.09,常カㄤ
RPPNMLRKRHLFFDQ27CA,榜秏琿,835.27,常カㄤ
RPQNMLRKRHLFFDQ37CA,い瓾琿,4137.00,獶常カ℡玂▅跋 ; 獶常カ絪﹚笰ノ
RPPNMLKLRHLFFDQ66CA,琱秏琿,148.78,獶常カ秏跋 ; 獶常カ絪﹚贺縱ノ
RPROMLPJRHLFFDQ27CA,兼琿兼琿,2867.00,獶常カ疭﹚笰穨跋 ; 獶常カ絪﹚笰ノ
RPTNMLQJRHLFFCQ37CA,チ玭琿,253.00,常カ笰
RPXNMLPJRHLFFBQ57CA,穝ネ琿,96.00,常カ
RPOOMLPJRHLFFBQ76CA,穝ネ琿,90.49,常カ
RPQOMLPJRHLFFBQ96CA,默琿,13.13,獶常カ秏跋 ; 獶常カ絪﹚贺縱ノ
RPQOMLPJRHLFFBQ96CA,默琿,43.93,獶常カ秏跋 ; 獶常カ絪﹚贺縱ノ
RPTNMLQLRHLFFBQ47CA,垫鏓鶶琿穝琿,2521.00,獶常カ笰穨跋 ; 獶常カ絪﹚笰ノ
RPTNMLQLRHLFFBQ47CA,琿,1194.46,獶常カ笰穨跋 ; 獶常カ絪﹚緄崔ノ
RPQNMLMKRHLFFEQ17EA,筁琿,155.00,獶常カ笰穨跋 ; 獶常カ絪﹚笰ノ
RPTNMLRJRHLFFBQ37CA,λ瞅琿ㄎポ琿,401.00,獶常カ疭﹚笰穨跋 ; 獶常カ絪﹚ヒ贺縱ノ
RPPNMLSKRHLFFBQ17CA,畆琿玭畆琿,2726.00,獶常カ疭﹚笰穨跋 ; 獶常カ絪﹚笰ノ
RPPNMLQJRHLFFBQ86CA,爵繷琿,69.37,獶常カ秏跋 ; 獶常カ絪﹚贺縱ノ
RPRNMLRJRHLFFBQ17CA,盵琿﹁盵琿,3190.00,獶常カ笰穨跋 ; 獶常カ絪﹚笰ノ
RPQNMLPJRHLFFBQ86CA,梖糳琿,113.00,獶常カ笰穨跋 ; 獶常カ絪﹚ノ
RPQNMLPJRHLFFBQ86CA,梖糳琿,122.00,獶常カ笰穨跋 ; 獶常カ絪﹚ノ
RPQNMLPJRHLFFBQ86CA,梖糳琿,1654.00,獶常カ笰穨跋 ; 獶常カ絪﹚緄崔ノ
RPRNMLQJRHLFFCQ17CA,﹁琿,98.00,獶常カ疭﹚笰穨跋 ; 獶常カ絪﹚ヒ贺縱ノ
RPSNMLQJRHLFFCQ27CA,い瑅琿,58.00,獶常カ秏跋 ; 獶常カ絪﹚贺縱ノ
RPUNMLSJRHLFFCQ67CA,そ堕琿,74.00,常カ
RPQNMLQKRHLFFCQ17CA,底瓾琿底瓾琿,5940.00,獶常カ疭﹚笰穨跋 ; 獶常カ絪﹚笰ノ
RPQNMLQKRHLFFCQ17CA,底瓾琿底瓾琿,5940.00,獶常カ疭﹚笰穨跋 ; 獶常カ絪﹚笰ノ
RPQNMLQKRHLFFCQ17CA,底瓾琿底瓾琿,4855.00,獶常カ疭﹚笰穨跋 ; 獶常カ絪﹚笰ノ
RPPNMLRKRHLFFCQ17CA,穝砍琿穝砍琿,1.59,常カ
RPQNMLRKRHLFFCQ27CA,穝砍琿穝砍琿,89.26,常カ
RPUNMLMKRHLFFCQ17CA,地琿,142.14,常カㄤ
RPUNMLMKRHLFFCQ17CA,地琿,792.18,常カ
RPUNMLMKRHLFFCQ17CA,地琿,603.00,常カ
RPUNMLMKRHLFFCQ17CA,地琿,165.00,常カ
RPTNMLRKRHLFFCQ57CA,チ琿,136.00,常カ
RPVNMLRJRHLFFDQ77CA,λ繷盩琿,13040.00,獶常カ℡玂▅跋 ; 獶常カ絪﹚狶穨ノ
RPVNMLRJRHLFFDQ77CA,λ繷盩琿,7228.00,獶常カ℡玂▅跋 ; 獶常カ絪﹚狶穨ノ
RPSNMLPJRHLFFDQ37DA,狥墩糳琿狥墩琿,1274.00,常カ
RPSNMLPJRHLFFDQ37DA,狥墩糳琿狥墩琿,7.00,常カ
RPSNMLPJRHLFFDQ37DA,狥墩糳琿狥墩琿,13.00,常カ坝
RPUNMLQJRHLFFDQ67DA,古穝琿,4.26,常カ
RPSNMLQJRHLFFDQ47DA,匪瑆琿匪瑆琿,94.00,常カ
RPPNMLRJRHLFFDQ27DA,兼琿兼琿,2327.00,獶常カ疭﹚笰穨跋 ; 獶常カ絪﹚笰ノ
RPSNMLTLRHLFFCQ87DA,い琿,32.15,獶常カ穨跋 ; 獶常カ絪﹚贺縱ノ
RPQNMLSJRHLFFCQ37DA,郴狶琿,1630.00,獶常カ笰穨跋 ; 獶常カ絪﹚笰ノ
RPQNMLSJRHLFFCQ37DA,郴狶琿,280.00,獶常カ笰穨跋 ; 獶常カ絪﹚ユ硄ノ
RPQNMLSJRHLFFCQ37DA,郴狶琿,7571.00,獶常カ笰穨跋 ; 獶常カ絪﹚笰ノ
RPQNMLQJRHLFFCQ17DA,猀竲琿,560.00,獶常カ笰穨跋 ; 獶常カ絪﹚笰ノ
RPRNMLQJRHLFFBQ17DA,马琿,112.00,常カ
RPRNMLQJRHLFFDQ27CA,璛肖庱琿琄痌琿,435.00,常カ
RPTNMLQJRHLFFDQ47CA,砍琿,57.00,常カ
RPTNMLQJRHLFFDQ47CA,砍琿,9.97,常カㄤ
RPSNMLTKRHLFFDQ77CA,陈糳琿,79.19,常カ
RPXNMLOKRHLFFDQ77CA,匪琿,4180.18,獶常カ笰穨跋 ; 獶常カ絪﹚笰ノ
RPOOMLOKRHLFFDQ96CA,琿,317.00,獶常カ秏跋 ; 獶常カ絪﹚贺縱ノ
RPRNMLSJRHLFFEQ57CA,纒泊狶琿,191.50,獶常カ春跋 ; 獶常カ絪﹚笰ノ
RPSNMLTJRHLFFCQ57CA,穝る兼琿,62.47,獶常カ秏跋 ; 獶常カ絪﹚贺縱ノ
RPTNMLTJRHLFFCQ67CA,穝る兼琿,96.62,獶常カ秏跋 ; 獶常カ絪﹚贺縱ノ
RPTNMLTJRHLFFCQ67CA,穝る兼琿,5.36,獶常カ秏跋 ; 獶常カ絪﹚贺縱ノ
RPWNMLNKRHLFFCQ47CA,き絓琿,152.85,常カ
RPVNMLSJRHLFFCQ77CA,匪琿匪琿,5162.00,獶常カ疭﹚笰穨跋 ; 獶常カ絪﹚笰ノ
RPSNMLRJRHLFFBQ27CA,紈琿,264.00,常カ
RPQNMLLKRHLFFBQ56CA,穝ネ琿,90.25,常カ
RPPNMLTLRHLFFBQ37CA,ず琿,26.69,常カ
RPPNMLTLRHLFFBQ37CA,ず琿,99.53,常カ
RPSNMLOJIILFFBQ78CA,默琿,88.04,獶常カ秏跋 ; 獶常カ絪﹚贺縱ノ
RPUNMLRJRHLFFEQ97EA,琿,204.00,獶常カ笰穨跋 ; 獶常カ絪﹚笰ノ
RPUNMLQLRHLFFBQ57CA,σ刚兼琿忱琿,2139.00,獶常カ笰穨跋 ; 獶常カ絪﹚笰ノ
RPRNMLMLRHLFFBQ86CA,鶤穧琿肪琿,3218.00,獶常カ疭﹚笰穨跋 ; 獶常カ絪﹚笰ノ
RPQNMLOKRHLFFBQ86CA,马琿,90.11,常カ
RPRNMLOKRHLFFBQ96CA,﹎糳琿﹎琿,2200.00,獶常カ疭﹚笰穨跋 ; 獶常カ絪﹚笰ノ
RPQNMLSJRHLFFBQ17CA,纍ダ糳琿狥琿,86.00,獶常カ疭﹚笰穨跋 ; 獶常カ絪﹚ヒ贺縱ノ
RPWNMLSJRHLFFBQ77CA,攫狶繷琿狶繷琿,1139.50,獶常カ笰穨跋 ; 獶常カ絪﹚笰ノ
RPPNMLRJRHLFFBQ96CA,確砍琿,2.99,常カ坝
RPPNMLRJRHLFFBQ96CA,確砍琿,.98,常カㄤ
RPPNMLRJRHLFFBQ96CA,確砍琿,19.10,常カ坝
RPRNMLTJRHLFFCQ47CA,褐贾琿,100.95,常カ
RPVNMLRJRHLFFCQ67CA,チゅ琿,64.70,常カ
RPPNMLSJRHLFFCQ17CA,繷爵琿穨琿,22.05,常カ
RPPNMLSJRHLFFCQ17CA,砍琿,.01,常カ
RPPNMLSJRHLFFCQ17CA,砍琿,2.86,常カ
RPPNMLKKRHLFFCQ09CA,い琿,46.00,獶常カ秏跋 ; 獶常カ絪﹚贺縱ノ
RPPNMLOKRHLFFCQ86CA,底瓾琿い㎝琿,177.52,獶常カ疭﹚笰穨跋 ; 獶常カ絪﹚ヒ贺縱ノ
RPPNMLOKRHLFFCQ86CA,底瓾琿い㎝琿,.54,獶常カ疭﹚笰穨跋 ; 獶常カ絪﹚ヒ贺縱ノ
RPSNMLSJRHLFFEQ67CA,ず聕琿,6.78,常カ
RPSNMLSJRHLFFEQ67CA,ず聕琿,.32,常カㄤ
RPUNMLSJRHLFFEQ87CA,ネを攫琿,96.50,獶常カ春跋 ; 獶常カ絪﹚笰ノ
RPUNMLSJRHLFFEQ87CA,ネを攫琿,107.00,獶常カ春跋 ; 獶常カ絪﹚笰ノ
RPSNMLNKRHLFFDQ17CA,订琿,160.05,獶常カ疭﹚笰穨跋 ; 獶常カ絪﹚ヒ贺縱ノ
RPSNMLNKRHLFFDQ17CA,订琿,479.07,獶常カ疭﹚笰穨跋 ; 獶常カ絪﹚ヒ贺縱ノ
RPSNMLNKRHLFFDQ17CA,订琿,539.01,獶常カ疭﹚笰穨跋 ; 獶常カ絪﹚笰ノ
RPSNMLKLRHLFFDQ96CA,郴兼琿,2294.67,獶常カ笰穨跋 ; 獶常カ絪﹚笰ノ
RPSNMLKLRHLFFDQ96CA,郴兼琿,59.00,獶常カ笰穨跋 ; 獶常カ絪﹚ノ
RPPNMLLKRHLFFDQ66CA,穝盵琿,88.70,獶常カ秏跋 ; 獶常カ絪﹚贺縱ノ
RPPNMLLKRHLFFDQ66CA,穝盵琿,36.88,獶常カ秏跋 ; 獶常カ絪﹚贺縱ノ
RPXNMLTLRHLFFDQ38CA,郴翠醂琿,5.95,獶常カ秏跋 ; 獶常カ絪﹚贺縱ノ
RPXNMLTLRHLFFDQ38CA,郴翠醂琿,1.79,獶常カ秏跋 ; 獶常カ絪﹚贺縱ノ
RPRNMLNJIILFFDQ78CA,い砍琿,83.87,常カ
RPQNMLRJRHLFFDQ27CA,穝盵琿,257.73,獶常カ秏跋 ; 獶常カ絪﹚贺縱ノ
RPQNMLRJRHLFFDQ27CA,穝盵琿,257.73,獶常カ秏跋 ; 獶常カ絪﹚贺縱ノ
RPSNMLRJRHLFFDQ47CA,郴兼琿郴兼琿,1233.00,獶常カ疭﹚笰穨跋 ; 獶常カ絪﹚笰ノ
RPRNMLSJRHLFFBQ37DA,狶ず琿狶琿,1914.00,獶常カ疭﹚笰穨跋 ; 獶常カ絪﹚笰ノ
RPQNMLLLRHLFFEQ96CA,芖琿,23.16,獶常カ笰穨跋 ; 獶常カ絪﹚ヒ贺縱ノ
RPQNMLLLRHLFFEQ96CA,芖琿,6.45,獶常カ笰穨跋 ; 獶常カ絪﹚ヒ贺縱ノ
RPQNMLLLRHLFFEQ96CA,芖琿,2.49,獶常カ笰穨跋 ; 獶常カ絪﹚ヒ贺縱ノ
RPQNMLLLRHLFFEQ96CA,芖琿,135.82,獶常カ笰穨跋 ; 獶常カ絪﹚ヒ贺縱ノ
RPPNMLMKRHLFFEQ86CA,宾狥琿,39.00,常カ
RPTNMLNKRHLFFDQ37DA,盩繷琿盩繷琿,8.00,常カ
RPTNMLNKRHLFFDQ37DA,盩繷琿盩繷琿,66.00,常カ
RPPNMLKLRHLFFCQ76EA,繷琿,3478.82,獶常カ疭﹚笰穨跋 ; 獶常カ絪﹚笰ノ
RPPNMLTJRHLFFCQ47EA,┍琿砍い琿,2094.00,常カ笰
RPRNMLRJRHLFFDQ47DA,琱秏琿,2355.10,獶常カ笰穨跋 ; 獶常カ絪﹚笰ノ
RPRNMLTJRHLFFDQ67DA,﹁琿,863.35,常カ
RPSNMLTJRHLFFEQ77CA,罷哼打琿,390.00,獶常カ℡玂▅跋 ; 獶常カ絪﹚贺縱ノ
RPPNMLPKRHLFFEQ17CA,き丁琿,98.82,獶常カ笰穨跋 ; 獶常カ絪﹚ヒ贺縱ノ
RPRNMLKKRHLFFBQ66DA,芖玭琿,344.79,獶常カ秏跋 ; 獶常カ絪﹚贺縱ノ
RPQNMLSJRHLFFDQ37CA,砍琿,74.92,常カ
RPPNMLQLRHLFFCQ17CA,伦Μ琿,46.02,常カ
RPPNMLQLRHLFFCQ17CA,伦Μ琿,66.57,常カ
RPVNMLTJRHLFFCQ87CA,琿,23934.19,獶常カ穨跋 ; 獶常カ絪﹚贺縱ノ
RPQNMLTJRHLFFCQ37CA,盩竲琿盩竲琿,79.00,常カ笰
RPXNMLSJRHLFFBQ87CA,马琿,118.00,常カ
RPPNMLTJRHLFFBQ17CA,繷λ瞅琿λ瞅琿,1308.03,獶常カ秏跋 ; 獶常カ絪﹚贺縱ノ
RPTNMLSJRHLFFBQ47CA,郴触糳琿,1362.63,獶常カ笰穨跋 ; 獶常カ絪﹚笰ノ
RPUNMLSJRHLFFBQ57CA,肧翠琿,837.15,獶常カ疭﹚盡ノ跋 ; 獶常カ絪﹚笰ノ
RPPNMLMKRHLFFBQ56CA,─竲琿,12.95,常カ
RPPNMLKKRHLFFBQ98CA,穝玭琿,1502.96,獶常カ疭﹚盡ノ跋 ; 獶常カ絪﹚緄崔ノ
RPPNMLKKRHLFFBQ98CA,穝玭琿,29.06,獶常カ疭﹚盡ノ跋 ; 獶常カ絪﹚緄崔ノ
RPPNMLKKRHLFFBQ98CA,穝玭琿,1311.02,獶常カ疭﹚盡ノ跋 ; 獶常カ絪﹚緄崔ノ
RPWNMLTJRHLFFCQ97CA,狶玡琿㎝琿,3263.00,獶常カ疭﹚笰穨跋 ; 獶常カ絪﹚笰ノ
RPUNMLTJRHLFFCQ77CA,穝瓾琿,3396.43,獶常カ笰穨跋 ; 獶常カ絪﹚笰ノ
RPQNMLMKRHLFFCQ76CA,狥打琿,98.41,獶常カ秏跋 ; 獶常カ絪﹚贺縱ノ
RPTNMLRLRHLFFCQ67CA,竡砍琿,74.10,常カ笰
RPPOMLQJIILFFCQ88CA,砍琿,80.58,常カ
RPSNMLMKRHLFFDQ07CA,㎝匪琿,72.35,獶常カ疭﹚笰穨跋 ; 獶常カ絪﹚ヒ贺縱ノ
RPQNMLTJRHLFFDQ47CA,匪瑆琿匪瑆琿,89.50,常カ
RPTNMLKLRHLFFDQ07CA,琿﹁琿,1122.00,獶常カ疭﹚笰穨跋 ; 獶常カ絪﹚笰ノ
RPTNMLKLRHLFFDQ07CA,琿﹁琿,1304.00,獶常カ疭﹚笰穨跋 ; 獶常カ絪﹚笰ノ
RPOOMLKLRHLFFDQ66CA,臔ネ琿,4199.67,獶常カ疭﹚笰穨跋 ; 獶常カ絪﹚笰ノ
RPVNMLOJIILFFDQ66CA,古び琿,23.64,常カ
RPVNMLOJIILFFDQ66CA,古び琿,78.00,常カ
RPVNMLOJIILFFDQ66CA,古び琿,.28,常カ
RPQNMLKKRHLFFBQ56DA,せゆЮ琿せゆ琿,966.00,獶常カ疭﹚笰穨跋 ; 獶常カ絪﹚笰ノ
RPRNMLKLRHLFFEQ96CA,礷隔琿,102.00,獶常カ笰穨跋 ; 獶常カ絪﹚贺縱ノ
RPPNMLKKRHLFFEQ86EA,ず瓾琿,5143.00,獶常カ℡玂▅跋 ; 獶常カ絪﹚笰ノ
RPQNMLKKRHLFFEQ96EA,芖琿,81.99,獶常カ秏跋 ; 獶常カ絪﹚贺縱ノ
RPQNMLNKRHLFFEQ27EA,ず聕琿,180.00,獶常カ笰穨跋 ; 獶常カ絪﹚笰ノ
RPQNMLNKRHLFFEQ27EA,ず聕琿,17.00,獶常カ笰穨跋 ; 獶常カ絪﹚笰ノ
RPPNMLRJIILFFEQ09CA,宾玭琿,74.00,常カ
RPQNMLPKRHLFFEQ27CA,宾狥琿,72.00,常カ
RPSNMLNKRHLFFBQ07DA,兼醂琿兼醂琿,2602.00,獶常カ疭﹚笰穨跋 ; 獶常カ絪﹚笰ノ
RPQNMLKKRHLFFCQ66DA,穝砍琿穝砍琿,19.42,常カ
RPQNMLKKRHLFFCQ66DA,穝砍琿穝砍琿,93.50,常カ
RPXNMLOKRHLFFCQ77DA,褐贾琿,59.58,常カ坝
RPTNMLNKRHLFFCQ37EA,伦Μ琿,12.52,獶常カ秏跋 ; 獶常カ絪﹚贺縱ノ
RPWNMLOJIILFFDQ76CA,古び琿,23.64,常カ
RPWNMLOJIILFFDQ76CA,古び琿,76.50,常カ
RPWNMLOJIILFFDQ76CA,古び琿,.28,常カ
RPXNMLOJIILFFDQ86CA,古び琿,23.64,常カ
RPXNMLOJIILFFDQ86CA,古び琿,75.09,常カ
RPXNMLOJIILFFDQ86CA,古び琿,.28,常カ
RPOOMLOJIILFFDQ68CA,古び琿,23.64,常カ
RPOOMLOJIILFFDQ68CA,古び琿,105.72,常カ
RPOOMLOJIILFFDQ68CA,古び琿,.28,常カ
RPRNMLMLRHLFFDQ07CA,糴琿,67.97,獶常カ秏跋 ; 獶常カ絪﹚贺縱ノ
RPUNMLOKRHLFFDQ47CA,订琿,104.31,獶常カ疭﹚笰穨跋 ; 獶常カ絪﹚ヒ贺縱ノ
RPRNMLKKRHLFFDQ76CA,琿纒紈琿,1660.00,獶常カ疭﹚笰穨跋 ; 獶常カ絪﹚笰ノ
RPTNMLPJIILFFCQ09CA,砍琿,.74,常カ
RPTNMLPJIILFFCQ09CA,砍琿,28.90,常カ
RPTNMLQJIILFFCQ56CA,き絓琿,124.30,常カ
RPWNMLMKRHLFFCQ37CA,╭狶琿,197.64,獶常カ笰穨跋 ; 獶常カ絪﹚ヒ贺縱ノ
RPXNMLMKRHLFFCQ47CA,╭狶琿,133.29,獶常カ笰穨跋 ; 獶常カ絪﹚ヒ贺縱ノ
RPOOMLMKRHLFFCQ66CA,╭狶琿,127.98,獶常カ笰穨跋 ; 獶常カ絪﹚ヒ贺縱ノ
RPPOMLMKRHLFFCQ76CA,╭狶琿,133.34,獶常カ笰穨跋 ; 獶常カ絪﹚ヒ贺縱ノ
RPRNMLNKRHLFFCQ96CA,╭狶琿,133.24,獶常カ笰穨跋 ; 獶常カ絪﹚ヒ贺縱ノ
RPSNMLOKRHLFFCQ17CA,╭狶琿,132.97,獶常カ笰穨跋 ; 獶常カ絪﹚ヒ贺縱ノ
RPTNMLOKRHLFFCQ27CA,╭狶琿,130.68,獶常カ笰穨跋 ; 獶常カ絪﹚ヒ贺縱ノ
RPUNMLOKRHLFFCQ37CA,╭狶琿,132.89,獶常カ笰穨跋 ; 獶常カ絪﹚ヒ贺縱ノ
RPSOMLNKRHLFFCQ17CA,兼醂琿兼琿,1383.50,獶常カ疭﹚笰穨跋 ; 獶常カ絪﹚笰ノ
RPUNMLTKRHLFFBQ77CA,珼芖琿猀宾琿,9.97,獶常カ秏跋 ; 獶常カ絪﹚贺縱ノ
RPVNMLQLRHLFFBQ67CA,ッ琿,111.74,常カ坝
RPWNMLQLRHLFFBQ77CA,纒琿,8893.02,獶常カ疭﹚盡ノ跋 ; 獶常カ絪﹚緄崔ノ
RPWNMLQLRHLFFBQ77CA,纒琿,4152.73,獶常カ疭﹚盡ノ跋 ; 獶常カ絪﹚緄崔ノ
RPTNMLTKRHLFFBQ67CA,蛮瞇琿蛮瞇琿,2850.00,獶常カ疭﹚笰穨跋 ; 獶常カ絪﹚笰ノ
RPQNMLNKRHLFFBQ76CA,蛮瞇琿,181.37,獶常カ笰穨跋 ; 獶常カ絪﹚笰ノ
RPQNMLNKRHLFFBQ76CA,蛮瞇琿,351.67,獶常カ笰穨跋 ; 獶常カ絪﹚笰ノ
RPQNMLNKRHLFFBQ76CA,蛮瞇琿,142.59,獶常カ秏跋 ; 獶常カ絪﹚贺縱ノ
RPPNMLLKRHLFFBQ09CA,马琿马琿,1261.00,獶常カ疭﹚笰穨跋 ; 獶常カ絪﹚笰ノ
RPTOMLNKRHLFFCQ27CA,兼醂琿兼琿,4800.00,獶常カ疭﹚笰穨跋 ; 獶常カ絪﹚笰ノ
RPQOMLMKRHLFFCQ86CA,╭狶琿,133.39,獶常カ笰穨跋 ; 獶常カ絪﹚ヒ贺縱ノ
RPROMLMKRHLFFCQ96CA,╭狶琿,128.21,獶常カ笰穨跋 ; 獶常カ絪﹚ヒ贺縱ノ
RPPNMLNKRHLFFCQ76CA,╭狶琿,126.76,獶常カ笰穨跋 ; 獶常カ絪﹚ヒ贺縱ノ
RPQNMLNKRHLFFCQ86CA,╭狶琿,146.00,獶常カ笰穨跋 ; 獶常カ絪﹚ヒ贺縱ノ
RPVNMLMKRHLFFCQ27CA,狾繷琿,3750.00,獶常カ疭﹚笰穨跋 ; 獶常カ絪﹚笰ノ
RPSNMLOJIILFFCQ88CA,狥打琿,90.57,獶常カ疭﹚笰穨跋 ; 獶常カ絪﹚ヒ贺縱ノ
RPVNMLTKRHLFFCQ97CA,狥篴琿,125.00,常カ
RPQNMLLJIILFFCQ38CA,伦琿伦琿,3300.00,獶常カ疭﹚笰穨跋 ; 獶常カ絪﹚笰ノ
RPUNMLRJIILFFCQ76CA,ゆ琿,81.48,常カ
RPVNMLRJIILFFCQ86CA,ゆ琿,82.09,常カ
RPWNMLRJIILFFCQ96CA,ゆ琿,84.08,常カ
RPXNMLRJIILFFCQ07CA,ゆ琿,81.29,常カ
RPPNMLLLRHLFFDQ76CA,琱穝琿,136.94,獶常カ秏跋 ; 獶常カ絪﹚贺縱ノ
RPPNMLLJIILFFDQ38CA,㎝砍琿,63.38,獶常カ秏跋 ; 獶常カ絪﹚贺縱ノ
RPUNMLNKRHLFFCQ47EA,琱肪琿琱琿,5582.86,獶常カ疭﹚笰穨跋 ; 獶常カ絪﹚笰ノ
RPRNMLMKRHLFFCQ07EA,穝砍琿穝砍琿,82.87,常カ
RPSNMLNKRHLFFCQ27EA,琱肪琿琱琿,4187.14,獶常カ疭﹚笰穨跋 ; 獶常カ絪﹚笰ノ
RPQNMLMKRHLFFDQ96DA,糳穝琿,10.82,常カ
RPQNMLMKRHLFFDQ96DA,糳穝琿,16.58,常カ
RPQNMLNKRHLFFDQ07DA,琧琿,2156.00,獶常カ℡玂▅跋 ; 獶常カ絪﹚笰ノ
RPOOMLNKRHLFFCQ86DA,﹁挡琿,1411.57,獶常カ疭﹚笰穨跋 ; 獶常カ絪﹚ノ
RPRNMLOKRHLFFCQ17DA,╭狶琿,157.18,獶常カ秏跋 ; 獶常カ絪﹚贺縱ノ
RPPNMLOKRHLFFEQ07CA,贾偿琿,4257.00,獶常カ℡玂▅跋 ; 獶常カ絪﹚狶穨ノ
RPSNMLQLRHLFFEQ67CA,そバ琿,689.00,獶常カ此狶跋 ; 獶常カ絪﹚笰ノ
RPRNMLPLRHLFFEQ47CA,纒泊狶琿,86.75,獶常カ℡玂▅跋 ; 獶常カ絪﹚贺縱ノ
RPRNMLPLRHLFFEQ47CA,纒泊狶琿,70.75,獶常カ℡玂▅跋 ; 獶常カ絪﹚笰ノ
RPPNMLNKRHLFFEQ17EA,打琿,460.67,獶常カ此狶跋 ; 獶常カ絪﹚笰ノ
RPPNMLNKRHLFFEQ17EA,打琿,460.67,獶常カ此狶跋 ; 獶常カ絪﹚笰ノ
RPPNMLNKRHLFFEQ17EA,打琿,460.67,獶常カ此狶跋 ; 獶常カ絪﹚笰ノ
RPPNMLNKRHLFFEQ17EA,打琿,2735.33,獶常カ此狶跋 ; 獶常カ絪﹚笰ノ
RPPNMLNKRHLFFEQ17EA,打琿,2735.33,獶常カ此狶跋 ; 獶常カ絪﹚笰ノ
RPPNMLNKRHLFFEQ17EA,打琿,2735.33,獶常カ此狶跋 ; 獶常カ絪﹚笰ノ
RPPNMLNKRHLFFEQ17EA,打琿,1818.33,獶常カ此狶跋 ; 獶常カ絪﹚笰ノ
RPPNMLNKRHLFFEQ17EA,打琿,1818.33,獶常カ此狶跋 ; 獶常カ絪﹚笰ノ
RPPNMLNKRHLFFEQ17EA,打琿,1818.33,獶常カ此狶跋 ; 獶常カ絪﹚笰ノ
RPPNMLNKRHLFFEQ17EA,打琿,906.67,獶常カ此狶跋 ; 獶常カ絪﹚笰ノ
RPPNMLNKRHLFFEQ17EA,打琿,906.67,獶常カ此狶跋 ; 獶常カ絪﹚笰ノ
RPPNMLNKRHLFFEQ17EA,打琿,906.67,獶常カ此狶跋 ; 獶常カ絪﹚笰ノ
RPPNMLNKRHLFFEQ17EA,打琿,1130.00,獶常カ此狶跋 ; 獶常カ絪﹚笰ノ
RPPNMLNKRHLFFEQ17EA,打琿,1130.00,獶常カ此狶跋 ; 獶常カ絪﹚笰ノ
RPPNMLNKRHLFFEQ17EA,打琿,1130.00,獶常カ此狶跋 ; 獶常カ絪﹚笰ノ
RPPNMLNKRHLFFEQ17EA,打琿,2272.67,獶常カ此狶跋 ; 獶常カ絪﹚笰ノ
RPPNMLNKRHLFFEQ17EA,打琿,2272.67,獶常カ此狶跋 ; 獶常カ絪﹚笰ノ
RPPNMLNKRHLFFEQ17EA,打琿,2272.67,獶常カ此狶跋 ; 獶常カ絪﹚笰ノ
RPPNMLNKRHLFFEQ17EA,打琿,2215.67,獶常カ此狶跋 ; 獶常カ絪﹚笰ノ
RPPNMLNKRHLFFEQ17EA,打琿,2215.67,獶常カ此狶跋 ; 獶常カ絪﹚笰ノ
RPPNMLNKRHLFFEQ17EA,打琿,2215.67,獶常カ此狶跋 ; 獶常カ絪﹚笰ノ
RPQNMLOKRHLFFEQ17CA,宾琿,285.04,常カ
RPSNMLKMRHLFFDQ17DA,﹁琿,95.52,常カ
RPSNMLKMRHLFFDQ17DA,﹁琿,8.07,常カ
RPSNMLKMRHLFFDQ17DA,﹁琿,19.86,常カ
RPSNMLKMRHLFFDQ17DA,﹁琿,20.74,常カㄤ
RPRNMLMKRHLFFDQ07DA,兼琿兼琿,1996.00,獶常カ疭﹚笰穨跋 ; 獶常カ絪﹚笰ノ
RPRNMLMKRHLFFDQ07DA,兼琿兼琿,3167.00,獶常カ疭﹚笰穨跋 ; 獶常カ絪﹚笰ノ
RPQNMLTKRHLFFCQ67EA,盵郴琿,2550.00,獶常カ疭﹚笰穨跋 ; 獶常カ絪﹚笰ノ
RPRNMLTKRHLFFCQ77EA,盵郴琿,3049.00,獶常カ疭﹚笰穨跋 ; 獶常カ絪﹚笰ノ
RPWNMLTLRHLFFDQ28CA,郴翠醂琿,5.95,獶常カ秏跋 ; 獶常カ絪﹚贺縱ノ
RPWNMLTLRHLFFDQ28CA,郴翠醂琿,1.79,獶常カ秏跋 ; 獶常カ絪﹚贺縱ノ
RPPNMLMKRHLFFDQ76CA,陈ě┍琿陈琿,2108.00,獶常カ疭﹚笰穨跋 ; 獶常カ絪﹚笰ノ
RPWNMLRJIILFFDQ07CA,穝琿,20.50,常カ
RPWNMLRJIILFFDQ07CA,穝琿,84.16,常カ
RPWNMLRJIILFFDQ07CA,穝琿,.43,常カ
RPUNMLTLRHLFFCQ97CA,ゆ琿,75.04,常カ
RPRNMLQKRHLFFCQ27CA,打琿,2500.00,獶常カ疭﹚笰穨跋 ; 獶常カ絪﹚笰ノ
RPVNMLNKRHLFFCQ37CA,盩竲琿,17.04,常カㄤ
RPVNMLNKRHLFFCQ37CA,盩竲琿盩竲琿,374.73,常カ笰
RPVNMLNKRHLFFCQ37CA,盩竲琿盩竲琿,1.43,常カㄤ
RPVNMLNKRHLFFCQ37CA,盩竲琿盩竲琿,5.33,常カㄤ
RPVNMLNKRHLFFCQ37CA,ゆ琿,.46,常カ
RPVNMLNKRHLFFCQ37CA,ゆ琿,99.09,常カ
RPRNMLNKRHLFFBQ86CA,べ繷琿,1297.28,獶常カ笰穨跋 ; 獶常カ絪﹚ノ
RPTNMLNKRHLFFBQ07CA,ず琿,104.35,常カ
RPTNMLNKRHLFFBQ07CA,ず琿,26.69,常カ
RPPNMLNKRHLFFBQ66CA,鞔躬琿,99.00,獶常カ秏跋 ; 獶常カ絪﹚贺縱ノ
RPPNMLMJIILFFBQ28CA,珼芖琿猀宾琿,2453.00,獶常カ疭﹚笰穨跋 ; 獶常カ絪﹚笰ノ
RPRNMLLJIILFFCQ48CA,ゆ琿,57.20,常カ
RPRNMLLJIILFFCQ48CA,ゆ琿,9.07,常カ
RPQOMLNJIILFFCQ68CA,肪璉琿肪璉琿,179.00,獶常カ ; 獶常カ絪﹚
RPSPMLNJIILFFCQ98CA,褐贾琿,570.50,常カ
RPTOMLQJIILFFCQ66CA,﹁琿,4.00,常カ
RPXNMLRJIILFFDQ17CA,㎝匪琿,79.72,獶常カ疭﹚笰穨跋 ; 獶常カ絪﹚ヒ贺縱ノ
RPWNMLOKRHLFFDQ67CA,琿,2851.00,獶常カ℡玂▅跋 ; 獶常カ絪﹚笰ノ
RPXNMLKLRHLFFDQ47CA,糳琿糳琿,859.00,獶常カ疭﹚笰穨跋 ; 獶常カ絪﹚笰ノ
RPWNMLQJIILFFDQ96CA,古穝琿,22.43,常カ
RPQNMLPLRHLFFEQ37CA,纒泊狶琿,3844.50,獶常カ℡玂▅跋 ; 獶常カ絪﹚狶穨ノ
RPPNMLTKRHLFFDQ57DA,㎝冻琿,70.48,獶常カ秏跋 ; 獶常カ絪﹚贺縱ノ
RPQNMLLJIILFFDQ48CA,㎝冻琿,46.26,獶常カ秏跋 ; 獶常カ絪﹚贺縱ノ
RPQNMLLJIILFFDQ48CA,㎝冻琿,82.81,獶常カ秏跋 ; 獶常カ絪﹚贺縱ノ
RPQNMLLJIILFFDQ48CA,㎝冻琿,5.65,獶常カ秏跋 ; 獶常カ絪﹚贺縱ノ
RPPNMLMLRHLFFDQ86CA,庱琿,704.00,獶常カ℡玂▅跋 ; 獶常カ絪﹚疭﹚ヘㄆ穨ノ
RPPNMLOJIILFFCQ58CA,褐砍琿,632.99,獶常カ疭﹚笰穨跋 ; 獶常カ絪﹚笰ノ
RPPNMLTKRHLFFCQ37CA,褐贾琿,58.30,常カ
RPQNMLTKRHLFFBQ37CA,翠琿,4.50,獶常カ疭﹚盡ノ跋 ; 獶常カ絪﹚ノ
RPQNMLTKRHLFFBQ37CA,翠琿,9.93,獶常カ疭﹚盡ノ跋 ; 獶常カ絪﹚緄崔ノ
RPQNMLTKRHLFFBQ37CA,翠琿,72.89,獶常カ疭﹚盡ノ跋 ; 獶常カ絪﹚緄崔ノ
RPQNMLTKRHLFFBQ37CA,翠琿,2670.15,獶常カ疭﹚盡ノ跋 ; 獶常カ絪﹚緄崔ノ
RPQNMLTKRHLFFBQ37CA,翠琿,210.94,獶常カ疭﹚盡ノ跋 ; 獶常カ絪﹚緄崔ノ
RPSNMLTKRHLFFBQ57CA,翠琿,14.22,獶常カ疭﹚盡ノ跋 ; 獶常カ絪﹚緄崔ノ
RPSNMLTKRHLFFBQ57CA,翠琿,104.45,獶常カ疭﹚盡ノ跋 ; 獶常カ絪﹚緄崔ノ
RPSNMLTKRHLFFBQ57CA,翠琿,3813.95,獶常カ疭﹚盡ノ跋 ; 獶常カ絪﹚緄崔ノ
RPTNMLLLRHLFFBQ96CA,─竲琿,144.94,常カ
RPSNMLNLRHLFFBQ07CA,瓾琿瓾琿,1938.00,獶常カ笰穨跋 ; 獶常カ絪﹚笰ノ
RPPNMLKLRHLFFBQ09CA,せ琿,180.01,常カ坝
RPQNMLKLRHLFFBQ56CA,珼芖琿猀地琿,1835.00,獶常カ疭﹚笰穨跋 ; 獶常カ絪﹚笰ノ
RPRNMLKLRHLFFBQ66CA,─竲琿,150.50,常カ
RPSNMLLLRHLFFBQ86CA,ǎ纒琿,92.67,常カ
RPTNMLKLRHLFFCQ96CA,狶繷琿狶繷琿,2231.00,獶常カ疭﹚笰穨跋 ; 獶常カ絪﹚笰ノ
RPUNMLRLRHLFFCQ77CA,せ砍琿,2428.55,獶常カ笰穨跋 ; 獶常カ絪﹚笰ノ
RPVNMLRLRHLFFCQ87CA,せ砍琿,104.18,獶常カ笰穨跋 ; 獶常カ絪﹚ノ
RPUNMLOJIILFFDQ56CA,玭琿,126.87,常カ
RPUNMLOJIILFFDQ56CA,玭琿,2.48,常カ
RPUNMLOJIILFFDQ56CA,玭琿,19.84,常カㄤ
RPQNMLKLRHLFFDQ86DA,不㎝琿,44.87,常カ
RPQNMLKLRHLFFDQ86DA,不㎝琿,5.90,常カ
RPQNMLNLRHLFFDQ17DA,穝榜琿穝榜琿,3774.00,獶常カ疭﹚笰穨跋 ; 獶常カ絪﹚笰ノ
RPPNMLRLRHLFFDQ47DA,彩匪琿彩匪琿,238.33,獶常カ疭﹚笰穨跋 ; 獶常カ絪﹚笰ノ
RPPNMLRLRHLFFDQ47DA,彩匪琿彩匪琿,3.67,獶常カ疭﹚笰穨跋 ; 獶常カ絪﹚笰ノ
RPRNMLMLRHLFFEQ17CA,そバ琿,23.83,獶常カ℡玂▅跋 ; 獶常カ絪﹚贺縱ノ
RPPNMLMLRHLFFBQ76DA,爵繷琿,10.58,獶常カ秏跋 ; 獶常カ絪﹚贺縱ノ
RPPNMLMLRHLFFBQ76DA,爵繷琿,50.19,獶常カ秏跋 ; 獶常カ絪﹚贺縱ノ
RPQNMLMLRHLFFBQ86DA,匪醂琿タ竡琿,1590.00,獶常カ疭﹚笰穨跋 ; 獶常カ絪﹚笰ノ
RPTNMLNLRHLFFBQ27DA,兼醂琿兼琿,166.67,獶常カ疭﹚笰穨跋 ; 獶常カ絪﹚笰ノ
RPTNMLNLRHLFFBQ27DA,兼醂琿兼琿,915.00,獶常カ疭﹚笰穨跋 ; 獶常カ絪﹚笰ノ
RPTNMLNLRHLFFBQ27DA,匪醂琿,48.00,獶常カ笰穨跋 ; 獶常カ絪﹚笰ノ
RPUNMLNLRHLFFBQ37DA,匪醂琿,2185.00,獶常カ笰穨跋 ; 獶常カ絪﹚笰ノ
RPPNMLKLRHLFFEQ96EA,ニ瓾琿,325.00,獶常カ℡玂▅跋 ; 獶常カ絪﹚笰ノ
RPQNMLKLRHLFFEQ07EA,礷隔琿,3596.00,獶常カ笰穨跋 ; 獶常カ絪﹚笰ノ
RPPNMLLLRHLFFEQ07EA,滦恔琿,1856.00,獶常カ℡玂▅跋 ; 獶常カ絪﹚笰ノ
RPRNMLNLRHLFFBQ07DA,せゆЮ琿せゆ琿,96.00,獶常カ疭﹚笰穨跋 ; 獶常カ絪﹚ヒ贺縱ノ
RPSNMLPLRHLFFEQ57CA,宾琿,92.50,常カ
RPTNMLPLRHLFFEQ67CA,宾琿,119.00,常カ
RPPNMLNLRHLFFDQ07DA,バЮ琿バЮ琿,2077.00,獶常カ疭﹚笰穨跋 ; 獶常カ絪﹚笰ノ
RPVNMLTLRHLFFCQ28EA,㎝琿,13.55,常カㄤ
RPVNMLTLRHLFFCQ28EA,㎝琿,.68,常カㄤ
RPVNMLTLRHLFFCQ28EA,㎝琿,263.02,常カ
RPOOMLRJIILFFDQ98CA,く琿,132.03,獶常カ秏跋 ; 獶常カ絪﹚贺縱ノ
RPUNMLMKIILFFDQ09CA,盵琿购琿,1739.00,獶常カ疭﹚笰穨跋 ; 獶常カ絪﹚笰ノ
RPUNMLMKIILFFDQ09CA,盵琿购琿,1682.00,獶常カ疭﹚笰穨跋 ; 獶常カ絪﹚笰ノ
RPOOMLKMRHLFFCQ66CA,チ砍琿,124.42,常カ
RPOOMLKMRHLFFCQ66CA,チ砍琿,17.43,常カ
RPPOMLKMRHLFFCQ76CA,チ砍琿,98.50,常カ
RPPOMLKMRHLFFCQ76CA,チ砍琿,17.43,常カ
RPROMLKMRHLFFCQ96CA,チ砍琿,98.50,常カ
RPROMLKMRHLFFCQ96CA,チ砍琿,17.43,常カ
RPSOMLKMRHLFFCQ07CA,チ砍琿,98.50,常カ
RPSOMLKMRHLFFCQ07CA,チ砍琿,17.43,常カ
RPTOMLKMRHLFFCQ17CA,チ砍琿,98.50,常カ
RPTOMLKMRHLFFCQ17CA,チ砍琿,17.43,常カ
RPUOMLKMRHLFFCQ27CA,チ砍琿,98.50,常カ
RPUOMLKMRHLFFCQ27CA,チ砍琿,17.43,常カ
RPOPMLNJIILFFCQ58CA,チ砍琿,98.50,常カ
RPOPMLNJIILFFCQ58CA,チ砍琿,17.43,常カ
RPVNMLQJIILFFCQ76CA,﹁绍琿﹁绍琿,1302.00,獶常カ疭﹚笰穨跋 ; 獶常カ絪﹚ヒ贺縱ノ
RPVOMLKMRHLFFCQ37CA,チ砍琿,98.50,常カ
RPVOMLKMRHLFFCQ37CA,チ砍琿,17.43,常カ
RPWOMLKMRHLFFCQ47CA,チ砍琿,98.50,常カ
RPWOMLKMRHLFFCQ47CA,チ砍琿,17.43,常カ
RPXOMLKMRHLFFCQ57CA,チ砍琿,98.50,常カ
RPXOMLKMRHLFFCQ57CA,チ砍琿,17.43,常カ
RPPNMLLJIILFFCQ28CA,盩琿,944.39,常カ笰
RPPNMLLJIILFFCQ28CA,盩琿,93.12,常カ笰
RPPNMLNJIILFFCQ48CA,チ砍琿,100.47,常カ
RPPNMLNJIILFFCQ48CA,チ砍琿,17.43,常カ
RPQNMLNJIILFFCQ58CA,チ砍琿,100.47,常カ
RPQNMLNJIILFFCQ58CA,チ砍琿,17.43,常カ
RPRNMLNJIILFFCQ68CA,チ砍琿,100.47,常カ
RPRNMLNJIILFFCQ68CA,チ砍琿,17.43,常カ
RPTNMLTLRHLFFCQ87CA,蛮穿琿,235.00,獶常カ疭﹚笰穨跋 ; 獶常カ絪﹚ヒ贺縱ノ
RPQNMLRJIILFFCQ98CA,チ琿,98.00,常カ
RPPOMLRJIILFFCQ98CA,狾繷琿,970.00,獶常カ疭﹚笰穨跋 ; 獶常カ絪﹚笰ノ
RPSNMLNKIILFFCQ88CA,垫そ琿垫そ琿,2990.00,獶常カ疭﹚笰穨跋 ; 獶常カ絪﹚笰ノ
RPSNMLNKIILFFCQ88CA,垫そ琿垫そ琿,2272.00,獶常カ疭﹚笰穨跋 ; 獶常カ絪﹚笰ノ
RPSNMLQLRHLFFBQ37CA,纍ダ糳琿λ琿,722.92,獶常カ疭﹚笰穨跋 ; 獶常カ絪﹚笰ノ
RPSNMLQLRHLFFBQ37CA,纍ダ糳琿λ琿,315.67,獶常カ疭﹚笰穨跋 ; 獶常カ絪﹚笰ノ
RPSNMLMLRHLFFBQ96CA,马琿,149.19,常カ
RPRNMLTLRHLFFBQ57CA,古Φ琿,7.77,常カ
RPRNMLLKIILFFBQ48CA,穝ネ琿,90.74,常カ
RPSNMLLKIILFFBQ58CA,穝ネ琿,90.74,常カ
RPPNMLNKIILFFDQ68CA,兼琿兼琿,4574.00,獶常カ疭﹚笰穨跋 ; 獶常カ絪﹚笰ノ
RPQNMLMLRHLFFDQ07DA,い砍琿,121.92,常カ笰
RPPNMLMLRHLFFCQ96EA,礷琿礷琿,581.00,獶常カ疭﹚笰穨跋 ; 獶常カ絪﹚笰ノ
RPPNMLMLRHLFFCQ96EA,礷琿礷琿,1152.00,獶常カ疭﹚笰穨跋 ; 獶常カ絪﹚笰ノ
RPQNMLMLRHLFFCQ07EA,セ芔琿セ芔琿,3301.00,獶常カ疭﹚笰穨跋 ; 獶常カ絪﹚笰ノ
RPUNMLMLRHLFFDQ47DA,箃㎝琿,106.89,獶常カ秏跋 ; 獶常カ絪﹚贺縱ノ
RPUNMLMLRHLFFDQ47DA,箃㎝琿,3.85,獶常カ秏跋 ; 獶常カ絪﹚ユ硄ノ
RPUNMLMLRHLFFDQ47DA,箃㎝琿,43.75,獶常カ秏跋 ; 獶常カ絪﹚ユ硄ノ
RPQNMLNLRHLFFCQ07DA,盩琿,66.78,獶常カ秏跋 ; 獶常カ絪﹚贺縱ノ
RPQNMLNLRHLFFCQ07DA,盩琿,70.47,獶常カ秏跋 ; 獶常カ絪﹚贺縱ノ
RPPNMLRKIILFFBQ98DA,畆玡琿畆玡琿,33.13,獶常カ秏跋 ; 獶常カ絪﹚贺縱ノ
RPPNMLRKIILFFBQ98DA,畆玡琿畆玡琿,33.13,獶常カ秏跋 ; 獶常カ絪﹚贺縱ノ
RPPNMLRKIILFFBQ98DA,畆玡琿畆玡琿,1.20,獶常カ秏跋 ; 獶常カ絪﹚ユ硄ノ
RPPNMLRKIILFFBQ98DA,畆玡琿畆玡琿,5.20,獶常カ秏跋 ; 獶常カ絪﹚ユ硄ノ
RPTNMLOKIILFFDQ56CA,庱琿,14120.00,獶常カ℡玂▅跋 ; 獶常カ絪﹚笰ノ
RPTNMLNLRHLFFDQ37CA,匪瑆琿,145.31,獶常カ秏跋 ; 獶常カ絪﹚贺縱ノ
RPUNMLNLRHLFFDQ47CA,糳琿糳琿,2321.00,獶常カ疭﹚笰穨跋 ; 獶常カ絪﹚笰ノ
RPVNMLNLRHLFFBQ37CA,竃┏琿穝碔琿,2552.00,獶常カ疭﹚笰穨跋 ; 獶常カ絪﹚笰ノ
RPPNMLQLRHLFFBQ07CA,繷λ瞅琿λ瞅琿,109.00,獶常カ秏跋 ; 獶常カ絪﹚贺縱ノ
RPWNMLKMRHLFFCQ37CA,い琿い琿,8358.00,獶常カ疭﹚盡ノ跋 ; 獶常カ絪﹚笰ノ
RPSNMLNJIILFFCQ78CA,チ砍琿,17.43,常カ
RPSNMLNJIILFFCQ78CA,チ砍琿,95.96,常カ
RPTNMLNJIILFFCQ88CA,チ砍琿,17.43,常カ
RPTNMLNJIILFFCQ88CA,チ砍琿,114.77,常カ
RPUNMLNJIILFFCQ98CA,チ砍琿,17.43,常カ
RPUNMLNJIILFFCQ98CA,チ砍琿,104.47,常カ
RPVNMLNJIILFFCQ09CA,チ砍琿,17.43,常カ
RPVNMLNJIILFFCQ09CA,チ砍琿,111.73,常カ
RPWNMLNJIILFFCQ56CA,チ砍琿,17.43,常カ
RPWNMLNJIILFFCQ56CA,チ砍琿,120.94,常カ
RPXNMLNJIILFFCQ66CA,チ砍琿,17.43,常カ
RPXNMLNJIILFFCQ66CA,チ砍琿,112.36,常カ
RPOOMLNJIILFFCQ48CA,チ砍琿,17.43,常カ
RPOOMLNJIILFFCQ48CA,チ砍琿,104.98,常カ
RPPOMLNJIILFFCQ58CA,チ砍琿,17.65,常カ
RPPOMLNJIILFFCQ58CA,チ砍琿,112.95,常カ
RPPNMLLKIILFFCQ38CA,墩琿,275.00,獶常カ笰穨跋 ; 獶常カ絪﹚ノ
RPQNMLLKIILFFCQ48CA,墩琿,570.00,獶常カ笰穨跋 ; 獶常カ絪﹚ノ
RPRNMLLKIILFFCQ58CA,墩琿,4800.00,獶常カ笰穨跋 ; 獶常カ絪﹚ノ
RPSNMLLKIILFFCQ68CA,墩琿,912.00,獶常カ笰穨跋 ; 獶常カ絪﹚ノ
RPSNMLLKIILFFCQ68CA,墩琿,654.00,獶常カ笰穨跋 ; 獶常カ絪﹚ノ
RPSNMLLKIILFFCQ68CA,墩琿,924.00,獶常カ笰穨跋 ; 獶常カ絪﹚ノ
RPSNMLLKIILFFCQ68CA,墩琿,41.00,獶常カ笰穨跋 ; 獶常カ絪﹚ノ
RPTNMLLKIILFFCQ78CA,à琿,1.00,獶常カ笰穨跋 ; 獶常カ絪﹚ノ
RPUNMLLKIILFFCQ88CA,à琿,1292.00,獶常カ笰穨跋 ; 獶常カ絪﹚ノ
RPVNMLLKIILFFCQ98CA,à琿,152.00,獶常カ笰穨跋 ; 獶常カ絪﹚ノ
RPPNMLTLRHLFFCQ47CA,朝糳琿,3388.00,獶常カ笰穨跋 ; 獶常カ絪﹚笰ノ
RPQNMLMJIILFFBQ38CA,芖琿,133.31,獶常カ秏跋 ; 獶常カ絪﹚贺縱ノ
RPRNMLMJIILFFBQ48CA,芖琿,133.31,獶常カ秏跋 ; 獶常カ絪﹚贺縱ノ
RPPNMLTLRHLFFDQ57CA,获紂琿,103.58,常カ
RPQNMLQLRHLFFBQ27DA,马琿,21.48,常カ
RPRNMLQLRHLFFBQ37DA,λ竲琿,24.00,獶常カ秏跋 ; 獶常カ絪﹚贺縱ノ
RPPNMLRLRHLFFBQ27DA,盰琿盰琿,3252.00,獶常カ疭﹚笰穨跋 ; 獶常カ絪﹚笰ノ
RPPNMLQLRHLFFEQ37CA,そバ琿,100.00,獶常カ此狶跋 ; 獶常カ絪﹚笰ノ
RPQNMLRLRHLFFCQ47DA,ヌ僵盵琿ヌ僵盵琿,141.55,獶常カ疭﹚笰穨跋 ; 獶常カ絪﹚笰ノ
RPRNMLRLRHLFFCQ57DA,ヌ僵盵琿ヌ僵盵琿,141.55,獶常カ疭﹚笰穨跋 ; 獶常カ絪﹚笰ノ
RPSNMLRLRHLFFCQ67DA,ヌ僵盵琿ヌ僵盵琿,283.10,獶常カ疭﹚笰穨跋 ; 獶常カ絪﹚笰ノ
RPPNMLTLRHLFFEQ87EA,ず聕琿,313.00,獶常カ笰穨跋 ; 獶常カ絪﹚贺縱ノ
RPQNMLTLRHLFFEQ97EA,ず聕琿,301.00,獶常カ笰穨跋 ; 獶常カ絪﹚贺縱ノ
RPRNMLTLRHLFFEQ08EA,ず聕琿,161.00,獶常カ笰穨跋 ; 獶常カ絪﹚贺縱ノ
RPPNMLKKIILFFDQ48DA,㎝琿,342.43,常カ
RPUNMLTLRHLFFDQ08CA,纒兼琿,26.17,常カ
RPSNMLLJIILFFDQ68CA,竃瓾琿,1877.00,獶常カ笰穨跋 ; 獶常カ絪﹚笰ノ
RPPNMLKMRHLFFBQ56CA,马琿,83.00,常カ
RPRNMLTLRHLFFCQ67CA,穝瓾琿,2988.29,獶常カ笰穨跋 ; 獶常カ絪﹚笰ノ
RPWNMLQJIILFFCQ86CA,い贾琿,86.00,常カ
RPQOMLRJIILFFCQ09CA,盵琿,136.00,獶常カ秏跋 ; 獶常カ絪﹚贺縱ノ
RPPNMLPLIILFFCQ88CA,チゅ琿,81.09,常カ
RPPNMLPLIILFFCQ88CA,チゅ琿,110.23,常カ
RPPNMLPLIILFFCQ88CA,チゅ琿,25.01,常カ
RPPNMLPLIILFFCQ88CA,チゅ琿,152.01,常カ
RPQNMLRKIILFFDQ56CA,㎝匪琿,74.86,獶常カ疭﹚笰穨跋 ; 獶常カ絪﹚ヒ贺縱ノ
RPSNMLTLRHLFFEQ97CA,宾琿,116.00,常カ
RPPNMLOJIILFFEQ78CA,ず瓾琿,955.00,獶常カ笰穨跋 ; 獶常カ絪﹚笰ノ
RPPNMLPJIILFFEQ88CA,狶琿,1000.00,獶常カ此狶跋 ; 獶常カ絪﹚笰ノ
RPQNMLPJIILFFEQ98CA,档冻琿,575.15,獶常カ笰穨跋 ; 獶常カ絪﹚笰ノ
RPQNMLPJIILFFEQ98CA,档冻琿,331.30,獶常カ笰穨跋 ; 獶常カ絪﹚笰ノ
RPQNMLPJIILFFEQ98CA,档冻琿,346.01,獶常カ笰穨跋 ; 獶常カ絪﹚笰ノ
RPPNMLLKIILFFEQ58CA,芖い琿,122.35,獶常カ秏跋 ; 獶常カ絪﹚贺縱ノ
RPQNMLLKIILFFEQ68CA,芖い琿,148.58,獶常カ秏跋 ; 獶常カ絪﹚贺縱ノ
RPPNMLNJIILFFBQ48DA,稯琿,2996.05,獶常カ笰穨跋 ; 獶常カ絪﹚笰ノ
RPPNMLNJIILFFBQ48DA,稯琿,3397.57,獶常カ笰穨跋 ; 獶常カ絪﹚笰ノ
RPRNMLOJIILFFBQ78DA,古Φ琿,20.85,常カ
RPPNMLKMRHLFFDQ86DA,琱秏琿,98.82,獶常カ秏跋 ; 獶常カ絪﹚贺縱ノ
RPTNMLKMRHLFFCQ27EA,郴￤琿￤琿,1680.00,獶常カ疭﹚笰穨跋 ; 獶常カ絪﹚笰ノ
RPVNMLKMRHLFFCQ47EA,匪﹁琿,3.08,常カㄤ
RPRNMLRJIILFFDQ56CA,ぱ琿,10.25,獶常カ秏跋 ; 獶常カ絪﹚贺縱ノ
RPRNMLRJIILFFDQ56CA,ぱ琿,93.00,獶常カ秏跋 ; 獶常カ絪﹚贺縱ノ
RPPNMLLKIILFFDQ48CA,古び琿,87.99,常カ
RPTNMLKMRHLFFDQ17CA,古穝琿,71.96,常カ
RPTPMLNJIILFFDQ56CA,琿,2848.52,常カ笰
RPPNMLOLIILFFCQ78CA,褐玭琿,75.91,常カ
RPPNMLOLIILFFCQ78CA,褐玭琿,10.71,常カ
RPPOMLPLIILFFCQ98CA,い琿,102.00,獶常カ秏跋 ; 獶常カ絪﹚贺縱ノ
RPPNMLKLIILFFCQ38CA,侣玭翠琿玭翠琿,2447.00,獶常カ疭﹚笰穨跋 ; 獶常カ絪﹚笰ノ
RPXNMLQJIILFFCQ96CA,垫そ琿垫そ琿,2993.00,獶常カ疭﹚笰穨跋 ; 獶常カ絪﹚笰ノ
RPQNMLOJIILFFCQ68CA,﹁绍琿,383.12,獶常カ秏跋 ; 獶常カ絪﹚贺縱ノ
RPXNMLLKIILFFCQ56CA,翠﹁琿,7.26,常カ
RPOOMLLKIILFFCQ38CA,翠﹁琿,9.66,常カ
RPPOMLLKIILFFCQ48CA,翠﹁琿,10.51,常カ
RPQOMLLKIILFFCQ58CA,翠﹁琿,10.51,常カ
RPROMLLKIILFFCQ68CA,翠﹁琿,11.46,常カ
RPSOMLLKIILFFCQ78CA,翠﹁琿,31.52,常カ
RPTOMLLKIILFFCQ88CA,翠﹁琿,31.76,常カ
RPUOMLLKIILFFCQ98CA,翠﹁琿,21.02,常カ
RPVOMLLKIILFFCQ09CA,翠﹁琿,21.02,常カ
RPWOMLLKIILFFCQ56CA,翠﹁琿,21.02,常カ
RPXNMLKMRHLFFCQ47CA,榜繷琿榜繷琿,1921.50,獶常カ疭﹚笰穨跋 ; 獶常カ絪﹚笰ノ
RPQOMLKMRHLFFCQ86CA,い狶琿,1215.95,獶常カ疭﹚笰穨跋 ; 獶常カ絪﹚ヒ贺縱ノ
RPQOMLKMRHLFFCQ86CA,い狶琿,238.96,獶常カ疭﹚笰穨跋 ; 獶常カ絪﹚ヒ贺縱ノ
RPPNMLLJIILFFBQ18CA,せ琿,1921.00,獶常カ笰穨跋 ; 獶常カ絪﹚笰ノ
RPQNMLLJIILFFBQ28CA,ǎ纒琿,116.94,常カ笰
RPQNMLLJIILFFBQ28CA,ǎ纒琿,7.46,常カ笰
RPQNMLLJIILFFBQ28CA,ǎ纒琿,124.43,常カ笰
RPRNMLOLIILFFBQ88CA,兼醂琿兼醂琿,3451.00,獶常カ疭﹚笰穨跋 ; 獶常カ絪﹚笰ノ
RPQNMLNJIILFFEQ98EA,ニ瓾琿,384.25,獶常カ笰穨跋 ; 獶常カ絪﹚贺縱ノ
RPQNMLNJIILFFEQ98EA,ニ瓾琿,384.25,獶常カ笰穨跋 ; 獶常カ絪﹚贺縱ノ
RPQNMLKMRHLFFDQ07EA,纓︱琿纓琿,1373.00,獶常カ疭﹚笰穨跋 ; 獶常カ絪﹚笰ノ
RPRNMLRKIILFFBQ09CA,褐琿,44.85,常カ
RPPNMLOJIILFFBQ48CA,穝ネ琿,289.33,常カ坝
RPXNMLOJIILFFBQ66CA,畆玡琿畆玡琿,2786.00,獶常カ疭﹚笰穨跋 ; 獶常カ絪﹚笰ノ
RPPNMLMKIILFFBQ38CA,兼醂琿兼醂琿,2500.37,獶常カ疭﹚笰穨跋 ; 獶常カ絪﹚笰ノ
RPPPMLNJIILFFCQ68CA,瓣琿,20.00,獶常カ秏跋 ; 獶常カ絪﹚贺縱ノ
RPPPMLNJIILFFCQ68CA,瓣琿,69.00,獶常カ秏跋 ; 獶常カ絪﹚贺縱ノ
RPPNMLPJIILFFCQ68CA,褐琿,27.19,常カ
RPQNMLPJIILFFCQ78CA,蛮穿琿,232.00,獶常カ疭﹚笰穨跋 ; 獶常カ絪﹚ヒ贺縱ノ
RPPNMLOJIILFFDQ68CA,玭琿,10.59,常カ
RPPNMLOJIILFFDQ68CA,玭琿,10.59,常カ
RPPNMLOJIILFFDQ68CA,玭琿,44.92,常カ
RPPNMLOJIILFFDQ68CA,玭琿,44.92,常カ
RPUNMLNJIILFFDQ09CA,穝礷糳琿,5998.84,獶常カ疭﹚笰穨跋 ; 獶常カ絪﹚笰ノ
RPTNMLPJIILFFEQ76DA,礷兼琿,88.41,獶常カ笰穨跋 ; 獶常カ絪﹚ヒ贺縱ノ
RPRNMLLKIILFFEQ78CA,滦恔琿,607.00,獶常カ笰穨跋 ; 獶常カ絪﹚贺縱ノ
RPRNMLLKIILFFEQ78CA,滦恔琿,1195.00,獶常カ笰穨跋 ; 獶常カ絪﹚笰ノ
RPRNMLLKIILFFEQ78CA,滦恔琿,148.00,獶常カ笰穨跋 ; 獶常カ絪﹚贺縱ノ
RPRNMLLKIILFFEQ78CA,滦恔琿,40.33,獶常カ笰穨跋 ; 獶常カ絪﹚笰ノ
RPRNMLLKIILFFEQ78CA,滦恔琿,103.33,獶常カ笰穨跋 ; 獶常カ絪﹚笰ノ
RPPNMLNKIILFFEQ78CA,宾琿,120.00,常カ
RPSNMLPJIILFFEQ56CA,礷兼琿,490.00,獶常カ笰穨跋 ; 獶常カ絪﹚ヒ贺縱ノ
RPQNMLNKIILFFEQ88CA,纒泊狶琿,1993.00,獶常カ春跋 ; 獶常カ絪﹚笰ノ
RPTNMLOJIILFFBQ98DA,穝チ琿,6211.26,獶常カ疭﹚盡ノ跋 ; 獶常カ絪﹚緄崔ノ
RPUNMLOJIILFFBQ09DA,穝チ琿,7218.41,獶常カ疭﹚盡ノ跋 ; 獶常カ絪﹚緄崔ノ
RPRNMLOJIILFFCQ98EA,ッ褐琿,132.27,常カ
RPQNMLOJIILFFDQ88DA,纓︱琿购琿,1250.00,獶常カ疭﹚笰穨跋 ; 獶常カ絪﹚笰ノ
RPTNMLQJIILFFDQ76DA,い绍琿,75.93,獶常カ秏跋 ; 獶常カ絪﹚贺縱ノ
RPTNMLQJIILFFDQ76DA,い绍琿,75.44,獶常カ秏跋 ; 獶常カ絪﹚贺縱ノ
RPUNMLOKIILFFCQ66DA,セ芔琿セ芔琿,2134.00,獶常カ疭﹚笰穨跋 ; 獶常カ絪﹚笰ノ
RPSNMLOJIILFFDQ98CA,陈ě┍琿陈琿,2975.00,獶常カ疭﹚笰穨跋 ; 獶常カ絪﹚笰ノ
RPVOMLQJIILFFDQ96CA,匪瑆琿,1460.51,獶常カ笰穨跋 ; 獶常カ絪﹚笰ノ
RPPQMLQJIILFFDQ56CA,フ▇瓾琿,322.00,獶常カ疭﹚笰穨跋 ; 獶常カ絪﹚ユ硄ノ
RPPQMLQJIILFFDQ56CA,フ▇瓾琿,538.00,獶常カ疭﹚笰穨跋 ; 獶常カ絪﹚ユ硄ノ
RPPQMLQJIILFFDQ56CA,フ▇瓾琿,6.00,獶常カ疭﹚笰穨跋 ; 獶常カ絪﹚ユ硄ノ
RPQQMLQJIILFFDQ66CA,フ▇瓾琿,6.00,獶常カ秏跋 ; 獶常カ絪﹚ユ硄ノ
RPRQMLQJIILFFDQ76CA,フ▇瓾琿,66.00,獶常カ秏跋 ; 獶常カ絪﹚ユ硄ノ
RPSQMLQJIILFFDQ86CA,フ▇瓾琿,6.00,獶常カ秏跋 ; 獶常カ絪﹚ユ硄ノ
RPTQMLQJIILFFDQ96CA,フ▇瓾琿,134.00,獶常カ疭﹚笰穨跋 ; 獶常カ絪﹚ユ硄ノ
RPTQMLQJIILFFDQ96CA,フ▇瓾琿,28.00,獶常カ疭﹚笰穨跋 ; 獶常カ絪﹚ユ硄ノ
RPTQMLQJIILFFDQ96CA,フ▇瓾琿,190.00,獶常カ疭﹚笰穨跋 ; 獶常カ絪﹚ユ硄ノ
RPUQMLQJIILFFDQ07CA,フ▇瓾琿,7.00,獶常カ秏跋 ; 獶常カ絪﹚ユ硄ノ
RPUQMLQJIILFFDQ07CA,フ▇瓾琿,6.00,獶常カ秏跋 ; 獶常カ絪﹚ユ硄ノ
RPVQMLQJIILFFDQ17CA,フ▇瓾琿,348.00,獶常カ疭﹚笰穨跋 ; 獶常カ絪﹚ユ硄ノ
RPWQMLQJIILFFDQ27CA,フ▇瓾琿,38.00,獶常カ秏跋 ; 獶常カ絪﹚ユ硄ノ
RPXQMLQJIILFFDQ37CA,フ▇瓾琿,72.00,獶常カ疭﹚笰穨跋 ; 獶常カ絪﹚ユ硄ノ
RPORMLQJIILFFDQ56CA,フ▇瓾琿,360.00,獶常カ疭﹚笰穨跋 ; 獶常カ絪﹚ユ硄ノ
RPQRMLQJIILFFDQ76CA,フ▇瓾琿,1.00,獶常カ笰穨跋 ; 獶常カ絪﹚ユ硄ノ
RPRRMLQJIILFFDQ86CA,フ▇瓾琿,75.00,獶常カ疭﹚笰穨跋 ; 獶常カ絪﹚ユ硄ノ
RPRNMLPJIILFFCQ88CA,チ砍琿,17.43,常カ
RPRNMLPJIILFFCQ88CA,チ砍琿,114.99,常カ
RPTNMLOJIILFFCQ98CA,チ琿,10.65,常カ
RPUNMLPJIILFFCQ56CA,㎝琿,80.75,常カ
RPPNMLQJIILFFCQ78CA,褐玭琿,113.88,常カ
RPOPMLLKIILFFCQ48CA,翠狥琿,29.00,常カ
RPRNMLOKIILFFCQ88CA,匪﹁琿,49.78,常カ
RPPNMLNLIILFFCQ68CA,穝绍琿,210.96,常カ笰
RPPNMLPJIILFFBQ58CA,古Φ琿,108.60,常カ
RPPNMLPJIILFFBQ58CA,古Φ琿,108.60,常カ
RPTNMLPJIILFFBQ98CA,ず琿,132.04,常カ
RPVNMLOJIILFFBQ09CA,榜繷琿榜玡琿,2020.00,獶常カ疭﹚笰穨跋 ; 獶常カ絪﹚笰ノ
RPWNMLOJIILFFBQ56CA,穝┍琿,2400.00,獶常カ笰穨跋 ; 獶常カ絪﹚緄崔ノ
RPWNMLOJIILFFBQ56CA,穝┍琿,2400.00,獶常カ笰穨跋 ; 獶常カ絪﹚緄崔ノ
RPWNMLOJIILFFBQ56CA,穝┍琿,1920.00,獶常カ笰穨跋 ; 獶常カ絪﹚緄崔ノ
RPPNMLRJIILFFBQ78CA,き丁琿,752.00,獶常カ笰穨跋 ; 獶常カ絪﹚ノ
RPPNMLRJIILFFBQ78CA,き丁琿,1866.50,獶常カ笰穨跋 ; 獶常カ絪﹚ノ
RPSNMLRJIILFFBQ09CA,き丁琿,4464.00,獶常カ笰穨跋 ; 獶常カ絪﹚ノ
RPSNMLRJIILFFBQ09CA,き丁琿,353.00,獶常カ笰穨跋 ; 獶常カ絪﹚ノ
RPTNMLRJIILFFBQ56CA,き丁琿,3446.00,獶常カ笰穨跋 ; 獶常カ絪﹚ノ
RPVNMLRJIILFFBQ76CA,き丁琿,1049.00,獶常カ笰穨跋 ; 獶常カ絪﹚ノ
RPVNMLRJIILFFBQ76CA,き丁琿,650.00,獶常カ笰穨跋 ; 獶常カ絪﹚ノ
RPQNMLQJIILFFBQ78CA,λ瞅琿ㄎポ琿,14.00,獶常カ疭﹚笰穨跋 ; 獶常カ絪﹚ヒ贺縱ノ
RPRNMLQJIILFFBQ88CA,λ瞅琿ㄎポ琿,14.00,獶常カ疭﹚笰穨跋 ; 獶常カ絪﹚ヒ贺縱ノ
RPSNMLQJIILFFBQ98CA,λ瞅琿ㄎポ琿,14.00,獶常カ疭﹚笰穨跋 ; 獶常カ絪﹚ヒ贺縱ノ
RPWOMLRJIILFFBQ96CA,爵繷琿,523.96,獶常カ笰穨跋 ; 獶常カ絪﹚ノ
RPXNMLRJIILFFBQ96CA,き丁琿,5624.00,獶常カ笰穨跋 ; 獶常カ絪﹚ノ
RPPOMLRJIILFFBQ88CA,き丁琿,4608.00,獶常カ笰穨跋 ; 獶常カ絪﹚ノ
RPROMLRJIILFFBQ09CA,き丁琿,1398.00,獶常カ笰穨跋 ; 獶常カ絪﹚ノ
RPUOMLRJIILFFBQ76CA,爵繷琿,2009.21,獶常カ笰穨跋 ; 獶常カ絪﹚ノ
RPQNMLKMIILFFBQ48CA,穝ネ琿,103.20,常カ
RPRPMLLKIILFFCQ78CA,ヌ僵盵琿ヌ僵盵琿,18.48,常カ
RPRPMLLKIILFFCQ78CA,ヌ僵盵琿ヌ僵盵琿,64.00,常カ
RPRNMLRJIILFFCQ09CA,打琿,10165.83,獶常カ疭﹚笰穨跋 ; 獶常カ絪﹚ノ
RPRNMLRJIILFFCQ09CA,打琿,3424.17,獶常カ疭﹚笰穨跋 ; 獶常カ絪﹚ノ
RPSNMLRJIILFFCQ56CA,打琿,2033.17,獶常カ疭﹚笰穨跋 ; 獶常カ絪﹚ノ
RPSNMLRJIILFFCQ56CA,打琿,684.83,獶常カ疭﹚笰穨跋 ; 獶常カ絪﹚ノ
RPRNMLNLIILFFCQ88CA,砍琿,.74,常カ
RPRNMLNLIILFFCQ88CA,砍琿,28.90,常カ
RPSRMLQJIILFFDQ96CA,フ▇瓾琿,16.00,獶常カ疭﹚笰穨跋 ; 獶常カ絪﹚ユ硄ノ
RPSRMLQJIILFFDQ96CA,フ▇瓾琿,69.00,獶常カ疭﹚笰穨跋 ; 獶常カ絪﹚ユ硄ノ
RPTRMLQJIILFFDQ07CA,フ▇瓾琿,4.00,獶常カ疭﹚笰穨跋 ; 獶常カ絪﹚ユ硄ノ
RPTRMLQJIILFFDQ07CA,フ▇瓾琿,25.00,獶常カ疭﹚笰穨跋 ; 獶常カ絪﹚ユ硄ノ
RPURMLQJIILFFDQ17CA,フ▇瓾琿,20.00,獶常カ疭﹚笰穨跋 ; 獶常カ絪﹚ユ硄ノ
RPVRMLQJIILFFDQ27CA,フ▇瓾琿,259.93,獶常カ笰穨跋 ; 獶常カ絪﹚ユ硄ノ
RPWRMLQJIILFFDQ37CA,フ▇瓾琿,146.07,獶常カ笰穨跋 ; 獶常カ絪﹚ユ硄ノ
RPXRMLQJIILFFDQ47CA,フ▇瓾琿,4.00,獶常カ秏跋 ; 獶常カ絪﹚ユ硄ノ
RPXRMLQJIILFFDQ47CA,フ▇瓾琿,2.00,獶常カ秏跋 ; 獶常カ絪﹚ユ硄ノ
RPPRMLQJIILFFDQ66CA,フ▇瓾琿,144.00,獶常カ疭﹚笰穨跋 ; 獶常カ絪﹚ユ硄ノ
RPVNMLLLIILFFDQ56CA,フ▇瓾琿,21.00,獶常カ秏跋 ; 獶常カ絪﹚ユ硄ノ
RPVNMLLLIILFFDQ56CA,フ▇瓾琿,16.00,獶常カ秏跋 ; 獶常カ絪﹚ユ硄ノ
RPVNMLLLIILFFDQ56CA,フ▇瓾琿,21.33,獶常カ秏跋 ; 獶常カ絪﹚ユ硄ノ
RPVNMLLLIILFFDQ56CA,フ▇瓾琿,27.33,獶常カ秏跋 ; 獶常カ絪﹚ユ硄ノ
RPVNMLLLIILFFDQ56CA,フ▇瓾琿,130.00,獶常カ秏跋 ; 獶常カ絪﹚ユ硄ノ
RPVNMLLLIILFFDQ56CA,フ▇瓾琿,113.00,獶常カ秏跋 ; 獶常カ絪﹚ユ硄ノ
RPVNMLLLIILFFDQ56CA,フ▇瓾琿,51.00,獶常カ秏跋 ; 獶常カ絪﹚ユ硄ノ
RPVNMLLLIILFFDQ56CA,フ▇瓾琿,5.00,獶常カ秏跋 ; 獶常カ絪﹚ユ硄ノ
RPPNMLQLIILFFDQ09CA,穝榜琿,35.88,獶常カ秏跋 ; 獶常カ絪﹚贺縱ノ
RPPNMLQLIILFFDQ09CA,穝榜琿,10.89,獶常カ秏跋 ; 獶常カ絪﹚贺縱ノ
RPPNMLQLIILFFDQ09CA,穝榜琿,.23,獶常カ秏跋 ; 獶常カ絪﹚贺縱ノ
RPWOMLQJIILFFDQ07CA,フ▇瓾琿,326.00,獶常カ疭﹚笰穨跋 ; 獶常カ絪﹚ユ硄ノ
RPWOMLQJIILFFDQ07CA,フ▇瓾琿,50.00,獶常カ疭﹚笰穨跋 ; 獶常カ絪﹚ユ硄ノ
RPWOMLQJIILFFDQ07CA,フ▇瓾琿,36.00,獶常カ疭﹚笰穨跋 ; 獶常カ絪﹚ユ硄ノ
RPWOMLQJIILFFDQ07CA,フ▇瓾琿,284.00,獶常カ疭﹚笰穨跋 ; 獶常カ絪﹚ユ硄ノ
RPRNMLPJIILFFDQ98CA,琱秏琿,56.77,獶常カ秏跋 ; 獶常カ絪﹚贺縱ノ
RPRNMLPJIILFFDQ98CA,琱秏琿,11.59,獶常カ秏跋 ; 獶常カ絪﹚贺縱ノ
RPUNMLQJIILFFDQ76CA,陈琿,279.03,獶常カ秏跋 ; 獶常カ絪﹚贺縱ノ
RPOPMLQJIILFFDQ98CA,フ▇瓾琿,9.00,獶常カ疭﹚笰穨跋 ; 獶常カ絪﹚ユ硄ノ
RPOPMLQJIILFFDQ98CA,フ▇瓾琿,33.00,獶常カ疭﹚笰穨跋 ; 獶常カ絪﹚ユ硄ノ
RPPPMLQJIILFFDQ09CA,フ▇瓾琿,6.00,獶常カ秏跋 ; 獶常カ絪﹚ユ硄ノ
RPRPMLQJIILFFDQ66CA,フ▇瓾琿,5.00,獶常カ秏跋 ; 獶常カ絪﹚ユ硄ノ
RPXNMLQJIILFFDQ07CA,フ▇瓾琿,6.00,獶常カ秏跋 ; 獶常カ絪﹚ユ硄ノ
RPOOMLQJIILFFDQ88CA,フ▇瓾琿,212.00,獶常カ疭﹚笰穨跋 ; 獶常カ絪﹚ユ硄ノ
RPPOMLQJIILFFDQ98CA,フ▇瓾琿,213.00,獶常カ疭﹚笰穨跋 ; 獶常カ絪﹚ユ硄ノ
RPQOMLQJIILFFDQ09CA,フ▇瓾琿,78.00,獶常カ疭﹚笰穨跋 ; 獶常カ絪﹚ユ硄ノ
RPROMLQJIILFFDQ56CA,フ▇瓾琿,38.00,獶常カ秏跋 ; 獶常カ絪﹚ユ硄ノ
RPSOMLQJIILFFDQ66CA,フ▇瓾琿,1.00,獶常カ疭﹚笰穨跋 ; 獶常カ絪﹚ユ硄ノ
RPTOMLQJIILFFDQ76CA,フ▇瓾琿,1.00,獶常カ疭﹚笰穨跋 ; 獶常カ絪﹚ユ硄ノ
RPUOMLQJIILFFDQ86CA,フ▇瓾琿,121.00,獶常カ疭﹚笰穨跋 ; 獶常カ絪﹚ユ硄ノ
RPVNMLRJIILFFDQ07DA,﹁琿,77.62,常カ
RPUNMLQJIILFFCQ86EA,底瓾琿底瓾琿,1400.00,獶常カ疭﹚笰穨跋 ; 獶常カ絪﹚笰ノ
RPUNMLQJIILFFCQ86EA,底瓾琿底瓾琿,652.32,獶常カ疭﹚笰穨跋 ; 獶常カ絪﹚笰ノ
RPUNMLNKIILFFEQ66CA,ず聕琿,.27,常カㄤ
RPUNMLNKIILFFEQ66CA,ず聕琿,5.65,常カ
RPQNMLKLIILFFEQ68CA,蛮匪琿,5928.00,獶常カ℡玂▅跋 ; 獶常カ絪﹚笰ノ
RPXPMLQJIILFFDQ27CA,フ▇瓾琿,10.00,獶常カ秏跋 ; 獶常カ絪﹚ユ硄ノ
RPXPMLQJIILFFDQ27CA,フ▇瓾琿,3.00,獶常カ秏跋 ; 獶常カ絪﹚ユ硄ノ
RPOQMLQJIILFFDQ09CA,纓︱琿,84.67,獶常カ秏跋 ; 獶常カ絪﹚贺縱ノ
RPOQMLQJIILFFDQ09CA,纓︱琿,359.00,獶常カ秏跋 ; 獶常カ絪﹚贺縱ノ
RPXOMLQJIILFFDQ17CA,狥墩糳琿,20.00,常カㄤ
RPXOMLQJIILFFDQ17CA,狥墩糳琿,60.00,常カ
RPQNMLPJIILFFDQ88CA,琱秏琿,16.81,獶常カ秏跋 ; 獶常カ絪﹚贺縱ノ
RPQNMLPJIILFFDQ88CA,琱秏琿,16.81,獶常カ秏跋 ; 獶常カ絪﹚贺縱ノ
RPWNMLSLIILFFDQ37CA,à琿,3060.14,獶常カ笰穨跋 ; 獶常カ絪﹚笰ノ
RPWNMLLLIILFFDQ66CA,フ▇瓾琿,27.33,獶常カ秏跋 ; 獶常カ絪﹚ユ硄ノ
RPXNMLLLIILFFDQ76CA,フ▇瓾琿,21.33,獶常カ秏跋 ; 獶常カ絪﹚ユ硄ノ
RPXNMLLLIILFFDQ76CA,フ▇瓾琿,4.00,獶常カ秏跋 ; 獶常カ絪﹚ユ硄ノ
RPOOMLLLIILFFDQ58CA,フ▇瓾琿,8.00,獶常カ秏跋 ; 獶常カ絪﹚ユ硄ノ
RPOOMLLLIILFFDQ58CA,フ▇瓾琿,21.33,獶常カ秏跋 ; 獶常カ絪﹚ユ硄ノ
RPOOMLLLIILFFDQ58CA,フ▇瓾琿,5.00,獶常カ秏跋 ; 獶常カ絪﹚ユ硄ノ
RPOOMLLLIILFFDQ58CA,フ▇瓾琿,32.00,獶常カ秏跋 ; 獶常カ絪﹚ユ硄ノ
RPOOMLLLIILFFDQ58CA,フ▇瓾琿,33.00,獶常カ秏跋 ; 獶常カ絪﹚ユ硄ノ
RPPOMLLLIILFFDQ68CA,フ▇瓾琿,27.33,獶常カ秏跋 ; 獶常カ絪﹚ユ硄ノ
RPSNMLRJIILFFDQ66CA,い绍琿,61.35,獶常カ秏跋 ; 獶常カ絪﹚贺縱ノ
RPSNMLKLIILFFDQ78CA,份琿,156.28,獶常カ秏跋 ; 獶常カ絪﹚贺縱ノ
RPSNMLKLIILFFDQ78CA,份琿,38.02,獶常カ秏跋 ; 獶常カ絪﹚贺縱ノ
RPQNMLLJJILFFDQ58CA,┚竡琿,102.61,常カ
RPVNMLKLIILFFCQ98CA,穝翠琿褐紈琿,3235.00,常カ笰
RPQNMLOLIILFFCQ88CA,穝绍琿,77.65,常カ笰
RPPNMLLJJILFFCQ38CA,チ琿,100.00,常カ
RPRNMLLJJILFFCQ58CA,チ琿,100.00,常カ
RPSNMLLJJILFFCQ68CA,チ琿,100.00,常カ
RPRNMLQJIILFFCQ98CA,褐砍琿,17.16,獶常カ秏跋 ; 獶常カ絪﹚贺縱ノ
RPRNMLQJIILFFCQ98CA,褐砍琿,46.54,獶常カ秏跋 ; 獶常カ絪﹚贺縱ノ
RPRNMLNKIILFFBQ68CA,σ刚兼琿忱糳琿,1036.00,獶常カ笰穨跋 ; 獶常カ絪﹚笰ノ
RPSNMLNKIILFFBQ78CA,盰琿盰琿,850.00,獶常カ疭﹚笰穨跋 ; 獶常カ絪﹚笰ノ
RPQNMLOKIILFFBQ68CA,き丁琿,752.00,獶常カ笰穨跋 ; 獶常カ絪﹚ノ
RPQNMLOKIILFFBQ68CA,き丁琿,1866.50,獶常カ笰穨跋 ; 獶常カ絪﹚ノ
RPQNMLOKIILFFBQ68CA,き丁琿,2706.00,獶常カ笰穨跋 ; 獶常カ絪﹚ノ
RPQNMLOKIILFFBQ68CA,き丁琿,650.00,獶常カ笰穨跋 ; 獶常カ絪﹚ノ
RPQNMLOKIILFFBQ68CA,き丁琿,1985.00,獶常カ笰穨跋 ; 獶常カ絪﹚ノ
RPVOMLRJIILFFBQ86CA,爵繷琿,157.27,獶常カ笰穨跋 ; 獶常カ絪﹚ノ
RPVOMLRJIILFFBQ86CA,爵繷琿,48.12,獶常カ笰穨跋 ; 獶常カ絪﹚ノ
RPSOMLRJIILFFBQ56CA,爵繷琿,32.33,獶常カ笰穨跋 ; 獶常カ絪﹚ノ
RPSOMLRJIILFFBQ56CA,爵繷琿,67.70,獶常カ笰穨跋 ; 獶常カ絪﹚ノ
RPTOMLRJIILFFBQ66CA,爵繷琿,5.32,獶常カ笰穨跋 ; 獶常カ絪﹚ノ
RPQOMLRJIILFFBQ98CA,き丁琿,1069.00,獶常カ笰穨跋 ; 獶常カ絪﹚ノ
RPOOMLRJIILFFBQ78CA,き丁琿,6546.00,獶常カ笰穨跋 ; 獶常カ絪﹚ノ
RPXOMLRJIILFFBQ07CA,爵繷琿,40.83,獶常カ笰穨跋 ; 獶常カ絪﹚ノ
RPXOMLRJIILFFBQ07CA,爵繷琿,307.60,獶常カ笰穨跋 ; 獶常カ絪﹚ノ
RPXOMLRJIILFFBQ07CA,爵繷琿,46.31,獶常カ笰穨跋 ; 獶常カ絪﹚ノ
RPXOMLRJIILFFBQ07CA,爵繷琿,375.74,獶常カ秏跋 ; 獶常カ絪﹚ノ
RPOPMLRJIILFFBQ88CA,き丁琿,524.00,獶常カ笰穨跋 ; 獶常カ絪﹚ノ
RPTNMLQJIILFFBQ09CA,马琿,12.09,常カ
RPWNMLRJIILFFBQ86CA,き丁琿,2098.00,獶常カ笰穨跋 ; 獶常カ絪﹚ノ
RPQNMLRJIILFFBQ88CA,き丁琿,5281.00,獶常カ笰穨跋 ; 獶常カ絪﹚ノ
RPRNMLRJIILFFBQ98CA,き丁琿,1373.00,獶常カ笰穨跋 ; 獶常カ絪﹚ノ
RPRNMLOLIILFFEQ76EA,狶琿,383.00,獶常カ℡玂▅跋 ; 獶常カ絪﹚笰ノ
RPRNMLOLIILFFEQ76EA,狶琿,425.00,獶常カ℡玂▅跋 ; 獶常カ絪﹚笰ノ
RPRNMLOLIILFFEQ76EA,狶琿,3246.00,獶常カ℡玂▅跋 ; 獶常カ絪﹚笰ノ
RPRNMLOLIILFFEQ76EA,狶琿,124.00,獶常カ℡玂▅跋 ; 獶常カ絪﹚笰ノ
RPRNMLOLIILFFEQ76EA,狶琿,1016.60,獶常カ℡玂▅跋 ; 獶常カ絪﹚笰ノ
RPRNMLOLIILFFEQ76EA,狶琿,421.00,獶常カ℡玂▅跋 ; 獶常カ絪﹚笰ノ
RPQNMLMKIILFFBQ48CA,紈琿,66.00,常カ
RPQNMLKLIILFFBQ38CA,砍琿,56.12,獶常カ秏跋 ; 獶常カ絪﹚ノ
RPQNMLKLIILFFBQ38CA,砍琿,197.41,獶常カ秏跋 ; 獶常カ絪﹚贺縱ノ
RPPNMLKMIILFFBQ38CA,穝ネ琿,170.62,常カ
RPQNMLKMIILFFCQ58CA,穝狥琿,577.68,常カ
RPQNMLKMIILFFCQ58CA,穝狥琿,288.83,常カ
RPQNMLKMIILFFCQ58CA,穝狥琿,288.84,常カ
RPTNMLRKIILFFCQ76CA,褐砍琿,60.46,獶常カ秏跋 ; 獶常カ絪﹚贺縱ノ
RPSOMLRJIILFFCQ66CA,礷琿礷琿,1178.00,獶常カ疭﹚笰穨跋 ; 獶常カ絪﹚笰ノ
RPPNMLMKIILFFCQ48CA,チ砍琿,17.43,常カ
RPPNMLMKIILFFCQ48CA,チ砍琿,112.54,常カ
RPRNMLOJJILFFDQ98CA,份琿,99.36,獶常カ疭﹚笰穨跋 ; 獶常カ絪﹚ヒ贺縱ノ
RPSNMLMKIILFFDQ88CA,砍琿,387.57,常カ
RPVNMLQJIILFFDQ86CA,忱琿,95.31,常カ
RPRNMLTKIILFFEQ96CA,宾狥琿,119.00,常カ
RPTNMLNKIILFFEQ56CA,ず聕琿,5.08,常カ
RPTNMLNKIILFFEQ56CA,ず聕琿,.24,常カㄤ
RPQNMLNKIILFFDQ88DA,㎝伏琿,88.64,常カ
RPTNMLRKIILFFDQ96DA,㎝伏琿,92.77,常カ
RPTNMLRKIILFFDQ96DA,㎝伏琿,27.28,常カ
RPQNMLRJIILFFDQ56DA,匪瑆琿匪瑆琿,86.00,常カ
RPPNMLRJIILFFCQ98DA,╭狶琿,2496.42,獶常カ笰穨跋 ; 獶常カ絪﹚笰ノ
RPRNMLLKIILFFDQ78DA,琱穝琿,67.26,獶常カ秏跋 ; 獶常カ絪﹚贺縱ノ
RPRNMLRKIILFFDQ76DA,古穝琿,13.70,常カㄤ
RPXOMLLKIILFFCQ86EA,穝砍琿穝砍琿,105.26,常カ
RPSNMLLLIILFFBQ78DA,鞔躬琿,1095.82,獶常カ笰穨跋 ; 獶常カ絪﹚笰ノ
RPTNMLLLIILFFBQ88DA,鞔躬琿,162.67,獶常カ秏跋 ; 獶常カ絪﹚贺縱ノ
RPTNMLMKIILFFDQ98CA,瓾狥琿,171.67,常カ
RPXNMLPLIILFFDQ17CA,古び琿,23.64,常カ
RPXNMLPLIILFFDQ17CA,古び琿,76.50,常カ
RPXNMLPLIILFFDQ17CA,古び琿,.28,常カ
RPPOMLPLIILFFDQ09CA,古び琿,23.64,常カ
RPPOMLPLIILFFDQ09CA,古び琿,86.42,常カ
RPPOMLPLIILFFDQ09CA,古び琿,.28,常カ
RPQOMLPLIILFFDQ56CA,古び琿,.28,常カ
RPQOMLPLIILFFDQ56CA,古び琿,23.64,常カ
RPQOMLPLIILFFDQ56CA,古び琿,74.58,常カ
RPROMLPLIILFFDQ66CA,古び琿,23.64,常カ
RPROMLPLIILFFDQ66CA,古び琿,77.10,常カ
RPROMLPLIILFFDQ66CA,古び琿,.28,常カ
RPSOMLPLIILFFDQ76CA,古び琿,23.64,常カ
RPSOMLPLIILFFDQ76CA,古び琿,113.27,常カ
RPSOMLPLIILFFDQ76CA,古び琿,.28,常カ
RPOOMLQLIILFFDQ09CA,㎝砍琿,1680.54,獶常カ疭﹚笰穨跋 ; 獶常カ絪﹚笰ノ
RPPOMLQLIILFFDQ56CA,㎝砍琿,86.41,獶常カ疭﹚笰穨跋 ; 獶常カ絪﹚笰ノ
RPPOMLQLIILFFDQ56CA,㎝砍琿,43.20,獶常カ疭﹚笰穨跋 ; 獶常カ絪﹚笰ノ
RPPOMLQLIILFFDQ56CA,㎝砍琿,3016.85,獶常カ疭﹚笰穨跋 ; 獶常カ絪﹚笰ノ
RPPOMLQLIILFFDQ56CA,㎝砍琿,1508.42,獶常カ疭﹚笰穨跋 ; 獶常カ絪﹚笰ノ
RPPOMLQLIILFFDQ56CA,㎝砍琿,59.08,獶常カ疭﹚笰穨跋 ; 獶常カ絪﹚笰ノ
RPPOMLQLIILFFDQ56CA,㎝砍琿,29.54,獶常カ疭﹚笰穨跋 ; 獶常カ絪﹚笰ノ
RPPOMLQLIILFFDQ56CA,㎝砍琿,16666.67,獶常カ疭﹚笰穨跋 ; 獶常カ絪﹚笰ノ
RPPOMLQLIILFFDQ56CA,㎝砍琿,833.33,獶常カ疭﹚笰穨跋 ; 獶常カ絪﹚笰ノ
RPPOMLQLIILFFDQ56CA,㎝砍琿,459.14,獶常カ疭﹚笰穨跋 ; 獶常カ絪﹚ヒ贺縱ノ
RPPOMLQLIILFFDQ56CA,㎝砍琿,229.57,獶常カ疭﹚笰穨跋 ; 獶常カ絪﹚ヒ贺縱ノ
RPPOMLQLIILFFDQ56CA,㎝砍琿,43.02,獶常カ疭﹚笰穨跋 ; 獶常カ絪﹚笰ノ
RPPOMLQLIILFFDQ56CA,㎝砍琿,21.51,獶常カ疭﹚笰穨跋 ; 獶常カ絪﹚笰ノ
RPTNMLLMIILFFDQ09CA,古び琿,23.64,常カ
RPTNMLLMIILFFDQ09CA,古び琿,76.50,常カ
RPTNMLLMIILFFDQ09CA,古び琿,.28,常カ
RPQNMLTKIILFFCQ66CA,砍琿,69.60,常カ
RPQNMLTKIILFFCQ66CA,砍琿,11.89,常カㄤ
RPSNMLNLIILFFCQ98CA,チゅ琿,72.63,常カ
RPQNMLLJJILFFCQ48CA,チ琿,100.00,常カ
RPSNMLLMIILFFCQ88CA,竡砍琿,10.72,常カ
RPPPMLLKIILFFCQ58CA,穝翠琿砍琿,141.00,常カ
RPQPMLLKIILFFCQ68CA,竃匪琿,2061.00,獶常カ疭﹚笰穨跋 ; 獶常カ絪﹚笰ノ
RPQNMLQLIILFFBQ98CA,古Φ琿,6.74,常カ
RPPNMLLKIILFFBQ28CA,蛮瞇琿蛮瞇琿,698.00,獶常カ疭﹚笰穨跋 ; 獶常カ絪﹚笰ノ
RPQNMLLKIILFFBQ38CA,キ㎝琿,43.94,常カ坝
RPTNMLRKIILFFBQ66CA,λ竲琿,238.75,獶常カ秏跋 ; 獶常カ絪﹚贺縱ノ
RPTNMLRKIILFFBQ66CA,λ竲琿,1182.42,獶常カ秏跋 ; 獶常カ絪﹚贺縱ノ
RPTNMLRKIILFFBQ66CA,λ竲琿,56.25,獶常カ笰穨跋 ; 獶常カ絪﹚ノ
RPPNMLMLIILFFCQ58CA,兼┏琿兼┏琿,1.00,常カ
RPPNMLMLIILFFCQ58CA,兼┏琿兼┏琿,1.25,常カ
RPPNMLMLIILFFCQ58CA,兼┏琿兼┏琿,23.80,常カ
RPPNMLMLIILFFCQ58CA,兼┏琿兼┏琿,1.23,常カ
SPPNMLMLIILFFCQ68CA,兼┏琿兼┏琿,.10,常カ
RPSNMLOKIILFFCQ98CA,盵琿М盵琿,4306.00,獶常カ疭﹚笰穨跋 ; 獶常カ絪﹚笰ノ
RPSNMLQLIILFFCQ66CA,砍琿,83.54,常カ
RPSNMLQLIILFFCQ66CA,砍琿,1.52,常カ
RPVNMLNJJILFFDQ66CA,穝榜琿,19.29,獶常カ ; 獶常カ絪﹚
RPVNMLNJJILFFDQ66CA,穝榜琿,78.00,獶常カ ; 獶常カ絪﹚
RPVNMLNJJILFFDQ66CA,穝榜琿,1.50,獶常カ ; 獶常カ絪﹚
RPVNMLNJJILFFDQ66CA,穝榜琿,1.92,獶常カ ; 獶常カ絪﹚
RPVNMLNJJILFFDQ66CA,穝榜琿穝榜琿,3.62,獶常カ ; 獶常カ絪﹚
RPVNMLNJJILFFDQ66CA,穝榜琿穝榜琿,1.46,獶常カ ; 獶常カ絪﹚
RPVNMLNJJILFFDQ66CA,穝榜琿穝榜琿,1.00,獶常カ ; 獶常カ絪﹚
RPWNMLNJJILFFDQ76CA,穝榜琿,19.29,獶常カ ; 獶常カ絪﹚
RPWNMLNJJILFFDQ76CA,穝榜琿,81.00,獶常カ ; 獶常カ絪﹚
RPWNMLNJJILFFDQ76CA,穝榜琿,1.92,獶常カ ; 獶常カ絪﹚
RPWNMLNJJILFFDQ76CA,穝榜琿穝榜琿,3.62,獶常カ ; 獶常カ絪﹚
RPWNMLNJJILFFDQ76CA,穝榜琿穝榜琿,1.46,獶常カ ; 獶常カ絪﹚
RPWNMLNJJILFFDQ76CA,穝榜琿穝榜琿,1.00,獶常カ ; 獶常カ絪﹚
RPSNMLRKIILFFDQ76CA,穝榜琿,35.88,獶常カ秏跋 ; 獶常カ絪﹚贺縱ノ
RPSNMLRKIILFFDQ76CA,穝榜琿,10.89,獶常カ秏跋 ; 獶常カ絪﹚贺縱ノ
RPSNMLRKIILFFDQ76CA,穝榜琿,.23,獶常カ秏跋 ; 獶常カ絪﹚贺縱ノ
RPPNMLNKIILFFBQ58DA,ず琿,334.00,常カ
RPPNMLKLIILFFEQ58CA,馞竲琿,3026.50,獶常カ笰穨跋 ; 獶常カ絪﹚笰ノ
RPSNMLPKIILFFEQ66CA,芖琿,94.39,獶常カ秏跋 ; 獶常カ絪﹚贺縱ノ
RPPNMLOKIILFFEQ88CA,そバ琿,162.00,獶常カ此狶跋 ; 獶常カ絪﹚笰ノ
RPPNMLOKIILFFEQ88CA,そバ琿,123.67,獶常カ此狶跋 ; 獶常カ絪﹚笰ノ
RPPNMLOKIILFFEQ88CA,そバ琿,75.67,獶常カ此狶跋 ; 獶常カ絪﹚笰ノ
RPQNMLLMIILFFEQ88CA,玭琿,3693.37,獶常カ笰穨跋 ; 獶常カ絪﹚笰ノ
RPPNMLRKIILFFDQ56DA,λ庱琿猀λ琿,2100.00,獶常カ疭﹚笰穨跋 ; 獶常カ絪﹚笰ノ
RPPNMLMKIILFFDQ68DA,穝榜琿,35.88,獶常カ秏跋 ; 獶常カ絪﹚贺縱ノ
RPPNMLMKIILFFDQ68DA,穝榜琿,.23,獶常カ秏跋 ; 獶常カ絪﹚贺縱ノ
RPPNMLMKIILFFDQ68DA,穝榜琿,10.89,獶常カ秏跋 ; 獶常カ絪﹚贺縱ノ
RPPNMLNKIILFFCQ68DA,╭狶琿,727.61,獶常カ秏跋 ; 獶常カ絪﹚贺縱ノ
RPPNMLOKIILFFCQ78DA,い琿,63.00,獶常カ秏跋 ; 獶常カ絪﹚贺縱ノ
RPRNMLNKIILFFCQ98EA,褐琿,37.21,常カ
RPTNMLNKIILFFCQ56EA,翠狥琿,140.00,常カ
RPQNMLNLIILFFEQ98CA,礷兼琿,5882.00,獶常カ℡玂▅跋 ; 獶常カ絪﹚笰ノ
RPRNMLOKIILFFEQ09CA,ず瓾琿,6193.00,獶常カ℡玂▅跋 ; 獶常カ絪﹚笰ノ
RPPNMLPKIILFFEQ98CA,宾狥琿,89.00,常カ
RPRNMLPKIILFFEQ56CA,宾琿,535.00,常カ
RPQNMLTKIILFFDQ76CA,纓︱琿购琿,1500.00,獶常カ疭﹚笰穨跋 ; 獶常カ絪﹚笰ノ
RPQNMLTKIILFFDQ76CA,纓︱琿λ琿,2399.00,獶常カ疭﹚笰穨跋 ; 獶常カ絪﹚笰ノ
RPPNMLOKIILFFDQ78CA,纓︱琿,285.00,獶常カ秏跋 ; 獶常カ絪﹚贺縱ノ
RPQOMLSLIILFFDQ86CA,㎝砍琿,53.20,獶常カ秏跋 ; 獶常カ絪﹚贺縱ノ
RPVNMLLJJILFFDQ09CA,彩匪琿彩匪琿,696.00,常カ
RPVNMLLJJILFFDQ09CA,彩匪琿彩匪琿,81.00,常カㄤ
RPVNMLLJJILFFDQ09CA,彩匪琿彩匪琿,493.00,常カ
RPVNMLLJJILFFDQ09CA,彩匪琿彩匪琿,731.00,常カ
RPVNMLLJJILFFDQ09CA,彩匪琿彩匪琿,80.00,常カㄤ
RPVNMLLJJILFFDQ09CA,彩匪琿彩匪琿,460.00,常カ
RPTNMLOKIILFFCQ09CA,匪琿匪琿,603.00,常カ笰
RPRNMLKMIILFFCQ68CA,褐贾琿,53.02,常カ
RPRNMLKMIILFFCQ68CA,褐贾琿,2.70,常カ
RPQNMLLMIILFFCQ68CA,チ琿,66.50,常カ
RPQNMLRKIILFFBQ98CA,穝ネ琿,90.15,常カ
RPQNMLSKIILFFBQ09CA,蛮匪琿ㄢ匪琿,90.00,獶常カ疭﹚笰穨跋 ; 獶常カ絪﹚ヒ贺縱ノ
RPQNMLSKIILFFBQ09CA,蛮匪琿ㄢ匪琿,13.00,獶常カ疭﹚笰穨跋 ; 獶常カ絪﹚ヒ贺縱ノ
RPRNMLSKIILFFBQ56CA,λ竲琿λ古琿,2686.00,獶常カ疭﹚笰穨跋 ; 獶常カ絪﹚笰ノ
RPPNMLPLIILFFBQ78CA,ǎ纒琿,82.97,常カ坝
RPRNMLKMIILFFBQ58CA,紈琿,1.71,常カ
RPRNMLKMIILFFBQ58CA,紈琿,6.71,常カ
RPRNMLKMIILFFBQ58CA,紈琿,15.02,常カ
RPRNMLKMIILFFBQ58CA,紈琿,65.00,常カ
RPPNMLRKIILFFEQ76EA,そ堕琿,530.71,常カ笰
RPPNMLRJJILFFCQ56EA,ゆ琿,242.00,獶常カ疭﹚笰穨跋 ; 獶常カ絪﹚笰ノ
RPSNMLKMIILFFBQ68CA,穝ネ琿,192.87,常カ坝
RPTNMLKMIILFFBQ78CA,穝ネ琿,192.87,常カ坝
RPSNMLRKIILFFBQ56CA,穝琿,791.23,常カㄤ
RPSNMLRKIILFFBQ56CA,穝琿,187.08,常カㄤ
RPSNMLRKIILFFBQ56CA,穝琿,1002.29,常カ
RPSNMLRKIILFFBQ56CA,穝琿,1127.73,常カ
RPRNMLMKJILFFCQ78CA,チ琿,100.00,常カ
RPSNMLMKJILFFCQ88CA,チ琿,102.00,常カ
RPTNMLMKJILFFCQ98CA,チ琿,102.00,常カ
RPUNMLMKJILFFCQ09CA,チ琿,54.50,常カ
RPUNMLMKJILFFCQ09CA,チ琿,54.50,常カ
RPUNMLMKJILFFCQ09CA,チ琿,2.50,常カ
RPUNMLMKJILFFCQ09CA,チ琿,2.50,常カ
RPVNMLLJJILFFCQ98CA,い琿,32.15,獶常カ穨跋 ; 獶常カ絪﹚贺縱ノ
RPQNMLRKIILFFCQ09CA,狾繷琿,1058.00,獶常カ疭﹚笰穨跋 ; 獶常カ絪﹚ノ
RPUNMLNKIILFFCQ09CA,繷琿,79.49,獶常カ秏跋 ; 獶常カ絪﹚贺縱ノ
RPQNMLPKIILFFEQ09CA,藎琿,1172.00,獶常カ℡玂▅跋 ; 獶常カ絪﹚笰ノ
RPQNMLPKIILFFEQ09CA,藎琿,1785.00,獶常カ℡玂▅跋 ; 獶常カ絪﹚笰ノ
RPQNMLPKIILFFEQ09CA,藎琿,652.00,獶常カ℡玂▅跋 ; 獶常カ絪﹚贺縱ノ
RPPNMLSLIILFFEQ76CA,纒泊狶琿,1020.00,獶常カ℡玂▅跋 ; 獶常カ絪﹚狶穨ノ
RPPNMLKMIILFFEQ68CA,芖琿,99.08,獶常カ笰穨跋 ; 獶常カ絪﹚ヒ贺縱ノ
RPRNMLOKIILFFBQ88DA,せ竲琿,74.17,獶常カ秏跋 ; 獶常カ絪﹚贺縱ノ
RPSNMLOKIILFFBQ98DA,糳琿,243.50,獶常カ笰穨跋 ; 獶常カ絪﹚笰ノ
RPSNMLOKIILFFBQ98DA,糳琿,1562.00,獶常カ笰穨跋 ; 獶常カ絪﹚笰ノ
RPRNMLRKIILFFCQ76EA,い狶琿,74.00,獶常カ秏跋 ; 獶常カ絪﹚贺縱ノ
RPRNMLRKIILFFCQ76EA,い狶琿,22.53,獶常カ秏跋 ; 獶常カ絪﹚贺縱ノ
RPSNMLOKIILFFDQ56DA,伦琿伦琿,5959.00,獶常カ疭﹚笰穨跋 ; 獶常カ絪﹚緄崔ノ
RPQNMLOKIILFFCQ88DA,盵Ю琿盵Ю琿,79.25,獶常カ秏跋 ; 獶常カ絪﹚贺縱ノ
RPQNMLOKIILFFCQ88DA,盵Ю琿盵Ю琿,18.33,獶常カ秏跋 ; 獶常カ絪﹚ユ硄ノ
RPQNMLOKIILFFCQ88DA,盵Ю琿盵Ю琿,57.25,獶常カ秏跋 ; 獶常カ絪﹚贺縱ノ
RPRNMLTJJILFFCQ86DA,打琿,12.00,獶常カ秏跋 ; 獶常カ絪﹚贺縱ノ
RPRNMLTJJILFFCQ86DA,打琿,97.00,獶常カ秏跋 ; 獶常カ絪﹚贺縱ノ
RPPNMLRKIILFFCQ09DA,い琿,628.10,獶常カ穨跋 ; 獶常カ絪﹚贺縱ノ
RPSNMLMLIILFFEQ09CA,宾玭琿,196.39,常カ
RPTNMLMLIILFFEQ56CA,宾玭琿,106.36,常カ
RPTNMLMLIILFFEQ56CA,宾玭琿,105.72,常カ
RPTNMLPKIILFFEQ76CA,ぱ糳琿,936.74,獶常カ℡玂▅跋 ; 獶常カ絪﹚笰ノ
RPTNMLPKIILFFEQ76CA,ぱ糳琿,4137.29,獶常カ℡玂▅跋 ; 獶常カ絪﹚笰ノ
RPPNMLKLIILFFDQ48CA,匪瑆琿匪瑆琿,69.00,常カ
RPPNMLKLIILFFDQ48CA,匪瑆琿匪瑆琿,32.00,常カ
RPRNMLSKIILFFDQ76CA,筁肪琿筁肪琿,14.00,常カ坝
RPRNMLSKIILFFDQ76CA,筁肪琿筁肪琿,191.00,常カ坝
RPRNMLNJJILFFCQ78CA,ッ窼琿,6.00,常カ
RPUNMLRKIILFFBQ76CA,纒惦兼琿纒惦琿,3487.00,獶常カ疭﹚笰穨跋 ; 獶常カ絪﹚笰ノ
RPPNMLTKIILFFBQ09CA,穝ネ琿,101.25,常カ
RPPNMLTKIILFFBQ09CA,穝ネ琿,101.25,常カ
RPUNMLLLIILFFBQ88CA,せ琿,14.70,常カ
RPUNMLLLIILFFBQ88CA,せ琿,81.00,常カ
RPSNMLSLIILFFBQ76CA,秏琿,68.02,獶常カ秏跋 ; 獶常カ絪﹚贺縱ノ
RPPNMLQJJILFFBQ78CA,珼芖琿猀宾琿,48.16,獶常カ ; 獶常カ絪﹚
RPPOMLSJJILFFBQ09CA,穝ネ琿,107.80,常カ
RPPNMLTKIILFFEQ96EA,ニ瓾琿,3346.00,獶常カ℡玂▅跋 ; 獶常カ絪﹚笰ノ
RPQNMLTKIILFFEQ07EA,ニ瓾琿,2047.00,獶常カ℡玂▅跋 ; 獶常カ絪﹚笰ノ
RPRNMLRKIILFFEQ96EA,打琿,2517.00,獶常カ此狶跋 ; 獶常カ絪﹚笰ノ
RPRNMLRKIILFFEQ96EA,打琿,2518.00,獶常カ此狶跋 ; 獶常カ絪﹚笰ノ
RPSNMLRKIILFFEQ07EA,打琿,2518.00,獶常カ此狶跋 ; 獶常カ絪﹚笰ノ
RPSNMLRKIILFFEQ07EA,打琿,2518.00,獶常カ此狶跋 ; 獶常カ絪﹚笰ノ
RPSNMLOLIILFFCQ66EA,る兼琿る兼琿,1910.00,獶常カ疭﹚笰穨跋 ; 獶常カ絪﹚笰ノ
RPPNMLNLIILFFBQ58CA,λ竲琿λ古琿,1440.00,獶常カ疭﹚笰穨跋 ; 獶常カ絪﹚笰ノ
RPUNMLOLIILFFBQ56CA,腐琿,204.28,獶常カ秏跋 ; 獶常カ絪﹚贺縱ノ
RPUNMLOLIILFFBQ56CA,腐琿,21.17,獶常カ秏跋 ; 獶常カ絪﹚贺縱ノ
RPUNMLOLIILFFBQ56CA,腐琿,34.57,獶常カ秏跋 ; 獶常カ絪﹚贺縱ノ
RPPNMLKMIILFFCQ48CA,╭狶琿,1084.07,獶常カ秏跋 ; 獶常カ絪﹚贺縱ノ
RPTOMLPKJILFFCQ76CA,チ琿,103.00,常カ
RPQNMLMLIILFFCQ68CA,狶琿,130.00,常カ
RPXNMLKLIILFFCQ56CA,蛮穿琿,241.00,獶常カ疭﹚笰穨跋 ; 獶常カ絪﹚ヒ贺縱ノ
RPSNMLPLIILFFCQ56CA,穝瓾琿,92.70,獶常カ秏跋 ; 獶常カ絪﹚贺縱ノ
RPTNMLPLIILFFCQ66CA,肪璉琿肪璉琿,40.50,獶常カ疭﹚笰穨跋 ; 獶常カ絪﹚笰ノ
RPPNMLTKIILFFDQ66CA,㎝匪琿,629.22,獶常カ疭﹚笰穨跋 ; 獶常カ絪﹚笰ノ
RPRNMLTKIILFFDQ86CA,糳穝琿,62.47,獶常カ秏跋 ; 獶常カ絪﹚贺縱ノ
RPTNMLLLIILFFDQ98CA,穝礷糳琿,254.80,獶常カ秏跋 ; 獶常カ絪﹚贺縱ノ
RPVNMLLMIILFFDQ66CA,琿,3244.00,獶常カ℡玂▅跋 ; 獶常カ絪﹚笰ノ
RPWNMLLMIILFFDQ76CA,琿,3244.00,獶常カ℡玂▅跋 ; 獶常カ絪﹚笰ノ
RPPNMLPJJILFFDQ88CA,㎝冻琿,18.92,獶常カ秏跋 ; 獶常カ絪﹚贺縱ノ
RPPNMLPJJILFFDQ88CA,㎝冻琿,82.10,獶常カ秏跋 ; 獶常カ絪﹚贺縱ノ
RPPNMLSKIILFFEQ66CA,礷隔琿,4808.00,獶常カ笰穨跋 ; 獶常カ絪﹚贺縱ノ
RPPNMLLLIILFFBQ48DA,匪醂琿タ竡琿,2704.00,獶常カ疭﹚笰穨跋 ; 獶常カ絪﹚笰ノ
RPRNMLKLIILFFDQ78DA,穝榜琿穝榜琿,1619.00,獶常カ疭﹚笰穨跋 ; 獶常カ絪﹚笰ノ
RPSNMLRKIILFFCQ86EA,盩琿,68.56,常カ
RPSNMLRKIILFFCQ86EA,盩琿,15.63,常カ
RPQNMLKKJILFFBQ58EA,马琿,85.50,常カ
RPSNMLTKIILFFDQ07DA,筁肪琿筁肪琿,2621.00,獶常カ疭﹚笰穨跋 ; 獶常カ絪﹚笰ノ
RPSNMLTKIILFFDQ07DA,筁肪琿筁肪琿,2621.00,獶常カ疭﹚笰穨跋 ; 獶常カ絪﹚笰ノ
RPWNMLLLIILFFBQ56DA,砍琿,66.05,獶常カ秏跋 ; 獶常カ絪﹚贺縱ノ
RPTNMLMJJILFFDQ98CA,┚㎝琿,87.10,獶常カ秏跋 ; 獶常カ絪﹚贺縱ノ
RPROMLLLIILFFDQ88CA,玭箃琿玭㎝琿,110.00,獶常カ疭﹚笰穨跋 ; 獶常カ絪﹚ヒ贺縱ノ
RPRNMLPLIILFFCQ09CA,褐琿,60.54,常カ
RPSNMLKLIILFFCQ68CA,﹁琿,94.00,獶常カ疭﹚笰穨跋 ; 獶常カ絪﹚ヒ贺縱ノ
RPTNMLKLIILFFCQ78CA,﹁琿,126.00,獶常カ疭﹚笰穨跋 ; 獶常カ絪﹚ヒ贺縱ノ
RPUNMLKLIILFFCQ88CA,﹁琿,96.00,獶常カ疭﹚笰穨跋 ; 獶常カ絪﹚ヒ贺縱ノ
RPRNMLTKIILFFCQ76CA,穝砍琿穝砍琿,20.18,常カ
RPRNMLTKIILFFCQ76CA,穝砍琿穝砍琿,97.18,常カ
RPPOMLKLIILFFCQ48CA,褐玭琿,22.74,常カ
RPVNMLOLIILFFBQ66CA,腐琿,34.57,獶常カ秏跋 ; 獶常カ絪﹚贺縱ノ
RPVNMLOLIILFFBQ66CA,腐琿,21.17,獶常カ秏跋 ; 獶常カ絪﹚贺縱ノ
RPVNMLOLIILFFBQ66CA,腐琿,205.37,獶常カ秏跋 ; 獶常カ絪﹚贺縱ノ
RPQNMLTKIILFFBQ56CA,à盿瞅琿盿瞅琿,1300.00,常カ笰
RPPNMLOJJILFFBQ58CA,筁隔琿筁隔琿,991.50,獶常カ疭﹚笰穨跋 ; 獶常カ絪﹚笰ノ
RPPNMLPJJILFFBQ68CA,蛮匪琿蛮匪琿,69.54,獶常カ秏跋 ; 獶常カ絪﹚贺縱ノ
RPPNMLLJJILFFBQ28CA,兼醂琿,184.63,獶常カ秏跋 ; 獶常カ絪﹚贺縱ノ
RPPNMLKKJILFFBQ28CA,ず琿,91.23,常カ
RPPNMLKLIILFFBQ28CA,キ㎝琿,30.00,常カㄤ
RPPNMLKLIILFFBQ28CA,キ㎝琿,97.80,常カㄤ
RPPNMLKLIILFFBQ28CA,キ㎝琿,7.20,常カㄤ
RPQNMLLLIILFFBQ48CA,─竲琿,98.00,常カ
RPQOMLKLIILFFCQ58CA,﹁琿,20.58,常カ
RPQOMLKLIILFFCQ58CA,﹁琿,106.70,常カ
RPQNMLKLIILFFCQ48CA,打琿,2000.00,獶常カ疭﹚笰穨跋 ; 獶常カ絪﹚笰ノ
RPRNMLKLIILFFCQ58CA,底瓾琿い㎝琿,2402.00,獶常カ疭﹚笰穨跋 ; 獶常カ絪﹚笰ノ
RPOOMLKLIILFFCQ38CA,舼匪琿,30.96,獶常カ秏跋 ; 獶常カ絪﹚贺縱ノ
RPQNMLNLIILFFCQ78CA,砍琿,92.14,常カ
RPXNMLRLIILFFCQ27CA,褐玭琿,11.74,常カ
RPXNMLRLIILFFCQ27CA,褐玭琿,71.89,常カ
RPTNMLKLIILFFDQ88CA,狥穝琿,132.00,常カ
RPUNMLKLIILFFDQ98CA,狥穝琿,132.00,常カ
RPVNMLLLIILFFBQ09DA,籟繷琿籟狥琿,2987.00,獶常カ疭﹚笰穨跋 ; 獶常カ絪﹚笰ノ
RPSNMLOLIILFFBQ09DA,盰琿盰琿,1624.50,獶常カ疭﹚笰穨跋 ; 獶常カ絪﹚笰ノ
RPTNMLOLIILFFBQ56DA,盰琿盰琿,1624.50,獶常カ疭﹚笰穨跋 ; 獶常カ絪﹚笰ノ
RPPNMLLKJILFFEQ68CA,￤琿,402.00,獶常カ℡玂▅跋 ; 獶常カ絪﹚笰ノ
RPPNMLLKJILFFEQ68CA,￤琿,127.00,獶常カ℡玂▅跋 ; 獶常カ絪﹚贺縱ノ
RPRNMLLLIILFFEQ88CA,ず瓾琿,236.19,獶常カ秏跋 ; 獶常カ絪﹚贺縱ノ
RPPNMLLLIILFFEQ68CA,絭糳琿,1807.00,獶常カ℡玂▅跋 ; 獶常カ絪﹚笰ノ
RPPNMLLLIILFFEQ68CA,絭糳琿,5.00,獶常カ℡玂▅跋 ; 獶常カ絪﹚笰ノ
RPQNMLLLIILFFDQ78DA,庱琿庱琿,1824.00,獶常カ疭﹚笰穨跋 ; 獶常カ絪﹚笰ノ
RPSNMLOLIILFFDQ66DA,琿,20.08,常カ
RPSOMLQLIILFFDQ96DA,琱狶琿,21.00,獶常カ笰穨跋 ; 獶常カ絪﹚ヒ贺縱ノ
RPSOMLQLIILFFDQ96DA,琱狶琿,93.51,獶常カ笰穨跋 ; 獶常カ絪﹚ヒ贺縱ノ
RPQNMLLKJILFFDQ78DA,玭箃琿玭㎝琿,74.00,獶常カ秏跋 ; 獶常カ絪﹚贺縱ノ
RPPNMLOLIILFFEQ09DA,き丁琿,2761.51,獶常カ笰穨跋 ; 獶常カ絪﹚笰ノ
RPPNMLOLIILFFEQ09DA,き丁琿,100.15,獶常カ笰穨跋 ; 獶常カ絪﹚笰ノ
RPQOMLLLIILFFDQ88DA,琱秏琿,82.90,獶常カ秏跋 ; 獶常カ絪﹚贺縱ノ
RPPNMLLLIILFFDQ68DA,忱琿忱狥琿,3564.00,獶常カ疭﹚笰穨跋 ; 獶常カ絪﹚笰ノ
RPWNMLKLIILFFCQ66EA,盩竲琿,2844.00,常カ笰
RPQNMLLLIILFFEQ78CA,㎝キ琿,84.67,常カ
RPRNMLKLIILFFEQ78CA,盩竲琿,63.10,獶常カ秏跋 ; 獶常カ絪﹚贺縱ノ
RPQNMLOLIILFFEQ09CA,ず聕琿,11.20,常カ笰
RPQNMLOLIILFFEQ09CA,ず聕琿,49.60,常カㄤ
RPQNMLOLIILFFEQ09CA,ず聕琿,2575.00,常カ笰
RPQNMLOLIILFFEQ09CA,ず聕琿,340.50,常カ笰
RPPNMLOLIILFFBQ78DA,く㎝琿,267.97,獶常カ疭﹚笰穨跋 ; 獶常カ絪﹚笰ノ
RPPNMLMJJILFFBQ48DA,匪琿,231.90,獶常カ秏跋 ; 獶常カ絪﹚贺縱ノ
RPRNMLOLIILFFDQ09CA,㎝冻琿,94.78,獶常カ秏跋 ; 獶常カ絪﹚贺縱ノ
RPSNMLPLIILFFDQ66CA,┚㎝琿,105.23,獶常カ秏跋 ; 獶常カ絪﹚贺縱ノ
RPPOMLSLIILFFDQ76CA,琱秏琿,35.14,獶常カ秏跋 ; 獶常カ絪﹚贺縱ノ
RPQNMLKMIILFFDQ68CA,玭琿,80.38,常カ
RPUOMLQLIILFFDQ07CA,┚竡琿,24.87,常カㄤ
RPUOMLQLIILFFDQ07CA,┚竡琿,77.88,常カ
RPXNMLPKJILFFDQ17CA,糴琿,70.37,獶常カ秏跋 ; 獶常カ絪﹚贺縱ノ
RPUNMLSLIILFFCQ07CA,チ砍琿,2.17,常カ
RPUNMLSLIILFFCQ07CA,チ砍琿,2.15,常カ
RPUNMLSLIILFFCQ07CA,チ砍琿,40.33,常カ
RPUNMLSLIILFFCQ07CA,チ砍琿,7.98,常カ
RPUNMLSLIILFFCQ07CA,チ砍琿,.45,常カ
RPUNMLSLIILFFCQ07CA,チ砍琿,.00,常カ
RPWNMLSLIILFFCQ27CA,チ琿,94.67,常カ笰
RPWNMLQLIILFFCQ07CA,狶繷琿,869.00,獶常カ疭﹚笰穨跋 ; 獶常カ絪﹚笰ノ
RPXNMLQLIILFFCQ17CA,キ狶琿,20.16,常カ
RPRNMLOLIILFFCQ98CA,盵郴琿,285.00,獶常カ秏跋 ; 獶常カ絪﹚贺縱ノ
RPXNMLPLIILFFCQ07CA,穝绍琿,77.98,獶常カ秏跋 ; 獶常カ絪﹚贺縱ノ
RPPNMLLLIILFFCQ48CA,肪璉琿,87.00,獶常カ秏跋 ; 獶常カ絪﹚贺縱ノ
RPQNMLTJJILFFCQ66CA,竃匪琿,3262.00,獶常カ疭﹚笰穨跋 ; 獶常カ絪﹚笰ノ
RPQNMLMKJILFFCQ68CA,﹁琿,85.87,獶常カ疭﹚笰穨跋 ; 獶常カ絪﹚ヒ贺縱ノ
RPUNMLMJJILFFCQ98CA,せ砍琿,3211.82,獶常カ笰穨跋 ; 獶常カ絪﹚笰ノ
RPRNMLLLIILFFBQ58CA,鐁猀琿鐁猀琿,12026.00,獶常カ笰穨跋 ; 獶常カ絪﹚笰ノ
RPQNMLOLIILFFBQ78CA,鶤穧琿秏琿,53.36,獶常カ秏跋 ; 獶常カ絪﹚贺縱ノ
RPQNMLOLIILFFBQ78CA,鶤穧琿秏琿,103.00,獶常カ秏跋 ; 獶常カ絪﹚贺縱ノ
RPRNMLQLIILFFBQ09CA,古Φ琿,10.09,常カ
RPRNMLQLIILFFBQ09CA,古Φ琿,10.09,常カ
RPPNMLLMIILFFBQ48CA,狶ず琿狶ず琿,1444.00,獶常カ疭﹚笰穨跋 ; 獶常カ絪﹚笰ノ
RPPNMLLMIILFFBQ48CA,触糳琿,75.50,獶常カ秏跋 ; 獶常カ絪﹚贺縱ノ
RPQNMLLKJILFFBQ48CA,盵琿狥盵琿,1042.50,獶常カ笰穨跋 ; 獶常カ絪﹚笰ノ
RPQNMLLKJILFFBQ48CA,盵琿狥盵琿,1042.50,獶常カ笰穨跋 ; 獶常カ絪﹚笰ノ
RPTNMLLKJILFFCQ09EA,褐砍琿,1.41,獶常カ秏跋 ; 獶常カ絪﹚贺縱ノ
RPTNMLLKJILFFCQ09EA,褐砍琿,138.82,獶常カ秏跋 ; 獶常カ絪﹚贺縱ノ
RPSNMLRLIILFFCQ96EA,礷琿礷琿,724.67,獶常カ疭﹚笰穨跋 ; 獶常カ絪﹚笰ノ
RPPNMLQLIILFFEQ76EA,宾玭琿,352.33,常カ笰
RPRNMLLKJILFFBQ58CA,紈琿,163.00,常カ
RPSNMLQKJILFFBQ56CA,兼醂琿兼琿,3593.33,獶常カ疭﹚笰穨跋 ; 獶常カ絪﹚笰ノ
RPQOMLSJJILFFBQ56CA,σ刚兼琿忱琿,490.00,獶常カ笰穨跋 ; 獶常カ絪﹚笰ノ
RPQNMLLJJILFFBQ38CA,﹎糳琿竡琿,2466.00,獶常カ疭﹚笰穨跋 ; 獶常カ絪﹚笰ノ
RPTNMLRLIILFFBQ76CA,翠Ю糳琿,39.47,獶常カ疭﹚笰穨跋 ; 獶常カ絪﹚笰ノ
RPTNMLRLIILFFBQ76CA,翠Ю糳琿,490.16,獶常カ疭﹚笰穨跋 ; 獶常カ絪﹚笰ノ
RPTNMLRLIILFFBQ76CA,翠Ю糳琿,484.11,獶常カ疭﹚笰穨跋 ; 獶常カ絪﹚笰ノ
RPRNMLSLIILFFBQ66CA,せゆЮ琿せゆ琿,92.45,獶常カ疭﹚笰穨跋 ; 獶常カ絪﹚ヒ贺縱ノ
RPRNMLSLIILFFBQ66CA,せゆЮ琿せゆ琿,17.70,獶常カ疭﹚笰穨跋 ; 獶常カ絪﹚ヒ贺縱ノ
RPRNMLSLIILFFBQ66CA,せゆЮ琿せゆ琿,1.78,獶常カ疭﹚笰穨跋 ; 獶常カ絪﹚ヒ贺縱ノ
RPSNMLPLIILFFBQ09CA,爵繷琿,132.10,獶常カ笰穨跋 ; 獶常カ絪﹚ノ
RPSNMLPLIILFFBQ09CA,爵繷琿,864.11,獶常カ笰穨跋 ; 獶常カ絪﹚ノ
RPSNMLPLIILFFBQ09CA,爵繷琿,1131.27,獶常カ笰穨跋 ; 獶常カ絪﹚ノ
RPSNMLKMIILFFCQ78CA,い琿,32.15,獶常カ穨跋 ; 獶常カ絪﹚贺縱ノ
RPRNMLKKJILFFCQ58CA,蛮穿琿,79.00,獶常カ疭﹚笰穨跋 ; 獶常カ絪﹚ヒ贺縱ノ
RPTNMLNLIILFFCQ09CA,┍琿砍い琿,67.00,常カ
RPUNMLNLIILFFCQ56CA,穝绍琿,44.61,獶常カ秏跋 ; 獶常カ絪﹚贺縱ノ
RPQNMLPLIILFFCQ98CA,い琿,132.00,獶常カ穨跋 ; 獶常カ絪﹚贺縱ノ
RPVNMLPLIILFFCQ86CA,翠﹁琿,134.00,常カ
RPWNMLPLIILFFCQ96CA,翠﹁琿,139.00,常カ
RPVNMLRLIILFFCQ07CA,兼┏琿兼┏琿,36.40,常カ
RPVNMLRLIILFFCQ07CA,兼┏琿兼┏琿,1.27,常カ
RPVNMLRLIILFFCQ07CA,兼┏琿兼┏琿,1.59,常カ
RPVNMLRLIILFFCQ07CA,兼┏琿兼┏琿,1.56,常カ
SPVNMLRLIILFFCQ17CA,兼┏琿兼┏琿,.12,常カ
RPXNMLSLIILFFCQ37CA,盩琿,96.07,獶常カ秏跋 ; 獶常カ絪﹚贺縱ノ
RPQNMLPLIILFFBQ98DA,稯琿,930.04,獶常カ笰穨跋 ; 獶常カ絪﹚緄崔ノ
RPRNMLLJJILFFEQ78CA,ず聕琿,253.00,常カ
RPQNMLOLIILFFDQ09DA,筁肪琿筁肪琿,14.94,常カ
RPQNMLOLIILFFDQ09DA,筁肪琿筁肪琿,90.00,常カ
RPTNMLQLIILFFDQ96DA,琿,94.00,獶常カ秏跋 ; 獶常カ絪﹚贺縱ノ
RPUNMLQLIILFFDQ07DA,㎝砍琿,5.54,常カ
RPUNMLQLIILFFDQ07DA,㎝砍琿,111.53,常カ
RPUNMLSLIILFFDQ27DA,榜秏琿,119.58,常カ
RPQNMLQLIILFFEQ66CA,ず瓾琿,251.33,獶常カ笰穨跋 ; 獶常カ絪﹚贺縱ノ
RPRNMLQLIILFFEQ76CA,忱骸琿,39.74,獶常カ笰穨跋 ; 獶常カ絪﹚ヒ贺縱ノ
RPRNMLQLIILFFEQ76CA,忱骸琿,34.16,獶常カ笰穨跋 ; 獶常カ絪﹚ノ
RPPNMLRLIILFFEQ66CA,罷哼打琿,206.00,獶常カ℡玂▅跋 ; 獶常カ絪﹚笰ノ
RPPNMLRLIILFFEQ66CA,罷哼打琿,86.00,獶常カ℡玂▅跋 ; 獶常カ絪﹚ユ硄ノ
RPQNMLKMIILFFEQ78CA,宾琿,3.00,常カ
RPRNMLLMIILFFDQ88CA,瓾琿,6.86,常カ
RPRNMLLMIILFFDQ88CA,瓾琿,20.21,常カ
RPRNMLLMIILFFDQ88CA,瓾琿,62.30,常カ
RPTNMLPLIILFFDQ76CA,瓾み琿瓾み琿,2158.00,獶常カ疭﹚笰穨跋 ; 獶常カ絪﹚笰ノ
RPRNMLPLIILFFDQ56CA,く琿,1894.88,獶常カ笰穨跋 ; 獶常カ絪﹚笰ノ
RPTNMLQLIILFFCQ76CA,穝绍琿,85.16,常カ笰
RPUNMLQLIILFFCQ86CA,穝绍琿,101.61,常カ笰
RPVNMLQLIILFFCQ96CA,穝绍琿,159.81,常カ笰
RPVNMLQLIILFFCQ96CA,穝绍琿,176.89,常カ笰
RPPNMLTKJILFFCQ66CA,褐玭琿,142.86,常カ
RPQNMLQLIILFFCQ09CA,╭狶琿,2.61,獶常カ秏跋 ; 獶常カ絪﹚贺縱ノ
RPQNMLQLIILFFCQ09CA,╭狶琿,58.83,獶常カ秏跋 ; 獶常カ絪﹚贺縱ノ
RPQNMLQLIILFFCQ09CA,╭狶琿,2.61,獶常カ秏跋 ; 獶常カ絪﹚贺縱ノ
RPQNMLQLIILFFCQ09CA,╭狶琿,58.83,獶常カ秏跋 ; 獶常カ絪﹚贺縱ノ
RPUNMLLMIILFFCQ09CA,瓣琿,19.00,獶常カ秏跋 ; 獶常カ絪﹚贺縱ノ
RPUNMLLMIILFFCQ09CA,瓣琿,68.00,獶常カ秏跋 ; 獶常カ絪﹚贺縱ノ
RPRNMLRLIILFFBQ56CA,せ竲琿,4250.00,獶常カ疭﹚笰穨跋 ; 獶常カ絪﹚笰ノ
RPVNMLLMIILFFBQ09CA,古Φ琿,7.60,常カ
RPQNMLQJJILFFBQ88CA,珼芖琿猀宾琿,2710.00,獶常カ疭﹚笰穨跋 ; 獶常カ絪﹚笰ノ
RPUNMLLMIILFFBQ98CA,ず琿,100.17,常カ
RPVNMLRLIILFFBQ96CA,古Φ琿,122.55,常カ
RPSNMLRLIILFFBQ66CA,紈琿,38.47,常カ
RPSNMLRLIILFFBQ66CA,紈琿,67.76,常カ
RPSNMLRLIILFFBQ66CA,紈琿,1.00,常カ
RPVNMLMJJILFFCQ09CA,チ笰琿,80.07,常カ
RPWNMLMJJILFFCQ56CA,チ笰琿,71.42,常カ
RPWNMLMJJILFFCQ56CA,チ笰琿,19.19,常カ
RPXNMLMJJILFFCQ66CA,チ笰琿,19.19,常カ
RPXNMLMJJILFFCQ66CA,チ笰琿,74.11,常カ
RPOOMLMJJILFFCQ48CA,チ笰琿,77.69,常カ
RPOOMLMJJILFFCQ48CA,チ笰琿,19.19,常カ
RPVOMLMJJILFFCQ56CA,チ笰琿,19.19,常カ
RPVOMLMJJILFFCQ56CA,チ笰琿,70.38,常カ
RPWOMLMJJILFFCQ66CA,チ笰琿,69.00,常カ
RPWOMLMJJILFFCQ66CA,チ笰琿,19.19,常カ
RPXOMLMJJILFFCQ76CA,チ笰琿,19.19,常カ
RPXOMLMJJILFFCQ76CA,チ笰琿,69.00,常カ
RPOPMLMJJILFFCQ58CA,チ笰琿,70.38,常カ
RPOPMLMJJILFFCQ58CA,チ笰琿,19.19,常カ
RPPPMLMJJILFFCQ68CA,チ笰琿,75.91,常カ
RPQPMLMJJILFFCQ78CA,チ笰琿,76.28,常カ
RPRNMLMJJILFFCQ68CA,チ笰琿,78.72,常カ
RPSNMLMJJILFFCQ78CA,チ笰琿,82.94,常カ
RPTNMLMJJILFFCQ88CA,せ砍琿,1899.88,獶常カ笰穨跋 ; 獶常カ絪﹚笰ノ
RPTOMLMJJILFFCQ98CA,チ琿,6322.00,常カ
RPPNMLSLIILFFCQ56CA,﹁绍琿﹁绍琿,2491.00,獶常カ疭﹚笰穨跋 ; 獶常カ絪﹚笰ノ
RPQNMLSLIILFFCQ66CA,﹁绍琿﹁绍琿,3352.00,獶常カ疭﹚笰穨跋 ; 獶常カ絪﹚笰ノ
RPQNMLRLIILFFCQ56CA,榜繷琿榜繷琿,1479.00,獶常カ疭﹚笰穨跋 ; 獶常カ絪﹚笰ノ
RPRNMLRLIILFFCQ66CA,榜繷琿榜繷琿,1479.00,獶常カ疭﹚笰穨跋 ; 獶常カ絪﹚笰ノ
RPPNMLQLIILFFCQ98CA,穝绍琿,3019.04,獶常カ笰穨跋 ; 獶常カ絪﹚笰ノ
RPPNMLRLIILFFDQ56CA,古び琿,5.74,常カ
RPPNMLRLIILFFDQ56CA,古び琿,74.46,常カ
RPPNMLRLIILFFDQ56CA,古び琿,464.26,常カ
RPVNMLPKJILFFDQ96CA,瓾琿,98.00,獶常カ秏跋 ; 獶常カ絪﹚贺縱ノ
RPQNMLMJJILFFEQ78CA,芖爵琿,5117.00,獶常カ℡玂▅跋 ; 獶常カ絪﹚笰ノ
RPPNMLQLIILFFBQ98DA,马琿,61.00,常カ
RPPNMLSLIILFFDQ76DA,狥琿,30.75,常カ坝
RPTNMLSLIILFFDQ17DA,┚㎝琿,91.16,獶常カ疭﹚笰穨跋 ; 獶常カ絪﹚ヒ贺縱ノ
RPQNMLKKJILFFCQ68EA,穝瓾琿,1064.95,獶常カ笰穨跋 ; 獶常カ絪﹚笰ノ
RPTNMLSLIILFFCQ17EA,盵琿,1100.00,獶常カ笰穨跋 ; 獶常カ絪﹚ノ
RPTNMLSLIILFFCQ17EA,盵琿,1100.00,獶常カ笰穨跋 ; 獶常カ絪﹚ノ
RPUNMLRLIILFFCQ07DA,舼匪琿,74.00,獶常カ秏跋 ; 獶常カ絪﹚贺縱ノ
RPQNMLLKJILFFEQ78CA,纒泊狶琿,1000.00,獶常カ℡玂▅跋 ; 獶常カ絪﹚狶穨ノ
RPPNMLMJJILFFEQ68CA,ニ瓾琿,1157.33,獶常カ℡玂▅跋 ; 獶常カ絪﹚笰ノ
RPUNMLRJJILFFDQ96CA,古び琿,119.72,常カ
RPUNMLRJJILFFDQ96CA,古び琿,23.64,常カ
RPUNMLRJJILFFDQ96CA,古び琿,.28,常カ
RPVNMLRJJILFFDQ07CA,古び琿,23.64,常カ
RPVNMLRJJILFFDQ07CA,古び琿,75.52,常カ
RPVNMLRJJILFFDQ07CA,古び琿,.28,常カ
RPPNMLMJJILFFDQ58CA,筁肪琿筁肪琿,82.00,常カ
RPVNMLRLIILFFDQ17CA,竃瓾琿,2589.00,獶常カ笰穨跋 ; 獶常カ絪﹚笰ノ
RPWNMLRLIILFFDQ27CA,竃瓾琿,4813.00,獶常カ笰穨跋 ; 獶常カ絪﹚笰ノ
RPRNMLSLIILFFDQ86CA,ホ繷琿,5181.00,獶常カ笰穨跋 ; 獶常カ絪﹚笰ノ
RPPNMLKMIILFFDQ58CA,瓾琿,4870.00,常カㄤ
RPPNMLKMIILFFDQ58CA,瓾琿,7900.00,常カㄤ
RPPNMLKMIILFFDQ58CA,瓾琿,2230.00,常カㄤ
RPOOMLQLIILFFCQ98CA,穝砍琿穝砍琿,102.26,常カ
RPOOMLQLIILFFCQ98CA,穝砍琿穝砍琿,34.40,常カ
RPRNMLSLIILFFCQ76CA,い琿,2412.00,獶常カ笰穨跋 ; 獶常カ絪﹚笰ノ
RPSNMLSLIILFFCQ86CA,﹁琿,100.00,獶常カ疭﹚笰穨跋 ; 獶常カ絪﹚ヒ贺縱ノ
RPVNMLSLIILFFCQ17CA,腑糳琿,142.00,獶常カ秏跋 ; 獶常カ絪﹚贺縱ノ
RPUNMLLJJILFFCQ88CA,﹁琿,116.10,常カ
RPUNMLLJJILFFCQ88CA,﹁琿,3.33,常カㄤ
RPRNMLOJJILFFCQ88CA,舼匪琿舼匪琿,1768.00,獶常カ疭﹚笰穨跋 ; 獶常カ絪﹚笰ノ
RPTOMLOLJILFFCQ76CA,竡砍琿,76.86,常カ笰
RPUOMLOLJILFFCQ86CA,チ琿,113.00,常カ
RPVOMLOLJILFFCQ96CA,チ琿,97.00,常カ
RPWOMLQKJILFFCQ17CA,繷爵琿穨琿,19.77,常カ
RPWOMLQKJILFFCQ17CA,砍琿,.01,常カ
RPWOMLQKJILFFCQ17CA,砍琿,2.57,常カ
RPUNMLRJJILFFCQ86CA,い琿,113.16,獶常カ穨跋 ; 獶常カ絪﹚贺縱ノ
RPQNMLRLIILFFBQ09CA,ǐ搁琿ǐ琿,3497.58,獶常カ笰穨跋 ; 獶常カ絪﹚笰ノ
RPRNMLLMIILFFBQ68CA,き丁琿不㎝琿,2623.86,獶常カ疭﹚笰穨跋 ; 獶常カ絪﹚笰ノ
RPSNMLLMIILFFBQ78CA,せゆЮ琿せゆ琿,18.73,獶常カ疭﹚笰穨跋 ; 獶常カ絪﹚ヒ贺縱ノ
RPSNMLLMIILFFBQ78CA,せゆЮ琿せゆ琿,99.70,獶常カ疭﹚笰穨跋 ; 獶常カ絪﹚ヒ贺縱ノ
RPTNMLLMIILFFBQ88CA,褐琿,62.30,常カ
RPOOMLPKJILFFCQ88CA,盵琿琱琿,87.00,獶常カ疭﹚笰穨跋 ; 獶常カ絪﹚ヒ贺縱ノ
RPRNMLTKJILFFCQ86CA,る兼琿る琿,63.00,獶常カ疭﹚笰穨跋 ; 獶常カ絪﹚ヒ贺縱ノ
RPPNMLOLJILFFCQ88CA,猀竲琿,1120.00,獶常カ笰穨跋 ; 獶常カ絪﹚笰ノ
RPPNMLPJJILFFCQ78CA,盵郴琿,29.67,獶常カ秏跋 ; 獶常カ絪﹚贺縱ノ
RPPNMLPJJILFFCQ78CA,盵郴琿,91.00,獶常カ秏跋 ; 獶常カ絪﹚贺縱ノ
RPTNMLNJJILFFCQ98CA,い琿,930.00,獶常カ笰穨跋 ; 獶常カ絪﹚ユ硄ノ
RPTNMLNJJILFFCQ98CA,い琿,338.00,獶常カ笰穨跋 ; 獶常カ絪﹚ユ硄ノ
RPQNMLSLIILFFDQ76CA,不㎝琿,4.76,常カ
RPSNMLMJJILFFDQ88CA,㎝冻琿,9.80,獶常カ秏跋 ; 獶常カ絪﹚贺縱ノ
RPSNMLMJJILFFDQ88CA,㎝冻琿,.10,獶常カ秏跋 ; 獶常カ絪﹚贺縱ノ
RPSNMLMJJILFFDQ88CA,㎝冻琿,88.10,獶常カ秏跋 ; 獶常カ絪﹚贺縱ノ
RPSNMLMJJILFFDQ88CA,㎝冻琿,15.06,獶常カ秏跋 ; 獶常カ絪﹚贺縱ノ
RPTNMLOLJILFFDQ76CA,﹁琿,19.61,常カㄤ
RPTNMLOLJILFFDQ76CA,﹁琿,203.25,常カ
RPRNMLMJJILFFEQ88CA,狶琿,1802.00,獶常カ此狶跋 ; 獶常カ絪﹚笰ノ
RPRNMLMJJILFFEQ88CA,狶琿,332.00,獶常カ此狶跋 ; 獶常カ絪﹚笰ノ
RPPNMLLMIILFFEQ78CA,礷兼琿,431.00,獶常カ笰穨跋 ; 獶常カ絪﹚贺縱ノ
RPOOMLRLIILFFCQ56DA,狾繷琿,1430.00,獶常カ ; 獶常カ絪﹚
RPOOMLRLIILFFCQ56DA,狾繷琿,1214.00,獶常カ ; 獶常カ絪﹚
RPSNMLNJJILFFCQ98DA,褐琿,26.74,常カ
RPPNMLLMIILFFCQ78EA,村琿村﹁琿,2393.00,獶常カ疭﹚笰穨跋 ; 獶常カ絪﹚笰ノ
RPRNMLLMIILFFCQ98EA,琱肪琿玭箃琿,123.00,獶常カ秏跋 ; 獶常カ絪﹚贺縱ノ
RPTNMLLJJILFFCQ98EA,丁琿,59.00,獶常カ笰穨跋 ; 獶常カ絪﹚ヒ贺縱ノ
RPUNMLNJJILFFCQ66EA,い瑅琿,2214.00,獶常カ疭﹚笰穨跋 ; 獶常カ絪﹚笰ノ
RPVNMLQKJILFFCQ17EA,盩琿,705.48,獶常カ笰穨跋 ; 獶常カ絪﹚笰ノ
RPVNMLQKJILFFCQ17EA,盩琿,25.71,獶常カ笰穨跋 ; 獶常カ絪﹚笰ノ
RPVNMLQKJILFFCQ17EA,盩琿,1181.62,常カ笰
RPVNMLQKJILFFCQ17EA,盩琿,.35,獶常カ笰穨跋 ; 獶常カ絪﹚笰ノ
RPVNMLQKJILFFCQ17EA,盩琿,255.43,常カ笰
RPWNMLOKJILFFCQ96DA,チ琿,8.00,常カ
RPWNMLOKJILFFCQ96DA,チ琿,99.00,常カ
RPOOMLSLIILFFDQ76DA,糳穝琿,490.00,獶常カ疭﹚笰穨跋 ; 獶常カ絪﹚笰ノ
RPUNMLLMIILFFDQ66DA,琱穝琿,78.79,獶常カ秏跋 ; 獶常カ絪﹚贺縱ノ
RPRNMLLJJILFFDQ78DA,せ琿そ鷀琿,185.33,獶常カ疭﹚笰穨跋 ; 獶常カ絪﹚笰ノ
RPQNMLNJJILFFEQ88CA,繷琿,537.00,獶常カ℡玂▅跋 ; 獶常カ絪﹚笰ノ
RPRNMLLMIILFFEQ98CA,ニ瓾琿,3360.00,獶常カ笰穨跋 ; 獶常カ絪﹚笰ノ
RPRNMLLMIILFFEQ98CA,ニ瓾琿,312.00,獶常カ笰穨跋 ; 獶常カ絪﹚笰ノ
RPSNMLLMIILFFEQ09CA,ニ瓾琿,94.75,獶常カ笰穨跋 ; 獶常カ絪﹚ユ硄ノ
RPSNMLLMIILFFEQ09CA,ニ瓾琿,5.50,獶常カ笰穨跋 ; 獶常カ絪﹚ユ硄ノ
RPSNMLLLJILFFEQ09CA,ず聕琿,37.29,常カ
RPSNMLLLJILFFEQ09CA,ず聕琿,1.78,常カㄤ
RPQNMLLMIILFFBQ68DA,忱糳琿,315.85,獶常カ笰穨跋 ; 獶常カ絪﹚緄崔ノ
RPXNMLLMIILFFBQ76DA,盵琿,81.43,獶常カ笰穨跋 ; 獶常カ絪﹚ヒ贺縱ノ
RPPNMLTKJILFFDQ76CA,陈糳琿,148.24,常カ
RPSNMLOLJILFFDQ66CA,琱狶琿琱狶琿,1970.00,獶常カ疭﹚笰穨跋 ; 獶常カ絪﹚笰ノ
RPPNMLLMIILFFDQ68CA,古玂琿,111.71,常カ
RPQNMLLMIILFFDQ78CA,古玂琿,113.95,常カ
RPQNMLNJJILFFCQ68CA,狥篴琿,17.04,常カ坝
RPRNMLRKJILFFCQ66CA,兼┏琿兼┏琿,58.57,常カ
RPRNMLRKJILFFCQ66CA,兼┏琿兼┏琿,.44,常カ
RPUNMLSLIILFFBQ96CA,盵琿狥盵琿,255.64,獶常カ秏跋 ; 獶常カ絪﹚贺縱ノ
RPPNMLTLIILFFBQ56CA,梖糳琿,57.83,獶常カ秏跋 ; 獶常カ絪﹚贺縱ノ
RPPNMLTLIILFFBQ56CA,梖糳琿,70.50,獶常カ秏跋 ; 獶常カ絪﹚贺縱ノ
RPPNMLTLIILFFBQ56CA,梖糳琿,13.67,獶常カ笰穨跋 ; 獶常カ絪﹚ノ
RPPNMLTLIILFFBQ56CA,梖糳琿,6.67,獶常カ秏跋 ; 獶常カ絪﹚贺縱ノ
RPRNMLLJJILFFBQ48CA,ゅて琿,88.34,常カ
RPRNMLLJJILFFBQ48CA,ゅて琿,23.26,常カ
RPRNMLTJJILFFBQ66CA,鶤穧琿腐琿,69.00,獶常カ疭﹚笰穨跋 ; 獶常カ絪﹚ヒ贺縱ノ
RPRNMLTJJILFFBQ66CA,鶤穧琿腐琿,44.30,獶常カ疭﹚笰穨跋 ; 獶常カ絪﹚ヒ贺縱ノ
RPUNMLQKJILFFBQ76CA,紈砍琿,243.28,獶常カ疭﹚笰穨跋 ; 獶常カ絪﹚笰ノ
RPUNMLQKJILFFBQ76CA,紈砍琿,110.92,獶常カ疭﹚笰穨跋 ; 獶常カ絪﹚ノ
RPUNMLQKJILFFBQ76CA,匪琿,276.27,獶常カ秏跋 ; 獶常カ絪﹚贺縱ノ
RPSNMLLLJILFFBQ78CA,琿,16.16,常カ
RPTNMLLLJILFFBQ88CA,穝ネ琿,97.88,常カ
RPUNMLLLJILFFBQ98CA,春琿,144.37,常カ
RPSNMLLJJILFFBQ58CA,古扼琿,13.23,獶常カ秏跋 ; 獶常カ絪﹚贺縱ノ
RPWNMLQKJILFFCQ07CA,伦琿伦琿,2397.00,獶常カ疭﹚笰穨跋 ; 獶常カ絪﹚笰ノ
RPQNMLOJJILFFCQ78CA,村琿村狥琿,1213.00,獶常カ疭﹚笰穨跋 ; 獶常カ絪﹚笰ノ
RPUOMLMJJILFFCQ09CA,穝瓾琿,185.15,獶常カ疭﹚盡ノ跋 ; 獶常カ絪﹚ヒ贺縱ノ
RPPOMLMJJILFFCQ58CA,褐琿,76.21,常カ
RPQOMLMJJILFFCQ68CA,墩琿墩琿,5697.00,獶常カ疭﹚笰穨跋 ; 獶常カ絪﹚笰ノ
RPROMLMJJILFFCQ78CA,チ动琿,706.30,常カ笰
RPROMLMJJILFFCQ78CA,チ动琿,496.84,常カ笰
RPSOMLMJJILFFCQ88CA,狥狶琿,6.99,常カ
RPWNMLRJJILFFDQ17CA,古び琿,23.64,常カ
RPWNMLRJJILFFDQ17CA,古び琿,76.87,常カ
RPWNMLRJJILFFDQ17CA,古び琿,.28,常カ
RPXNMLRJJILFFDQ27CA,古び琿,128.95,常カ
RPUNMLOLJILFFDQ86CA,竡琿,99.89,獶常カ秏跋 ; 獶常カ絪﹚贺縱ノ
RPUNMLOLJILFFDQ86CA,竡琿,102.52,獶常カ秏跋 ; 獶常カ絪﹚贺縱ノ
RPUNMLOLJILFFDQ86CA,竡琿,67.69,獶常カ秏跋 ; 獶常カ絪﹚贺縱ノ
RPPNMLSKJILFFEQ76CA,宾玭琿,26.00,常カ
RPUNMLPKJILFFDQ96DA,チネ琿,71.10,獶常カ秏跋 ; 獶常カ絪﹚贺縱ノ
RPPNMLMJJILFFCQ58DA,穝绍琿,98.30,常カ笰
RPPNMLNJJILFFCQ78EA,肪璉琿,1.00,獶常カ秏跋 ; 獶常カ絪﹚贺縱ノ
RPPNMLNJJILFFCQ78EA,肪璉琿,75.00,獶常カ秏跋 ; 獶常カ絪﹚贺縱ノ
RPPNMLNJJILFFEQ98EA,芖琿,4258.24,獶常カ笰穨跋 ; 獶常カ絪﹚笰ノ
