絪腹,跋琿竚,簿锣縩キよそへ,ㄏノだ跋┪絪﹚
RPSNMLPJQHLFFAU47CC,狶此琿,2496.00,常カ
RPOOMLPJQHLFFAU17CC,碔瓣琿,4.24,常カ
RPOOMLPJQHLFFAU17CC,碔瓣琿,4.24,常カ
RPRNMLSJQHLFFAU77DC,紋伦琿,1.00,常カ
RPRNMLSJQHLFFAU77DC,紋伦琿,157.00,常カ
RPOOMLTJQHLFFAU57CC,チㄉ琿,9.59,常カ坝
RPROMLKKQHLFFAU07CC,約琿,90.05,獶常カ秏跋 ; 獶常カ絪﹚贺縱ノ
RPQNMLQKQHLFFAU47CC,砍琿,795.74,常カ
RPVOMLQKQHLFFAU08CC,チネ琿,40.00,常カ坝
RPQNMLRKQHLFFAU57CC,碔瓣琿,11.69,常カ
RPVNMLNLQHLFFAU77CC,褐不琿,113.00,常カ
RPSNMLQLQHLFFAU87DC,稯磃琿,113.10,常カ
RPQNMLRLQHLFFAU67CC,舦琿,248.00,常カ坝
RPTNMLTLQHLFFAU18CC,瓣琿,86.00,常カ
RPSNMLLJRHLFFAU17CC,攫琿,3.14,常カㄤ
RPRNMLQJRHLFFAU57CC,攫狶琿,84.47,獶常カ笰穨跋 ; 獶常カ絪﹚ヒ贺縱ノ
RPWNMLSJRHLFFAU48EC,肝チ琿,10.48,常カ坝
RPUOMLTJRHLFFAU48EC,瓣琿,94.00,常カ坝
RPPNMLTJRHLFFAU67CC,紋伦琿,84.00,常カ
RPRNMLTJRHLFFAU87CC,厩琿,18.06,常カ
RPTNMLTJRHLFFAU08CC,蝴琿,60.68,常カ笰
RPTNMLTJRHLFFAU08CC,蝴琿,.91,常カ笰
RPTNMLTJRHLFFAU08CC,蝴琿,2.33,常カㄤ
RPSNMLMKRHLFFAU37CC,稯琿,90.60,常カ
RPVNMLMKRHLFFAU67CC,碔瓣琿,8.14,常カ
RPUNMLNKRHLFFAU77DC,碔瓣琿,8.06,常カ
RPPNMLTKRHLFFAU77CC,狶此琿,67.00,常カ
RPSNMLTKRHLFFAU08CC,狶此琿,25.08,常カ
RPTNMLTKRHLFFAU18CC,狶此琿,102.00,常カ
RPVNMLTKRHLFFAU38CC,舦琿,15.25,常カ坝
RPUOMLTKRHLFFAU38CC,碔瓣琿,2.84,常カ坝
RPUOMLKLRHLFFAU57CC,稯磃琿,141.27,常カ
RPRNMLLLRHLFFAU27CC,褐不琿,66.00,常カ
RPXNMLLLRHLFFAU87CC,チネ琿,9.33,常カ坝
RPTNMLLLRHLFFAU57DC,眏琿,154.67,常カ
RPQNMLMLRHLFFAU27CC,く㎝琿,105.20,常カ笰
RPSNMLMLRHLFFAU47CC,古穝琿,150.00,常カ
RPQNMLTLRHLFFAU97CC,碔瓣琿,8.51,常カ
RPQOMLNJIILFFAU09CC,褐不琿,88.00,常カ
RPPOMLPJIILFFAU56CC,狶此琿,2.27,常カ
RPPOMLPJIILFFAU56CC,狶此琿,4.25,常カ
RPPOMLPJIILFFAU56CC,狶此琿,8.35,常カ
RPOOMLQJIILFFAU76EC,紈琿,27.72,常カ
RPPNMLKKIILFFAU78DC,褐不琿,68.00,常カ
RPSNMLLKIILFFAU56DC,碔瓣琿,2.67,常カ坝
RPRNMLMKIILFFAU09CC,狶此琿,2.27,常カ
RPRNMLMKIILFFAU09CC,狶此琿,4.25,常カ
RPRNMLMKIILFFAU09CC,狶此琿,8.35,常カ
RPSNMLOKIILFFAU86DC,缠穛琿,115.00,常カ
RPOOMLSKIILFFAU96DC,褐不琿,30.03,常カ
RPSOMLTKIILFFAU37CC,狶此琿,190.00,常カ
RPTNMLLLIILFFAU66CC,貉冻琿,36.00,常カ
RPTNMLLLIILFFAU66CC,貉冻琿,32.61,常カ
RPUNMLLLIILFFAU76CC,古琿,68.00,常カ
RPVNMLLLIILFFAU86CC,狶此琿,19.00,常カ
RPWNMLLLIILFFAU07DC,貉冻琿,99.00,常カ
RPXNMLOLIILFFAU47DC,貉冻琿,191.00,常カ
RPPNMLOLIILFFAU56CC,碔瓣琿,212.00,常カ
RPOOMLPLIILFFAU86EC,稯磃琿,83.87,常カ
RPPOMLPLIILFFAU96EC,坝琿,59.00,常カ
RPPOMLPLIILFFAU96EC,坝琿,2.00,常カㄤ
RPPNMLRLIILFFAU86CC,舦琿,34.98,常カ
RPPNMLRLIILFFAU86CC,紈琿,.32,常カ
